contour_details : [1095 2075],[1095 2394],[1449 2394],[1449 2075] : repas : [1340,2252]
contour_details : [655 1855],[655 2394],[1029 2394],[1029 2360],[1030 2359],[1074 2359],[1074 2060],[1075 2059],[1259 2059],[1259 1855] : sejour : [868,2110]
contour_details : [1220 1115],[1220 1384],[1219 1385],[1010 1385],[1010 1489],[1124 1489],[1125 1490],[1125 1839],[1254 1839],[1254 1645],[1255 1644],[1449 1644],[1449 1465],[1325 1465],[1324 1464],[1324 1115] : hall : [1278,1566]
