Total No of Rooms: 7
single : room 1 : maybe closet : [1248,1672] : contour_details : [1161 1632],[1161 1668],[1162 1669],[1162 1704],[1363 1704],[1363 1632]

single : room 2 : maybe bedroom 3 : [1869,1701] : contour_details : [1710 1495],[1710 2042],[1844 2042],[1845 2041],[2059 2041],[2059 1572],[1808 1572],[1807 1571],[1807 1495]

single : room 3 : maybe bedroom 2 : [1580,1695] : contour_details : [1605 1494],[1604 1495],[1373 1495],[1373 1706],[1374 1707],[1374 1713],[1373 1714],[1373 2042],[1478 2042],[1479 2041],[1618 2041],[1619 2042],[1702 2042],[1702 1494]

single : room 4 : maybe bathroom : [1972,1412] : contour_details : [1816 1283],[1816 1381],[1817 1382],[1817 1388],[1816 1389],[1815 1389],[1815 1487],[1816 1488],[1816 1564],[2059 1564],[2059 1482],[2060 1481],[2061 1481],[2061 1411],[2062 1410],[2062 1283]

single : room 5 : garage : [1349,780] : contour_details : [948 592],[948 674],[947 675],[947 956],[966 956],[967 957],[967 1003],[1081 1003],[1082 1002],[1181 1002],[1182 1003],[1642 1003],[1642 803],[1643 802],[1660 802],[1660 732],[1661 731],[1661 592]

open : plan 1-room 6 : kitchen : [1219, 1837] : contour_details : [ 888 1716],[ 889 1715],[1363 1715],[1364 1716],[1364 2041],[1363 2042],[ 889 2042],[ 888 2041]

open : plan 1-room 7 : entry : [1148, 1565] : contour_details : [ 888 1526],[ 889 1525],[1363 1525],[1364 1526],[1364 1628],[1363 1629],[1152 1629],[1151 1630],[1151 1705],[1150 1706],[ 889 1706],[ 888 1705]

open : plan 1-room 8 : dining : [618, 1925] : contour_details : [ 481 1525],[ 885 1525],[ 886 1526],[ 886 2300],[ 885 2301],[ 324 2301],[ 323 2300],[ 323 1684],[ 435 1572],[ 435 1571]

open : plan 2-room 9 : corridor : [1472, 1429] : contour_details : [1653 1383],[1654 1382],[1747 1382],[1748 1383],[1748 1389],[1749 1390],[1804 1390],[1805 1391],[1805 1484],[1804 1485],[ 970 1485],[ 969 1484],[ 969 1476],[ 968 1475],[ 965 1475],[ 964 1474],[ 966 1472],[ 967 1472],[ 982 1457],[ 983 1457],[ 997 1443],[ 998 1443],[1013 1428],[1014 1428],[1023 1419],[1061 1419],[1062 1418],[1062 1411],[1083 1390],[1652 1390],[1653 1389]

open : plan 2-room 10 : toilet : [1690, 1335] : contour_details : [1644 1285],[1645 1284],[1806 1284],[1807 1285],[1807 1380],[1806 1381],[1653 1381],[1652 1380],[1645 1380],[1644 1379]

open : plan 2-room 11 : bedroom 1 : [1442, 1188] : contour_details : [1191 1031],[1192 1030],[1641 1030],[1642 1031],[1642 1379],[1641 1380],[1192 1380],[1191 1379]

open : plan 2-room 12 : cellar : [1086, 1176] : contour_details : [ 968 1030],[ 969 1029],[1179 1029],[1180 1030],[1180 1387],[1179 1388],[1085 1388],[1069 1372],[1068 1372],[1061 1365],[1061 1346],[1060 1345],[1042 1345],[1021 1324],[1021 1323],[ 968 1270]

