Window : [2136,788],[2161,788],[2161,1261],[2136,1261] : [1] 
Window : [2331,2441],[2374,2441],[2374,2513],[2331,2513] : [1] 
Window : [1169,2506],[1310,2506],[1310,2550],[1169,2550] : [1] 
Window : [276,1744],[319,1744],[319,2029],[276,2029] : [1] 
Window : [2049,2978],[2190,2978],[2190,3021],[2049,3021] : [1] 
Window : [1589,2978],[1729,2978],[1729,3021],[1589,3021] : [1] 
Window : [1031,2466],[1076,2466],[1076,2506],[1031,2506] : [1] 
Window : [396,2175],[678,2175],[678,2219],[396,2219] : [1] 
Window : [1404,936],[1429,936],[1429,1208],[1404,1208] : [1] 
Window : [2331,2063],[2375,2063],[2375,2206],[2331,2206] : [1] 
Window : [2136,1443],[2161,1443],[2161,1515],[2136,1515] : [1] 
Window : [1022,1555],[1162,1555],[1162,1598],[1022,1598] : [1] 
