Total No of Rooms: 6
single : room 1 : maybe closet : [1351,1863] : contour_details : [1400 1761],[1399 1762],[1398 1762],[1396 1764],[1395 1764],[1392 1767],[1391 1767],[1389 1769],[1388 1769],[1386 1771],[1385 1771],[1382 1774],[1381 1774],[1379 1776],[1378 1776],[1375 1779],[1374 1779],[1372 1781],[1371 1781],[1369 1783],[1368 1783],[1365 1786],[1364 1786],[1362 1788],[1361 1788],[1358 1791],[1357 1791],[1355 1793],[1354 1793],[1352 1795],[1351 1795],[1348 1798],[1347 1798],[1345 1800],[1344 1800],[1342 1802],[1341 1802],[1338 1805],[1337 1805],[1335 1807],[1334 1807],[1331 1810],[1330 1810],[1328 1812],[1327 1812],[1325 1814],[1324 1814],[1321 1817],[1320 1817],[1318 1819],[1317 1819],[1314 1822],[1313 1822],[1308 1827],[1307 1827],[1305 1829],[1305 1931],[1400 1931]

single : room 2 : unknown room : [773,1751] : contour_details : [751 1729],[751 1773],[795 1773],[795 1729]

single : room 3 : maybe cellar : [1637,1626] : contour_details : [1489 1539],[1488 1540],[1411 1540],[1411 1721],[1486 1721],[1487 1720],[1740 1720],[1740 1541],[1580 1541],[1579 1540],[1579 1539]

single : room 4 : maybe dining : [980,2016] : contour_details : [1353 1539],[1352 1540],[1305 1540],[1305 1621],[1304 1622],[1298 1622],[1297 1621],[1200 1621],[1199 1622],[1086 1622],[1086 1721],[1087 1721],[1088 1722],[1088 1728],[1087 1729],[804 1729],[804 1782],[803 1783],[751 1783],[751 1964],[750 1965],[749 1965],[749 2104],[750 2105],[750 2351],[989 2351],[990 2352],[1150 2352],[1151 2351],[1386 2351],[1386 2342],[1387 2341],[1389 2341],[1389 2235],[1390 2234],[1390 2226],[1386 2226],[1385 2225],[1385 2182],[1386 2181],[1516 2181],[1517 2180],[1722 2180],[1722 2008],[1723 2007],[1723 2000],[1724 1999],[1724 1992],[1725 1991],[1725 1984],[1726 1983],[1726 1976],[1727 1975],[1727 1968],[1728 1967],[1728 1960],[1729 1959],[1729 1952],[1730 1951],[1730 1944],[1731 1943],[1731 1937],[1732 1936],[1732 1929],[1733 1928],[1733 1921],[1734 1920],[1734 1913],[1735 1912],[1735 1905],[1736 1904],[1736 1897],[1737 1896],[1737 1889],[1738 1888],[1738 1881],[1739 1880],[1739 1873],[1740 1872],[1740 1730],[1586 1730],[1585 1729],[1585 1728],[1489 1728],[1488 1729],[1411 1729],[1411 1940],[1410 1941],[1404 1941],[1403 1940],[1403 1934],[1402 1935],[1303 1935],[1301 1933],[1301 1827],[1303 1825],[1304 1825],[1309 1820],[1310 1820],[1314 1816],[1315 1816],[1317 1814],[1318 1814],[1320 1812],[1321 1812],[1324 1809],[1325 1809],[1327 1807],[1328 1807],[1330 1805],[1331 1805],[1334 1802],[1335 1802],[1337 1800],[1338 1800],[1341 1797],[1342 1797],[1344 1795],[1345 1795],[1347 1793],[1348 1793],[1351 1790],[1352 1790],[1354 1788],[1355 1788],[1358 1785],[1359 1785],[1361 1783],[1362 1783],[1364 1781],[1365 1781],[1367 1779],[1366 1780],[1365 1780],[1363 1782],[1362 1782],[1360 1784],[1359 1784],[1357 1786],[1356 1786],[1355 1787],[1354 1787],[1352 1789],[1351 1789],[1349 1791],[1348 1791],[1346 1793],[1345 1793],[1344 1794],[1343 1794],[1341 1796],[1340 1796],[1338 1798],[1337 1798],[1336 1799],[1335 1799],[1333 1801],[1332 1801],[1330 1803],[1329 1803],[1327 1805],[1326 1805],[1325 1806],[1324 1806],[1322 1808],[1321 1808],[1319 1810],[1318 1810],[1316 1812],[1315 1812],[1314 1813],[1313 1813],[1311 1815],[1310 1815],[1308 1817],[1307 1817],[1306 1818],[1305 1818],[1303 1820],[1302 1820],[1300 1822],[1299 1822],[1297 1824],[1296 1824],[1295 1825],[1294 1825],[1292 1827],[1291 1827],[1291 1938],[1290 1939],[1192 1939],[1191 1938],[1191 1729],[1185 1729],[1184 1728],[1184 1722],[1185 1721],[1403 1721],[1403 1540],[1397 1540],[1396 1539]

single : room 5 : maybe bathroom : [1200,1402] : contour_details : [1087 1256],[1087 1614],[1197 1614],[1198 1613],[1297 1613],[1297 1540],[1296 1539],[1296 1496],[1297 1495],[1297 1257],[1226 1257],[1225 1256]

single : room 6 : maybe bedroom 1 : [912,1437] : contour_details : [750 1256],[750 1379],[749 1380],[749 1520],[750 1520],[751 1521],[751 1721],[1077 1721],[1077 1615],[1078 1614],[1078 1256]

