Wall : [627,1793],[971,1793],[971,1835],[627,1835] : [1] 
Wall : [1536,1792],[1680,1792],[1680,1835],[1536,1835] : [1] 
Wall : [1111,1793],[1397,1793],[1397,1835],[1111,1835] : [1] 
Wall : [2724,518],[2766,518],[2766,606],[2724,606] : [1] 
Wall : [2724,890],[2766,890],[2766,972],[2724,972] : [1] 
Wall : [509,884],[1042,884],[1042,926],[509,926] : [1] 
Wall : [2370,1052],[2411,1052],[2411,1150],[2370,1150] : [1] 
Wall : [510,884],[551,884],[551,1376],[510,1376] : [1] 
Wall : [1638,1711],[1679,1711],[1679,1835],[1638,1835] : [1] 
Wall : [627,1437],[669,1437],[669,1835],[627,1835] : [1] 
Wall : [1956,518],[2767,518],[2767,559],[1956,559] : [1] 
Wall : [1796,1327],[1952,1327],[1952,1368],[1796,1368] : [1] 
Wall : [1242,518],[1283,518],[1283,760],[1242,760] : [1] 
Wall : [1389,518],[1781,518],[1781,559],[1389,559] : [1] 
Wall : [2233,1326],[2412,1326],[2412,1368],[2233,1368] : [1] 
Wall : [1235,854],[1276,854],[1276,925],[1235,925] : [1] 
Wall : [2492,931],[2767,931],[2767,972],[2492,972] : [1] 
Wall : [1638,1161],[1678,1161],[1678,1380],[1638,1380] : [1] 
Wall : [2370,1244],[2411,1244],[2411,1368],[2370,1368] : [1] 
Wall : [1637,1451],[1679,1451],[1679,1533],[1637,1533] : [1] 
Wall : [2402,1023],[2463,1023],[2463,1056],[2402,1056] : [1] 
Wall : [1117,884],[1149,884],[1149,1167],[1117,1167] : [1] 
Wall : [2541,961],[2512,931],[2370,1073],[2399,1103] : [1] 
Wall : [1260,863],[1244,855],[1217,917],[1233,925] : [1] 
Wall : [1111,885],[1155,885],[1155,908],[1111,908] : [1] 
Wall : [1637,1326],[1692,1326],[1692,1369],[1637,1369] : [1] 
Wall : [1223,886],[1284,886],[1284,907],[1223,907] : [1] 
Wall : [1241,518],[1296,518],[1296,541],[1241,541] : [1] 
Wall : [635,1428],[643,1428],[643,1835],[635,1835] : [1] 
Wall : [1124,1628],[1130,1628],[1130,1835],[1124,1835] : [1] 
Wall : [534,884],[541,884],[541,1385],[534,1385] : [1] 
Wall : [882,884],[888,884],[888,1061],[882,1061] : [1] 
Wall : [553,1373],[557,1369],[512,1334],[509,1338] : [1] 
Wall : [509,1348],[564,1348],[564,1356],[509,1356] : [1] 
Wall : [613,1457],[1025,1457],[1025,1463],[613,1463] : [1] 
Wall : [607,1444],[663,1444],[663,1457],[607,1457] : [1] 
Wall : [1241,742],[1680,742],[1680,748],[1241,748] : [1] 
Wall : [1229,910],[1284,910],[1284,919],[1229,919] : [1] 
Wall : [1277,860],[1283,860],[1283,925],[1277,925] : [1] 
Wall : [1449,1161],[1680,1161],[1680,1167],[1449,1167] : [1] 
Wall : [1306,1457],[1680,1457],[1680,1463],[1306,1463] : [1] 
Wall : [2445,1057],[2450,1053],[2382,984],[2377,988] : [1] 
Wall : [881,1161],[1243,1161],[1243,1167],[881,1167] : [1] 
Wall : [1236,884],[1242,884],[1242,1061],[1236,1061] : [1] 
Wall : [1123,1628],[1208,1628],[1208,1634],[1123,1634] : [1] 
Wall : [1672,659],[1679,659],[1679,955],[1672,955] : [1] 
Wall : [1457,1167],[1452,1161],[1344,1270],[1349,1276] : [1] 
Wall : [1342,1374],[1348,1374],[1348,1463],[1342,1463] : [1] 
Wall : [2386,989],[2382,985],[2340,1025],[2344,1030] : [1] 
Wall : [882,1161],[888,1161],[888,1279],[882,1279] : [1] 
Wall : [1235,1055],[1680,1055],[1680,1061],[1235,1061] : [1] 
Wall : [1201,1457],[1208,1457],[1208,1634],[1201,1634] : [1] 
Wall : [881,1274],[1243,1274],[1243,1279],[881,1279] : [1] 
Wall : [1123,1457],[1208,1457],[1208,1463],[1123,1463] : [1] 
Wall : [1235,1274],[1242,1274],[1242,1356],[1235,1356] : [1] 
Wall : [999,1274],[1007,1274],[1007,1356],[999,1356] : [1] 
Wall : [551,1003],[881,1003],[881,999],[551,999] : [1] 
Wall : [1006,1357],[1235,1357],[1235,1353],[1006,1353] : [1] 
Wall : [1122,1627],[1125,1626],[1124,1462],[1121,1463] : [1] 
