Total No of Rooms: 4
single : room 1 : unknown room : [1397,1459] : contour_details : [1354 1408],[1353 1409],[1353 1507],[1354 1508],[1446 1508],[1447 1507],[1447 1503],[1446 1502],[1446 1494],[1445 1493],[1445 1485],[1444 1484],[1444 1476],[1443 1475],[1443 1467],[1442 1466],[1442 1459],[1441 1458],[1441 1450],[1440 1449],[1440 1441],[1439 1440],[1439 1432],[1438 1431],[1438 1423],[1437 1422],[1437 1414],[1436 1413],[1436 1409],[1435 1408]

open : plan 1-room 2 : closet : [1461, 1745] : contour_details : [1427 1701],[1428 1700],[1494 1700],[1495 1701],[1495 1795],[1494 1796],[1467 1796],[1466 1795],[1428 1795],[1427 1794]

open : plan 1-room 3 : toilet : [1553, 1709] : contour_details : [1526 1656],[1527 1655],[1528 1655],[1530 1657],[1531 1657],[1532 1658],[1533 1658],[1534 1659],[1535 1659],[1536 1660],[1537 1660],[1538 1661],[1539 1661],[1541 1663],[1542 1663],[1543 1664],[1544 1664],[1545 1665],[1546 1665],[1547 1666],[1548 1666],[1549 1667],[1550 1667],[1552 1669],[1553 1669],[1554 1670],[1555 1670],[1556 1671],[1557 1671],[1558 1672],[1559 1672],[1561 1674],[1562 1674],[1563 1675],[1564 1675],[1565 1676],[1566 1676],[1567 1677],[1568 1677],[1569 1678],[1570 1678],[1572 1680],[1573 1680],[1574 1681],[1575 1681],[1576 1682],[1577 1682],[1578 1683],[1579 1683],[1580 1684],[1581 1684],[1583 1686],[1584 1686],[1586 1688],[1586 1734],[1583 1737],[1582 1737],[1581 1738],[1580 1738],[1578 1740],[1577 1740],[1576 1741],[1576 1753],[1577 1754],[1581 1750],[1581 1749],[1585 1745],[1586 1746],[1586 1797],[1585 1798],[1547 1798],[1546 1797],[1507 1797],[1506 1796],[1498 1796],[1497 1795],[1497 1756],[1498 1755],[1499 1756],[1509 1756],[1510 1755],[1510 1701],[1511 1700],[1514 1700],[1516 1698],[1517 1698],[1521 1694],[1521 1676],[1526 1671]

open : plan 2-room 4 : kitchen : [1543, 2105] : contour_details : [1301 1318],[1302 1317],[1534 1317],[1535 1318],[1535 1533],[1536 1534],[1659 1534],[1660 1535],[1660 1670],[1659 1671],[1606 1671],[1605 1672],[1605 1717],[1606 1718],[1658 1718],[1659 1719],[1659 1795],[1658 1796],[1608 1796],[1607 1797],[1607 1807],[1608 1808],[1658 1808],[1659 1809],[1659 2309],[1658 2310],[1328 2310],[1327 2309],[1327 1808],[1328 1807],[1482 1807],[1484 1805],[1484 1804],[1485 1803],[1486 1804],[1588 1804],[1589 1803],[1589 1683],[1588 1682],[1587 1682],[1586 1681],[1584 1681],[1583 1680],[1582 1680],[1581 1679],[1580 1679],[1579 1678],[1578 1678],[1577 1677],[1576 1677],[1575 1676],[1573 1676],[1572 1675],[1571 1675],[1570 1674],[1569 1674],[1568 1673],[1567 1673],[1566 1672],[1564 1672],[1563 1671],[1562 1671],[1561 1670],[1560 1670],[1559 1669],[1558 1669],[1557 1668],[1555 1668],[1554 1667],[1553 1667],[1552 1666],[1551 1666],[1550 1665],[1549 1665],[1548 1664],[1546 1664],[1545 1663],[1544 1663],[1543 1662],[1542 1662],[1541 1661],[1540 1661],[1539 1660],[1538 1660],[1537 1659],[1535 1659],[1534 1658],[1533 1658],[1532 1657],[1531 1657],[1530 1656],[1529 1656],[1528 1655],[1526 1655],[1525 1654],[1524 1654],[1523 1653],[1522 1653],[1521 1652],[1520 1653],[1520 1657],[1515 1662],[1515 1679],[1514 1680],[1514 1683],[1513 1684],[1513 1686],[1512 1687],[1512 1689],[1511 1690],[1511 1695],[1510 1696],[1505 1696],[1504 1697],[1504 1710],[1503 1711],[1502 1710],[1502 1697],[1501 1696],[1422 1696],[1421 1697],[1421 1795],[1420 1796],[1327 1796],[1326 1795],[1326 1692],[1325 1691],[1302 1691],[1301 1690]

open : plan 2-room 5 : dining : [1136, 1869] : contour_details : [ 872 1318],[ 873 1317],[1298 1317],[1299 1318],[1299 2308],[1298 2309],[ 873 2309],[ 872 2308]

open : plan 3-room 6 : cellar : [1693, 1349] : contour_details : [1563 1274],[1564 1273],[1823 1273],[1824 1274],[1824 1505],[1823 1506],[1564 1506],[1563 1505]

open : plan 3-room 7 : garage : [1441, 1007] : contour_details : [1073  686],[1074  685],[1823  685],[1824  686],[1824 1270],[1823 1271],[1233 1271],[1232 1270],[1232 1238],[1231 1237],[1158 1237],[1157 1238],[1157 1270],[1156 1271],[1074 1271],[1073 1270]

