Door : [995,1366],[1076,1366],[1076,1373],[995,1373] : [1] 
Door : [1083,1029],[1177,1029],[1177,1036],[1083,1036] : [1] 
Door : [1185,1035],[1193,1035],[1193,1148],[1185,1148] : [1] 
Door : [760,1062],[767,1062],[767,1157],[760,1157] : [1] 
Door : [742,1384],[768,1384],[768,1485],[742,1485] : [1] 
Door : [749,1614],[774,1614],[774,1715],[749,1715] : [1] 
Door : [878,1245],[885,1245],[885,1340],[878,1340] : [1] 
Door : [768,1266],[768,1352],[787,1352],[787,1266] : [1] 
