Door : [1450,1490],[1549,1490],[1549,1527],[1450,1527] : [1] 
Door : [1208,1679],[1307,1679],[1307,1701],[1208,1701] : [1] 
Door : [1306,1703],[1313,1703],[1313,1804],[1306,1804] : [1] 
Door : [1230,2040],[1255,2040],[1255,2141],[1230,2141] : [1] 
Door : [1691,2311],[1701,2311],[1701,2407],[1691,2407] : [1] 
Door : [1927,1803],[1970,1803],[1970,1899],[1927,1899] : [1] 
Door : [955,1705],[1153,1701],[1153,1665],[955,1661] : [0.4] 
Door : [1726,2028],[1741,2045],[1802,1987],[1787,1970] : [1] 
Door : [1034,1810],[1034,1905],[1057,1905],[1057,1810] : [0.866666666667] 
