Total No of Rooms: 9
single : room 1 : maybe closet : [704,1549] : contour_details : [662 1511],[662 1549],[663 1550],[663 1588],[734 1588],[734 1511]

single : room 2 : maybe closet : [1538,1401] : contour_details : [1377 1369],[1377 1373],[1376 1374],[1376 1404],[1377 1405],[1377 1440],[1668 1440],[1668 1369]

single : room 3 : maybe closet : [664,1218] : contour_details : [557 1192],[557 1238],[758 1238],[758 1192]

single : room 4 : maybe closet : [1157,1256] : contour_details : [1117 1156],[1117 1260],[1118 1261],[1118 1364],[1189 1364],[1189 1156]

single : room 5 : unknown room : [996,1260] : contour_details : [886 1155],[886 1246],[885 1247],[885 1339],[886 1340],[886 1366],[994 1366],[995 1365],[1075 1365],[1076 1366],[1108 1366],[1108 1155]

single : room 6 : unknown room : [1430,1201] : contour_details : [1193 1037],[1193 1147],[1194 1148],[1194 1154],[1193 1155],[1193 1366],[1373 1366],[1374 1365],[1670 1365],[1670 1346],[1669 1345],[1669 1133],[1670 1132],[1670 1038],[1540 1038],[1539 1037]

single : room 7 : maybe office : [605,935] : contour_details : [527 800],[527 801],[526 802],[432 802],[432 1188],[760 1188],[760 1157],[759 1156],[759 1062],[760 1061],[760 1037],[759 1036],[759 1030],[760 1029],[760 801],[666 801],[665 800]

single : room 8 : maybe bedroom 2 : [1347,793] : contour_details : [1075 701],[1075 1029],[1082 1029],[1083 1028],[1539 1028],[1539 994],[1540 993],[1540 915],[1539 914],[1539 773],[1540 772],[1540 701]

open : plan 1-room 9 : terrace : [692, 2771] : contour_details : [ 468 2586],[ 469 2585],[ 899 2585],[ 900 2586],[1018 2586],[1019 2587],[1137 2587],[1138 2588],[1254 2588],[1255 2589],[1255 2934],[1254 2935],[ 469 2935],[ 468 2934]

open : plan 1-room 10 : dining : [750, 2328] : contour_details : [ 468 2283],[ 469 2282],[ 532 2282],[ 533 2283],[ 598 2283],[ 599 2284],[ 664 2284],[ 665 2285],[ 729 2285],[ 730 2286],[ 795 2286],[ 796 2287],[ 861 2287],[ 862 2288],[ 927 2288],[ 928 2289],[ 992 2289],[ 993 2290],[1058 2290],[1059 2291],[1124 2291],[1125 2292],[1190 2292],[1191 2293],[1254 2293],[1255 2294],[1255 2586],[1254 2587],[1138 2587],[1137 2586],[1019 2586],[1018 2585],[ 900 2585],[ 899 2584],[ 783 2584],[ 782 2583],[ 782 2541],[ 781 2540],[ 469 2540],[ 468 2539]

open : plan 1-room 11 : living : [1132, 1880] : contour_details : [ 558 1742],[ 559 1741],[ 833 1741],[ 834 1742],[ 892 1742],[ 893 1743],[ 951 1743],[ 952 1744],[1010 1744],[1011 1745],[1069 1745],[1070 1746],[1129 1746],[1130 1747],[1188 1747],[1189 1748],[1247 1748],[1248 1749],[1306 1749],[1307 1750],[1365 1750],[1366 1751],[1366 1901],[1365 1902],[1365 2291],[1364 2292],[1191 2292],[1190 2291],[1125 2291],[1124 2290],[1059 2290],[1058 2289],[ 994 2289],[ 993 2288],[ 928 2288],[ 927 2287],[ 862 2287],[ 861 2286],[ 796 2286],[ 795 2285],[ 731 2285],[ 730 2284],[ 665 2284],[ 664 2283],[ 599 2283],[ 598 2282],[ 533 2282],[ 532 2281],[ 469 2281],[ 468 2280],[ 468 2198],[ 469 2197],[ 557 2197],[ 558 2196]

open : plan 1-room 12 : terrace : [1573, 1661] : contour_details : [1377 1500],[1378 1499],[1386 1499],[1387 1500],[1387 1504],[1388 1505],[1411 1505],[1417 1511],[1418 1511],[1429 1522],[1430 1522],[1440 1532],[1441 1532],[1451 1542],[1452 1542],[1462 1552],[1463 1552],[1474 1563],[1475 1563],[1485 1573],[1486 1573],[1496 1583],[1497 1583],[1507 1593],[1508 1593],[1519 1604],[1520 1604],[1530 1614],[1531 1614],[1541 1624],[1542 1624],[1553 1635],[1554 1635],[1564 1645],[1565 1645],[1575 1655],[1576 1655],[1586 1665],[1587 1665],[1598 1676],[1599 1676],[1609 1686],[1610 1686],[1620 1696],[1621 1696],[1631 1706],[1632 1706],[1643 1717],[1644 1717],[1654 1727],[1655 1727],[1665 1737],[1666 1737],[1676 1747],[1677 1747],[1688 1758],[1689 1758],[1699 1768],[1700 1768],[1710 1778],[1711 1778],[1721 1788],[1722 1788],[1733 1799],[1734 1799],[1744 1809],[1745 1809],[1755 1819],[1756 1819],[1766 1829],[1767 1829],[1778 1840],[1779 1840],[1789 1850],[1790 1850],[1800 1860],[1801 1860],[1804 1863],[1804 2291],[1803 2292],[1367 2292],[1366 2291],[1366 1902],[1367 1901],[1367 1506],[1368 1505],[1376 1505],[1377 1504]

open : plan 1-room 13 : kitchen : [1127, 1496] : contour_details : [ 887 1376],[ 888 1375],[1365 1375],[1366 1376],[1366 1748],[1365 1749],[1307 1749],[1306 1748],[1248 1748],[1247 1747],[1189 1747],[1188 1746],[1130 1746],[1129 1745],[1071 1745],[1070 1744],[1011 1744],[1010 1743],[ 952 1743],[ 951 1742],[ 893 1742],[ 892 1741],[ 888 1741],[ 887 1740]

open : plan 1-room 14 : toilet : [691, 1283] : contour_details : [ 558 1258],[ 559 1257],[ 759 1257],[ 760 1258],[ 760 1259],[ 761 1260],[ 766 1260],[ 767 1261],[ 767 1358],[ 766 1359],[ 559 1359],[ 558 1358]

open : plan 1-room 15 : corridor : [862, 1099] : contour_details : [ 769 1039],[ 770 1038],[1182 1038],[1183 1039],[1183 1145],[1182 1146],[ 878 1146],[ 877 1147],[ 877 1738],[ 876 1739],[ 875 1739],[ 874 1738],[ 871 1738],[ 870 1737],[ 867 1737],[ 866 1736],[ 863 1736],[ 862 1735],[ 859 1735],[ 858 1734],[ 855 1734],[ 854 1733],[ 851 1733],[ 850 1732],[ 847 1732],[ 846 1731],[ 843 1731],[ 842 1730],[ 839 1730],[ 838 1729],[ 835 1729],[ 834 1728],[ 831 1728],[ 830 1727],[ 827 1727],[ 826 1726],[ 823 1726],[ 822 1725],[ 819 1725],[ 818 1724],[ 815 1724],[ 814 1723],[ 811 1723],[ 810 1722],[ 807 1722],[ 806 1721],[ 803 1721],[ 802 1720],[ 799 1720],[ 798 1719],[ 795 1719],[ 794 1718],[ 791 1718],[ 790 1717],[ 787 1717],[ 786 1716],[ 783 1716],[ 782 1715],[ 779 1715],[ 778 1714],[ 776 1714],[ 775 1713],[ 775 1708],[ 776 1707],[ 857 1707],[ 858 1706],[ 858 1703],[ 857 1702],[ 857 1701],[ 855 1699],[ 855 1698],[ 853 1696],[ 853 1695],[ 851 1693],[ 851 1692],[ 848 1689],[ 848 1688],[ 846 1686],[ 846 1685],[ 844 1683],[ 844 1682],[ 842 1680],[ 842 1679],[ 840 1677],[ 840 1676],[ 838 1674],[ 838 1673],[ 836 1671],[ 836 1670],[ 834 1668],[ 834 1667],[ 832 1665],[ 832 1664],[ 829 1661],[ 829 1660],[ 827 1658],[ 827 1657],[ 825 1655],[ 825 1654],[ 823 1652],[ 823 1651],[ 821 1649],[ 821 1648],[ 819 1646],[ 819 1645],[ 817 1643],[ 817 1642],[ 815 1640],[ 815 1639],[ 812 1636],[ 812 1635],[ 810 1633],[ 810 1632],[ 808 1630],[ 808 1629],[ 806 1627],[ 806 1626],[ 804 1624],[ 777 1624],[ 776 1623],[ 776 1590],[ 775 1589],[ 740 1589],[ 739 1588],[ 739 1513],[ 740 1512],[ 768 1512],[ 769 1511],[ 769 1478],[ 770 1477],[ 851 1477],[ 852 1476],[ 849 1473],[ 849 1472],[ 840 1463],[ 840 1462],[ 831 1453],[ 831 1452],[ 822 1443],[ 822 1442],[ 812 1432],[ 812 1431],[ 803 1422],[ 803 1421],[ 794 1412],[ 794 1411],[ 785 1402],[ 785 1401],[ 776 1392],[ 776 1391],[ 770 1385],[ 770 1360],[ 769 1359]

open : plan 1-room 16 : bathroom : [989, 852] : contour_details : [881 703],[882 702],[1065  702],[1066  703],[1066 1027],[1065 1028],[ 951 1028],[ 950 1029],[ 950 1035],[ 949 1036],[ 863 1036],[ 862 1035],[ 862 1029],[ 861 1028],[ 770 1028],[ 769 1027],[769 704],[770 703]

