abrivoiture : [1241,397] : [1129,385,1354,410] : confidence,dict,original_word,difference : [91,DM,None,0]
bains : [1053,662] : [1007,650,1100,675] : confidence,dict,original_word,difference : [85,DM,None,0]
cellier : [1846,839] : [1780,827,1913,852] : confidence,dict,original_word,difference : [89,DM,None,0]
chambreparents : [1249,899] : [1089,887,1410,912] : confidence,dict,original_word,difference : [88,DM,None,0]
terrassecouverte : [895,986] : [808,954,982,1018] : confidence,dict,original_word,difference : [83,DM,None,0]
salletv : [2754,946] : [2672,934,2836,958] : confidence,dict,original_word,difference : [95,DM,None,0]
degt : [2022,1005] : [1975,993,2069,1018] : confidence,dict,original_word,difference : [93,DM,None,0]
vide : [2400,1005] : [2364,993,2437,1017] : confidence,dict,original_word,difference : [96,DM,None,0]
pl : [1773,1141] : [1751,1129,1795,1153] : confidence,dict,original_word,difference : [93,DM,None,0]
degt : [1981,1229] : [1935,1217,2027,1242] : confidence,dict,original_word,difference : [94,DM,None,0]
hall : [1655,1259] : [1616,1247,1694,1271] : confidence,dict,original_word,difference : [92,DM,None,0]
repas : [2389,1300] : [2336,1288,2442,1313] : confidence,dict,original_word,difference : [91,DM,None,0]
veranda 5 : [1283,1364] : [1247,1330,1319,1398] : confidence,dict,original_word,difference : [93,DM,None,0]
cuisine : [1837,1488] : [1774,1476,1901,1501] : confidence,dict,original_word,difference : [86,DM,None,0]
terrasse : [1712,1873] : [1626,1861,1798,1886] : confidence,dict,original_word,difference : [90,DM,None,0]
sejour : [2359,1908] : [2294,1896,2424,1921] : confidence,dict,original_word,difference : [90,DM,None,0]
No Text Detected
