Door : [1224,1194],[1331,1194],[1331,1236],[1224,1236] : [1] 
Door : [576,1631],[675,1631],[675,1657],[576,1657] : [1] 
Door : [752,2286],[782,2286],[782,2422],[752,2422] : [1] 
Door : [1496,1596],[1503,1596],[1503,1697],[1496,1697] : [1] 
Door : [813,2314],[814,2331],[907,2269],[879,2240] : [0.8] 
Door : [683,1846],[683,1931],[704,1931],[704,1846] : [0.866666666667] 
