Window : [1125,1194],[1202,1194],[1202,1249],[1125,1249] : [1] 
Window : [1833,1401],[1875,1401],[1875,1543],[1833,1543] : [1] 
Window : [1101,2145],[1242,2145],[1242,2187],[1101,2187] : [1] 
Window : [1544,2145],[1685,2145],[1685,2187],[1544,2187] : [1] 
Window : [884,1693],[971,1693],[971,1712],[884,1712] : [1] 
Window : [631,1193],[647,1210],[699,1153],[682,1136] : [0.6] 
Window : [647,2318],[676,2288],[577,2188],[547,2218] : [0.6] 
Window : [988,1289],[1008,1288],[888,993],[874,1001] : [0.6] 
