Door : [1157,1467],[1257,1467],[1257,1474],[1157,1474] : [1] 
Door : [1157,1348],[1257,1348],[1257,1367],[1157,1367] : [1] 
Door : [1139,1809],[1239,1809],[1239,1816],[1139,1816] : [1] 
Door : [672,1473],[715,1473],[715,1568],[672,1568] : [1] 
Door : [1256,1473],[1263,1473],[1263,1574],[1256,1574] : [1] 
Door : [1469,1697],[1513,1697],[1513,1804],[1469,1804] : [1] 
Door : [1150,1366],[1158,1366],[1158,1468],[1150,1468] : [1] 
