Window : [2406,1530],[2429,1530],[2429,1708],[2406,1708] : [1] 
Window : [733,1317],[776,1317],[776,1460],[733,1460] : [1] 
Window : [1892,1731],[2033,1731],[2033,1773],[1892,1773] : [1] 
Window : [2406,656],[2429,656],[2429,834],[2406,834] : [1] 
Window : [999,635],[1024,635],[1024,920],[999,920] : [1] 
Window : [2387,1530],[2404,1530],[2404,1714],[2387,1714] : [1] 
Window : [1266,1819],[1336,1819],[1336,1861],[1266,1861] : [1] 
Window : [2386,632],[2429,632],[2429,834],[2386,834] : [1] 
Window : [829,1170],[923,1170],[923,1212],[829,1212] : [1] 
Window : [1473,1819],[1613,1819],[1613,1861],[1473,1861] : [1] 
