Total No of Rooms: 10
single : room 1 : maybe closet : [1406,2770] : contour_details : [1126 2571],[1126 2793],[1127 2794],[1127 3015],[1685 3015],[1685 2571]

single : room 2 : maybe kitchen : [1173,2254] : contour_details : [1092 2126],[1091 2127],[913 2127],[913 2456],[1207 2456],[1208 2455],[1419 2455],[1419 2274],[1420 2273],[1423 2273],[1423 2173],[1424 2172],[1424 2163],[1419 2163],[1418 2162],[1418 2128],[1189 2128],[1188 2127],[1188 2126]

single : room 3 : maybe bedroom 2 : [1427,1917] : contour_details : [1197 1790],[1197 2119],[1655 2119],[1655 2026],[1654 2025],[1654 1883],[1655 1882],[1655 1791],[1295 1791],[1294 1790]

single : room 4 : unknown room : [1245,1730] : contour_details : [1198 1678],[1197 1679],[1197 1782],[1294 1782],[1294 1678]

single : room 5 : maybe bathroom : [1492,1628] : contour_details : [1302 1572],[1302 1670],[1303 1671],[1303 1783],[1655 1783],[1655 1695],[1654 1694],[1654 1572]

single : room 6 : maybe closet : [1074,1457] : contour_details : [984 1426],[984 1461],[985 1462],[985 1497],[1187 1497],[1187 1426]

single : room 7 : maybe bedroom 1 : [1656,1316] : contour_details : [1303 1236],[1303 1465],[1302 1466],[1302 1564],[1715 1564],[1716 1563],[1974 1563],[1974 1236]

single : room 8 : maybe storage : [1132,1298] : contour_details : [1198 1235],[1198 1248],[1197 1249],[984 1249],[984 1416],[1195 1416],[1196 1415],[1294 1415],[1294 1235]

single : room 9 : garage : [1408,979] : contour_details : [1558 851],[1557 852],[860 852],[860 892],[859 893],[859 1175],[860 1176],[860 1209],[1294 1209],[1295 1210],[1974 1210],[1974 852],[1626 852],[1625 851]

open : plan 1-room 10 : dining : [607, 2248] : contour_details : [ 442 2117],[ 443 2116],[ 556 2116],[ 557 2117],[ 672 2117],[ 673 2118],[ 788 2118],[ 789 2119],[ 903 2119],[ 904 2120],[ 904 2454],[ 903 2455],[ 443 2455],[ 442 2454]

open : plan 1-room 11 : living : [980, 1900] : contour_details : [ 442 1680],[ 443 1679],[1086 1679],[1087 1680],[1187 1680],[1188 1681],[1188 2117],[1187 2118],[ 790 2118],[ 789 2117],[ 674 2117],[ 673 2116],[ 558 2116],[ 557 2115],[ 443 2115],[ 442 2114]

open : plan 1-room 12 : entry : [1050, 1552] : contour_details : [1199 1426],[1200 1425],[1291 1425],[1292 1426],[1292 1668],[1291 1669],[1164 1669],[1163 1670],[1163 1678],[1162 1679],[1088 1679],[1087 1678],[ 987 1678],[ 986 1677],[ 986 1670],[ 985 1669],[ 879 1669],[ 878 1668],[ 878 1503],[ 879 1502],[1198 1502],[1199 1501]

open : plan 1-room 13 : toilet : [923, 1339] : contour_details : [ 878 1251],[ 879 1250],[ 974 1250],[ 975 1251],[ 975 1499],[ 974 1500],[ 879 1500],[ 878 1499]

