Wall : [362,1417],[404,1417],[404,1595],[362,1595] : [1] 
Wall : [361,1417],[872,1417],[872,1459],[361,1459] : [1] 
Wall : [1992,1606],[2034,1606],[2034,1920],[1992,1920] : [1] 
Wall : [362,1736],[404,1736],[404,2315],[362,2315] : [1] 
Wall : [1992,2061],[2034,2061],[2034,2315],[1992,2315] : [1] 
Wall : [940,1417],[1078,1417],[1078,1460],[940,1460] : [1] 
Wall : [1991,1199],[2034,1199],[2034,1465],[1991,1465] : [1] 
Wall : [1135,2274],[1563,2274],[1563,2315],[1135,2315] : [1] 
Wall : [1773,2274],[2035,2274],[2035,2315],[1773,2315] : [1] 
Wall : [361,2273],[553,2273],[553,2315],[361,2315] : [1] 
Wall : [692,2274],[996,2274],[996,2315],[692,2315] : [1] 
Wall : [1272,1223],[1313,1223],[1313,1370],[1272,1370] : [1] 
Wall : [2010,768],[2034,768],[2034,1129],[2010,1129] : [1] 
Wall : [1413,1288],[2035,1288],[2035,1312],[1413,1312] : [1] 
Wall : [1271,768],[2035,768],[2035,792],[1271,792] : [1] 
Wall : [1272,768],[1296,768],[1296,940],[1272,940] : [1] 
Wall : [1036,1417],[1081,1417],[1081,1577],[1036,1577] : [1] 
Wall : [1261,1441],[1313,1441],[1313,1577],[1261,1577] : [1] 
Wall : [734,1417],[741,1417],[741,1790],[734,1790] : [1] 
Wall : [361,1890],[742,1890],[742,1896],[361,1896] : [1] 
Wall : [1266,1890],[1272,1890],[1272,2315],[1266,2315] : [1] 
Wall : [841,1890],[847,1890],[847,2315],[841,2315] : [1] 
Wall : [1496,1288],[1502,1288],[1502,1429],[1496,1429] : [1] 
Wall : [940,1570],[1084,1570],[1084,1577],[940,1577] : [1] 
Wall : [733,1784],[842,1784],[842,1790],[733,1790] : [1] 
Wall : [1035,1890],[1273,1890],[1273,1896],[1035,1896] : [1] 
Wall : [840,1890],[937,1890],[937,1896],[840,1896] : [1] 
Wall : [940,1643],[947,1643],[947,1790],[940,1790] : [1] 
Wall : [940,1707],[1143,1707],[1143,1713],[940,1713] : [1] 
Wall : [1495,1530],[1502,1530],[1502,1683],[1495,1683] : [1] 
Wall : [1271,1677],[1503,1677],[1503,1683],[1271,1683] : [1] 
Wall : [1136,1701],[1142,1701],[1142,1790],[1136,1790] : [1] 
Wall : [1272,1441],[1278,1441],[1278,1683],[1272,1683] : [1] 
