Door : [1234,1098],[1333,1098],[1333,1123],[1234,1123] : [1] 
Door : [667,1777],[766,1777],[766,1784],[667,1784] : [1] 
Door : [897,1777],[997,1777],[997,1784],[897,1784] : [1] 
Door : [636,1960],[738,1960],[738,1967],[636,1967] : [1] 
Door : [1003,1777],[1103,1777],[1103,1784],[1003,1784] : [1] 
Door : [636,1960],[738,1960],[738,1967],[636,1967] : [1] 
Door : [1234,2060],[1339,2060],[1339,2103],[1234,2103] : [1] 
Door : [630,1860],[637,1860],[637,1961],[630,1961] : [1] 
