Door : [1538,1121],[1638,1121],[1638,1129],[1538,1129] : [1] 
Door : [540,1210],[640,1210],[640,1233],[540,1233] : [1] 
Door : [1537,1228],[1638,1228],[1638,1235],[1537,1235] : [1] 
Door : [1637,1128],[1645,1128],[1645,1229],[1637,1229] : [1] 
Door : [1259,1128],[1267,1128],[1267,1228],[1259,1228] : [1] 
Door : [710,1476],[718,1476],[718,1577],[710,1577] : [1] 
Door : [1381,1126],[1482,1126],[1482,1151],[1381,1151] : [0.866666666667] 
