Total No of Rooms: 5
single : room 1 : maybe bedroom 2 : [2481,1444] : contour_details : [2297 1252],[2297 1350],[2298 1351],[2298 1686],[2396 1686],[2397 1685],[2650 1685],[2650 1252]

single : room 2 : maybe bedroom 1 : [1918,1444] : contour_details : [1980 1251],[1979 1252],[1748 1252],[1748 1320],[1749 1321],[1749 1327],[1748 1328],[1748 1686],[1841 1686],[1842 1685],[1981 1685],[1982 1686],[2077 1686],[2077 1252],[2076 1251]

single : room 3 : maybe closet : [1672,1284] : contour_details : [1607 1247],[1607 1282],[1608 1283],[1608 1318],[1738 1318],[1738 1247]

single : room 4 : maybe bedroom 3 : [2481,990] : contour_details : [2315 826],[2315 1119],[2316 1120],[2316 1144],[2315 1145],[2314 1145],[2314 1243],[2650 1243],[2650 1109],[2649 1108],[2649 966],[2650 965],[2650 826]

open : plan 1-room 5 : bathroom : [2228, 1474] : contour_details : [2193 1361],[2194 1360],[2287 1360],[2288 1361],[2288 1683],[2287 1684],[2180 1684],[2179 1683],[2179 1620],[2180 1619],[2180 1555],[2181 1554],[2187 1554],[2188 1553],[2188 1443],[2189 1442],[2192 1442],[2193 1441]

open : plan 1-room 6 : toilet : [2130, 1273] : contour_details : [2086 1254],[2087 1253],[2178 1253],[2179 1254],[2179 1619],[2178 1620],[2178 1683],[2177 1684],[2087 1684],[2086 1683]

open : plan 1-room 7 : dining : [1088, 1130] : contour_details : [817 946],[818 945],[1300  945],[1301  946],[1301 1229],[1300 1230],[1300 1289],[1299 1290],[1299 1347],[1298 1348],[ 818 1348],[ 817 1347]

open : plan 1-room 8 : kitchen : [1548, 1467] : contour_details : [1648  930],[1649  929],[1897  929],[1898  930],[1898 1135],[1897 1136],[1822 1136],[1821 1137],[1821 1145],[1822 1146],[2286 1146],[2287 1147],[2287 1348],[2286 1349],[2182 1349],[2181 1348],[2181 1254],[2182 1253],[2192 1253],[2193 1252],[2193 1243],[2192 1242],[1598 1242],[1597 1243],[1597 1318],[1596 1319],[1409 1319],[1408 1320],[1408 1328],[1409 1329],[1738 1329],[1739 1330],[1739 1684],[1738 1685],[ 818 1685],[ 817 1684],[ 817 1406],[ 818 1405],[1411 1405],[1412 1404],[1412 1349],[1411 1348],[1301 1348],[1300 1347],[1300 1290],[1301 1289],[1301 1230],[1302 1229],[1302 1171],[1303 1170],[1419 1170],[1420 1169],[1420 1161],[1419 1160],[1411 1160],[1410 1159],[1410 1065],[1411 1064],[1595 1064],[1596 1065],[1596 1145],[1597 1146],[1726 1146],[1727 1145],[1727 1137],[1726 1136],[1609 1136],[1608 1135],[1608 1065],[1609 1064],[1647 1064],[1648 1063]

open : plan 1-room 9 : toilet : [1362, 1083] : contour_details : [1394  925],[1395  924],[1407  924],[1408  925],[1408 1159],[1407 1160],[1313 1160],[1312 1159],[1312  946],[1313  945],[1330  945],[1331  944],[1333  944],[1334  943],[1336  943],[1337  942],[1339  942],[1340  941],[1343  941],[1344  940],[1346  940],[1347  939],[1349  939],[1350  938],[1352  938],[1353  937],[1355  937],[1356  936],[1359  936],[1360  935],[1362  935],[1363  934],[1365  934],[1366  933],[1368  933],[1369  932],[1371  932],[1372  931],[1374  931],[1375  930],[1378  930],[1379  929],[1381  929],[1382  928],[1384  928],[1385  927],[1387  927],[1388  926],[1390  926],[1391  925]

