Door : [484,1703],[583,1703],[583,1710],[484,1710] : [1] 
Door : [2131,1650],[2231,1650],[2231,1674],[2131,1674] : [1] 
Door : [1795,947],[1895,947],[1895,972],[1795,972] : [1] 
Door : [2247,971],[2292,971],[2292,1084],[2247,1084] : [1] 
Door : [2247,1242],[2255,1242],[2255,1344],[2247,1344] : [1] 
Door : [1751,1532],[1759,1532],[1759,1633],[1751,1633] : [1] 
Door : [2053,1532],[2060,1532],[2060,1633],[2053,1633] : [1] 
Door : [2455,2128],[2480,2128],[2480,2224],[2455,2224] : [1] 
Door : [146,1399],[188,1399],[188,1474],[146,1474] : [1] 
Door : [659,1473],[667,1473],[667,1574],[659,1574] : [1] 
Door : [2247,1136],[2258,1136],[2258,1236],[2247,1236] : [1] 
Door : [2230,1549],[2239,1549],[2239,1651],[2230,1651] : [1] 
