garage : [1263,826] : [1196,814,1331,839] : confidence,dict,original_word,difference : [90,DM,None,0]
chambre 1 : [1319,1204] : [1228,1192,1410,1217] : confidence,dict,original_word,difference : [92,DM,None,0]
chambre 2 : [1646,1445] : [1553,1433,1740,1458] : confidence,dict,original_word,difference : [89,DM,None,0]
placard : [1251,1511] : [1175,1499,1327,1524] : confidence,dict,original_word,difference : [85,DM,None,0]
wc : [1317,1647] : [1290,1635,1344,1660] : confidence,dict,original_word,difference : [90,DM,None,0]
cuisine : [1139,1694] : [1075,1682,1203,1707] : confidence,dict,original_word,difference : [88,DM,None,0]
bains : [1652,1735] : [1606,1722,1699,1748] : confidence,dict,original_word,difference : [91,DM,None,0]
chambre 3 : [1564,2006] : [1471,1994,1658,2019] : confidence,dict,original_word,difference : [90,DM,None,0]
repas : [1197,2125] : [1144,2113,1250,2138] : confidence,dict,original_word,difference : [84,DM,None,0]
terrassecouverte : [1670,2383] : [1583,2351,1758,2416] : confidence,dict,original_word,difference : [89,DM,None,0]
sejour : [1227,2420] : [1162,2408,1293,2433] : confidence,dict,original_word,difference : [75,DM,None,0]
pl : [422,2919] : [390,2889,455,2949] : confidence,dict,original_word,difference : [91,SG,pi,1]
placard : [1766,2063] : [1754,2138,1779,1988] : confidence,dict,original_word,difference : [91,DM,None,0]
No Text Detected
