garage : [1266,863] : [1198,851,1335,876] : confidence,dict,original_word,difference : [93,DM,None,0]
cellier : [725,1229] : [659,1217,792,1242] : confidence,dict,original_word,difference : [93,DM,None,0]
repas : [1275,1318] : [1222,1306,1329,1330] : confidence,dict,original_word,difference : [92,DM,None,0]
cuisine : [792,1507] : [728,1495,857,1519] : confidence,dict,original_word,difference : [90,DM,None,0]
sejour : [1483,1702] : [1418,1690,1548,1714] : confidence,dict,original_word,difference : [90,DM,None,0]
hall : [917,1796] : [877,1784,957,1808] : confidence,dict,original_word,difference : [97,DM,None,0]
porche : [563,1867] : [513,1855,614,1879] : confidence,dict,original_word,difference : [90,DM,None,0]
wc : [833,1938] : [806,1926,860,1950] : confidence,dict,original_word,difference : [90,DM,None,0]
chambre 1 : [1280,2121] : [1188,2109,1372,2133] : confidence,dict,original_word,difference : [85,DM,None,0]
bureau : [730,2162] : [664,2150,796,2175] : confidence,dict,original_word,difference : [85,DM,None,0]
bains : [1364,2410] : [1317,2398,1412,2423] : confidence,dict,original_word,difference : [87,DM,None,0]
chambre 3 : [697,2487] : [604,2475,791,2500] : confidence,dict,original_word,difference : [87,DM,None,0]
placard : [961,2499] : [908,2487,1014,2511] : confidence,dict,original_word,difference : [64,DM,None,0]
chambre 2 : [1187,2587] : [1094,2575,1281,2600] : confidence,dict,original_word,difference : [90,DM,None,0]
douche : [951,2646] : [883,2634,1020,2659] : confidence,dict,original_word,difference : [84,DM,None,0]
placard : [737,2765] : [684,2753,790,2777] : confidence,dict,original_word,difference : [91,DM,None,0]
No Text Detected
