Window : [1976,1242],[2019,1242],[2019,1384],[1976,1384] : [1] 
Window : [1049,2402],[1092,2402],[1092,2532],[1049,2532] : [1] 
Window : [1994,2255],[2019,2255],[2019,2492],[1994,2492] : [1] 
Window : [341,861],[366,861],[366,933],[341,933] : [1] 
Window : [1479,542],[1617,542],[1617,585],[1479,585] : [1] 
Window : [1624,2532],[1953,2532],[1953,2557],[1624,2557] : [1] 
Window : [1049,1640],[1092,1640],[1092,1783],[1049,1783] : [1] 
Window : [1116,2532],[1445,2532],[1445,2557],[1116,2557] : [1] 
Window : [1479,542],[1548,542],[1548,585],[1479,585] : [1] 
Window : [1049,2054],[1092,2054],[1092,2196],[1049,2196] : [1] 
Window : [1157,542],[1297,542],[1297,585],[1157,585] : [1] 
Window : [1976,1776],[2019,1776],[2019,1919],[1976,1919] : [1] 
Window : [1976,731],[2019,731],[2019,874],[1976,874] : [1] 
Window : [1049,1359],[1049,1311],[1049,1255],[1032,1253] : [0.9] 
