Total No of Rooms: 5
single : room 1 : maybe bedroom 2 : [1065,1574] : contour_details : [883 1405],[883 1498],[882 1499],[882 1639],[883 1639],[884 1640],[884 1757],[1293 1757],[1293 1504],[1292 1503],[1292 1405]

single : room 2 : maybe bedroom : [1104,1108] : contour_details : [883 926],[883 1085],[882 1086],[882 1225],[883 1226],[883 1396],[1293 1396],[1293 1296],[1294 1295],[1294 926]

single : room 3 : maybe bathroom : [1381,1090] : contour_details : [1445 925],[1444 926],[1302 926],[1302 1289],[1399 1289],[1400 1290],[1536 1290],[1536 927],[1513 927],[1512 926],[1512 925]

single : room 4 : garage : [1702,1072] : contour_details : [1599 673],[1598 674],[1563 674],[1563 1315],[1562 1316],[1426 1316],[1426 1739],[1537 1739],[1538 1738],[1636 1738],[1637 1739],[1914 1739],[1914 1669],[1913 1668],[1913 1597],[1914 1596],[1914 1238],[1913 1237],[1913 1167],[1914 1166],[1914 674],[1879 674],[1878 673]

open : plan 1-room 5 : salon : [1063, 2347] : contour_details : [ 885 2185],[ 886 2184],[1397 2184],[1398 2185],[1398 2267],[1397 2268],[1397 2399],[1396 2400],[1396 2528],[1395 2529],[ 886 2529],[ 885 2528]

open : plan 1-room 6 : living : [1648, 2330] : contour_details : [1400 2006],[1401 2005],[1404 2005],[1532 2133],[1835 2133],[1836 2134],[1836 2528],[1835 2529],[1398 2529],[1397 2528],[1397 2400],[1398 2399],[1398 2268],[1399 2267],[1399 2136],[1400 2135]

open : plan 1-room 7 : kitchen : [1614, 1905] : contour_details : [1410 1767],[1411 1766],[1835 1766],[1836 1767],[1836 2120],[1835 2121],[1760 2121],[1759 2122],[1759 2130],[1758 2131],[1536 2131],[1535 2130],[1539 2126],[1410 1997]

open : plan 1-room 8 : entry : [1058, 2023] : contour_details : [1059 1767],[1060 1766],[1398 1766],[1399 1767],[1399 2135],[1398 2136],[1398 2181],[1397 2182],[ 886 2182],[ 885 2181],[ 885 1924],[ 886 1923],[ 977 1923],[ 978 1922],[ 978 1859],[ 979 1858],[ 996 1858],[ 997 1859],[1015 1859],[1016 1860],[1034 1860],[1035 1861],[1053 1861],[1054 1862],[1072 1862],[1073 1863],[1091 1863],[1092 1864],[1093 1863],[1092 1862],[1092 1861],[1091 1860],[1091 1858],[1090 1857],[1090 1855],[1089 1854],[1089 1852],[1088 1851],[1088 1849],[1087 1848],[1087 1846],[1086 1845],[1086 1843],[1085 1842],[1085 1841],[1084 1840],[1084 1838],[1083 1837],[1083 1835],[1082 1834],[1082 1832],[1081 1831],[1081 1829],[1080 1828],[1080 1826],[1079 1825],[1079 1823],[1078 1822],[1078 1820],[1077 1819],[1077 1818],[1076 1817],[1076 1815],[1075 1814],[1075 1812],[1074 1811],[1074 1809],[1073 1808],[1073 1806],[1072 1805],[1072 1803],[1071 1802],[1071 1800],[1070 1799],[1070 1797],[1069 1796],[1069 1794],[1068 1793],[1068 1792],[1067 1791],[1067 1789],[1066 1788],[1066 1786],[1065 1785],[1065 1783],[1064 1782],[1064 1780],[1063 1779],[1063 1777],[1062 1776],[1062 1774],[1061 1773],[1061 1771],[1060 1770],[1060 1769],[1059 1768]

open : plan 1-room 9 : corridor : [1342, 1358] : contour_details : [1303 1299],[1304 1298],[1398 1298],[1399 1299],[1399 1763],[1398 1764],[1304 1764],[1303 1763]

