Door : [1222,884],[1321,884],[1321,891],[1222,891] : [1] 
Door : [2049,895],[2149,895],[2149,902],[2049,902] : [1] 
Door : [2049,895],[2149,895],[2149,902],[2049,902] : [1] 
Door : [1729,594],[1836,594],[1836,643],[1729,643] : [1] 
Door : [1405,884],[1504,884],[1504,891],[1405,891] : [1] 
Door : [1222,1067],[1322,1067],[1322,1074],[1222,1074] : [1] 
Door : [1215,966],[1223,966],[1223,1068],[1215,1068] : [1] 
Door : [2467,701],[2515,701],[2515,820],[2467,820] : [1] 
Door : [1717,890],[1724,890],[1724,991],[1717,991] : [1] 
Door : [1887,642],[1896,642],[1896,743],[1887,743] : [1] 
