Wall : [465,543],[937,543],[937,585],[465,585] : [1] 
Wall : [1005,543],[1188,543],[1188,585],[1005,585] : [1] 
Wall : [1393,1488],[1435,1488],[1435,1641],[1393,1641] : [1] 
Wall : [1393,1783],[1435,1783],[1435,2055],[1393,2055] : [1] 
Wall : [1327,543],[2144,543],[2144,585],[1327,585] : [1] 
Wall : [1392,1210],[1453,1210],[1453,1253],[1392,1253] : [1] 
Wall : [1392,2196],[1435,2196],[1435,2403],[1392,2403] : [1] 
Wall : [1274,1313],[1436,1313],[1436,1356],[1274,1356] : [1] 
Wall : [949,2350],[1096,2350],[1096,2391],[949,2391] : [1] 
Wall : [466,1384],[507,1384],[507,1777],[466,1777] : [1] 
Wall : [466,874],[508,874],[508,1243],[466,1243] : [1] 
Wall : [466,1919],[507,1919],[507,2256],[466,2256] : [1] 
Wall : [1306,2349],[1436,2349],[1436,2391],[1306,2391] : [1] 
Wall : [1274,1484],[1436,1484],[1436,1525],[1274,1525] : [1] 
Wall : [466,543],[507,543],[507,732],[466,732] : [1] 
Wall : [465,2172],[552,2172],[552,2215],[465,2215] : [1] 
Wall : [1499,1210],[1530,1210],[1530,1252],[1499,1252] : [1] 
Wall : [1434,543],[1458,543],[1458,1028],[1434,1028] : [1] 
Wall : [2119,933],[2143,933],[2143,1252],[2119,1252] : [1] 
Wall : [967,1013],[1530,1013],[1530,1037],[967,1037] : [1] 
Wall : [2059,1227],[2144,1227],[2144,1252],[2059,1252] : [1] 
Wall : [2119,543],[2143,543],[2143,862],[2119,862] : [1] 
Wall : [860,2533],[1040,2533],[1040,2557],[860,2557] : [1] 
Wall : [1505,1004],[1529,1004],[1529,1110],[1505,1110] : [1] 
Wall : [1498,1227],[1589,1227],[1589,1252],[1498,1252] : [1] 
Wall : [974,2392],[997,2367],[974,2346],[952,2372] : [1] 
Wall : [1368,2529],[1436,2529],[1436,2557],[1368,2557] : [1] 
Wall : [1411,2521],[1435,2521],[1435,2557],[1411,2557] : [1] 
Wall : [1275,1476],[1313,1476],[1313,1529],[1275,1529] : [1] 
Wall : [1411,1210],[1433,1210],[1433,1264],[1411,1264] : [1] 
Wall : [1275,1317],[1316,1317],[1316,1370],[1275,1370] : [1] 
Wall : [861,543],[868,543],[868,921],[861,921] : [1] 
Wall : [1074,543],[1080,543],[1080,921],[1074,921] : [1] 
Wall : [1144,1522],[1436,1522],[1436,1529],[1144,1529] : [1] 
Wall : [1144,1895],[1436,1895],[1436,1901],[1144,1901] : [1] 
Wall : [1397,1210],[1407,1210],[1407,1264],[1397,1264] : [1] 
Wall : [465,1523],[869,1523],[869,1529],[465,1529] : [1] 
Wall : [465,1097],[697,1097],[697,1104],[465,1104] : [1] 
Wall : [1433,1003],[1530,1003],[1530,1012],[1433,1012] : [1] 
Wall : [968,1021],[974,1021],[974,1217],[968,1217] : [1] 
Wall : [967,915],[1081,915],[1081,921],[967,921] : [1] 
Wall : [1150,1210],[1453,1210],[1453,1218],[1150,1218] : [1] 
Wall : [860,1204],[868,1204],[868,1529],[860,1529] : [1] 
Wall : [690,1021],[696,1021],[696,1104],[690,1104] : [1] 
Wall : [967,1210],[1052,1210],[1052,1217],[967,1217] : [1] 
Wall : [689,1021],[869,1021],[869,1028],[689,1028] : [1] 
Wall : [861,1021],[868,1021],[868,1104],[861,1104] : [1] 
Wall : [967,1523],[974,1523],[974,1901],[967,1901] : [1] 
Wall : [967,1523],[1046,1523],[1046,1529],[967,1529] : [1] 
Wall : [967,1895],[1046,1895],[1046,1901],[967,1901] : [1] 
Wall : [506,1024],[689,1024],[689,1020],[506,1020] : [1] 
Wall : [696,1105],[860,1105],[860,1101],[696,1101] : [1] 
