garage : [1221,863] : [1153,851,1290,876] : confidence,dict,original_word,difference : [93,DM,None,0]
cellier : [1763,1230] : [1697,1217,1830,1243] : confidence,dict,original_word,difference : [85,DM,None,0]
repas : [1213,1318] : [1159,1306,1267,1330] : confidence,dict,original_word,difference : [90,DM,None,0]
cuisine : [1696,1507] : [1632,1495,1761,1520] : confidence,dict,original_word,difference : [88,DM,None,0]
sejour : [1006,1702] : [941,1690,1071,1714] : confidence,dict,original_word,difference : [89,DM,None,0]
hall : [1571,1796] : [1531,1784,1611,1808] : confidence,dict,original_word,difference : [95,DM,None,0]
porche : [1924,1867] : [1874,1855,1975,1880] : confidence,dict,original_word,difference : [89,DM,None,0]
wc : [1650,1938] : [1624,1926,1677,1950] : confidence,dict,original_word,difference : [88,DM,None,0]
chambre 1 : [1203,2121] : [1111,2109,1295,2133] : confidence,dict,original_word,difference : [85,DM,None,0]
bureau : [1757,2163] : [1691,2150,1823,2176] : confidence,dict,original_word,difference : [85,DM,None,0]
bains : [1124,2410] : [1077,2398,1171,2423] : confidence,dict,original_word,difference : [90,DM,None,0]
placard : [1525,2499] : [1472,2487,1578,2511] : confidence,dict,original_word,difference : [68,DM,None,0]
chambre 3 : [1789,2488] : [1696,2475,1883,2501] : confidence,dict,original_word,difference : [91,DM,None,0]
chambre 2 : [1299,2587] : [1206,2575,1393,2600] : confidence,dict,original_word,difference : [92,DM,None,0]
douche : [1535,2646] : [1466,2634,1604,2659] : confidence,dict,original_word,difference : [85,DM,None,0]
placard : [1750,2765] : [1697,2753,1803,2778] : confidence,dict,original_word,difference : [89,DM,None,0]
No Text Detected
