Total No of Rooms: 9
single : room 1 : maybe kitchen : [1728,1179] : contour_details : [1539 1023],[1539 1133],[1540 1134],[1540 1428],[1698 1428],[1699 1427],[1809 1427],[1810 1428],[1863 1428],[1864 1427],[1962 1427],[1962 1340],[1961 1339],[1961 1236],[1962 1235],[1962 1195],[1963 1194],[1963 1023]

single : room 2 : maybe dining : [1222,2000] : contour_details : [1322 904],[1322 915],[1321 916],[1310 916],[1310 1015],[1311 1016],[1311 1022],[1310 1023],[1233 1023],[1233 1137],[1310 1137],[1311 1138],[1311 1164],[1310 1165],[1233 1165],[1233 1446],[1234 1447],[1234 1463],[1310 1463],[1311 1464],[1311 1471],[1310 1472],[1022 1472],[1022 1571],[1021 1572],[1020 1572],[1020 1664],[1021 1665],[1021 1925],[1020 1926],[1020 2019],[1021 2020],[1021 2100],[1066 2100],[1067 2099],[1348 2099],[1349 2100],[1420 2100],[1420 1910],[1419 1909],[1419 1866],[1420 1865],[1490 1865],[1490 905],[1426 905],[1425 904]

single : room 3 : garage : [882,1020] : contour_details : [561 745],[560 746],[495 746],[495 1446],[824 1446],[825 1445],[917 1445],[918 1446],[1207 1446],[1207 1165],[1206 1164],[1206 1138],[1205 1137],[1205 1023],[1077 1023],[1076 1022],[1076 914],[1077 913],[1077 745]

single : room 4 : maybe cellar : [1194,860] : contour_details : [1146 744],[1145 745],[1085 745],[1085 915],[1084 916],[1084 1015],[1282 1015],[1282 914],[1283 913],[1283 746],[1213 746],[1212 745],[1212 744]

single : room 5 : maybe bedroom : [2513,847] : contour_details : [2373 663],[2373 772],[2374 773],[2374 780],[2373 781],[2373 1192],[2583 1192],[2584 1191],[2701 1191],[2701 663]

single : room 6 : maybe bedroom : [2492,400] : contour_details : [2255 263],[2255 653],[2364 653],[2365 654],[2701 654],[2701 366],[2700 365],[2700 263]

single : room 7 : maybe office : [1713,412] : contour_details : [1565 248],[1565 249],[1564 250],[1534 250],[1534 653],[1755 653],[1756 654],[1832 654],[1832 543],[1833 542],[1945 542],[1945 432],[1944 431],[1944 425],[1945 424],[1945 249],[1656 249],[1655 248]

open : plan 1-room 8 : bedroom : [2182, 936] : contour_details : [1964  783],[1965  782],[2363  782],[2364  783],[2364 1192],[2363 1193],[1973 1193],[1972 1192],[1972  900],[1973  899],[2048  899],[2049  898],[2049  892],[2048  891],[1965  891],[1964  890]

open : plan 1-room 9 : dressing room : [1869, 907] : contour_details : [1765  783],[1766  782],[1961  782],[1962  783],[1962 1013],[1961 1014],[1766 1014],[1765 1013]

open : plan 2-room 10 : porch : [1396, 783] : contour_details : [1323  764],[1324  763],[1531  763],[1532  764],[1532  797],[1531  798],[1531  831],[1530  832],[1525  832],[1524  833],[1524  835],[1523  836],[1518  836],[1517  835],[1517  833],[1516  832],[1491  832],[1490  833],[1490  857],[1489  858],[1324  858],[1323  857]

open : plan 2-room 11 : toilet : [1579, 777] : contour_details : [1535  666],[1536  665],[1637  665],[1638  666],[1638  849],[1637  850],[1637  893],[1636  894],[1533  894],[1532  893],[1532  798],[1533  797],[1533  764],[1535  762]

open : plan 2-room 12 : living : [1660, 1604] : contour_details : [1648  664],[1649  663],[2065  663],[2066  664],[2066  716],[2067  717],[2067  770],[2066  771],[1756  771],[1755  772],[1755 1013],[1754 1014],[1531 1014],[1530 1015],[1530 1435],[1531 1436],[1810 1436],[1811 1437],[1811 1635],[1810 1636],[1810 1639],[1809 1640],[1809 1643],[1808 1644],[1808 1647],[1807 1648],[1807 1650],[1806 1651],[1806 1654],[1805 1655],[1805 1658],[1804 1659],[1804 1662],[1803 1663],[1803 1665],[1802 1666],[1802 1669],[1801 1670],[1801 1673],[1800 1674],[1800 1676],[1799 1677],[1799 1684],[1798 1685],[1798 1688],[1797 1689],[1797 1692],[1796 1693],[1796 1696],[1795 1697],[1795 1699],[1794 1700],[1794 1703],[1793 1704],[1793 1707],[1792 1708],[1792 1710],[1791 1711],[1791 1714],[1790 1715],[1790 1718],[1789 1719],[1789 1721],[1788 1722],[1788 1863],[1787 1864],[1782 1864],[1781 1865],[1775 1865],[1774 1866],[1768 1866],[1767 1867],[1761 1867],[1760 1868],[1754 1868],[1753 1869],[1746 1869],[1745 1870],[1739 1870],[1738 1871],[1732 1871],[1731 1872],[1725 1872],[1724 1873],[1718 1873],[1717 1874],[1711 1874],[1710 1875],[1704 1875],[1703 1876],[1696 1876],[1695 1877],[1689 1877],[1688 1878],[1682 1878],[1681 1879],[1675 1879],[1674 1880],[1668 1880],[1667 1881],[1661 1881],[1660 1882],[1653 1882],[1652 1883],[1646 1883],[1645 1884],[1639 1884],[1638 1885],[1632 1885],[1631 1886],[1625 1886],[1624 1887],[1618 1887],[1617 1888],[1611 1888],[1610 1889],[1603 1889],[1602 1890],[1596 1890],[1595 1891],[1589 1891],[1588 1892],[1582 1892],[1581 1893],[1575 1893],[1574 1894],[1568 1894],[1567 1895],[1560 1895],[1559 1896],[1553 1896],[1552 1897],[1546 1897],[1545 1898],[1539 1898],[1538 1899],[1532 1899],[1531 1900],[1525 1900],[1524 1901],[1518 1901],[1517 1902],[1507 1902],[1506 1901],[1506  906],[1507  905],[1646  905],[1647  904],[1647  850],[1646  849],[1641  849],[1640  848],[1640  740],[1641  739],[1647  739],[1648  738]

open : plan 2-room 13 : bathroom : [1988, 583] : contour_details : [1955  434],[1956  433],[2057  433],[2058  434],[2058  660],[2057  661],[1944  661],[1943  660],[1943  654],[1942  653],[1843  653],[1842  652],[1842  551],[1843  550],[1954  550],[1955  549]

open : plan 2-room 14 : bathroom : [2072, 364] : contour_details : [1955  250],[1956  249],[2149  249],[2150  250],[2150  263],[2151  264],[2245  264],[2246  265],[2246  652],[2245  653],[2175  653],[2174  654],[2174  662],[2175  663],[2361  663],[2362  664],[2362  770],[2361  771],[2069  771],[2068  770],[2068  717],[2067  716],[2067  424],[2066  423],[1956  423],[1955  422]

