Window : [1789,1025],[1832,1025],[1832,1168],[1789,1168] : [1] 
Window : [1789,1557],[1832,1557],[1832,1699],[1789,1699] : [1] 
Window : [1789,1344],[1832,1344],[1832,1416],[1789,1416] : [1] 
Window : [962,1340],[991,1369],[1044,1318],[1014,1288] : [0.6] 
Window : [1012,2258],[1033,2257],[840,2042],[811,2072] : [0.5] 
Window : [1143,2261],[1167,2265],[1367,2081],[1337,2051] : [0.5] 
