Door : [1175,1310],[1275,1310],[1275,1317],[1175,1317] : [1] 
Door : [685,1711],[790,1711],[790,1734],[685,1734] : [1] 
Door : [1618,1416],[1717,1416],[1717,1423],[1618,1423] : [1] 
Door : [1187,2048],[1292,2048],[1292,2090],[1187,2090] : [1] 
Door : [800,1611],[845,1611],[845,1712],[800,1712] : [1] 
Door : [1274,1316],[1281,1316],[1281,1417],[1274,1417] : [1] 
Door : [1167,1423],[1175,1423],[1175,1517],[1167,1517] : [1] 
