Total No of Rooms: 7
single : room 1 : maybe kitchen : [680,1776] : contour_details : [788 1613],[787 1614],[533 1614],[533 1766],[532 1767],[532 1907],[533 1908],[533 2077],[783 2077],[784 2078],[884 2078],[884 1789],[883 1788],[883 1688],[884 1687],[884 1613]

single : room 2 : maybe bedroom 1 : [1287,1599] : contour_details : [1123 1425],[1123 1500],[1122 1501],[1122 1599],[1123 1599],[1124 1600],[1124 1924],[1452 1924],[1452 1665],[1451 1664],[1451 1523],[1452 1522],[1452 1426],[1357 1426],[1356 1425]

single : room 3 : maybe corridor : [1051,1457] : contour_details : [1018 1424],[1017 1425],[999 1425],[999 1598],[1114 1598],[1114 1424]

single : room 4 : maybe cellar : [701,1510] : contour_details : [788 1424],[787 1425],[534 1425],[534 1512],[533 1513],[532 1513],[532 1582],[533 1583],[533 1605],[785 1605],[786 1604],[884 1604],[884 1424]

single : room 5 : maybe bathroom : [1241,1315] : contour_details : [1017 1183],[1017 1381],[1018 1382],[1018 1414],[1114 1414],[1115 1415],[1356 1415],[1356 1381],[1357 1380],[1357 1311],[1356 1310],[1356 1183]

single : room 6 : maybe garage : [878,920] : contour_details : [711 520],[710 521],[534 521],[534 1381],[785 1381],[786 1380],[884 1380],[885 1381],[991 1381],[991 1183],[990 1182],[990 1158],[991 1157],[1356 1157],[1356 1134],[1357 1133],[1374 1133],[1374 543],[1375 542],[1375 521],[778 521],[777 520]

open : plan 1-room 7 : dining : [1218, 2461] : contour_details : [1077 2087],[1172 2087],[1173 2088],[1450 2088],[1451 2089],[1451 2659],[1450 2660],[ 892 2660],[ 891 2659],[ 891 2658],[ 892 2657],[ 892 2655],[ 893 2654],[ 893 2652],[ 894 2651],[ 894 2649],[ 895 2648],[ 895 2646],[ 896 2645],[ 896 2643],[ 897 2642],[ 897 2640],[ 898 2639],[ 898 2637],[ 899 2636],[ 899 2634],[ 900 2633],[ 900 2630],[ 901 2629],[ 901 2627],[ 902 2626],[ 902 2624],[ 903 2623],[ 903 2621],[ 904 2620],[ 904 2618],[ 905 2617],[ 905 2615],[ 906 2614],[ 906 2612],[ 907 2611],[ 907 2609],[ 908 2608],[ 908 2606],[ 909 2605],[ 909 2603],[ 910 2602],[ 910 2600],[ 911 2599],[ 911 2596],[ 912 2595],[ 912 2593],[ 913 2592],[ 913 2590],[ 914 2589],[ 914 2587],[ 915 2586],[ 915 2584],[ 916 2583],[ 916 2581],[ 917 2580],[ 917 2578],[ 918 2577],[ 918 2575],[ 919 2574],[ 919 2572],[ 920 2571],[ 920 2569],[ 921 2568],[ 921 2566],[ 922 2565],[ 922 2562],[ 923 2561],[ 923 2559],[ 924 2558],[ 924 2556],[ 925 2555],[ 925 2553],[ 926 2552],[ 926 2550],[ 927 2549],[ 927 2547],[ 928 2546],[ 928 2544],[ 929 2543],[ 929 2541],[ 930 2540],[ 930 2538],[ 931 2537],[ 931 2535],[ 932 2534],[ 932 2532],[ 933 2531],[ 933 2528],[ 934 2527],[ 934 2525],[ 935 2524],[ 935 2522],[ 936 2521],[ 936 2519],[ 937 2518],[ 937 2516],[ 938 2515],[ 938 2513],[ 939 2512],[ 939 2510],[ 940 2509],[ 940 2507],[ 941 2506],[ 941 2504],[ 942 2503],[ 942 2501],[ 943 2500],[ 943 2498],[ 944 2497],[ 944 2494],[ 945 2493],[ 945 2491],[ 946 2490],[ 946 2488],[ 947 2487],[ 947 2485],[ 948 2484],[ 948 2482],[ 949 2481],[ 949 2479],[ 950 2478],[ 950 2476],[ 951 2475],[ 951 2473],[ 952 2472],[ 952 2470],[ 953 2469],[ 953 2467],[ 954 2466],[ 954 2464],[ 955 2463],[ 955 2460],[ 956 2459],[ 956 2457],[ 957 2456],[ 957 2454],[ 958 2453],[ 958 2451],[ 959 2450],[ 959 2448],[ 960 2447],[ 960 2445],[ 961 2444],[ 961 2442],[ 962 2441],[ 962 2439],[ 963 2438],[ 963 2436],[ 964 2435],[ 964 2433],[ 965 2432],[ 965 2430],[ 966 2429],[ 966 2426],[ 967 2425],[ 967 2423],[ 968 2422],[ 968 2420],[ 969 2419],[ 969 2417],[ 970 2416],[ 970 2414],[ 971 2413],[ 971 2411],[ 972 2410],[ 972 2408],[ 973 2407],[ 973 2405],[ 974 2404],[ 974 2402],[ 975 2401],[ 975 2399],[ 976 2398],[ 976 2396],[ 977 2395],[ 977 2392],[ 978 2391],[ 978 2389],[ 979 2388],[ 979 2386],[ 980 2385],[ 980 2383],[ 981 2382],[ 981 2380],[ 982 2379],[ 982 2377],[ 983 2376],[ 983 2374],[ 984 2373],[ 984 2371],[ 985 2370],[ 985 2368],[ 986 2367],[ 986 2365],[ 987 2364],[ 987 2362],[ 988 2361],[ 988 2358],[ 989 2357],[ 989 2355],[ 990 2354],[ 990 2352],[ 991 2351],[ 991 2349],[ 992 2348],[ 992 2346],[ 993 2345],[ 993 2343],[ 994 2342],[ 994 2340],[ 995 2339],[ 995 2337],[ 996 2336],[ 996 2334],[ 997 2333],[ 997 2331],[ 998 2330],[ 998 2327],[ 999 2326],[ 999 2324],[1000 2323],[1000 2321],[1001 2320],[1001 2318],[1002 2317],[1002 2315],[1003 2314],[1003 2312],[1004 2311],[1004 2309],[1005 2308],[1005 2306],[1006 2305],[1006 2303],[1007 2302],[1007 2300],[1008 2299],[1008 2297],[1009 2296],[1009 2293],[1010 2292],[1010 2290],[1011 2289],[1011 2287],[1012 2286],[1012 2284],[1013 2283],[1013 2281],[1014 2280],[1014 2278],[1015 2277],[1015 2275],[1016 2274],[1016 2272],[1017 2271],[1017 2269],[1018 2268],[1018 2266],[1019 2265],[1019 2263],[1020 2262],[1020 2259],[1021 2258],[1021 2256],[1022 2255],[1022 2253],[1023 2252],[1023 2250],[1024 2249],[1024 2247],[1025 2246],[1025 2244],[1026 2243],[1026 2241],[1027 2240],[1027 2238],[1028 2237],[1028 2235],[1029 2234],[1029 2232],[1030 2231],[1030 2229],[1031 2228],[1031 2225],[1032 2224],[1032 2222],[1033 2221],[1033 2219],[1034 2218],[1034 2216],[1035 2215],[1035 2213],[1036 2212],[1036 2210],[1037 2209],[1037 2207],[1038 2206],[1038 2204],[1039 2203],[1039 2201],[1040 2200],[1040 2198],[1041 2197],[1041 2195],[1042 2194],[1042 2191],[1043 2190],[1043 2188],[1044 2187],[1044 2185],[1045 2184],[1045 2182],[1046 2181],[1046 2179],[1047 2178],[1047 2176],[1048 2175],[1048 2173],[1049 2172],[1049 2170],[1050 2169],[1050 2167],[1051 2166],[1051 2164],[1052 2163],[1052 2161],[1053 2160],[1053 2157],[1054 2156],[1054 2154],[1055 2153],[1055 2151],[1056 2150],[1056 2148],[1057 2147],[1057 2145],[1058 2144],[1058 2142],[1059 2141],[1059 2139],[1060 2138],[1060 2136],[1061 2135],[1061 2133],[1062 2132],[1062 2130],[1063 2129],[1063 2127],[1064 2126],[1064 2123],[1065 2122],[1065 2120],[1066 2119],[1066 2117],[1067 2116],[1067 2114],[1068 2113],[1068 2111],[1069 2110],[1069 2108],[1070 2107],[1070 2105],[1071 2104],[1071 2102],[1072 2101],[1072 2099],[1073 2098],[1073 2096],[1074 2095],[1074 2093],[1075 2092],[1075 2089]

open : plan 1-room 8 : living : [747, 2278] : contour_details : [ 534 2088],[ 535 2087],[1074 2087],[1075 2088],[1075 2089],[1074 2090],[1074 2092],[1073 2093],[1073 2095],[1072 2096],[1072 2098],[1071 2099],[1071 2101],[1070 2102],[1070 2104],[1069 2105],[1069 2107],[1068 2108],[1068 2110],[1067 2111],[1067 2113],[1066 2114],[1066 2117],[1065 2118],[1065 2120],[1064 2121],[1064 2123],[1063 2124],[1063 2126],[1062 2127],[1062 2129],[1061 2130],[1061 2132],[1060 2133],[1060 2135],[1059 2136],[1059 2138],[1058 2139],[1058 2141],[1057 2142],[1057 2144],[1056 2145],[1056 2147],[1055 2148],[1055 2151],[1054 2152],[1054 2154],[1053 2155],[1053 2157],[1052 2158],[1052 2160],[1051 2161],[1051 2163],[1050 2164],[1050 2166],[1049 2167],[1049 2169],[1048 2170],[1048 2172],[1047 2173],[1047 2175],[1046 2176],[1046 2178],[1045 2179],[1045 2181],[1044 2182],[1044 2185],[1043 2186],[1043 2188],[1042 2189],[1042 2191],[1041 2192],[1041 2194],[1040 2195],[1040 2197],[1039 2198],[1039 2200],[1038 2201],[1038 2203],[1037 2204],[1037 2206],[1036 2207],[1036 2209],[1035 2210],[1035 2212],[1034 2213],[1034 2215],[1033 2216],[1033 2219],[1032 2220],[1032 2222],[1031 2223],[1031 2225],[1030 2226],[1030 2228],[1029 2229],[1029 2231],[1028 2232],[1028 2234],[1027 2235],[1027 2237],[1026 2238],[1026 2240],[1025 2241],[1025 2243],[1024 2244],[1024 2246],[1023 2247],[1023 2250],[1022 2251],[1022 2253],[1021 2254],[1021 2256],[1020 2257],[1020 2259],[1019 2260],[1019 2262],[1018 2263],[1018 2265],[1017 2266],[1017 2268],[1016 2269],[1016 2271],[1015 2272],[1015 2274],[1014 2275],[1014 2277],[1013 2278],[1013 2280],[1012 2281],[1012 2284],[1011 2285],[1011 2287],[1010 2288],[1010 2290],[1009 2291],[1009 2293],[1008 2294],[1008 2296],[1007 2297],[1007 2299],[1006 2300],[1006 2302],[1005 2303],[1005 2305],[1004 2306],[1004 2308],[1003 2309],[1003 2311],[1002 2312],[1002 2314],[1001 2315],[1001 2318],[1000 2319],[1000 2321],[ 999 2322],[ 999 2324],[ 998 2325],[ 998 2327],[ 997 2328],[ 997 2330],[ 996 2331],[ 996 2333],[ 995 2334],[ 995 2336],[ 994 2337],[ 994 2339],[ 993 2340],[ 993 2342],[ 992 2343],[ 992 2345],[ 991 2346],[ 991 2348],[ 990 2349],[ 990 2352],[ 989 2353],[ 989 2355],[ 988 2356],[ 988 2358],[ 987 2359],[ 987 2361],[ 986 2362],[ 986 2364],[ 985 2365],[ 985 2367],[ 984 2368],[ 984 2370],[ 983 2371],[ 983 2373],[ 982 2374],[ 982 2376],[ 981 2377],[ 981 2379],[ 980 2380],[ 980 2382],[ 979 2383],[ 979 2386],[ 978 2387],[ 978 2389],[ 977 2390],[ 977 2392],[ 976 2393],[ 976 2395],[ 975 2396],[ 975 2398],[ 974 2399],[ 974 2401],[ 973 2402],[ 973 2404],[ 972 2405],[ 972 2407],[ 971 2408],[ 971 2410],[ 970 2411],[ 970 2413],[ 969 2414],[ 969 2416],[ 968 2417],[ 968 2420],[ 967 2421],[ 967 2423],[ 966 2424],[ 966 2426],[ 965 2427],[ 965 2429],[ 964 2430],[ 964 2432],[ 963 2433],[ 963 2435],[ 962 2436],[ 962 2438],[ 961 2439],[ 961 2441],[ 960 2442],[ 960 2444],[ 959 2445],[ 959 2447],[ 958 2448],[ 958 2450],[ 957 2451],[ 957 2454],[ 956 2455],[ 956 2457],[ 955 2458],[ 955 2460],[ 954 2461],[ 954 2463],[ 953 2464],[ 953 2466],[ 952 2467],[ 952 2469],[ 951 2470],[ 951 2472],[ 950 2473],[ 950 2475],[ 949 2476],[ 949 2478],[ 948 2479],[ 948 2481],[ 947 2482],[ 947 2484],[ 946 2485],[ 946 2488],[ 945 2489],[ 945 2491],[ 944 2492],[ 944 2494],[ 943 2495],[ 943 2497],[ 942 2498],[ 942 2500],[ 941 2501],[ 941 2503],[ 940 2504],[ 940 2506],[ 939 2507],[ 939 2509],[ 938 2510],[ 938 2512],[ 937 2513],[ 937 2515],[ 936 2516],[ 936 2518],[ 935 2519],[ 935 2522],[ 934 2523],[ 934 2525],[ 933 2526],[ 933 2528],[ 932 2529],[ 932 2531],[ 931 2532],[ 931 2534],[ 930 2535],[ 930 2537],[ 929 2538],[ 929 2540],[ 928 2541],[ 928 2543],[ 927 2544],[ 927 2546],[ 926 2547],[ 926 2549],[ 925 2550],[ 925 2552],[ 924 2553],[ 924 2556],[ 923 2557],[ 923 2559],[ 922 2560],[ 922 2562],[ 921 2563],[ 921 2565],[ 920 2566],[ 920 2568],[ 919 2569],[ 919 2571],[ 918 2572],[ 918 2574],[ 917 2575],[ 917 2577],[ 916 2578],[ 916 2580],[ 915 2581],[ 915 2583],[ 914 2584],[ 914 2586],[ 913 2587],[ 913 2590],[ 912 2591],[ 912 2593],[ 911 2594],[ 911 2596],[ 910 2597],[ 910 2599],[ 909 2600],[ 909 2602],[ 908 2603],[ 908 2605],[ 907 2606],[ 907 2608],[ 906 2609],[ 906 2611],[ 905 2612],[ 905 2614],[ 904 2615],[ 904 2617],[ 903 2618],[ 903 2620],[ 902 2621],[ 902 2624],[ 901 2625],[ 901 2627],[ 900 2628],[ 900 2630],[ 899 2631],[ 899 2633],[ 898 2634],[ 898 2636],[ 897 2637],[ 897 2639],[ 896 2640],[ 896 2642],[ 895 2643],[ 895 2645],[ 894 2646],[ 894 2648],[ 893 2649],[ 893 2651],[ 892 2652],[ 892 2655],[ 891 2656],[ 891 2658],[ 889 2660],[ 535 2660],[ 534 2659]

open : plan 1-room 9 : entry : [1218, 2007] : contour_details : [1017 1934],[1018 1933],[1450 1933],[1451 1934],[1451 2086],[1450 2087],[1173 2087],[1172 2086],[1077 2086],[1076 2085],[1075 2086],[1018 2086],[1017 2085]

open : plan 1-room 10 : toilet : [932, 1557] : contour_details : [ 894 1427],[ 895 1426],[ 989 1426],[ 990 1427],[ 990 1614],[ 991 1615],[ 999 1615],[1000 1614],[1000 1609],[1001 1608],[1112 1608],[1113 1609],[1113 1930],[1112 1931],[1018 1931],[1017 1930],[1017 1842],[1016 1841],[ 992 1841],[ 991 1840],[ 991 1788],[ 990 1787],[ 895 1787],[ 894 1786]

