Window : [1664,1781],[1758,1781],[1758,1807],[1664,1807] : [1] 
Window : [819,761],[1108,761],[1108,785],[819,785] : [1] 
Window : [1840,1549],[1883,1549],[1883,1691],[1840,1691] : [1] 
Window : [1361,1319],[1404,1319],[1404,1435],[1361,1435] : [1] 
Window : [1380,944],[1404,944],[1404,1016],[1380,1016] : [1] 
Window : [1604,1965],[1647,1965],[1647,2179],[1604,2179] : [1] 
Window : [873,2278],[1013,2278],[1013,2321],[873,2321] : [1] 
Window : [777,1573],[820,1573],[820,1644],[777,1644] : [1] 
Window : [778,1765],[821,1765],[820,1695],[778,1695] : [0.5] 
