Door : [1681,1572],[1780,1572],[1780,1580],[1681,1580] : [1] 
Door : [1663,1909],[1756,1909],[1756,1952],[1663,1952] : [1] 
Door : [1284,2080],[1384,2080],[1384,2088],[1284,2088] : [1] 
Door : [1520,1952],[1563,1952],[1563,2069],[1520,2069] : [1] 
Door : [1260,1584],[1285,1584],[1285,1686],[1260,1686] : [1] 
Door : [1520,1962],[1550,1962],[1550,2069],[1520,2069] : [1] 
Door : [1496,1461],[1496,1571],[1517,1571],[1517,1461] : [0.866666666667] 
Door : [1802,1550],[1815,1567],[1903,1494],[1890,1477] : [1] 
