Window : [1436,707],[1789,707],[1789,732],[1436,732] : [1] 
Window : [1807,1505],[1850,1505],[1850,1600],[1807,1600] : [1] 
Window : [1825,991],[1850,991],[1850,1063],[1825,1063] : [1] 
Window : [933,1711],[976,1711],[976,1783],[933,1783] : [1] 
Window : [976,1835],[1023,1835],[1023,1895],[976,1895] : [1] 
Window : [933,967],[958,967],[958,1039],[933,1039] : [1] 
Window : [1194,707],[1264,707],[1264,732],[1194,732] : [1] 
Window : [1807,2048],[1850,2048],[1850,2190],[1807,2190] : [1] 
Window : [933,2001],[976,2001],[976,2096],[933,2096] : [1] 
Window : [1252,2473],[1274,2474],[1419,2339],[1397,2338] : [0.6] 
