Unknown : [1574,2072],[1681,2072],[1681,2125],[1574,2125] : [0.3] 
Unknown : [1197,1455],[1304,1455],[1304,1508],[1197,1508] : [0.3] 
Unknown : [1481,1791],[1503,1863],[1524,1856],[1502,1784] : [0.3] 
Unknown : [931,988],[996,1320],[1017,1315],[952,983] : [0.3] 
