contour_details : [1709 1255],[1709 1256],[1707 1258],[1707 1259],[1704 1262],[1704 1263],[1702 1265],[1702 1266],[1699 1269],[1699 1270],[1696 1273],[1696 1274],[1694 1276],[1694 1277],[1691 1280],[1691 1281],[1689 1283],[1689 1284],[1686 1287],[1686 1288],[1684 1290],[1684 1291],[1681 1294],[1681 1295],[1678 1298],[1678 1299],[1676 1301],[1676 1302],[1673 1305],[1673 1306],[1671 1308],[1671 1309],[1668 1312],[1668 1313],[1666 1315],[1666 1316],[1663 1319],[1663 1320],[1660 1323],[1660 1324],[1658 1326],[1658 1327],[1655 1330],[1655 1331],[1653 1333],[1653 1334],[1650 1337],[1650 1338],[1648 1340],[1648 1341],[1645 1344],[1645 1345],[1642 1348],[1642 1349],[1640 1351],[1640 1352],[1637 1355],[1637 1356],[1635 1358],[1635 1359],[1632 1362],[1632 1363],[1630 1365],[1630 1366],[1627 1369],[1627 1370],[1624 1373],[1624 1374],[1622 1376],[1622 1377],[1619 1380],[1619 1381],[1617 1383],[1617 1384],[1614 1387],[1614 1388],[1612 1390],[1612 1391],[1609 1394],[1609 1395],[1606 1398],[1606 1399],[1604 1401],[1604 1402],[1601 1405],[1601 1406],[1599 1408],[1599 1409],[1596 1412],[1596 1413],[1594 1415],[1594 1416],[1591 1419],[1591 1420],[1588 1423],[1588 1424],[1586 1426],[1586 1427],[1583 1430],[1583 1431],[1581 1433],[1581 1434],[1578 1437],[1578 1438],[1576 1440],[1576 1441],[1573 1444],[1573 1445],[1570 1448],[1570 1449],[1568 1451],[1568 1452],[1565 1455],[1565 1456],[1563 1458],[1563 1459],[1560 1462],[1560 1463],[1558 1465],[1558 1466],[1555 1469],[1555 1470],[1552 1473],[1552 1474],[1550 1476],[1550 1477],[1547 1480],[1547 1481],[1545 1483],[1545 1484],[1542 1487],[1542 1488],[1540 1490],[1540 1491],[1537 1494],[1537 1495],[1534 1498],[1534 1499],[1532 1501],[1532 1502],[1530 1504],[1530 1724],[2149 1724],[2149 1685],[2148 1684],[2148 1623],[2147 1622],[2147 1564],[2146 1563],[2146 1505],[2145 1504],[2145 1449],[2144 1448],[2144 1430],[2095 1430],[2094 1429],[2094 1370],[2095 1369],[2144 1369],[2144 1255] : salon : [1764,1624]
contour_details : [1065 1105],[1065 1479],[1104 1479],[1105 1480],[1105 1489],[1525 1489],[1525 1488],[1527 1486],[1527 1485],[1530 1482],[1530 1481],[1532 1479],[1532 1478],[1534 1476],[1534 1475],[1537 1472],[1537 1471],[1539 1469],[1539 1468],[1542 1465],[1542 1464],[1544 1462],[1544 1461],[1547 1458],[1547 1457],[1549 1455],[1549 1454],[1551 1452],[1551 1451],[1554 1448],[1554 1447],[1556 1445],[1556 1444],[1559 1441],[1559 1440],[1561 1438],[1561 1437],[1564 1434],[1564 1433],[1566 1431],[1566 1430],[1568 1428],[1568 1427],[1571 1424],[1571 1423],[1573 1421],[1573 1420],[1576 1417],[1576 1416],[1578 1414],[1578 1413],[1581 1410],[1581 1409],[1583 1407],[1583 1406],[1585 1404],[1585 1403],[1588 1400],[1588 1399],[1590 1397],[1590 1396],[1593 1393],[1593 1392],[1595 1390],[1595 1389],[1598 1386],[1598 1385],[1600 1383],[1600 1382],[1602 1380],[1602 1379],[1605 1376],[1605 1375],[1607 1373],[1607 1372],[1610 1369],[1610 1368],[1612 1366],[1612 1365],[1615 1362],[1615 1361],[1617 1359],[1617 1358],[1619 1356],[1619 1355],[1622 1352],[1622 1351],[1624 1349],[1624 1348],[1627 1345],[1627 1344],[1629 1342],[1629 1341],[1632 1338],[1632 1337],[1634 1335],[1634 1334],[1636 1332],[1636 1331],[1639 1328],[1639 1327],[1641 1325],[1641 1324],[1644 1321],[1644 1320],[1646 1318],[1646 1317],[1649 1314],[1649 1313],[1651 1311],[1651 1310],[1653 1308],[1653 1307],[1656 1304],[1656 1303],[1658 1301],[1658 1300],[1661 1297],[1661 1296],[1663 1294],[1663 1293],[1666 1290],[1666 1289],[1668 1287],[1668 1286],[1670 1284],[1670 1283],[1673 1280],[1673 1279],[1675 1277],[1675 1276],[1678 1273],[1678 1272],[1680 1270],[1680 1269],[1683 1266],[1683 1265],[1685 1263],[1685 1262],[1687 1260],[1687 1259],[1690 1256],[1690 1255],[1692 1253],[1692 1252],[1694 1250],[1694 1110],[1657 1110],[1656 1109],[1531 1109],[1530 1108],[1405 1108],[1404 1107],[1279 1107],[1278 1106],[1153 1106],[1152 1105] : repas : [1281,1240]
contour_details : [1707 800],[1707 1244],[2068 1244],[2068 1000],[2069 999],[2141 999],[2141 800] : cuisine : [1864,1004]
contour_details : [1515 620],[1515 1094],[1689 1094],[1689 620] : cellier : [1597,973]
