contour_details : [1145 1240],[1145 1559],[1304 1559],[1304 1255],[1255 1255],[1254 1254],[1254 1240] : dress : [1230,1429]
contour_details : [655 1240],[655 1564],[1129 1564],[1129 1240] : chambre : [895,1394]
contour_details : [415 1240],[415 1269],[416 1270],[416 1313],[417 1314],[417 1357],[418 1358],[418 1401],[419 1402],[419 1445],[420 1446],[420 1459],[639 1459],[639 1240] : douche : [516,1371]
