Wall : [1814,1618],[1856,1618],[1856,1884],[1814,1884] : [1] 
Wall : [1814,1447],[1856,1447],[1856,1548],[1814,1548] : [1] 
Wall : [946,1984],[989,1984],[989,2185],[946,2185] : [1] 
Wall : [828,1323],[870,1323],[870,1524],[828,1524] : [1] 
Wall : [1814,2026],[1856,2026],[1856,2185],[1814,2185] : [1] 
Wall : [828,1665],[868,1665],[868,1866],[828,1866] : [1] 
Wall : [945,2143],[1065,2143],[1065,2185],[945,2185] : [1] 
Wall : [827,1323],[1425,1323],[1425,1364],[827,1364] : [1] 
Wall : [1549,1341],[1857,1341],[1857,1376],[1549,1376] : [1] 
Wall : [946,845],[970,845],[970,966],[946,966] : [1] 
Wall : [946,1249],[970,1249],[970,1364],[946,1364] : [1] 
Wall : [945,845],[1857,845],[1857,869],[945,869] : [1] 
Wall : [1832,845],[1856,845],[1856,1152],[1832,1152] : [1] 
Wall : [1832,1223],[1856,1223],[1856,1376],[1832,1376] : [1] 
Wall : [827,1824],[988,1824],[988,1869],[827,1869] : [1] 
Wall : [948,1825],[987,1825],[987,1878],[948,1878] : [1] 
Wall : [1346,2133],[1857,2133],[1857,2185],[1346,2185] : [1] 
Wall : [1736,1806],[1857,1806],[1857,1814],[1736,1814] : [1] 
Wall : [1624,1465],[1857,1465],[1857,1471],[1624,1471] : [1] 
Wall : [1447,1807],[1638,1807],[1638,1813],[1447,1813] : [1] 
Wall : [1624,1571],[1632,1571],[1632,1813],[1624,1813] : [1] 
