Total No of Rooms: 6
single : room 1 : closet : [1248,1672] : contour_details : [1161 1632],[1161 1668],[1162 1669],[1162 1704],[1363 1704],[1363 1632]

single : room 2 : bedroom 2 : [1580,1695] : contour_details : [1605 1494],[1604 1495],[1373 1495],[1373 1706],[1374 1707],[1374 1713],[1373 1714],[1373 2042],[1478 2042],[1479 2041],[1618 2041],[1619 2042],[1702 2042],[1702 1494]

single : room 3 : bedroom 1 : [1442,1188] : contour_details : [1190 1029],[1190 1381],[1366 1381],[1367 1380],[1465 1380],[1466 1381],[1642 1381],[1642 1239],[1641 1238],[1641 1110],[1642 1109],[1642 1029]

single : room 4 : garage : [1349,780] : contour_details : [948 592],[948 674],[947 675],[947 956],[966 956],[967 957],[967 1003],[1081 1003],[1082 1002],[1181 1002],[1182 1003],[1642 1003],[1642 803],[1643 802],[1660 802],[1660 732],[1661 731],[1661 592]

open : plan 1-room 5 : bedroom 3 : [1869, 1701] : contour_details : [1711 1497],[1712 1496],[1806 1496],[1807 1497],[1807 1571],[1808 1572],[2043 1572],[2044 1573],[2044 2040],[2043 2041],[1712 2041],[1711 2040]

open : plan 1-room 6 : bathroom : [1972, 1412] : contour_details : [1817 1285],[1818 1284],[2060 1284],[2061 1285],[2061 1417],[2060 1418],[2060 1421],[2059 1422],[2059 1425],[2058 1426],[2058 1428],[2057 1429],[2057 1432],[2056 1433],[2056 1436],[2055 1437],[2055 1439],[2054 1440],[2054 1443],[2053 1444],[2053 1446],[2052 1447],[2052 1454],[2051 1455],[2051 1458],[2050 1459],[2050 1462],[2049 1463],[2049 1465],[2048 1466],[2048 1469],[2047 1470],[2047 1472],[2046 1473],[2046 1476],[2045 1477],[2045 1479],[2044 1480],[2044 1569],[2043 1570],[1818 1570],[1817 1569]

open : plan 2-room 7 : kitchen : [1219, 1837] : contour_details : [ 888 1716],[ 889 1715],[1363 1715],[1364 1716],[1364 2040],[1363 2041],[ 889 2041],[ 888 2040]

open : plan 2-room 8 : dining : [618, 1925] : contour_details : [ 481 1526],[ 884 1526],[ 885 1527],[ 885 1714],[ 886 1715],[ 886 2300],[ 885 2301],[ 324 2301],[ 323 2300],[ 323 1684]

open : plan 2-room 9 : corridor : [1472, 1429] : contour_details : [1366 1391],[1367 1390],[1650 1390],[1651 1391],[1651 1485],[1650 1486],[1367 1486],[1366 1485]

open : plan 2-room 10 : entry : [1148, 1565] : contour_details : [1083 1390],[1363 1390],[1364 1391],[1364 1627],[1363 1628],[1153 1628],[1152 1629],[1152 1704],[1151 1705],[ 888 1705],[ 887 1704],[ 887 1527],[ 888 1526],[ 968 1526],[ 969 1525],[ 969 1523],[ 971 1521],[ 971 1520],[ 972 1519],[ 972 1518],[ 973 1517],[ 973 1516],[ 975 1514],[ 975 1513],[ 976 1512],[ 976 1511],[ 977 1510],[ 977 1509],[ 978 1508],[ 978 1507],[ 980 1505],[ 980 1504],[ 981 1503],[ 981 1502],[ 982 1501],[ 982 1500],[ 983 1499],[ 983 1498],[ 985 1496],[ 985 1495],[ 986 1494],[ 986 1493],[ 987 1492],[ 987 1491],[ 988 1490],[ 988 1489],[ 990 1487],[ 990 1486],[ 991 1485],[ 991 1484],[ 992 1483],[ 992 1482],[ 993 1481],[ 993 1480],[ 995 1478],[ 995 1477],[ 996 1476],[ 996 1475],[ 997 1474],[ 997 1473],[ 998 1472],[ 998 1471],[1000 1469],[1000 1468],[1001 1467],[1001 1466],[1002 1465],[1002 1464],[1004 1462],[1004 1461],[1005 1460],[1005 1459],[1006 1458],[1006 1457],[1007 1456],[1007 1455],[1009 1453],[1009 1452],[1010 1451],[1010 1450],[1011 1449],[1011 1448],[1012 1447],[1012 1446],[1014 1444],[1014 1443],[1015 1442],[1015 1441],[1016 1440],[1016 1439],[1017 1438],[1017 1437],[1019 1435],[1019 1434],[1020 1433],[1020 1432],[1021 1431],[1021 1430],[1022 1429],[1022 1428],[1024 1426],[1024 1425],[1025 1424],[1025 1423],[1026 1422],[1064 1422],[1065 1421],[1065 1408]

open : plan 2-room 11 : toilet : [1690, 1335] : contour_details : [1652 1285],[1653 1284],[1806 1284],[1807 1285],[1807 1379],[1806 1380],[1748 1380],[1747 1381],[1747 1389],[1748 1390],[1804 1390],[1805 1391],[1805 1485],[1804 1486],[1653 1486],[1652 1485]

open : plan 2-room 12 : cellar : [1086, 1176] : contour_details : [ 968 1030],[ 969 1029],[1179 1029],[1180 1030],[1180 1387],[1179 1388],[1085 1388],[1071 1374],[1070 1374],[1064 1368],[1064 1349],[1063 1348],[1045 1348],[1023 1326],[1023 1325],[ 968 1270]

