garage : [1546,1044] : [1461,1029,1631,1060] : confidence,dict,original_word,difference : [93,DM,None,0]
dressing room : [1170,1504] : [1078,1489,1263,1520] : confidence,dict,original_word,difference : [93,DM,None,0]
entry : [1517,1643] : [1468,1628,1566,1658] : confidence,dict,original_word,difference : [97,DM,None,0]
closet : [1718,1811] : [1698,1797,1739,1826] : confidence,dict,original_word,difference : [95,SG,pi,1]
kitchen : [1228,1857] : [1148,1842,1309,1873] : confidence,dict,original_word,difference : [93,DM,None,0]
living : [1203,2197] : [1137,2182,1270,2213] : confidence,dict,original_word,difference : [79,DM,None,0]
dining : [1607,2213] : [1526,2198,1688,2228] : confidence,dict,original_word,difference : [92,DM,None,0]
No Text Detected
