car port : [1636,386] : [1524,374,1748,398] : confidence,dict,original_word,difference : [88,DM,None,0]
garage : [1670,1129] : [1602,1117,1738,1142] : confidence,dict,original_word,difference : [86,DM,None,0]
dining : [528,1691] : [463,1679,593,1704] : confidence,dict,original_word,difference : [87,DM,None,0]
closet : [1602,1874] : [1580,1862,1624,1886] : confidence,dict,original_word,difference : [81,DM,None,0]
toilet : [1706,1873] : [1679,1861,1734,1886] : confidence,dict,original_word,difference : [81,DM,None,0]
entry : [1879,1885] : [1840,1873,1919,1897] : confidence,dict,original_word,difference : [91,DM,None,0]
living : [1167,1992] : [1114,1979,1220,2005] : confidence,dict,original_word,difference : [82,DM,None,0]
office : [2159,2104] : [2094,2092,2225,2116] : confidence,dict,original_word,difference : [89,DM,None,0]
closet : [1685,2168] : [1610,2156,1760,2181] : confidence,dict,original_word,difference : [87,DM,None,0]
kitchen : [1159,2234] : [1095,2221,1223,2247] : confidence,dict,original_word,difference : [87,DM,None,0]
cellar : [1628,2269] : [1562,2257,1695,2282] : confidence,dict,original_word,difference : [91,DM,None,0]
terrace : [557,2363] : [469,2332,646,2395] : confidence,dict,original_word,difference : [85,DM,None,0]
douche : [2162,2434] : [2094,2422,2231,2447] : confidence,dict,original_word,difference : [87,DM,None,0]
closet : [1632,2499] : [1557,2487,1707,2512] : confidence,dict,original_word,difference : [90,DM,None,0]
closet : [2151,2594] : [2076,2582,2226,2607] : confidence,dict,original_word,difference : [94,DM,None,0]
bedroom 1 : [1623,2777] : [1532,2765,1714,2789] : confidence,dict,original_word,difference : [88,DM,None,0]
bedroom 2 : [2109,2783] : [2016,2771,2202,2795] : confidence,dict,original_word,difference : [93,DM,None,0]
No Text Detected
