Total No of Rooms: 9
single : room 1 : closet : [1158,1543] : contour_details : [1125 1465],[1125 1544],[1126 1545],[1126 1625],[1198 1625],[1198 1465]

single : room 2 : bedroom 3 : [1466,1584] : contour_details : [1209 1463],[1209 1634],[1208 1635],[1131 1635],[1131 1792],[1395 1792],[1396 1791],[1637 1791],[1637 1711],[1636 1710],[1636 1464],[1306 1464],[1305 1463]

single : room 3 : closet : [1123,1319] : contour_details : [1008 1281],[1008 1353],[1233 1353],[1233 1281]

single : room 4 : bedroom 1 : [702,1200] : contour_details : [552 1003],[552 1347],[564 1347],[565 1348],[565 1356],[564 1357],[552 1357],[552 1365],[553 1365],[555 1367],[554 1368],[554 1369],[553 1370],[553 1371],[552 1372],[552 1377],[553 1377],[554 1378],[555 1378],[556 1379],[557 1379],[558 1380],[559 1380],[560 1381],[561 1381],[562 1382],[563 1382],[564 1383],[565 1383],[566 1384],[567 1384],[568 1385],[569 1385],[570 1386],[571 1386],[572 1387],[573 1387],[574 1388],[575 1388],[576 1389],[577 1389],[578 1390],[579 1390],[580 1391],[581 1391],[582 1392],[583 1392],[584 1393],[585 1393],[586 1394],[587 1394],[588 1395],[589 1395],[590 1396],[591 1396],[592 1397],[593 1397],[594 1398],[595 1398],[596 1399],[597 1399],[598 1400],[599 1400],[600 1401],[601 1401],[602 1402],[603 1402],[604 1403],[605 1403],[606 1404],[607 1404],[608 1405],[609 1405],[611 1407],[612 1407],[613 1408],[614 1408],[615 1409],[616 1409],[617 1410],[618 1410],[619 1411],[620 1411],[621 1412],[622 1412],[623 1413],[624 1413],[625 1414],[626 1414],[627 1415],[628 1415],[629 1416],[630 1416],[631 1417],[632 1417],[633 1418],[634 1418],[635 1419],[636 1419],[637 1420],[638 1420],[639 1421],[640 1421],[641 1422],[642 1422],[643 1423],[644 1423],[645 1424],[646 1424],[647 1425],[648 1425],[649 1426],[650 1426],[651 1427],[652 1427],[653 1428],[654 1428],[655 1429],[656 1429],[657 1430],[658 1430],[659 1431],[660 1431],[661 1432],[662 1432],[663 1433],[664 1433],[665 1434],[666 1434],[667 1435],[668 1435],[670 1437],[670 1456],[997 1456],[997 1355],[998 1354],[998 1280],[881 1280],[880 1279],[880 1274],[881 1273],[881 1168],[880 1167],[880 1060],[881 1059],[881 1003]

single : room 5 : closet : [746,964] : contour_details : [552 927],[552 963],[553 964],[553 999],[879 999],[879 927]

single : room 6 : unknown room : [1002,1043] : contour_details : [1043 926],[1042 927],[889 927],[889 1061],[888 1062],[888 1160],[1116 1160],[1116 926]

single : room 7 : office : [1469,918] : contour_details : [1284 749],[1284 760],[1283 761],[1283 853],[1284 854],[1284 885],[1285 886],[1285 904],[1284 905],[1284 907],[1285 908],[1285 920],[1284 921],[1284 925],[1283 926],[1243 926],[1243 1054],[1670 1054],[1670 954],[1671 953],[1671 749]

single : room 8 : cellar : [1457,653] : contour_details : [1284 559],[1284 741],[1671 741],[1671 659],[1670 658],[1670 560],[1389 560],[1388 559]

open : plan 1-room 9 : bedroom 2 : [946, 1578] : contour_details : [1027 1456],[1028 1455],[1064 1455],[1065 1456],[1121 1456],[1122 1457],[1122 1790],[1121 1791],[ 672 1791],[ 671 1790],[ 671 1466],[ 672 1465],[1026 1465],[1027 1464]

open : plan 1-room 10 : bathroom : [1506, 1289] : contour_details : [1455 1169],[1634 1169],[1635 1170],[1635 1454],[1634 1455],[1351 1455],[1350 1454],[1350 1340],[1351 1339],[1351 1307],[1352 1306],[1352 1275],[1375 1252],[1375 1251],[1410 1216],[1410 1215],[1445 1180],[1445 1179]

open : plan 1-room 11 : corridor : [1428, 1100] : contour_details : [1235 1064],[1236 1063],[1678 1063],[1679 1064],[1679 1111],[1680 1112],[1680 1158],[1679 1159],[1448 1159],[1447 1160],[1447 1163],[1429 1181],[1429 1182],[1403 1208],[1403 1209],[1376 1236],[1376 1237],[1350 1263],[1350 1264],[1342 1272],[1346 1276],[1347 1276],[1349 1278],[1350 1277],[1351 1278],[1351 1306],[1350 1307],[1350 1339],[1349 1340],[1349 1371],[1348 1372],[1341 1372],[1340 1373],[1340 1454],[1339 1455],[1066 1455],[1065 1454],[1009 1454],[1008 1453],[1008 1359],[1009 1358],[1244 1358],[1245 1357],[1245 1273],[1244 1272],[1242 1272],[1241 1271],[1241 1245],[1242 1244],[1242 1217],[1243 1216],[1243 1189],[1244 1188],[1244 1161],[1245 1160],[1244 1159],[1236 1159],[1235 1158]

open : plan 1-room 12 : living : [1972, 1088] : contour_details : [1680  924],[1681  923],[1780  923],[1781  924],[1881  924],[1882  925],[1983  925],[1984  926],[2084  926],[2085  927],[2186  927],[2187  928],[2287  928],[2288  929],[2389  929],[2390  930],[2489  930],[2490  931],[2490  951],[2421 1020],[2382  981],[2338 1025],[2343 1030],[2343 1031],[2358 1046],[2358 1047],[2368 1057],[2368 1323],[2367 1324],[1683 1324],[1682 1323],[1682 1160],[1681 1159],[1681 1112],[1680 1111]

open : plan 1-room 13 : toilet : [1189, 1017] : contour_details : [1151  908],[1152  907],[1155  907],[1156  908],[1161  908],[1162  909],[1167  909],[1168  910],[1172  910],[1173  911],[1178  911],[1179  912],[1184  912],[1185  913],[1190  913],[1191  914],[1195  914],[1196  915],[1201  915],[1202  916],[1207  916],[1208  917],[1213  917],[1214  918],[1218  918],[1219  919],[1221  919],[1222  920],[1223  920],[1224  921],[1226  921],[1227  922],[1228  922],[1229  923],[1231  923],[1233  925],[1233 1158],[1232 1159],[1152 1159],[1151 1158]

open : plan 1-room 14 : dining : [2374, 639] : contour_details : [2085  562],[2086  561],[2721  561],[2722  562],[2722  928],[2721  929],[2390  929],[2389  928],[2289  928],[2288  927],[2187  927],[2186  926],[2166  926],[2165  925],[2165  922],[2164  921],[2164  918],[2163  917],[2163  913],[2162  912],[2162  909],[2161  908],[2161  904],[2160  903],[2160  899],[2159  898],[2159  895],[2158  894],[2158  890],[2157  889],[2157  886],[2156  885],[2156  881],[2155  880],[2155  877],[2154  876],[2154  872],[2153  871],[2153  868],[2152  867],[2152  863],[2151  862],[2151  859],[2150  858],[2150  854],[2149  853],[2149  850],[2148  849],[2148  845],[2147  844],[2147  841],[2146  840],[2146  836],[2145  835],[2145  832],[2144  831],[2144  827],[2143  826],[2143  823],[2142  822],[2142  818],[2141  817],[2141  814],[2140  813],[2140  809],[2139  808],[2139  805],[2138  804],[2138  800],[2137  799],[2137  796],[2136  795],[2136  791],[2135  790],[2135  787],[2134  786],[2134  782],[2133  781],[2133  777],[2132  776],[2132  773],[2131  772],[2131  768],[2130  767],[2130  764],[2129  763],[2129  759],[2128  758],[2128  755],[2127  754],[2127  750],[2126  749],[2126  746],[2125  745],[2125  741],[2124  740],[2124  737],[2123  736],[2123  732],[2122  731],[2122  728],[2121  727],[2121  723],[2120  722],[2120  719],[2119  718],[2119  714],[2118  713],[2118  710],[2117  709],[2117  705],[2116  704],[2116  701],[2115  700],[2115  696],[2114  695],[2114  692],[2113  691],[2113  687],[2112  686],[2112  683],[2111  682],[2111  678],[2110  677],[2110  674],[2109  673],[2109  669],[2108  668],[2108  665],[2107  664],[2107  660],[2106  659],[2106  655],[2105  654],[2105  651],[2104  650],[2104  646],[2103  645],[2103  642],[2102  641],[2102  637],[2101  636],[2101  633],[2100  632],[2100  628],[2099  627],[2099  624],[2098  623],[2098  619],[2097  618],[2097  615],[2096  614],[2096  610],[2095  609],[2095  606],[2094  605],[2094  601],[2093  600],[2093  597],[2092  596],[2092  592],[2091  591],[2091  588],[2090  587],[2090  583],[2089  582],[2089  579],[2088  578],[2088  574],[2087  573],[2087  570],[2086  569],[2086  565],[2085  564]

open : plan 1-room 15 : kitchen : [1879, 716] : contour_details : [1680  562],[1681  561],[2083  561],[2084  562],[2084  564],[2085  565],[2085  568],[2086  569],[2086  573],[2087  574],[2087  577],[2088  578],[2088  582],[2089  583],[2089  587],[2090  588],[2090  591],[2091  592],[2091  596],[2092  597],[2092  600],[2093  601],[2093  605],[2094  606],[2094  609],[2095  610],[2095  614],[2096  615],[2096  618],[2097  619],[2097  623],[2098  624],[2098  627],[2099  628],[2099  632],[2100  633],[2100  636],[2101  637],[2101  641],[2102  642],[2102  645],[2103  646],[2103  650],[2104  651],[2104  654],[2105  655],[2105  659],[2106  660],[2106  663],[2107  664],[2107  668],[2108  669],[2108  672],[2109  673],[2109  677],[2110  678],[2110  681],[2111  682],[2111  686],[2112  687],[2112  690],[2113  691],[2113  695],[2114  696],[2114  699],[2115  700],[2115  704],[2116  705],[2116  709],[2117  710],[2117  713],[2118  714],[2118  718],[2119  719],[2119  722],[2120  723],[2120  727],[2121  728],[2121  731],[2122  732],[2122  736],[2123  737],[2123  740],[2124  741],[2124  745],[2125  746],[2125  749],[2126  750],[2126  754],[2127  755],[2127  758],[2128  759],[2128  763],[2129  764],[2129  767],[2130  768],[2130  772],[2131  773],[2131  776],[2132  777],[2132  781],[2133  782],[2133  785],[2134  786],[2134  790],[2135  791],[2135  794],[2136  795],[2136  799],[2137  800],[2137  803],[2138  804],[2138  808],[2139  809],[2139  812],[2140  813],[2140  817],[2141  818],[2141  821],[2142  822],[2142  826],[2143  827],[2143  831],[2144  832],[2144  835],[2145  836],[2145  840],[2146  841],[2146  844],[2147  845],[2147  849],[2148  850],[2148  853],[2149  854],[2149  858],[2150  859],[2150  862],[2151  863],[2151  867],[2152  868],[2152  871],[2153  872],[2153  876],[2154  877],[2154  880],[2155  881],[2155  885],[2156  886],[2156  889],[2157  890],[2157  894],[2158  895],[2158  898],[2159  899],[2159  903],[2160  904],[2160  907],[2161  908],[2161  912],[2162  913],[2162  916],[2163  917],[2163  921],[2164  922],[2164  925],[2163  926],[2086  926],[2085  925],[1984  925],[1983  924],[1883  924],[1882  923],[1781  923],[1780  922],[1681  922],[1680  921]

