Window : [1760,1344],[1803,1344],[1803,1487],[1760,1487] : [1] 
Window : [563,1194],[632,1194],[632,1236],[563,1236] : [1] 
Window : [372,1483],[415,1483],[415,1555],[372,1555] : [1] 
Window : [1760,1731],[1803,1731],[1803,2015],[1760,2015] : [1] 
Window : [819,1194],[960,1194],[960,1236],[819,1236] : [1] 
Window : [1372,2121],[1654,2121],[1654,2163],[1372,2163] : [1] 
Window : [749,2326],[1031,2326],[1031,2370],[749,2370] : [1] 
