Wall : [1653,913],[1696,913],[1696,1214],[1653,1214] : [1] 
Wall : [1653,1798],[1696,1798],[1696,1952],[1653,1952] : [1] 
Wall : [1653,1355],[1696,1355],[1696,1657],[1653,1657] : [1] 
Wall : [696,1756],[846,1756],[846,1799],[696,1799] : [1] 
Wall : [1127,1757],[1265,1757],[1265,1800],[1127,1800] : [1] 
Wall : [1221,1909],[1371,1909],[1371,1952],[1221,1952] : [1] 
Wall : [1546,1909],[1696,1909],[1696,1952],[1546,1952] : [1] 
Wall : [578,918],[1436,918],[1436,958],[578,958] : [1] 
Wall : [578,1255],[620,1255],[620,1438],[578,1438] : [1] 
Wall : [1511,913],[1696,913],[1696,955],[1511,955] : [1] 
Wall : [578,1396],[739,1396],[739,1439],[578,1439] : [1] 
Wall : [578,913],[620,913],[620,1114],[578,1114] : [1] 
Wall : [1299,913],[1323,913],[1323,1173],[1299,1173] : [1] 
Wall : [1222,1297],[1246,1297],[1246,1438],[1222,1438] : [1] 
Wall : [1299,1273],[1323,1273],[1323,1320],[1299,1320] : [1] 
Wall : [1221,1296],[1324,1296],[1324,1321],[1221,1321] : [1] 
Wall : [697,1397],[738,1397],[738,1456],[697,1456] : [1] 
Wall : [578,913],[1442,913],[1442,938],[578,938] : [1] 
Wall : [697,1739],[735,1739],[735,1799],[697,1799] : [1] 
Wall : [1222,1757],[1246,1757],[1246,1810],[1222,1810] : [1] 
Wall : [1537,1053],[1696,1053],[1696,1062],[1537,1062] : [1] 
Wall : [1239,1527],[1696,1527],[1696,1533],[1239,1533] : [1] 
Wall : [1257,1757],[1264,1757],[1264,1810],[1257,1810] : [1] 
Wall : [1081,959],[1087,959],[1087,1167],[1081,1167] : [1] 
Wall : [578,949],[1442,949],[1442,954],[578,954] : [1] 
Wall : [1298,1054],[1439,1054],[1439,1061],[1298,1061] : [1] 
Wall : [1240,1297],[1246,1297],[1246,1533],[1240,1533] : [1] 
