balcon : [1345,1002] : [1281,990,1410,1015] : confidence,dict,original_word,difference : [87,DM,None,0]
bedroom : [1315,1163] : [1303,1153,1327,1174] : confidence,dict,original_word,difference : [75,SG,ce,1]
toilet : [825,1224] : [798,1212,853,1237] : confidence,dict,original_word,difference : [93,DM,None,0]
douche : [679,1256] : [611,1244,748,1269] : confidence,dict,original_word,difference : [89,DM,None,0]
entry : [1194,1262] : [1155,1250,1233,1274] : confidence,dict,original_word,difference : [91,DM,None,0]
kitchen : [1642,1328] : [1579,1315,1706,1341] : confidence,dict,original_word,difference : [83,DM,None,0]
living : [1562,1596] : [1509,1584,1615,1609] : confidence,dict,original_word,difference : [73,DM,None,0]
terrassebois : [1995,1616] : [1867,1604,2124,1629] : confidence,dict,original_word,difference : [83,DM,None,0]
bedroom 1 : [707,1658] : [616,1646,798,1670] : confidence,dict,original_word,difference : [86,DM,None,0]
dining : [1136,1831] : [1071,1819,1201,1844] : confidence,dict,original_word,difference : [92,DM,None,0]
closet : [1995,1676] : [1987,1688,2003,1664] : confidence,dict,original_word,difference : [81,SG,ul,1]
No Text Detected
