Wall : [828,245],[851,245],[851,269],[828,269] : [1] 
Wall : [1477,593],[1537,593],[1537,954],[1477,954] : [1] 
Wall : [992,1178],[1425,1178],[1425,1220],[992,1220] : [1] 
Wall : [827,593],[1520,593],[1520,635],[827,635] : [1] 
Wall : [3024,1054],[3066,1054],[3066,1178],[3024,1178] : [1] 
Wall : [2704,1679],[2907,1679],[2907,1723],[2704,1723] : [1] 
Wall : [3024,753],[3066,753],[3066,877],[3024,877] : [1] 
Wall : [827,840],[1035,840],[1035,885],[827,885] : [1] 
Wall : [2651,1137],[3067,1137],[3067,1178],[2651,1178] : [1] 
Wall : [2297,2188],[2588,2188],[2588,2229],[2297,2229] : [1] 
Wall : [2521,753],[3067,753],[3067,794],[2521,794] : [1] 
Wall : [828,717],[869,717],[869,883],[828,883] : [1] 
Wall : [1495,1288],[1536,1288],[1536,1580],[1495,1580] : [1] 
Wall : [2013,752],[2122,752],[2122,794],[2013,794] : [1] 
Wall : [2865,1538],[2906,1538],[2906,1722],[2865,1722] : [1] 
Wall : [1996,2170],[2039,2170],[2039,2229],[1996,2229] : [1] 
Wall : [1476,753],[1921,753],[1921,794],[1476,794] : [1] 
Wall : [2864,1137],[2906,1137],[2906,1361],[2864,1361] : [1] 
Wall : [993,841],[1034,841],[1034,930],[993,930] : [1] 
Wall : [1990,1154],[2210,1154],[2210,1178],[1990,1178] : [1] 
Wall : [1695,2210],[2063,2210],[2063,2235],[1695,2235] : [1] 
Wall : [2527,1153],[2553,1153],[2553,1178],[2527,1178] : [1] 
Wall : [1371,1721],[1396,1721],[1396,1910],[1371,1910] : [1] 
Wall : [1991,1078],[2015,1078],[2015,1178],[1991,1178] : [1] 
Wall : [1635,1078],[1886,1078],[1886,1101],[1635,1101] : [1] 
Wall : [1482,1078],[1537,1078],[1537,1102],[1482,1102] : [1] 
Wall : [2374,1698],[2398,1698],[2398,1727],[2374,1727] : [1] 
Wall : [2192,753],[2215,753],[2215,794],[2192,794] : [1] 
Wall : [2050,729],[2072,729],[2072,794],[2050,794] : [1] 
Wall : [1706,2234],[1723,2217],[1387,1881],[1370,1898] : [1] 
Wall : [1512,1096],[1495,1078],[1362,1202],[1379,1220] : [1] 
Wall : [1403,1236],[1426,1211],[1391,1177],[1368,1202] : [1] 
Wall : [828,1196],[851,1196],[851,1220],[828,1220] : [1] 
Wall : [828,593],[851,593],[851,647],[828,647] : [1] 
Wall : [1972,1700],[2039,1700],[2039,1720],[1972,1720] : [1] 
Wall : [993,1143],[1034,1143],[1034,1220],[993,1220] : [1] 
Wall : [2681,2187],[2748,2187],[2748,2229],[2681,2229] : [1] 
Wall : [1988,1680],[2039,1680],[2039,1840],[1988,1840] : [1] 
Wall : [1978,1683],[2039,1683],[2039,1702],[1978,1702] : [1] 
Wall : [2705,1680],[2765,1680],[2765,2229],[2705,2229] : [1] 
Wall : [1399,840],[1537,840],[1537,849],[1399,849] : [1] 
Wall : [1143,1178],[1149,1178],[1149,1258],[1143,1258] : [1] 
Wall : [1408,1163],[1413,1163],[1413,1226],[1408,1226] : [1] 
Wall : [1393,1176],[1398,1176],[1398,1228],[1393,1228] : [1] 
Wall : [1399,1170],[1407,1170],[1407,1233],[1399,1233] : [1] 
Wall : [862,593],[869,593],[869,647],[862,647] : [1] 
Wall : [1211,593],[1217,593],[1217,848],[1211,848] : [1] 
Wall : [2528,753],[2534,753],[2534,1178],[2528,1178] : [1] 
Wall : [827,728],[1035,728],[1035,736],[827,736] : [1] 
Wall : [1623,1344],[1503,1282],[1501,1287],[1621,1349] : [1] 
Wall : [1494,1343],[1886,1343],[1886,1350],[1494,1350] : [1] 
Wall : [1479,1306],[1537,1306],[1537,1316],[1479,1316] : [1] 
Wall : [2097,753],[2103,753],[2103,977],[2097,977] : [1] 
Wall : [1996,2187],[2063,2187],[2063,2193],[1996,2193] : [1] 
Wall : [1996,2191],[2057,2191],[2057,2207],[1996,2207] : [1] 
Wall : [1636,753],[1643,753],[1643,1178],[1636,1178] : [1] 
Wall : [2203,753],[2209,753],[2209,1178],[2203,1178] : [1] 
Wall : [1878,971],[1886,971],[1886,1252],[1878,1252] : [1] 
Wall : [2179,1721],[2399,1721],[2399,1727],[2179,1727] : [1] 
Wall : [1996,1720],[2122,1720],[2122,1728],[1996,1728] : [1] 
Wall : [1133,841],[1301,841],[1301,848],[1133,848] : [1] 
Wall : [1984,971],[2104,971],[2104,977],[1984,977] : [1] 
Wall : [1643,1179],[1878,1179],[1878,1175],[1643,1175] : [1] 
Wall : [2014,1080],[2202,1080],[2202,1076],[2014,1076] : [1] 
