Door : [1944,721],[1951,721],[1951,834],[1944,834] : [1] 
Door : [1108,1057],[1130,1057],[1130,1165],[1108,1165] : [1] 
Door : [1360,1338],[1366,1338],[1366,1442],[1360,1442] : [1] 
Door : [1240,1329],[1249,1329],[1249,1442],[1240,1442] : [1] 
Door : [1944,721],[1951,721],[1951,834],[1944,834] : [1] 
Door : [1843,1051],[1851,1051],[1851,1165],[1843,1165] : [1] 
Door : [1240,1329],[1249,1329],[1249,1442],[1240,1442] : [1] 
Door : [2387,1460],[2429,1460],[2429,905],[2387,905] : [0.5] 
