Wall : [1107,2079],[1153,2079],[1153,2593],[1107,2593] : [1] 
Wall : [183,1252],[225,1252],[225,1447],[183,1447] : [1] 
Wall : [183,2032],[225,2032],[225,2239],[183,2239] : [1] 
Wall : [183,1589],[225,1589],[225,1855],[183,1855] : [1] 
Wall : [536,2550],[733,2550],[733,2593],[536,2593] : [1] 
Wall : [1836,1636],[1878,1636],[1878,2120],[1836,2120] : [1] 
Wall : [1298,1370],[1879,1370],[1879,1412],[1298,1412] : [1] 
Wall : [1836,1370],[1878,1370],[1878,1494],[1836,1494] : [1] 
Wall : [967,1198],[1153,1198],[1153,1242],[967,1242] : [1] 
Wall : [1110,957],[1152,957],[1152,1241],[1110,1241] : [1] 
Wall : [1068,1370],[1229,1370],[1229,1412],[1068,1412] : [1] 
Wall : [182,2196],[340,2196],[340,2240],[182,2240] : [1] 
Wall : [536,2437],[579,2437],[579,2593],[536,2593] : [1] 
Wall : [183,614],[225,614],[225,1111],[183,1111] : [1] 
Wall : [1015,2550],[1153,2550],[1153,2593],[1015,2593] : [1] 
Wall : [968,1358],[1011,1358],[1011,1412],[968,1412] : [1] 
Wall : [1322,2079],[1554,2079],[1554,2120],[1322,2120] : [1] 
Wall : [1694,2078],[1879,2078],[1879,2120],[1694,2120] : [1] 
Wall : [1109,2079],[1229,2079],[1229,2121],[1109,2121] : [1] 
Wall : [182,992],[863,992],[863,1016],[182,1016] : [1] 
Wall : [690,614],[1153,614],[1153,638],[690,638] : [1] 
Wall : [182,614],[621,614],[621,638],[182,638] : [1] 
Wall : [961,992],[1153,992],[1153,1017],[961,1017] : [1] 
Wall : [1128,614],[1152,614],[1152,674],[1128,674] : [1] 
Wall : [341,2246],[354,2231],[316,2196],[302,2209] : [1] 
Wall : [322,2261],[346,2237],[301,2191],[277,2214] : [1] 
Wall : [968,1199],[1010,1199],[1010,1253],[968,1253] : [1] 
Wall : [967,1369],[1023,1369],[1023,1392],[967,1392] : [1] 
Wall : [967,2079],[1229,2079],[1229,2086],[967,2086] : [1] 
Wall : [182,1347],[704,1347],[704,1353],[182,1353] : [1] 
Wall : [182,2226],[351,2226],[351,2232],[182,2232] : [1] 
Wall : [182,1683],[704,1683],[704,1689],[182,1689] : [1] 
Wall : [549,2431],[555,2431],[555,2593],[549,2593] : [1] 
Wall : [1440,1742],[1879,1742],[1879,1748],[1440,1748] : [1] 
Wall : [1441,1370],[1447,1370],[1447,1642],[1441,1642] : [1] 
Wall : [961,1198],[1153,1198],[1153,1203],[961,1203] : [1] 
Wall : [1075,1370],[1081,1370],[1081,1642],[1075,1642] : [1] 
Wall : [308,2197],[315,2197],[315,2249],[308,2249] : [1] 
Wall : [316,2201],[328,2201],[328,2259],[316,2259] : [1] 
Wall : [528,2464],[580,2464],[580,2469],[528,2469] : [1] 
Wall : [523,2455],[580,2455],[580,2463],[523,2463] : [1] 
Wall : [967,1404],[1023,1404],[1023,1412],[967,1412] : [1] 
Wall : [1334,1742],[1341,1742],[1341,2120],[1334,2120] : [1] 
Wall : [697,992],[703,992],[703,1247],[697,1247] : [1] 
Wall : [967,1742],[975,1742],[975,2085],[967,2085] : [1] 
Wall : [697,1453],[703,1453],[703,1819],[697,1819] : [1] 
Wall : [1333,1636],[1448,1636],[1448,1642],[1333,1642] : [1] 
Wall : [1074,1636],[1235,1636],[1235,1642],[1074,1642] : [1] 
Wall : [968,1358],[975,1358],[975,1642],[968,1642] : [1] 
Wall : [696,1199],[863,1199],[863,1205],[696,1205] : [1] 
Wall : [967,1742],[1235,1742],[1235,1748],[967,1748] : [1] 
