Door : [1585,1423],[1685,1423],[1685,1447],[1585,1447] : [1] 
Door : [1040,1528],[1146,1528],[1146,1569],[1040,1569] : [1] 
Door : [1683,1527],[1709,1527],[1709,1628],[1683,1628] : [1] 
Door : [1684,1742],[1709,1742],[1709,1843],[1684,1843] : [1] 
Door : [1028,1775],[1035,1775],[1035,1876],[1028,1876] : [1] 
