Door : [1195,1783],[1295,1783],[1295,1790],[1195,1790] : [1] 
Door : [1196,1210],[1295,1210],[1295,1235],[1196,1235] : [1] 
Door : [1196,1416],[1295,1416],[1295,1424],[1196,1424] : [1] 
Door : [1090,2119],[1189,2119],[1189,2126],[1090,2126] : [1] 
Door : [1196,1670],[1295,1670],[1295,1678],[1196,1678] : [1] 
Door : [1294,1570],[1302,1570],[1302,1671],[1294,1671] : [1] 
Door : [1419,2178],[1430,2178],[1430,2274],[1419,2274] : [1] 
Door : [1294,1464],[1302,1464],[1302,1565],[1294,1565] : [1] 
Door : [834,1517],[877,1517],[877,1626],[834,1626] : [1] 
Door : [890,1499],[970,1499],[970,1520],[890,1520] : [0.866666666667] 
