Wall : [721,1500],[1092,1500],[1092,1542],[721,1542] : [1] 
Wall : [1713,715],[1756,715],[1756,963],[1713,963] : [1] 
Wall : [1649,2073],[1692,2073],[1692,2132],[1649,2132] : [1] 
Wall : [2859,1440],[2997,1440],[2997,1483],[2859,1483] : [1] 
Wall : [2718,1742],[2760,1742],[2760,1896],[2718,1896] : [1] 
Wall : [2718,1441],[2761,1441],[2761,1601],[2718,1601] : [1] 
Wall : [2954,1046],[2996,1046],[2996,1205],[2954,1205] : [1] 
Wall : [1306,1500],[1544,1500],[1544,1542],[1306,1542] : [1] 
Wall : [2954,1347],[2996,1347],[2996,1506],[2954,1506] : [1] 
Wall : [1636,1502],[1692,1502],[1692,1545],[1636,1545] : [1] 
Wall : [2221,2091],[2548,2091],[2548,2132],[2221,2132] : [1] 
Wall : [722,939],[763,939],[763,1542],[722,1542] : [1] 
Wall : [2546,1069],[2997,1069],[2997,1110],[2546,1110] : [1] 
Wall : [2482,1855],[2523,1855],[2523,2132],[2482,2132] : [1] 
Wall : [2623,1854],[2761,1854],[2761,1896],[2623,1896] : [1] 
Wall : [1483,715],[1627,715],[1627,756],[1483,756] : [1] 
Wall : [1216,715],[1414,715],[1414,756],[1216,756] : [1] 
Wall : [722,732],[764,732],[764,868],[722,868] : [1] 
Wall : [661,408],[701,408],[701,639],[661,639] : [1] 
Wall : [865,200],[1093,200],[1093,243],[865,243] : [1] 
Wall : [1973,715],[2016,715],[2016,1240],[1973,1240] : [1] 
Wall : [1299,549],[1276,542],[1244,684],[1267,691] : [1] 
Wall : [2439,715],[2477,715],[2477,1110],[2439,1110] : [1] 
Wall : [878,258],[857,223],[787,263],[808,298] : [1] 
Wall : [702,340],[732,340],[732,428],[702,428] : [1] 
Wall : [1150,300],[1173,265],[1119,231],[1096,266] : [1] 
Wall : [844,258],[814,230],[719,334],[749,361] : [1] 
Wall : [1230,396],[1264,373],[1225,316],[1191,339] : [1] 
Wall : [1230,402],[1258,384],[1189,278],[1161,296] : [1] 
Wall : [1209,657],[1240,657],[1240,724],[1209,724] : [1] 
Wall : [1186,1063],[1212,1063],[1212,1542],[1186,1542] : [1] 
Wall : [1648,1801],[1692,1801],[1692,1825],[1648,1825] : [1] 
Wall : [1648,1063],[1674,1063],[1674,1093],[1648,1093] : [1] 
Wall : [1967,715],[2087,715],[2087,739],[1967,739] : [1] 
Wall : [2370,1087],[2393,1087],[2393,1240],[2370,1240] : [1] 
Wall : [1991,1347],[2394,1347],[2394,1370],[1991,1370] : [1] 
Wall : [2369,1086],[2477,1086],[2477,1111],[2369,1111] : [1] 
Wall : [1696,715],[1780,715],[1780,739],[1696,739] : [1] 
Wall : [2369,715],[2489,715],[2489,739],[2369,739] : [1] 
Wall : [702,607],[725,607],[725,660],[702,660] : [1] 
Wall : [1956,2091],[1974,2091],[1974,2132],[1956,2132] : [1] 
Wall : [1059,245],[1156,245],[1156,262],[1059,262] : [1] 
Wall : [1227,380],[1254,355],[1156,250],[1129,275] : [1] 
Wall : [1276,769],[1287,754],[1206,686],[1195,701] : [1] 
Wall : [1295,589],[1277,585],[1262,636],[1280,640] : [1] 
Wall : [2004,1371],[2019,1355],[2006,1342],[1991,1358] : [1] 
Wall : [929,247],[949,233],[929,202],[908,215] : [1] 
Wall : [717,434],[742,348],[715,340],[690,426] : [1] 
Wall : [2971,715],[2996,715],[2996,762],[2971,762] : [1] 
Wall : [2947,715],[2997,715],[2997,739],[2947,739] : [1] 
Wall : [2972,2085],[2996,2085],[2996,2132],[2972,2132] : [1] 
Wall : [2947,2108],[2997,2108],[2997,2132],[2947,2132] : [1] 
Wall : [1691,2091],[1708,2091],[1708,2132],[1691,2132] : [1] 
Wall : [1713,920],[1768,920],[1768,963],[1713,963] : [1] 
Wall : [1649,1500],[1689,1500],[1689,1553],[1649,1553] : [1] 
Wall : [2374,1341],[2394,1341],[2394,1370],[2374,1370] : [1] 
Wall : [1648,2090],[1709,2090],[1709,2129],[1648,2129] : [1] 
Wall : [1696,740],[1757,740],[1757,754],[1696,754] : [1] 
Wall : [1531,1063],[1537,1063],[1537,1542],[1531,1542] : [1] 
Wall : [721,1140],[1095,1140],[1095,1146],[721,1146] : [1] 
Wall : [721,957],[1095,957],[1095,963],[721,963] : [1] 
Wall : [2576,1069],[2582,1069],[2582,1264],[2576,1264] : [1] 
Wall : [1608,715],[1614,715],[1614,963],[1608,963] : [1] 
Wall : [1271,715],[1277,715],[1277,963],[1271,963] : [1] 
Wall : [721,749],[912,749],[912,757],[721,757] : [1] 
Wall : [728,654],[733,650],[664,544],[659,548] : [1] 
Wall : [702,581],[711,581],[711,663],[702,663] : [1] 
Wall : [703,353],[714,353],[714,459],[703,459] : [1] 
Wall : [1037,244],[1145,244],[1145,251],[1037,251] : [1] 
Wall : [808,244],[909,244],[909,258],[808,258] : [1] 
Wall : [1259,538],[1272,538],[1272,669],[1259,669] : [1] 
Wall : [733,315],[738,315],[738,388],[733,388] : [1] 
Wall : [696,369],[701,369],[701,667],[696,667] : [1] 
Wall : [733,311],[745,311],[745,380],[733,380] : [1] 
Wall : [687,379],[701,379],[701,668],[687,668] : [1] 
Wall : [1114,272],[1186,272],[1186,282],[1114,282] : [1] 
Wall : [1217,311],[1222,311],[1222,379],[1217,379] : [1] 
Wall : [1151,299],[1213,299],[1213,306],[1151,306] : [1] 
Wall : [1130,284],[1197,284],[1197,290],[1130,290] : [1] 
Wall : [1194,702],[1245,702],[1245,707],[1194,707] : [1] 
Wall : [1197,693],[1249,693],[1249,701],[1197,701] : [1] 
Wall : [1636,1063],[1875,1063],[1875,1069],[1636,1069] : [1] 
Wall : [683,644],[1018,644],[1018,650],[683,650] : [1] 
Wall : [833,228],[1124,228],[1124,243],[833,243] : [1] 
Wall : [1199,748],[1414,748],[1414,756],[1199,756] : [1] 
Wall : [1209,740],[1414,740],[1414,745],[1209,745] : [1] 
Wall : [1991,1363],[2583,1363],[2583,1370],[1991,1370] : [1] 
Wall : [1636,1500],[1875,1500],[1875,1507],[1636,1507] : [1] 
Wall : [1300,1063],[1538,1063],[1538,1069],[1300,1069] : [1] 
Wall : [1087,1063],[1095,1063],[1095,1146],[1087,1146] : [1] 
Wall : [1011,829],[1017,829],[1017,963],[1011,963] : [1] 
Wall : [1489,957],[1615,957],[1615,963],[1489,963] : [1] 
Wall : [1194,957],[1390,957],[1390,963],[1194,963] : [1] 
Wall : [1245,588],[1258,588],[1258,691],[1245,691] : [1] 
Wall : [1233,624],[1249,624],[1249,707],[1233,707] : [1] 
Wall : [1790,1063],[1797,1063],[1797,1311],[1790,1311] : [1] 
Wall : [1868,1305],[1874,1305],[1874,1506],[1868,1506] : [1] 
Wall : [1790,1305],[1875,1305],[1875,1311],[1790,1311] : [1] 
Wall : [1010,750],[1018,750],[1018,805],[1010,805] : [1] 
Wall : [1010,750],[1095,750],[1095,756],[1010,756] : [1] 
Wall : [687,668],[708,642],[686,641],[681,640] : [1] 
