Window : [1586,1298],[1629,1298],[1629,1370],[1586,1370] : [1] 
Window : [1586,1192],[1629,1192],[1629,1264],[1586,1264] : [1] 
Window : [1487,2419],[1769,2419],[1769,2463],[1487,2463] : [1] 
Window : [818,1785],[861,1785],[861,1928],[818,1928] : [1] 
Window : [1316,708],[1385,708],[1385,732],[1316,732] : [1] 
Window : [494,767],[518,767],[518,1051],[494,1051] : [1] 
Window : [1074,708],[1143,708],[1143,732],[1074,732] : [1] 
Window : [635,1210],[678,1210],[678,1352],[635,1352] : [1] 
Window : [1585,1109],[1630,1109],[1630,1264],[1585,1264] : [1] 
Window : [1832,1748],[1894,1748],[1894,1606],[1853,1606] : [0.6] 
Window : [972,2463],[973,2409],[874,2102],[818,2102] : [0.6] 
