Total No of Rooms: 4
single : room 1 : closet : [1828,1197] : contour_details : [1798 1091],[1798 1196],[1799 1197],[1799 1302],[1871 1302],[1871 1091]

single : room 2 : office : [1651,1222] : contour_details : [1539 1069],[1538 1070],[1538 1499],[1542 1499],[1543 1498],[1635 1498],[1636 1499],[1867 1499],[1867 1312],[1790 1312],[1789 1311],[1789 1070],[1675 1070],[1675 1093],[1674 1094],[1648 1094],[1647 1093],[1647 1070],[1636 1070],[1635 1069]

single : room 3 : cellar : [2473,1185] : contour_details : [2478 1110],[2478 1111],[2477 1112],[2394 1112],[2394 1240],[2393 1241],[2393 1340],[2394 1340],[2395 1341],[2395 1362],[2574 1362],[2574 1263],[2575 1262],[2575 1111],[2546 1111],[2545 1110]

single : room 4 : toilet : [1655,861] : contour_details : [1628 756],[1627 757],[1615 757],[1615 955],[1712 955],[1712 756]

