Window : [1692,617],[1736,617],[1736,752],[1692,752] : [1] 
Window : [2473,752],[2550,752],[2550,795],[2473,795] : [1] 
Window : [719,1490],[1002,1490],[1002,1531],[719,1531] : [1] 
Window : [2190,752],[2266,752],[2266,795],[2190,795] : [1] 
Window : [1109,575],[1397,575],[1397,600],[1109,600] : [1] 
Window : [2986,882],[3028,882],[3028,1167],[2986,1167] : [1] 
Window : [2255,1727],[2537,1727],[2537,1769],[2255,1769] : [1] 
Window : [2662,1727],[2944,1727],[2944,1769],[2662,1769] : [1] 
Window : [635,628],[660,628],[660,1054],[635,1054] : [1] 
Window : [2190,752],[2259,752],[2259,795],[2190,795] : [1] 
Window : [1852,1727],[2135,1727],[2135,1769],[1852,1769] : [1] 
Window : [1144,1490],[1427,1490],[1427,1533],[1144,1533] : [1] 
Window : [1547,1769],[1829,1769],[1829,1728],[1547,1727] : [0.5] 
Window : [1819,795],[2076,795],[2076,753],[1819,752] : [0.5] 
