garage : [1223,574] : [1156,562,1290,587] : confidence,dict,original_word,difference : [86,DM,None,0]
porch : [2457,976] : [2390,964,2524,989] : confidence,dict,original_word,difference : [92,DM,None,0]
entry : [1978,1041] : [1940,1030,2017,1053] : confidence,dict,original_word,difference : [84,DM,None,0]
dining : [536,1106] : [472,1094,600,1119] : confidence,dict,original_word,difference : [89,DM,None,0]
living : [1202,1200] : [1149,1188,1255,1213] : confidence,dict,original_word,difference : [86,DM,None,0]
cellar : [1869,1247] : [1803,1235,1935,1260] : confidence,dict,original_word,difference : [66,DM,None,0]
kitchen : [1634,1312] : [1570,1300,1698,1325] : confidence,dict,original_word,difference : [85,DM,None,0]
bedroom : [1243,1371] : [1216,1344,1270,1398] : confidence,dict,original_word,difference : [71,SG,eh,1]
closet : [433,1435] : [415,1424,451,1447] : confidence,dict,original_word,difference : [94,DM,None,0]
bedroom : [1243,1453] : [1216,1426,1270,1480] : confidence,dict,original_word,difference : [71,SG,eh,1]
bathroom : [2448,1537] : [2402,1525,2495,1550] : confidence,dict,original_word,difference : [87,DM,None,0]
chambreparents : [524,1879] : [447,1848,601,1910] : confidence,dict,original_word,difference : [87,DM,None,0]
terrace : [1381,1856] : [1201,1844,1562,1869] : confidence,dict,original_word,difference : [87,DM,None,0]
closet : [172,2234] : [140,2205,205,2263] : confidence,dict,original_word,difference : [84,SG,pi,1]
bedroom : [222,1358] : [202,1381,242,1336] : confidence,dict,original_word,difference : [71,SG,cl,1]
No Text Detected
