Wall : [1336,2481],[1581,2481],[1581,2523],[1336,2523] : [1] 
Wall : [1744,2481],[2029,2481],[2029,2523],[1744,2523] : [1] 
Wall : [268,2481],[500,2481],[500,2523],[268,2523] : [1] 
Wall : [781,2481],[1037,2481],[1037,2523],[781,2523] : [1] 
Wall : [2193,2480],[2366,2480],[2366,2523],[2193,2523] : [1] 
Wall : [2324,1903],[2365,1903],[2365,2523],[2324,2523] : [1] 
Wall : [1348,1695],[1433,1695],[1433,1737],[1348,1737] : [1] 
Wall : [1514,1578],[1699,1578],[1699,1619],[1514,1619] : [1] 
Wall : [1768,1578],[2366,1578],[2366,1619],[1768,1619] : [1] 
Wall : [269,1489],[311,1489],[311,1660],[269,1660] : [1] 
Wall : [2324,1578],[2365,1578],[2365,1737],[2324,1737] : [1] 
Wall : [1391,1578],[1431,1578],[1431,1737],[1391,1737] : [1] 
Wall : [1171,869],[1213,869],[1213,1613],[1171,1613] : [1] 
Wall : [268,1530],[1073,1530],[1073,1554],[268,1554] : [1] 
Wall : [634,869],[836,869],[836,893],[634,893] : [1] 
Wall : [268,869],[352,869],[352,894],[268,894] : [1] 
Wall : [1118,869],[1214,869],[1214,894],[1118,894] : [1] 
Wall : [269,869],[292,869],[292,1223],[269,1223] : [1] 
Wall : [1429,1605],[1445,1595],[1436,1577],[1419,1585] : [1] 
Wall : [1390,1578],[1445,1578],[1445,1601],[1390,1601] : [1] 
Wall : [1390,1602],[1439,1602],[1439,1619],[1390,1619] : [1] 
Wall : [269,1944],[322,1944],[322,2523],[269,2523] : [1] 
Wall : [1426,2021],[1432,2021],[1432,2523],[1426,2523] : [1] 
Wall : [1869,2021],[1875,2021],[1875,2523],[1869,2523] : [1] 
Wall : [983,2387],[989,2387],[989,2523],[983,2523] : [1] 
Wall : [1974,2021],[2366,2021],[2366,2027],[1974,2027] : [1] 
Wall : [1633,1578],[1639,1578],[1639,1666],[1633,1666] : [1] 
Wall : [1532,1578],[1538,1578],[1538,1920],[1532,1920] : [1] 
Wall : [1898,1578],[1904,1578],[1904,1920],[1898,1920] : [1] 
Wall : [771,1530],[776,1530],[776,1595],[771,1595] : [1] 
Wall : [835,1530],[841,1530],[841,1595],[835,1595] : [1] 
Wall : [983,1530],[989,1530],[989,1843],[983,1843] : [1] 
Wall : [1336,2021],[1610,2021],[1610,2027],[1336,2027] : [1] 
Wall : [1709,2021],[1876,2021],[1876,2027],[1709,2027] : [1] 
Wall : [1531,1914],[1651,1914],[1651,1920],[1531,1920] : [1] 
Wall : [1354,1838],[1539,1838],[1539,1843],[1354,1843] : [1] 
Wall : [1531,1719],[1610,1719],[1610,1725],[1531,1725] : [1] 
Wall : [1815,1820],[1905,1820],[1905,1826],[1815,1826] : [1] 
Wall : [1750,1914],[1982,1914],[1982,1920],[1750,1920] : [1] 
Wall : [770,1589],[842,1589],[842,1595],[770,1595] : [1] 
Wall : [982,1838],[1179,1838],[1179,1843],[982,1843] : [1] 
Wall : [1355,1838],[1362,1838],[1362,1920],[1355,1920] : [1] 
Wall : [982,2021],[1238,2021],[1238,2027],[982,2027] : [1] 
Wall : [983,2021],[989,2021],[989,2286],[983,2286] : [1] 
Wall : [1361,1921],[1531,1921],[1531,1917],[1361,1917] : [1] 
