Total No of Rooms: 9
single : room 1 : closet : [422,2919] : contour_details : [152 2670],[152 2918],[153 2919],[153 3168],[692 3168],[692 2670]

single : room 2 : closet : [1766,2063] : contour_details : [1734 1910],[1734 2072],[1735 2073],[1735 2235],[1798 2235],[1798 1910]

single : room 3 : bedroom 3 : [1564,2006] : contour_details : [1374 1908],[1374 2237],[1514 2237],[1515 2236],[1607 2236],[1608 2237],[1731 2237],[1731 2073],[1730 2072],[1730 1909],[1472 1909],[1471 1908]

single : room 4 : bathroom : [1652,1735] : contour_details : [1480 1696],[1480 1794],[1481 1795],[1481 1901],[1807 1901],[1807 1759],[1808 1758],[1808 1696]

single : room 5 : closet : [1251,1511] : contour_details : [1256 1472],[1256 1497],[1254 1499],[1252 1497],[1252 1473],[1144 1473],[1144 1508],[1145 1509],[1145 1544],[1252 1544],[1252 1527],[1254 1525],[1256 1527],[1256 1541],[1257 1540],[1258 1540],[1261 1537],[1262 1537],[1264 1535],[1265 1535],[1268 1532],[1269 1532],[1271 1530],[1272 1530],[1275 1527],[1276 1527],[1278 1525],[1279 1525],[1281 1527],[1281 1528],[1274 1535],[1274 1536],[1266 1544],[1364 1544],[1364 1472],[1338 1472],[1318 1492],[1318 1493],[1312 1499],[1304 1499],[1302 1497],[1302 1496],[1304 1494],[1305 1494],[1312 1487],[1313 1487],[1320 1480],[1321 1480],[1328 1473],[1329 1473],[1330 1472]

single : room 6 : bedroom 2 : [1646,1445] : contour_details : [1480 1248],[1480 1589],[1479 1590],[1479 1688],[1808 1688],[1808 1558],[1809 1557],[1809 1248]

single : room 7 : unknown room : [1033,1160] : contour_details : [1021 1059],[1020 1060],[950 1060],[950 1262],[1018 1262],[1019 1261],[1117 1261],[1117 1059]

single : room 8 : garage : [1263,826] : contour_details : [931 699],[931 733],[930 734],[930 1015],[949 1015],[950 1016],[950 1049],[1117 1049],[1118 1050],[1579 1050],[1579 699]

open : plan 1-room 9 : dining : [1227, 2420] : contour_details : [ 950 2248],[ 951 2247],[1452 2247],[1453 2248],[1453 2589],[1452 2590],[ 951 2590],[ 950 2589]

open : plan 1-room 10 : living : [1197, 2125] : contour_details : [ 950 1901],[ 951 1900],[1156 1900],[1157 1901],[1363 1901],[1364 1902],[1364 2244],[1363 2245],[ 951 2245],[ 950 2244]

open : plan 1-room 11 : toilet : [1317, 1647] : contour_details : [1269 1556],[1270 1555],[1365 1555],[1366 1556],[1366 1618],[1367 1619],[1372 1619],[1373 1620],[1373 1716],[1372 1717],[1270 1717],[1269 1716]

open : plan 1-room 12 : kitchen : [1139, 1694] : contour_details : [ 951 1291],[ 952 1290],[1134 1290],[1135 1291],[1135 1554],[1136 1555],[1258 1555],[1259 1556],[1259 1793],[1258 1794],[1183 1794],[1182 1795],[1182 1801],[1183 1802],[1268 1802],[1269 1801],[1269 1729],[1270 1728],[1364 1728],[1365 1729],[1365 1801],[1366 1802],[1372 1802],[1373 1803],[1373 1899],[1372 1900],[1158 1900],[1157 1899],[ 951 1899],[ 950 1898],[ 950 1804],[ 951 1803],[1020 1803],[1021 1802],[1021 1793],[1020 1792],[ 952 1792],[ 951 1791]

open : plan 1-room 13 : bedroom 1 : [1319, 1204] : contour_details : [1145 1090],[1146 1089],[1558 1089],[1559 1090],[1559 1236],[1558 1237],[1472 1237],[1471 1238],[1471 1899],[1470 1900],[1376 1900],[1375 1899],[1375 1469],[1374 1468],[1146 1468],[1145 1467]

