Unknown : [1570,617],[1639,612],[1639,576],[1570,576] : [0.3] 
Unknown : [1016,814],[1127,814],[1127,869],[1016,869] : [0.3] 
Unknown : [2166,1005],[2251,1005],[2251,1028],[2166,1028] : [0.3] 
Unknown : [1697,895],[1697,982],[1720,982],[1720,895] : [0.3] 
