garage : [1451,633] : [1384,621,1519,646] : confidence,dict,original_word,difference : [90,DM,None,0]
bedroom 4 : [874,686] : [782,674,967,698] : confidence,dict,original_word,difference : [91,DM,None,0]
toilet : [1084,692] : [1058,680,1110,705] : confidence,dict,original_word,difference : [78,DM,None,0]
cellar : [1893,716] : [1827,704,1959,729] : confidence,dict,original_word,difference : [86,DM,None,0]
bedroom 1 : [2313,728] : [2223,716,2404,740] : confidence,dict,original_word,difference : [73,DM,None,0]
closet : [857,982] : [783,970,931,995] : confidence,dict,original_word,difference : [83,DM,None,0]
closet : [2244,970] : [2170,958,2319,983] : confidence,dict,original_word,difference : [86,DM,None,0]
bathroom : [865,1082] : [819,1070,911,1095] : confidence,dict,original_word,difference : [67,DM,None,0]
corridor : [1173,1076] : [1060,1064,1287,1089] : confidence,dict,original_word,difference : [76,DM,None,0]
entry : [2131,1070] : [2093,1059,2170,1082] : confidence,dict,original_word,difference : [75,DM,None,0]
porch : [2532,1058] : [2465,1046,2599,1071] : confidence,dict,original_word,difference : [92,DM,None,0]
closet : [2114,1206] : [2040,1194,2189,1219] : confidence,dict,original_word,difference : [88,DM,None,0]
bedroom 2 : [1347,1318] : [1255,1306,1440,1330] : confidence,dict,original_word,difference : [91,DM,None,0]
bedroom 3 : [898,1348] : [806,1336,991,1361] : confidence,dict,original_word,difference : [89,DM,None,0]
living : [1880,1348] : [1827,1336,1933,1361] : confidence,dict,original_word,difference : [91,DM,None,0]
kitchen : [2316,1401] : [2253,1389,2380,1414] : confidence,dict,original_word,difference : [90,DM,None,0]
dining : [1873,1767] : [1809,1755,1938,1780] : confidence,dict,original_word,difference : [70,DM,None,0]
No Text Detected
