garage : [1702,1072] : [1618,1057,1787,1088] : confidence,dict,original_word,difference : [88,DM,None,0]
bathroom : [1381,1090] : [1323,1075,1439,1106] : confidence,dict,original_word,difference : [86,DM,None,0]
corridor : [1342,1358] : [1288,1343,1396,1374] : confidence,dict,original_word,difference : [90,DM,None,0]
bedroom : [1065,1574] : [1021,1559,1110,1590] : confidence,dict,original_word,difference : [87,DM,None,0]
kitchen : [1614,1905] : [1534,1890,1694,1920] : confidence,dict,original_word,difference : [88,DM,None,0]
entry : [1058,2023] : [1009,2008,1108,2038] : confidence,dict,original_word,difference : [91,DM,None,0]
salon : [1063,2347] : [996,2332,1130,2363] : confidence,dict,original_word,difference : [78,DM,None,0]
living : [1648,2330] : [1582,2315,1715,2345] : confidence,dict,original_word,difference : [88,DM,None,0]
No Text Detected
