Wall : [478,1734],[520,1734],[520,1917],[478,1917] : [1] 
Wall : [477,1327],[521,1327],[521,1498],[477,1498] : [1] 
Wall : [478,2059],[520,2059],[520,2248],[478,2248] : [1] 
Wall : [478,1055],[520,1055],[520,1185],[478,1185] : [1] 
Wall : [478,1569],[520,1569],[520,1628],[478,1628] : [1] 
Wall : [1616,1722],[1660,1722],[1660,2248],[1616,2248] : [1] 
Wall : [1215,1061],[1666,1061],[1666,1102],[1215,1102] : [1] 
Wall : [1505,2200],[1666,2200],[1666,2243],[1505,2243] : [1] 
Wall : [471,1061],[1147,1061],[1147,1102],[471,1102] : [1] 
Wall : [471,2201],[751,2201],[751,2242],[471,2242] : [1] 
Wall : [938,2201],[1318,2201],[1318,2242],[938,2242] : [1] 
Wall : [1618,1386],[1660,1386],[1660,1581],[1618,1581] : [1] 
Wall : [1618,1055],[1659,1055],[1659,1244],[1618,1244] : [1] 
Wall : [477,1479],[698,1479],[698,1487],[477,1487] : [1] 
Wall : [477,1587],[786,1587],[786,1592],[477,1592] : [1] 
Wall : [1204,1817],[1660,1817],[1660,1823],[1204,1823] : [1] 
Wall : [1281,1061],[1287,1061],[1287,1380],[1281,1380] : [1] 
Wall : [886,1061],[892,1061],[892,1486],[886,1486] : [1] 
Wall : [1069,1061],[1075,1061],[1075,1380],[1069,1380] : [1] 
Wall : [1205,2000],[1210,2000],[1210,2242],[1205,2242] : [1] 
Wall : [1280,1480],[1660,1480],[1660,1486],[1280,1486] : [1] 
Wall : [690,1404],[698,1404],[698,1486],[690,1486] : [1] 
Wall : [1205,1587],[1211,1587],[1211,1908],[1205,1908] : [1] 
Wall : [885,1480],[969,1480],[969,1486],[885,1486] : [1] 
Wall : [1068,1374],[1182,1374],[1182,1380],[1068,1380] : [1] 
Wall : [690,1404],[786,1404],[786,1409],[690,1409] : [1] 
Wall : [885,1587],[1288,1587],[1288,1592],[885,1592] : [1] 
Wall : [1098,1374],[1104,1374],[1104,1486],[1098,1486] : [1] 
Wall : [778,1404],[786,1404],[786,1486],[778,1486] : [1] 
Wall : [1068,1480],[1182,1480],[1182,1486],[1068,1486] : [1] 
Wall : [1539,1176],[1542,1179],[1618,1103],[1615,1100] : [1] 
Wall : [1287,1180],[1541,1180],[1541,1176],[1287,1176] : [1] 
Wall : [1178,1479],[1182,1479],[1182,1380],[1178,1380] : [1] 
Wall : [519,1406],[690,1406],[690,1402],[519,1402] : [1] 
