Window : [1443,883],[1513,883],[1513,925],[1443,925] : [1] 
Window : [839,1497],[882,1497],[882,1640],[839,1640] : [1] 
Window : [839,1958],[882,1958],[882,2065],[839,2065] : [1] 
Window : [839,2206],[882,2206],[882,2419],[839,2419] : [1] 
Window : [1573,2530],[1713,2530],[1713,2573],[1573,2573] : [1] 
Window : [1837,1905],[1880,1905],[1880,2047],[1837,2047] : [1] 
Window : [1597,647],[1879,647],[1879,673],[1597,673] : [1] 
Window : [839,1084],[882,1084],[882,1226],[839,1226] : [1] 
Window : [1914,1597],[1939,1597],[1939,1669],[1914,1669] : [1] 
Window : [1914,1167],[1939,1167],[1939,1238],[1914,1238] : [1] 
