Window : [919,2051],[962,2051],[962,2193],[919,2193] : [1] 
Window : [919,2388],[962,2388],[962,2459],[919,2459] : [1] 
Window : [1798,1903],[1843,1903],[1843,1962],[1798,1962] : [1] 
Window : [919,740],[944,740],[944,953],[919,953] : [1] 
Window : [1169,2801],[1309,2801],[1309,2843],[1169,2843] : [1] 
Window : [1287,415],[1356,415],[1356,440],[1287,440] : [1] 
Window : [1917,2452],[1960,2452],[1960,2595],[1917,2595] : [1] 
Window : [1917,2092],[1960,2092],[1960,2187],[1917,2187] : [1] 
Window : [1917,1431],[1960,1431],[1960,1573],[1917,1573] : [1] 
Window : [1917,1207],[1960,1207],[1960,1278],[1917,1278] : [1] 
Window : [641,1118],[685,1118],[685,1343],[641,1343] : [1] 
Window : [1701,439],[1724,439],[1724,1054],[1701,1054] : [1] 
Window : [907,1978],[907,1943],[685,1715],[642,1715] : [0.5] 
