Total No of Rooms: 5
single : room 1 : bathroom : [1613,1278] : contour_details : [1460 1209],[1460 1420],[1756 1420],[1756 1320],[1757 1319],[1757 1210],[1569 1210],[1568 1209]

single : room 2 : toilet : [1621,1131] : contour_details : [1576 1091],[1576 1201],[1757 1201],[1757 1107],[1758 1106],[1758 1091]

single : room 3 : bedroom 3 : [1594,954] : contour_details : [1317 755],[1317 1082],[1426 1082],[1427 1083],[1758 1083],[1758 966],[1757 965],[1757 824],[1758 823],[1758 755]

single : room 4 : bedroom 2 : [1174,924] : contour_details : [862 755],[862 837],[861 838],[861 977],[862 978],[862 1083],[1197 1083],[1198 1082],[1309 1082],[1309 755]

open : plan 1-room 5 : living : [1621, 2040] : contour_details : [1416 1766],[1417 1765],[1523 1765],[1524 1766],[1756 1766],[1757 1767],[1757 2191],[1756 2192],[1405 2192],[1404 2191],[1404 2161],[1405 2160],[1405 2128],[1406 2127],[1406 2095],[1407 2094],[1407 2062],[1408 2061],[1408 2029],[1409 2028],[1409 1996],[1410 1995],[1410 1963],[1411 1962],[1411 1930],[1412 1929],[1412 1897],[1413 1896],[1413 1864],[1414 1863],[1414 1831],[1415 1830],[1415 1798],[1416 1797]

open : plan 1-room 6 : dining : [1198, 2028] : contour_details : [ 863 1765],[ 864 1764],[1289 1764],[1290 1765],[1414 1765],[1415 1766],[1415 1797],[1414 1798],[1414 1830],[1413 1831],[1413 1863],[1412 1864],[1412 1896],[1411 1897],[1411 1929],[1410 1930],[1410 1962],[1409 1963],[1409 1995],[1408 1996],[1408 2028],[1407 2029],[1407 2061],[1406 2062],[1406 2094],[1405 2095],[1405 2127],[1404 2128],[1404 2160],[1403 2161],[1403 2191],[1402 2192],[ 864 2192],[ 863 2191]

open : plan 1-room 7 : entry : [1066, 1597] : contour_details : [ 863 1535],[ 864 1534],[1198 1534],[1199 1535],[1200 1535],[1201 1536],[1202 1536],[1204 1538],[1205 1538],[1207 1540],[1208 1540],[1210 1542],[1211 1542],[1213 1544],[1214 1544],[1216 1546],[1217 1546],[1218 1547],[1219 1547],[1221 1549],[1222 1549],[1224 1551],[1225 1551],[1227 1553],[1228 1553],[1230 1555],[1231 1555],[1233 1557],[1234 1557],[1236 1559],[1237 1559],[1238 1560],[1239 1560],[1241 1562],[1242 1562],[1244 1564],[1245 1564],[1247 1566],[1248 1566],[1250 1568],[1251 1568],[1253 1570],[1254 1570],[1255 1571],[1256 1571],[1258 1573],[1259 1573],[1261 1575],[1262 1575],[1264 1577],[1265 1577],[1267 1579],[1268 1579],[1270 1581],[1271 1581],[1273 1583],[1274 1583],[1275 1584],[1276 1584],[1278 1586],[1279 1586],[1281 1588],[1282 1588],[1284 1590],[1285 1590],[1287 1592],[1288 1592],[1290 1594],[1291 1594],[1292 1595],[1293 1595],[1295 1597],[1296 1597],[1298 1599],[1299 1599],[1301 1601],[1302 1601],[1304 1603],[1305 1603],[1307 1605],[1308 1605],[1309 1606],[1334 1606],[1339 1611],[1340 1611],[1348 1619],[1349 1619],[1358 1628],[1359 1628],[1367 1636],[1368 1636],[1376 1644],[1377 1644],[1386 1653],[1387 1653],[1395 1661],[1396 1661],[1404 1669],[1405 1669],[1413 1677],[1414 1677],[1423 1686],[1424 1686],[1427 1689],[1428 1688],[1428 1607],[1429 1606],[1449 1606],[1450 1607],[1450 1681],[1451 1682],[1756 1682],[1757 1683],[1757 1764],[1756 1765],[1525 1765],[1524 1764],[1417 1764],[1416 1763],[1415 1764],[1291 1764],[1290 1763],[1058 1763],[1057 1762],[1057 1681],[1056 1680],[1048 1680],[1047 1681],[1047 1753],[1046 1754],[ 864 1754],[ 863 1753],[ 863 1719],[ 868 1714],[ 868 1713],[ 869 1712],[ 879 1712],[ 880 1711],[ 880 1703],[ 879 1702],[ 864 1702],[ 863 1701]

open : plan 1-room 8 : kitchen : [1622, 1568] : contour_details : [1461 1430],[1462 1429],[1756 1429],[1757 1430],[1757 1680],[1756 1681],[1462 1681],[1461 1680]

open : plan 1-room 9 : corridor : [1226, 1455] : contour_details : [1202 1093],[1203 1092],[1565 1092],[1566 1093],[1566 1199],[1565 1200],[1309 1200],[1308 1201],[1308 1602],[1307 1603],[1306 1602],[1305 1602],[1303 1600],[1302 1600],[1300 1598],[1299 1598],[1297 1596],[1296 1596],[1294 1594],[1293 1594],[1291 1592],[1290 1592],[1289 1591],[1288 1591],[1286 1589],[1285 1589],[1283 1587],[1282 1587],[1280 1585],[1279 1585],[1277 1583],[1276 1583],[1274 1581],[1273 1581],[1271 1579],[1270 1579],[1269 1578],[1268 1578],[1266 1576],[1265 1576],[1263 1574],[1262 1574],[1260 1572],[1259 1572],[1257 1570],[1256 1570],[1254 1568],[1253 1568],[1252 1567],[1251 1567],[1249 1565],[1248 1565],[1246 1563],[1245 1563],[1243 1561],[1242 1561],[1240 1559],[1239 1559],[1237 1557],[1236 1557],[1234 1555],[1233 1555],[1232 1554],[1231 1554],[1229 1552],[1228 1552],[1226 1550],[1225 1550],[1223 1548],[1222 1548],[1220 1546],[1219 1546],[1217 1544],[1216 1544],[1215 1543],[1214 1543],[1212 1541],[1211 1541],[1209 1539],[1208 1539],[1206 1537],[1205 1537],[1203 1535],[1202 1535],[1199 1532],[1199 1175],[1200 1174],[1200 1147],[1201 1146],[1201 1119],[1202 1118]

open : plan 1-room 10 : bedroom 1 : [1024, 1267] : contour_details : [ 863 1093],[ 864 1092],[1200 1092],[1201 1093],[1201 1118],[1200 1119],[1200 1146],[1199 1147],[1199 1174],[1198 1175],[1198 1200],[1197 1201],[1190 1201],[1189 1202],[1189 1524],[1188 1525],[ 864 1525],[ 863 1524]

