Door : [967,1566],[1067,1566],[1067,1574],[967,1574] : [1] 
Door : [1339,1212],[1445,1212],[1445,1255],[1339,1255] : [1] 
Door : [1824,1897],[1917,1897],[1917,1940],[1824,1940] : [1] 
Door : [2017,1118],[2060,1118],[2060,1213],[2017,1213] : [1] 
Door : [650,1547],[771,1547],[771,1568],[650,1568] : [1] 
Door : [1300,1467],[1301,1556],[1322,1555],[1321,1466] : [1] 
Door : [1123,1466],[1207,1466],[1207,1487],[1123,1487] : [1] 
