Total No of Rooms: 9
single : room 1 : kitchen : [1547,1747] : contour_details : [1390 1536],[1390 1537],[1389 1538],[1371 1538],[1371 1977],[1428 1977],[1429 1976],[1765 1976],[1765 1872],[1764 1871],[1764 1538],[1682 1538],[1681 1537],[1681 1536],[1585 1536],[1584 1537],[1487 1537],[1486 1536]

single : room 2 : cellar : [1603,1375] : contour_details : [1495 1330],[1495 1511],[1582 1511],[1583 1510],[1764 1510],[1764 1363],[1765 1362],[1765 1330]

single : room 3 : toilet : [1545,1187] : contour_details : [1496 1154],[1496 1176],[1495 1177],[1494 1177],[1494 1275],[1495 1276],[1495 1321],[1592 1321],[1592 1273],[1593 1272],[1593 1154]

single : room 4 : unknown room : [1244,1223] : contour_details : [1380 1120],[1379 1121],[1378 1121],[1377 1122],[1375 1122],[1374 1123],[1373 1123],[1372 1124],[1370 1124],[1369 1125],[1367 1125],[1366 1126],[1365 1126],[1364 1127],[1362 1127],[1361 1128],[1359 1128],[1358 1129],[1357 1129],[1356 1130],[1354 1130],[1353 1131],[1352 1131],[1351 1132],[1349 1132],[1348 1133],[1346 1133],[1345 1134],[1344 1134],[1343 1135],[1341 1135],[1340 1136],[1338 1136],[1337 1137],[1336 1137],[1335 1138],[1333 1138],[1332 1139],[1331 1139],[1330 1140],[1328 1140],[1327 1141],[1325 1141],[1324 1142],[1323 1142],[1322 1143],[1320 1143],[1319 1144],[1317 1144],[1316 1145],[1315 1145],[1314 1146],[1312 1146],[1311 1147],[1310 1147],[1309 1148],[1307 1148],[1306 1149],[1304 1149],[1303 1150],[1302 1150],[1301 1151],[1299 1151],[1298 1152],[1296 1152],[1295 1153],[1294 1153],[1293 1154],[1291 1154],[1290 1155],[1289 1155],[1288 1156],[1286 1156],[1285 1157],[1283 1157],[1282 1158],[1281 1158],[1280 1159],[1278 1159],[1277 1160],[1275 1160],[1274 1161],[1273 1161],[1272 1162],[1270 1162],[1269 1163],[1268 1163],[1267 1164],[1265 1164],[1264 1165],[1262 1165],[1261 1166],[1260 1166],[1259 1167],[1257 1167],[1256 1168],[1254 1168],[1253 1169],[1252 1169],[1251 1170],[1249 1170],[1248 1171],[1247 1171],[1246 1172],[1244 1172],[1243 1173],[1241 1173],[1240 1174],[1239 1174],[1238 1175],[1236 1175],[1235 1176],[1233 1176],[1232 1177],[1231 1177],[1230 1178],[1228 1178],[1227 1179],[1226 1179],[1225 1180],[1223 1180],[1222 1181],[1220 1181],[1219 1182],[1218 1182],[1217 1183],[1215 1183],[1214 1184],[1212 1184],[1211 1185],[1210 1185],[1209 1186],[1207 1186],[1206 1187],[1205 1187],[1204 1188],[1202 1188],[1201 1189],[1199 1189],[1198 1190],[1197 1190],[1196 1191],[1194 1191],[1193 1192],[1191 1192],[1190 1193],[1189 1193],[1188 1194],[1186 1194],[1185 1195],[1184 1195],[1183 1196],[1181 1196],[1180 1197],[1178 1197],[1177 1198],[1176 1198],[1175 1199],[1173 1199],[1172 1200],[1170 1200],[1169 1201],[1168 1201],[1167 1202],[1165 1202],[1164 1203],[1163 1203],[1162 1204],[1160 1204],[1159 1205],[1157 1205],[1156 1206],[1155 1206],[1154 1207],[1152 1207],[1151 1208],[1149 1208],[1148 1209],[1147 1209],[1146 1210],[1144 1210],[1143 1211],[1142 1211],[1141 1212],[1139 1212],[1138 1213],[1136 1213],[1135 1214],[1134 1214],[1133 1215],[1131 1215],[1130 1216],[1128 1216],[1127 1217],[1126 1217],[1125 1218],[1123 1218],[1122 1219],[1120 1219],[1119 1220],[1118 1220],[1117 1221],[1115 1221],[1114 1222],[1113 1222],[1112 1223],[1110 1223],[1109 1224],[1107 1224],[1106 1225],[1105 1225],[1104 1226],[1102 1226],[1101 1227],[1099 1227],[1098 1228],[1097 1228],[1096 1229],[1094 1229],[1093 1230],[1092 1230],[1091 1231],[1089 1231],[1088 1232],[1086 1232],[1085 1233],[1084 1233],[1083 1234],[1081 1234],[1080 1235],[1078 1235],[1077 1236],[1076 1236],[1075 1237],[1073 1237],[1072 1238],[1071 1238],[1070 1239],[1068 1239],[1067 1240],[1065 1240],[1064 1241],[1063 1241],[1062 1242],[1060 1242],[1059 1243],[1057 1243],[1056 1244],[1055 1244],[1054 1245],[1052 1245],[1051 1246],[1050 1246],[1049 1247],[1047 1247],[1046 1248],[1044 1248],[1043 1249],[1042 1249],[1041 1250],[1039 1250],[1038 1251],[1036 1251],[1035 1252],[1034 1252],[1033 1253],[1031 1253],[1030 1254],[1029 1254],[1028 1255],[1026 1255],[1025 1256],[1023 1256],[1022 1257],[1021 1257],[1020 1258],[1018 1258],[1017 1259],[1015 1259],[1014 1260],[1013 1260],[1012 1261],[1010 1261],[1009 1262],[1008 1262],[1007 1263],[1005 1263],[1004 1264],[1002 1264],[1001 1265],[1000 1265],[999 1266],[997 1266],[996 1267],[994 1267],[993 1268],[992 1268],[991 1269],[989 1269],[988 1270],[987 1270],[986 1271],[984 1271],[983 1272],[981 1272],[980 1273],[979 1273],[978 1274],[976 1274],[975 1275],[973 1275],[1380 1275],[1380 1175],[1381 1174],[1381 1120]

single : room 5 : unknown room : [1298,1124] : contour_details : [1381 1075],[1380 1076],[1379 1076],[1378 1077],[1377 1077],[1376 1078],[1375 1078],[1374 1079],[1373 1079],[1372 1080],[1371 1080],[1370 1081],[1369 1081],[1368 1082],[1367 1082],[1366 1083],[1365 1083],[1364 1084],[1363 1084],[1362 1085],[1361 1085],[1360 1086],[1359 1086],[1358 1087],[1357 1087],[1356 1088],[1355 1088],[1354 1089],[1353 1089],[1352 1090],[1350 1090],[1349 1091],[1348 1091],[1347 1092],[1346 1092],[1345 1093],[1344 1093],[1343 1094],[1342 1094],[1341 1095],[1340 1095],[1339 1096],[1338 1096],[1337 1097],[1336 1097],[1335 1098],[1334 1098],[1333 1099],[1332 1099],[1331 1100],[1330 1100],[1329 1101],[1328 1101],[1327 1102],[1326 1102],[1325 1103],[1324 1103],[1323 1104],[1322 1104],[1321 1105],[1320 1105],[1319 1106],[1318 1106],[1317 1107],[1316 1107],[1315 1108],[1314 1108],[1313 1109],[1312 1109],[1311 1110],[1310 1110],[1309 1111],[1308 1111],[1307 1112],[1306 1112],[1305 1113],[1304 1113],[1303 1114],[1301 1114],[1300 1115],[1299 1115],[1298 1116],[1297 1116],[1296 1117],[1295 1117],[1294 1118],[1293 1118],[1292 1119],[1291 1119],[1290 1120],[1289 1120],[1288 1121],[1287 1121],[1286 1122],[1285 1122],[1284 1123],[1283 1123],[1282 1124],[1281 1124],[1280 1125],[1279 1125],[1278 1126],[1277 1126],[1276 1127],[1275 1127],[1274 1128],[1273 1128],[1272 1129],[1271 1129],[1270 1130],[1269 1130],[1268 1131],[1267 1131],[1266 1132],[1265 1132],[1264 1133],[1263 1133],[1262 1134],[1261 1134],[1260 1135],[1259 1135],[1258 1136],[1257 1136],[1256 1137],[1254 1137],[1253 1138],[1252 1138],[1251 1139],[1250 1139],[1249 1140],[1248 1140],[1247 1141],[1246 1141],[1245 1142],[1244 1142],[1243 1143],[1242 1143],[1241 1144],[1240 1144],[1239 1145],[1238 1145],[1237 1146],[1236 1146],[1235 1147],[1234 1147],[1233 1148],[1232 1148],[1231 1149],[1230 1149],[1229 1150],[1228 1150],[1227 1151],[1226 1151],[1225 1152],[1224 1152],[1223 1153],[1222 1153],[1221 1154],[1220 1154],[1219 1155],[1218 1155],[1217 1156],[1216 1156],[1215 1157],[1214 1157],[1213 1158],[1212 1158],[1211 1159],[1210 1159],[1209 1160],[1207 1160],[1206 1161],[1205 1161],[1204 1162],[1203 1162],[1202 1163],[1201 1163],[1200 1164],[1199 1164],[1198 1165],[1197 1165],[1196 1166],[1195 1166],[1194 1167],[1193 1167],[1192 1168],[1191 1168],[1190 1169],[1189 1169],[1188 1170],[1187 1170],[1186 1171],[1185 1171],[1184 1172],[1183 1172],[1182 1173],[1181 1173],[1180 1174],[1179 1174],[1178 1175],[1177 1175],[1176 1176],[1175 1176],[1174 1177],[1173 1177],[1172 1178],[1171 1178],[1170 1179],[1169 1179],[1168 1180],[1167 1180],[1166 1181],[1165 1181],[1164 1182],[1163 1182],[1162 1183],[1161 1183],[1160 1184],[1158 1184],[1157 1185],[1156 1185],[1155 1186],[1154 1186],[1153 1187],[1152 1187],[1151 1188],[1150 1188],[1149 1189],[1148 1189],[1147 1190],[1146 1190],[1145 1191],[1144 1191],[1143 1192],[1142 1192],[1141 1193],[1140 1193],[1139 1194],[1138 1194],[1137 1195],[1136 1195],[1135 1196],[1134 1196],[1133 1197],[1132 1197],[1133 1197],[1134 1196],[1135 1196],[1136 1195],[1138 1195],[1139 1194],[1141 1194],[1142 1193],[1143 1193],[1144 1192],[1146 1192],[1147 1191],[1148 1191],[1149 1190],[1151 1190],[1152 1189],[1154 1189],[1155 1188],[1156 1188],[1157 1187],[1159 1187],[1160 1186],[1162 1186],[1163 1185],[1164 1185],[1165 1184],[1167 1184],[1168 1183],[1169 1183],[1170 1182],[1172 1182],[1173 1181],[1175 1181],[1176 1180],[1177 1180],[1178 1179],[1180 1179],[1181 1178],[1183 1178],[1184 1177],[1185 1177],[1186 1176],[1188 1176],[1189 1175],[1190 1175],[1191 1174],[1193 1174],[1194 1173],[1196 1173],[1197 1172],[1198 1172],[1199 1171],[1201 1171],[1202 1170],[1204 1170],[1205 1169],[1206 1169],[1207 1168],[1209 1168],[1210 1167],[1211 1167],[1212 1166],[1214 1166],[1215 1165],[1217 1165],[1218 1164],[1219 1164],[1220 1163],[1222 1163],[1223 1162],[1225 1162],[1226 1161],[1227 1161],[1228 1160],[1230 1160],[1231 1159],[1232 1159],[1233 1158],[1235 1158],[1236 1157],[1238 1157],[1239 1156],[1240 1156],[1241 1155],[1243 1155],[1244 1154],[1246 1154],[1247 1153],[1248 1153],[1249 1152],[1251 1152],[1252 1151],[1253 1151],[1254 1150],[1256 1150],[1257 1149],[1259 1149],[1260 1148],[1261 1148],[1262 1147],[1264 1147],[1265 1146],[1267 1146],[1268 1145],[1269 1145],[1270 1144],[1272 1144],[1273 1143],[1274 1143],[1275 1142],[1277 1142],[1278 1141],[1280 1141],[1281 1140],[1282 1140],[1283 1139],[1285 1139],[1286 1138],[1288 1138],[1289 1137],[1290 1137],[1291 1136],[1293 1136],[1294 1135],[1295 1135],[1296 1134],[1298 1134],[1299 1133],[1301 1133],[1302 1132],[1303 1132],[1304 1131],[1306 1131],[1307 1130],[1309 1130],[1310 1129],[1311 1129],[1312 1128],[1314 1128],[1315 1127],[1316 1127],[1317 1126],[1319 1126],[1320 1125],[1322 1125],[1323 1124],[1324 1124],[1325 1123],[1327 1123],[1328 1122],[1330 1122],[1331 1121],[1332 1121],[1333 1120],[1335 1120],[1336 1119],[1337 1119],[1338 1118],[1340 1118],[1341 1117],[1343 1117],[1344 1116],[1345 1116],[1346 1115],[1348 1115],[1349 1114],[1351 1114],[1352 1113],[1353 1113],[1354 1112],[1356 1112],[1357 1111],[1358 1111],[1359 1110],[1361 1110],[1362 1109],[1364 1109],[1365 1108],[1366 1108],[1367 1107],[1369 1107],[1370 1106],[1372 1106],[1373 1105],[1374 1105],[1375 1104],[1377 1104],[1378 1103],[1379 1103],[1380 1102],[1381 1102]

single : room 6 : unknown room : [1511,1107] : contour_details : [1593 1039],[1592 1040],[1591 1040],[1590 1041],[1588 1041],[1587 1042],[1585 1042],[1584 1043],[1583 1043],[1582 1044],[1580 1044],[1579 1045],[1577 1045],[1576 1046],[1575 1046],[1574 1047],[1572 1047],[1571 1048],[1570 1048],[1569 1049],[1567 1049],[1566 1050],[1564 1050],[1563 1051],[1562 1051],[1561 1052],[1559 1052],[1558 1053],[1556 1053],[1555 1054],[1554 1054],[1553 1055],[1551 1055],[1550 1056],[1549 1056],[1548 1057],[1546 1057],[1545 1058],[1543 1058],[1542 1059],[1541 1059],[1540 1060],[1538 1060],[1537 1061],[1535 1061],[1534 1062],[1533 1062],[1532 1063],[1530 1063],[1529 1064],[1528 1064],[1527 1065],[1525 1065],[1524 1066],[1522 1066],[1521 1067],[1520 1067],[1519 1068],[1517 1068],[1516 1069],[1514 1069],[1513 1070],[1512 1070],[1511 1071],[1509 1071],[1508 1072],[1507 1072],[1506 1073],[1504 1073],[1503 1074],[1501 1074],[1500 1075],[1499 1075],[1498 1076],[1496 1076],[1495 1077],[1493 1077],[1492 1078],[1491 1078],[1490 1079],[1488 1079],[1487 1080],[1486 1080],[1485 1081],[1483 1081],[1482 1082],[1480 1082],[1479 1083],[1478 1083],[1477 1084],[1475 1084],[1474 1085],[1472 1085],[1471 1086],[1470 1086],[1469 1087],[1467 1087],[1466 1088],[1464 1088],[1463 1089],[1462 1089],[1461 1090],[1459 1090],[1458 1091],[1457 1091],[1456 1092],[1454 1092],[1453 1093],[1451 1093],[1450 1094],[1449 1094],[1448 1095],[1446 1095],[1445 1096],[1443 1096],[1442 1097],[1441 1097],[1440 1098],[1438 1098],[1437 1099],[1436 1099],[1435 1100],[1433 1100],[1432 1101],[1430 1101],[1429 1102],[1428 1102],[1427 1103],[1425 1103],[1424 1104],[1422 1104],[1421 1105],[1420 1105],[1419 1106],[1417 1106],[1416 1107],[1415 1107],[1414 1108],[1412 1108],[1411 1109],[1409 1109],[1408 1110],[1407 1110],[1406 1111],[1404 1111],[1403 1112],[1401 1112],[1400 1113],[1399 1113],[1398 1114],[1396 1114],[1395 1115],[1394 1115],[1393 1116],[1391 1116],[1390 1117],[1389 1117],[1389 1143],[1486 1143],[1487 1144],[1593 1144]

single : room 7 : unknown room : [1441,977] : contour_details : [1389 950],[1389 1033],[1390 1032],[1391 1032],[1392 1031],[1393 1031],[1394 1030],[1395 1030],[1396 1029],[1397 1029],[1398 1028],[1399 1028],[1400 1027],[1401 1027],[1402 1026],[1403 1026],[1404 1025],[1405 1025],[1406 1024],[1407 1024],[1409 1022],[1410 1022],[1411 1021],[1412 1021],[1413 1020],[1414 1020],[1415 1019],[1416 1019],[1417 1018],[1418 1018],[1419 1017],[1420 1017],[1421 1016],[1422 1016],[1423 1015],[1424 1015],[1425 1014],[1426 1014],[1427 1013],[1428 1013],[1430 1011],[1431 1011],[1432 1010],[1433 1010],[1434 1009],[1435 1009],[1436 1008],[1437 1008],[1438 1007],[1439 1007],[1440 1006],[1441 1006],[1442 1005],[1443 1005],[1444 1004],[1445 1004],[1446 1003],[1447 1003],[1448 1002],[1449 1002],[1451 1000],[1452 1000],[1453 999],[1454 999],[1455 998],[1456 998],[1457 997],[1458 997],[1459 996],[1460 996],[1461 995],[1462 995],[1463 994],[1464 994],[1465 993],[1466 993],[1467 992],[1468 992],[1470 990],[1471 990],[1472 989],[1473 989],[1474 988],[1475 988],[1476 987],[1477 987],[1478 986],[1479 986],[1480 985],[1481 985],[1482 984],[1483 984],[1484 983],[1485 983],[1486 982],[1487 982],[1488 981],[1489 981],[1491 979],[1492 979],[1493 978],[1494 978],[1495 977],[1496 977],[1497 976],[1498 976],[1499 975],[1500 975],[1501 974],[1502 974],[1503 973],[1504 973],[1505 972],[1506 972],[1507 971],[1508 971],[1509 970],[1510 970],[1512 968],[1513 968],[1514 967],[1515 967],[1516 966],[1517 966],[1518 965],[1519 965],[1520 964],[1521 964],[1522 963],[1523 963],[1524 962],[1525 962],[1526 961],[1527 961],[1528 960],[1529 960],[1530 959],[1531 959],[1533 957],[1534 957],[1535 956],[1536 956],[1537 955],[1538 955],[1539 954],[1540 954],[1541 953],[1542 953],[1543 952],[1544 952],[1545 951],[1546 951],[1547 950],[1548 950]

single : room 8 : bedroom 1 : [1196,1128] : contour_details : [934 946],[934 1271],[935 1271],[936 1270],[937 1270],[938 1269],[939 1269],[940 1268],[941 1268],[942 1267],[943 1267],[944 1266],[945 1266],[946 1265],[947 1265],[949 1263],[950 1263],[951 1262],[952 1262],[953 1261],[954 1261],[955 1260],[956 1260],[957 1259],[958 1259],[959 1258],[960 1258],[961 1257],[962 1257],[963 1256],[964 1256],[965 1255],[966 1255],[967 1254],[968 1254],[970 1252],[971 1252],[972 1251],[973 1251],[974 1250],[975 1250],[976 1249],[977 1249],[978 1248],[979 1248],[980 1247],[981 1247],[982 1246],[983 1246],[984 1245],[985 1245],[986 1244],[987 1244],[988 1243],[989 1243],[991 1241],[992 1241],[993 1240],[994 1240],[995 1239],[996 1239],[997 1238],[998 1238],[999 1237],[1000 1237],[1001 1236],[1002 1236],[1003 1235],[1004 1235],[1005 1234],[1006 1234],[1007 1233],[1008 1233],[1009 1232],[1010 1232],[1012 1230],[1013 1230],[1014 1229],[1015 1229],[1016 1228],[1017 1228],[1018 1227],[1019 1227],[1020 1226],[1021 1226],[1022 1225],[1023 1225],[1024 1224],[1025 1224],[1026 1223],[1027 1223],[1028 1222],[1029 1222],[1030 1221],[1031 1221],[1033 1219],[1034 1219],[1035 1218],[1036 1218],[1037 1217],[1038 1217],[1039 1216],[1040 1216],[1041 1215],[1042 1215],[1043 1214],[1044 1214],[1045 1213],[1046 1213],[1047 1212],[1048 1212],[1049 1211],[1050 1211],[1051 1210],[1052 1210],[1054 1208],[1055 1208],[1056 1207],[1057 1207],[1058 1206],[1059 1206],[1060 1205],[1061 1205],[1062 1204],[1063 1204],[1064 1203],[1065 1203],[1066 1202],[1067 1202],[1068 1201],[1069 1201],[1070 1200],[1071 1200],[1072 1199],[1073 1199],[1075 1197],[1076 1197],[1077 1196],[1078 1196],[1079 1195],[1080 1195],[1081 1194],[1082 1194],[1083 1193],[1084 1193],[1085 1192],[1086 1192],[1087 1191],[1088 1191],[1089 1190],[1090 1190],[1091 1189],[1092 1189],[1093 1188],[1094 1188],[1096 1186],[1097 1186],[1098 1185],[1099 1185],[1100 1184],[1101 1184],[1102 1183],[1103 1183],[1104 1182],[1105 1182],[1106 1181],[1107 1181],[1108 1180],[1109 1180],[1110 1179],[1111 1179],[1112 1178],[1113 1178],[1115 1176],[1116 1176],[1117 1175],[1118 1175],[1119 1174],[1120 1174],[1121 1173],[1122 1173],[1123 1172],[1124 1172],[1125 1171],[1126 1171],[1127 1170],[1128 1170],[1129 1169],[1130 1169],[1131 1168],[1132 1168],[1133 1167],[1134 1167],[1136 1165],[1137 1165],[1138 1164],[1139 1164],[1140 1163],[1141 1163],[1142 1162],[1143 1162],[1144 1161],[1145 1161],[1146 1160],[1147 1160],[1148 1159],[1149 1159],[1150 1158],[1151 1158],[1152 1157],[1153 1157],[1154 1156],[1155 1156],[1157 1154],[1158 1154],[1159 1153],[1160 1153],[1161 1152],[1162 1152],[1163 1151],[1164 1151],[1165 1150],[1166 1150],[1167 1149],[1168 1149],[1169 1148],[1170 1148],[1171 1147],[1172 1147],[1173 1146],[1174 1146],[1175 1145],[1176 1145],[1178 1143],[1179 1143],[1180 1142],[1181 1142],[1182 1141],[1183 1141],[1184 1140],[1185 1140],[1186 1139],[1187 1139],[1188 1138],[1189 1138],[1190 1137],[1191 1137],[1192 1136],[1193 1136],[1194 1135],[1195 1135],[1196 1134],[1197 1134],[1199 1132],[1200 1132],[1201 1131],[1202 1131],[1203 1130],[1204 1130],[1205 1129],[1206 1129],[1207 1128],[1208 1128],[1209 1127],[1210 1127],[1211 1126],[1212 1126],[1213 1125],[1214 1125],[1215 1124],[1216 1124],[1217 1123],[1218 1123],[1220 1121],[1221 1121],[1222 1120],[1223 1120],[1224 1119],[1225 1119],[1226 1118],[1227 1118],[1228 1117],[1229 1117],[1230 1116],[1231 1116],[1232 1115],[1233 1115],[1234 1114],[1235 1114],[1236 1113],[1237 1113],[1238 1112],[1239 1112],[1241 1110],[1242 1110],[1243 1109],[1244 1109],[1245 1108],[1246 1108],[1247 1107],[1248 1107],[1249 1106],[1250 1106],[1251 1105],[1252 1105],[1253 1104],[1254 1104],[1255 1103],[1256 1103],[1257 1102],[1258 1102],[1259 1101],[1260 1101],[1262 1099],[1263 1099],[1264 1098],[1265 1098],[1266 1097],[1267 1097],[1268 1096],[1269 1096],[1270 1095],[1271 1095],[1272 1094],[1273 1094],[1274 1093],[1275 1093],[1276 1092],[1277 1092],[1278 1091],[1279 1091],[1280 1090],[1281 1090],[1283 1088],[1284 1088],[1285 1087],[1286 1087],[1287 1086],[1288 1086],[1289 1085],[1290 1085],[1291 1084],[1292 1084],[1293 1083],[1294 1083],[1295 1082],[1296 1082],[1297 1081],[1298 1081],[1299 1080],[1300 1080],[1301 1079],[1302 1079],[1304 1077],[1305 1077],[1306 1076],[1307 1076],[1308 1075],[1309 1075],[1310 1074],[1311 1074],[1312 1073],[1313 1073],[1314 1072],[1315 1072],[1316 1071],[1317 1071],[1318 1070],[1319 1070],[1320 1069],[1321 1069],[1322 1068],[1323 1068],[1325 1066],[1326 1066],[1327 1065],[1328 1065],[1329 1064],[1330 1064],[1331 1063],[1332 1063],[1333 1062],[1334 1062],[1335 1061],[1336 1061],[1337 1060],[1338 1060],[1339 1059],[1340 1059],[1341 1058],[1342 1058],[1343 1057],[1344 1057],[1346 1055],[1347 1055],[1348 1054],[1349 1054],[1350 1053],[1351 1053],[1352 1052],[1353 1052],[1354 1051],[1355 1051],[1356 1050],[1357 1050],[1358 1049],[1359 1049],[1360 1048],[1361 1048],[1362 1047],[1363 1047],[1364 1046],[1365 1046],[1367 1044],[1368 1044],[1369 1043],[1370 1043],[1371 1042],[1372 1042],[1373 1041],[1374 1041],[1375 1040],[1376 1040],[1377 1039],[1378 1039],[1379 1038],[1380 1038],[1381 1037],[1381 950],[1175 950],[1174 949],[1140 949],[1139 948],[1105 948],[1104 947],[1070 947],[1069 946]

open : plan 1-room 9 : living : [1209, 1795] : contour_details : [ 925 1539],[ 926 1538],[1361 1538],[1362 1539],[1362 1975],[1361 1976],[ 925 1976],[ 924 1975],[ 924 1758],[ 925 1757]

open : plan 1-room 10 : entry : [1363, 1435] : contour_details : [1390 1155],[1391 1154],[1484 1154],[1485 1155],[1485 1509],[1484 1510],[1363 1510],[1362 1511],[1362 1535],[1361 1536],[1185 1536],[1184 1535],[1184 1493],[1183 1492],[1182 1492],[1181 1491],[1181 1285],[1182 1284],[1389 1284],[1390 1283]

open : plan 1-room 11 : dining : [792, 1328] : contour_details : [516 948],[517 947],[923 947],[924 948],[ 924 1757],[ 923 1758],[ 923 1975],[ 922 1976],[ 726 1976],[ 719 1969],[ 713 1975],[ 708 1970],[ 707 1970],[ 698 1961],[ 697 1961],[ 688 1952],[ 687 1952],[ 678 1943],[ 677 1943],[ 668 1934],[ 667 1934],[ 658 1925],[ 657 1925],[ 648 1916],[ 647 1916],[ 638 1907],[ 637 1907],[ 628 1898],[ 627 1898],[ 618 1889],[ 617 1889],[ 609 1881],[ 608 1881],[ 599 1872],[ 598 1872],[ 589 1863],[ 588 1863],[ 579 1854],[ 578 1854],[ 569 1845],[ 568 1845],[ 559 1836],[ 558 1836],[ 549 1827],[ 548 1827],[ 539 1818],[ 538 1818],[ 529 1809],[ 528 1809],[ 519 1800],[ 518 1800],[ 516 1798]

