bathroom : [2072,364] : [2026,352,2119,377] : confidence,dict,original_word,difference : [85,DM,None,0]
office : [1713,412] : [1648,400,1779,424] : confidence,dict,original_word,difference : [85,DM,None,0]
chambreparents : [2492,400] : [2332,388,2653,413] : confidence,dict,original_word,difference : [88,DM,None,0]
corridor : [1879,742] : [1766,730,1992,755] : confidence,dict,original_word,difference : [92,DM,None,0]
porch : [1396,783] : [1329,771,1464,796] : confidence,dict,original_word,difference : [94,DM,None,0]
toilet : [1579,777] : [1552,765,1606,790] : confidence,dict,original_word,difference : [93,DM,None,0]
chambreenfants : [2513,847] : [2439,816,2587,879] : confidence,dict,original_word,difference : [86,DM,None,0]
cellar : [1194,860] : [1128,848,1261,873] : confidence,dict,original_word,difference : [85,DM,None,0]
dressing room : [1869,907] : [1796,895,1942,920] : confidence,dict,original_word,difference : [88,DM,None,0]
chambreenfants : [2182,936] : [2108,904,2256,968] : confidence,dict,original_word,difference : [83,DM,None,0]
garage : [882,1020] : [815,1008,950,1033] : confidence,dict,original_word,difference : [87,DM,None,0]
entry : [1386,1162] : [1347,1150,1426,1174] : confidence,dict,original_word,difference : [73,DM,None,0]
kitchen : [1728,1179] : [1665,1167,1792,1192] : confidence,dict,original_word,difference : [85,DM,None,0]
bedroom : [1272,1383] : [1260,1374,1284,1392] : confidence,dict,original_word,difference : [80,SG,cl,1]
living : [1660,1604] : [1607,1592,1713,1617] : confidence,dict,original_word,difference : [89,DM,None,0]
terrace : [1670,1981] : [1582,1949,1759,2013] : confidence,dict,original_word,difference : [87,DM,None,0]
dining : [1222,2000] : [1157,1988,1287,2013] : confidence,dict,original_word,difference : [90,DM,None,0]
closet : [1307,2388] : [1299,2401,1315,2376] : confidence,dict,original_word,difference : [73,SG,ul,1]
No Text Detected
