porch : [1261,1106] : [1177,1091,1346,1122] : confidence,dict,original_word,difference : [92,DM,None,0]
kitchen : [1740,1106] : [1660,1091,1821,1122] : confidence,dict,original_word,difference : [88,DM,None,0]
bedroom 1 : [563,1336] : [450,1321,677,1352] : confidence,dict,original_word,difference : [90,DM,None,0]
toilet : [1166,1384] : [1133,1369,1200,1399] : confidence,dict,original_word,difference : [94,DM,None,0]
closet : [443,1541] : [416,1526,470,1556] : confidence,dict,original_word,difference : [74,DM,None,0]
closet : [565,1540] : [538,1525,592,1555] : confidence,dict,original_word,difference : [81,DM,None,0]
corridor : [941,1531] : [799,1516,1084,1547] : confidence,dict,original_word,difference : [91,DM,None,0]
bedroom : [513,1697] : [397,1682,629,1712] : confidence,dict,original_word,difference : [92,DM,None,0]
bedroom : [1369,1697] : [1353,1682,1385,1712] : confidence,dict,original_word,difference : [95,SG,cf,1]
bedroom 3 : [938,1726] : [822,1711,1055,1742] : confidence,dict,original_word,difference : [89,DM,None,0]
dining : [1670,1714] : [1589,1699,1751,1730] : confidence,dict,original_word,difference : [80,DM,None,0]
closet : [1256,1363] : [1241,1457,1272,1270] : confidence,dict,original_word,difference : [88,DM,None,0]
No Text Detected
