garage : [1139,872] : [1054,857,1224,887] : confidence,dict,original_word,difference : [90,DM,None,0]
bedroom 1 : [1039,1279] : [926,1264,1153,1294] : confidence,dict,original_word,difference : [93,DM,None,0]
cellar : [1401,1267] : [1318,1252,1485,1283] : confidence,dict,original_word,difference : [81,DM,None,0]
toilet : [793,1427] : [760,1412,826,1442] : confidence,dict,original_word,difference : [93,DM,None,0]
closet : [1659,1486] : [1619,1471,1699,1501] : confidence,dict,original_word,difference : [72,SG,pr,1]
bathroom : [516,1503] : [458,1488,575,1519] : confidence,dict,original_word,difference : [88,DM,None,0]
corridor : [1017,1521] : [963,1506,1072,1537] : confidence,dict,original_word,difference : [77,DM,None,0]
entry : [1340,1657] : [1291,1642,1389,1672] : confidence,dict,original_word,difference : [96,DM,None,0]
bedroom 3 : [618,1793] : [501,1778,735,1808] : confidence,dict,original_word,difference : [85,DM,None,0]
bedroom 2 : [907,1787] : [790,1772,1024,1802] : confidence,dict,original_word,difference : [91,DM,None,0]
closet : [1239,1764] : [1173,1749,1306,1779] : confidence,dict,original_word,difference : [61,DM,None,0]
kitchen : [1269,1928] : [1188,1913,1350,1944] : confidence,dict,original_word,difference : [88,DM,None,0]
dining : [1870,2017] : [1789,2001,1951,2033] : confidence,dict,original_word,difference : [87,DM,None,0]
No Text Detected
