Window : [194,1343],[236,1343],[236,1414],[194,1414] : [1] 
Window : [194,1614],[236,1614],[236,1792],[194,1792] : [1] 
Window : [1282,2051],[1564,2051],[1564,2094],[1282,2094] : [1] 
Window : [797,2051],[1080,2051],[1080,2094],[797,2094] : [1] 
Window : [1642,1516],[1683,1516],[1683,1233],[1661,1233] : [0.5] 
