Window : [1239,2338],[1282,2338],[1282,2480],[1239,2480] : [1] 
Window : [572,2125],[615,2125],[615,2268],[572,2268] : [1] 
Window : [1204,868],[1246,868],[1246,939],[1204,939] : [1] 
Window : [957,1009],[1032,1009],[1032,1032],[957,1032] : [1] 
Window : [620,1009],[902,1009],[902,1032],[620,1032] : [1] 
Window : [2066,933],[2108,933],[2108,1028],[2066,1028] : [1] 
Window : [620,1009],[927,1009],[927,1035],[620,1035] : [1] 
Window : [2066,1296],[2109,1296],[2109,1438],[2066,1438] : [1] 
Window : [572,1328],[597,1328],[597,1400],[572,1400] : [1] 
Window : [1370,2208],[1511,2208],[1511,2250],[1370,2250] : [1] 
Window : [1525,751],[1593,751],[1593,709],[1525,709] : [0.8] 
Window : [1565,2061],[1607,2061],[1619,1920],[1565,1920] : [0.8] 
Window : [763,2575],[1091,2575],[1091,2527],[763,2533] : [0.5] 
