garages : [1070,918] : [972,903,1168,933] : confidence,dict,original_word,difference : [92,DM,None,0]
closet : [1636,1409] : [1570,1394,1702,1425] : confidence,dict,original_word,difference : [89,DM,None,0]
douche : [1921,1506] : [1836,1491,2007,1522] : confidence,dict,original_word,difference : [91,DM,None,0]
office : [1080,1526] : [999,1511,1162,1542] : confidence,dict,original_word,difference : [78,DM,None,0]
entry : [1396,1817] : [1348,1802,1445,1832] : confidence,dict,original_word,difference : [96,DM,None,0]
dining : [925,1993] : [844,1978,1006,2009] : confidence,dict,original_word,difference : [73,DM,None,0]
porch : [1653,2022] : [1569,2007,1738,2037] : confidence,dict,original_word,difference : [90,DM,None,0]
living : [1083,2310] : [1017,2295,1149,2326] : confidence,dict,original_word,difference : [92,DM,None,0]
kitchen : [1479,2306] : [1399,2291,1560,2322] : confidence,dict,original_word,difference : [92,DM,None,0]
closet : [607,2381] : [580,2417,635,2345] : confidence,dict,original_word,difference : [67,SG,dl,1]
No Text Detected
