Wall : [2004,1671],[2046,1671],[2046,2291],[2004,2291] : [1] 
Wall : [1183,1045],[1225,1045],[1225,1706],[1183,1706] : [1] 
Wall : [1501,2249],[1763,2249],[1763,2291],[1501,2291] : [1] 
Wall : [1201,1913],[1243,1913],[1243,2291],[1201,2291] : [1] 
Wall : [344,1045],[895,1045],[895,1087],[344,1087] : [1] 
Wall : [1035,1045],[1226,1045],[1226,1088],[1035,1088] : [1] 
Wall : [2004,1370],[2046,1370],[2046,1529],[2004,1529] : [1] 
Wall : [1200,2248],[1362,2248],[1362,2291],[1200,2291] : [1] 
Wall : [1903,2248],[2047,2248],[2047,2291],[1903,2291] : [1] 
Wall : [345,1358],[386,1358],[386,1954],[345,1954] : [1] 
Wall : [1572,1370],[2047,1370],[2047,1411],[1572,1411] : [1] 
Wall : [344,1913],[594,1913],[594,1954],[344,1954] : [1] 
Wall : [1111,1913],[1244,1913],[1244,1955],[1111,1955] : [1] 
Wall : [733,1913],[1007,1913],[1007,1954],[733,1954] : [1] 
Wall : [345,1045],[386,1045],[386,1217],[345,1217] : [1] 
Wall : [1182,1369],[1391,1369],[1391,1412],[1182,1412] : [1] 
Wall : [1460,1370],[1503,1370],[1503,1411],[1460,1411] : [1] 
Wall : [1590,1807],[2047,1807],[2047,1813],[1590,1813] : [1] 
Wall : [1182,1700],[1492,1700],[1492,1706],[1182,1706] : [1] 
Wall : [1668,1913],[1674,1913],[1674,2291],[1668,2291] : [1] 
Wall : [1111,1913],[1492,1913],[1492,1920],[1111,1920] : [1] 
Wall : [1591,1370],[1597,1370],[1597,1706],[1591,1706] : [1] 
Wall : [1118,1807],[1125,1807],[1125,1954],[1118,1954] : [1] 
Wall : [1484,1370],[1491,1370],[1491,1600],[1484,1600] : [1] 
Wall : [1590,1913],[1675,1913],[1675,1919],[1590,1919] : [1] 
Wall : [1402,1807],[1408,1807],[1408,1919],[1402,1919] : [1] 
Wall : [1224,1807],[1486,1807],[1486,1813],[1224,1813] : [1] 
