Door : [985,1434],[1191,1434],[1191,1458],[985,1458] : [1] 
Door : [1092,1168],[1191,1168],[1191,1193],[1092,1193] : [1] 
Door : [1558,2225],[1652,2225],[1652,2267],[1558,2267] : [1] 
Door : [1190,1192],[1216,1192],[1216,1293],[1190,1293] : [1] 
Door : [1398,1570],[1405,1570],[1405,1677],[1398,1677] : [1] 
Door : [978,1481],[987,1481],[987,1582],[978,1582] : [1] 
Door : [1401,1677],[1440,1677],[1440,1571],[1399,1571] : [0.6] 
