contour_details : [989 1710],[989 1730],[988 1731],[988 1753],[987 1754],[987 1776],[986 1777],[986 1799],[985 1800],[985 1801],[1373 1801],[1373 1710] : degagement : [1128,1756]
contour_details : [1515 1600],[1515 2167],[2214 2167],[2214 1604],[2161 1604],[2160 1603],[1987 1603],[1986 1602],[1812 1602],[1811 1601],[1637 1601],[1636 1600] : sej our : [1939,1914]
contour_details : [1193 1488],[1193 1495],[1194 1496],[1194 1548],[1195 1549],[1195 1593],[1369 1593],[1369 1514],[1262 1514],[1261 1513],[1261 1488] : wc : [1253,1554]
contour_details : [1749 1226],[1749 1297],[1750 1298],[1750 1478],[1751 1479],[1751 1587],[2214 1587],[2214 1226] : cuisine : [2054,1416]
