[
    {
        "annotations": [
            {
                "class": "Room", 
                "type": "single", 
                "xn": "552;553;554;556;557;558;559;561;562;563;564;565;566;568;569;570;571;573;574;575;576;578;579;580;581;582;583;585;586;587;588;590;591;592;593;595;596;597;598;599;600;602;603;604;605;607;608;609;610;612;613;614;615;616;617;619;620;621;622;624;625;626;627;629;630;631;632;633;634;636;637;638;639;641;642;643;644;646;647;648;649;650;651;653;654;655;656;658;659;660;661;663;664;665;666;667;668;670;671;672;673;675;676;677;678;680;681;682;683;684;685;687;688;689;690;692;693;694;695;697;698;699;700;701;702;704;705;706;707;709;710;711;712;714;715;716;717;718;719;721;722;723;724;726;727;728;729;731;732;733;734;735;736;738;739;740;741;743;744;745;746;748;749;750;751;752;753;755;756;757;758;760;761;762;763;765;766;767;768;769;770;772;773;774;775;777;778;779;780;782;783;784;785;786;787;789;790;791;792;794;795;796;797;799;800;801;802;803;804;806;807;808;809;811;812;813;814;816;817;818;819;820;821;823;824;825;826;828;829;830;831;833;834;835;836;837;838;840;841;842;843;845;846;847;848;850;851;852;853;854;855;857;858;859;860;862;863;864;865;867;868;869;870;871;872;874;875;876;877;879;880;881;882;884;885;886;887;888;889;891;892;893;894;896;897;898;899;901;902;903;904;905;906;908;909;910;911;913;914;915;916;918;919;920;921;922;923;925;926;927;928;930;931;932;933;935;936;937;938;939;940;942;943;944;945;947;948;949;950;952;953;954;955;956;957;959;960;961;962;964;965;966;967;969;970;971;972;973;974;976;977;978;979;981;982;983;984;986;987;988;989;990;991;993;994;995;996;998;999;1000;1001;1003;1004;1005;1006;1007;1008;1010;1011;1012;1013;1015;1016;1017;1018;1020;1021;1022;1023;1024;1025;1027;1028;1029;1030;1032;1033;1034;1035;1037;1038;1039;1040;1041;1042;1044;1045;1046;1047;1049;1050;1051;1052;1054;1055;1056;1057;1058;1059;1061;1062;1063;1064;1066;1067;1068;1069;1071;1072;1073;1074;1075;1076;1078;1079;1080;1081;1083;1084;1085;1086;1088;1089;1090;1091;1092;1093;1095;1096;1097;1098;1100;1101;1102;1103;1105;1106;1107;1108;1109;1110;1112;1113;1114;1115;1117;1118;1119;1120;1122;1123;1124;1125;1126;1127;1129;1130;1131;1132;1134;1135;1136;1137;1139;1140;1141;1142;1143;1144;1146;1147;1148;1149;1151;1152;1153;1154;1156;1157;1158;1159;1160;1161;1163;1164;1165;1166;1168;1169;1170;1171;1173;1174;1175;1176;1177;1178;1180;1181;1182;1183;1185;1186;1187;1188;1190;1191;1192;1193;1194;1195;1197;1198;1199;1200;1202;1203;1204;1205;1207;1208;1209;1210;1211;1212;1214;1215;1216;1217;1219;1220;1221;1222;1224;1225;1226;1227;1228;1229;1231;1232;1233;1234;1236;1237;1238;1239;1241;1242;1243;1244;1245;1246;1248;1249;1250;1251;1253;1254;1255;1256;1258;1259;1260;1261;1262;1263;1265;1266;1267;1268;1270;1271;1272;1273;1275;1276;1277;1278;1279;1280;1282;1283;1284;1285;1287;1288;1289;1290;1292;1293;1294;1295;1296;1297;1299;1300;1301;1302;1304;1305;1306;1307;1309;1310;1311;1312;1313;1314;1316;1317;1318;1319;1321;1322;1323;1324;1326;1327;1328;1329;1330;1331;1333;1334;1335;1336;1338;1339;1340;1341;1343;1344;1345;1346;1347;1348;1350;1351;1352;1353;1355;1356;1357;1358;1360;1361;1362;1363;1364;1365;1367;1368;1369;1370;1372;1373;1374;1375;1377;1378;1379;1380;1381;1382;1384;1385;1386;1387;1389;1390;1391;1392;1394;1395;1396;1397;1398;1399;1401;1402;1403;1404;1406;1407;1408;1409;1411;1412;1413;1414;1415;1416;1418;1419;1420;1421;1423;1424;1425;1426;1428;1429;1430;1431;1432;1433;1435;1436;1437;1438;1440;1441;1442;1443;1445;1446;1447;1448;1449;1450;1452;1453;1454;1455;1457;1458;1459;1460;1462;1463;1464;1465;1466;1467;1469;1470;1471;1472;1474;1475;1476;1477;1479;1480;1481;1482;1483;1484;1486;1487;1488;1489;1491;1492;1493;1494;1496;1497;1498;1499;1500;1501;1503;1504;1505;1506;1508;1509;1510;1511;1513;1514;1515;1516;1517;1518;1520;1521;1522;1523;1525;1526;1527;1528;1530;1531;1532;1533;1534;1535;1537;1538;1539;1540;1542;1543;1544;1545;1547;1548;1549;1550;1551;1552;1554;1555;1556;1557;1559;1560;1561;1562;1564;1565;1566;1567;1568;1569;1571;1572;1573;1574;1576;1577;1578;1579;1581;1582;1583;1584;1585;1586;1588;1589;1590;1591;1593;1594;1595;1596;1598;1599;1600;1601;1602;1603;1605;1606;1607;1608;1610;1611;1612;1613;1615;1616;1617;1618;1619;1620;1622;1623;1624;1625;1627;1628;1629;1630;1632;1633;1634;1635;1636;1637;1639;1640;1641;1642;1644;1645;1646;1647;1649;1650;1651;1652;1653;1654;1656;1657;1658;1659;1661;1662;1663;1664;1666;1667;1668;1669;1670;1671;1673;1674;1675;1676;1678;1679;1680;1681;1683;1684;1685;1686;1687;1688;1690;1691;1692;1693;1695;1696;1697;1698;1700;1701;1702;1703;1704;1705;1707;1708;1709;1710;1712;1713;1714;1715;1717;1718;1719;1720;1721;1722;1724;1725;1726;1727;1729;1730;1731;1732;1734;1735;1736;1737;1738;1739;1741;1742;1743;1744;1746;1747;1748;1749;1751;1752;1753;1754;1755;1756;1758;1759;1760;1761;1763;1764;1765;1766;1768;1769;1770;1771;1772;1773;1775;1776;1777;1778;1780;1781;1782;1783;1785;1786;1787;1788;1789;1790;1792;1793;1794;1795;1797;1798;1799;1800;1802;1803;1804;1805;1806;1807;1809;1810;1811;1812;1814;1815;1816;1817;1819;1820;1821;1822;1823;1824;1826;1827;1828;1829;1831;1832;1833;1834;1836;1837;1838;1839;1840;1841;1843;1844;1845;1846;1848;1849;1850;1851;1853;1854;1855;1856;1857;1858;1860;1861;1862;1863;1865;1866;1867;1868;1870;1871;1872;1873;1874;1875;1877;1878;1879;1880;1882;1883;1884;1885;1887;1888;1889;1890;1891;1892;1894;1895;1896;1897;1899;1900;1901;1902;1904;1905;1906;1907;1908;1909;1911;1912;1913;1914;1916;1917;1918;1919;1921;1922;1923;1924;1925;1926;1928;1929;1930;1931;1933;1934;1935;1936;1938;1939;1940;1941;1942;1943;1945;1946;1947;1948;1950;1951;1952;1953;1955;1956;1957;1958;1959;1960;1962;1963;1964;1965;1967;1968;1969;1969;1948;1946;1948;1969;1969", 
                "yn": "3072;3072;3073;3073;3074;3074;3075;3075;3076;3076;3077;3077;3078;3078;3079;3079;3080;3080;3081;3081;3082;3082;3083;3083;3084;3084;3085;3085;3086;3086;3087;3087;3088;3088;3089;3089;3090;3090;3091;3091;3092;3092;3093;3093;3094;3094;3095;3095;3096;3096;3097;3097;3098;3098;3099;3099;3100;3100;3101;3101;3102;3102;3103;3103;3104;3104;3105;3105;3106;3106;3107;3107;3108;3108;3109;3109;3110;3110;3111;3111;3112;3112;3113;3113;3114;3114;3115;3115;3116;3116;3117;3117;3118;3118;3119;3119;3120;3120;3121;3121;3122;3122;3123;3123;3124;3124;3125;3125;3126;3126;3127;3127;3128;3128;3129;3129;3130;3130;3131;3131;3132;3132;3133;3133;3134;3134;3135;3135;3136;3136;3137;3137;3138;3138;3139;3139;3140;3140;3141;3141;3142;3142;3143;3143;3144;3144;3145;3145;3146;3146;3147;3147;3148;3148;3149;3149;3150;3150;3151;3151;3152;3152;3153;3153;3154;3154;3155;3155;3156;3156;3157;3157;3158;3158;3159;3159;3160;3160;3161;3161;3162;3162;3163;3163;3164;3164;3165;3165;3166;3166;3167;3167;3168;3168;3169;3169;3170;3170;3171;3171;3172;3172;3173;3173;3174;3174;3175;3175;3176;3176;3177;3177;3178;3178;3179;3179;3180;3180;3181;3181;3182;3182;3183;3183;3184;3184;3185;3185;3186;3186;3187;3187;3188;3188;3189;3189;3190;3190;3191;3191;3192;3192;3193;3193;3194;3194;3195;3195;3196;3196;3197;3197;3198;3198;3199;3199;3200;3200;3201;3201;3202;3202;3203;3203;3204;3204;3205;3205;3206;3206;3207;3207;3208;3208;3209;3209;3210;3210;3211;3211;3212;3212;3213;3213;3214;3214;3215;3215;3216;3216;3217;3217;3218;3218;3219;3219;3220;3220;3221;3221;3222;3222;3223;3223;3224;3224;3225;3225;3226;3226;3227;3227;3228;3228;3229;3229;3230;3230;3231;3231;3232;3232;3233;3233;3234;3234;3235;3235;3236;3236;3237;3237;3238;3238;3239;3239;3240;3240;3241;3241;3242;3242;3243;3243;3244;3244;3245;3245;3246;3246;3247;3247;3248;3248;3249;3249;3250;3250;3251;3251;3252;3252;3253;3253;3254;3254;3255;3255;3256;3256;3257;3257;3258;3258;3259;3259;3260;3260;3261;3261;3262;3262;3263;3263;3264;3264;3265;3265;3266;3266;3267;3267;3268;3268;3269;3269;3270;3270;3271;3271;3272;3272;3273;3273;3274;3274;3275;3275;3276;3276;3277;3277;3278;3278;3279;3279;3280;3280;3281;3281;3282;3282;3283;3283;3284;3284;3285;3285;3286;3286;3287;3287;3288;3288;3289;3289;3290;3290;3291;3291;3292;3292;3293;3293;3294;3294;3295;3295;3296;3296;3297;3297;3298;3298;3299;3299;3300;3300;3301;3301;3302;3302;3303;3303;3304;3304;3305;3305;3306;3306;3307;3307;3308;3308;3309;3309;3310;3310;3311;3311;3312;3312;3313;3313;3314;3314;3315;3315;3316;3316;3317;3317;3318;3318;3319;3319;3320;3320;3321;3321;3322;3322;3323;3323;3324;3324;3325;3325;3326;3326;3327;3327;3328;3328;3329;3329;3330;3330;3331;3331;3332;3332;3333;3333;3334;3334;3335;3335;3336;3336;3337;3337;3338;3338;3339;3339;3340;3340;3341;3341;3342;3342;3343;3343;3344;3344;3345;3345;3346;3346;3347;3347;3348;3348;3349;3349;3350;3350;3351;3351;3352;3352;3353;3353;3354;3354;3355;3355;3356;3356;3357;3357;3358;3358;3359;3359;3360;3360;3361;3361;3362;3362;3363;3363;3364;3364;3365;3365;3366;3366;3367;3367;3368;3368;3369;3369;3370;3370;3371;3371;3372;3372;3373;3373;3374;3374;3375;3375;3376;3376;3377;3377;3378;3378;3379;3379;3380;3380;3381;3381;3382;3382;3383;3383;3384;3384;3385;3385;3386;3386;3387;3387;3388;3388;3389;3389;3390;3390;3391;3391;3392;3392;3393;3393;3394;3394;3395;3395;3396;3396;3397;3397;3398;3398;3399;3399;3400;3400;3401;3401;3402;3402;3403;3403;3404;3404;3405;3405;3406;3406;3407;3407;3408;3408;3409;3409;3410;3410;3411;3411;3412;3412;3413;3413;3414;3414;3415;3415;3416;3416;3417;3417;3418;3418;3419;3419;3420;3420;3421;3421;3422;3422;3423;3423;3424;3424;3425;3425;3426;3426;3427;3427;3428;3428;3429;3429;3430;3430;3431;3431;3432;3432;3433;3433;3434;3434;3435;3435;3436;3436;3437;3437;3438;3438;3439;3439;3440;3440;3441;3441;3442;3442;3443;3443;3444;3444;3445;3445;3446;3446;3447;3447;3448;3448;3449;3449;3450;3450;3451;3451;3452;3452;3453;3453;3454;3454;3455;3455;3456;3456;3457;3457;3458;3458;3459;3459;3460;3460;3461;3461;3462;3462;3463;3463;3464;3464;3465;3465;3466;3466;3467;3467;3468;3468;3469;3469;3470;3470;3471;3471;3472;3472;3473;3473;3474;3474;3475;3475;3476;3476;3477;3477;3478;3478;3479;3479;3480;3480;3481;3481;3482;3482;3483;3483;3484;3484;3485;3485;3486;3486;3487;3487;3488;3488;3489;3489;3490;3490;3491;3491;3492;3492;3493;3493;3494;3494;3495;3495;3496;3496;3497;3497;3498;3498;3499;3499;3500;3500;3501;3501;3502;3502;3503;3503;3504;3504;3505;3505;3506;3506;3507;3507;3508;3508;3509;3509;3510;3510;3511;3511;3512;3512;3513;3513;3514;3514;3515;3515;3516;3516;3517;3517;3518;3518;3519;3519;3520;3520;3521;3521;3522;3522;3523;3523;3524;3524;3525;3525;3526;3526;3527;3527;3528;3528;3529;3529;3530;3530;3531;3531;3532;3532;3533;3533;3534;3534;3535;3535;3536;3536;3537;3537;3538;3538;3539;3539;3540;3540;3541;3541;3542;3542;3543;3543;3544;3544;3545;3545;3546;3546;3547;3547;3548;3548;3549;3549;3550;3550;3551;3551;3552;3552;3553;3553;3554;3554;3555;3555;3556;3556;3557;3557;3558;3558;3559;3559;3560;3560;3561;3561;3562;3562;3563;3563;3564;3564;3565;3565;3566;3566;3567;3567;3568;3568;3569;3569;3570;3570;3571;3571;3572;3572;3573;3573;3574;3574;3575;3575;3576;3576;3577;3577;3578;3578;3579;3579;3580;3580;3581;3581;3582;3582;3583;3583;3584;3584;3585;3585;3586;3586;3587;3587;3588;3588;3589;3589;3590;3590;3591;3591;3592;3592;3593;3593;3594;3594;3595;3595;3596;3596;3597;3597;3598;3598;3599;3599;3600;3600;3601;3601;3602;3602;3603;3603;3604;3604;3605;3605;3606;3606;3607;3607;3608;3608;3609;3609;3610;3610;3611;3611;3612;3612;3613;3613;3614;3614;3615;3615;3616;3616;3617;3617;3618;3618;3619;3619;3620;3620;3621;3621;3622;3622;3623;3623;3624;3624;3625;3625;3626;3626;3627;3627;3628;3628;3629;3629;3630;3630;3631;3631;3632;3632;3633;3633;3634;3634;3635;3635;3636;3636;3637;3637;3638;3638;3639;3639;3640;3640;3641;3641;3642;3642;3643;3643;3644;3644;3645;3645;3646;3646;3647;3647;3648;3648;3649;3649;3650;3650;3651;3651;3652;3652;3653;3653;3654;3654;3655;3655;3481;3481;3479;3477;3477;3072", 
                "text": "bir", 
                "x": 1205, 
                "y": 3291
            }, 
            {
                "class": "Room", 
                "type": "single", 
                "xn": "3706;3706;4161;4162;4601;4601", 
                "yn": "160;1670;1670;1671;1671;160", 
                "text": "unknown room", 
                "x": 4153, 
                "y": 915
            }, 
            {
                "class": "Door", 
                "xn": "3901;3971;3971;3901", 
                "yn": "1029;1029;1038;1038"
            }, 
            {
                "class": "Door", 
                "xn": "2192;2337;2337;2192", 
                "yn": "6302;6302;6325;6325"
            }, 
            {
                "class": "Door", 
                "xn": "2302;2411;2411;2302", 
                "yn": "6249;6249;6267;6267"
            }, 
            {
                "class": "Door", 
                "xn": "1683;1940;1940;1683", 
                "yn": "6259;6259;6267;6267"
            }, 
            {
                "class": "Door", 
                "xn": "3808;3846;3846;3808", 
                "yn": "1142;1142;1150;1150"
            }, 
            {
                "class": "Window", 
                "xn": "3557;3923;3923;3557", 
                "yn": "5911;5911;5998;5998"
            }, 
            {
                "class": "Window", 
                "xn": "3704;4162;4162;3704", 
                "yn": "1671;1671;1727;1727"
            }, 
            {
                "class": "Window", 
                "xn": "3757;4162;4162;3757", 
                "yn": "1671;1671;1727;1727"
            }, 
            {
                "class": "Window", 
                "xn": "1426;3213;3213;1426", 
                "yn": "71;71;158;158"
            }, 
            {
                "class": "Window", 
                "xn": "1426;2309;2309;1426", 
                "yn": "71;71;158;158"
            }, 
            {
                "class": "Window", 
                "xn": "2414;2778;2778;2414", 
                "yn": "5911;5911;5998;5998"
            }, 
            {
                "class": "Wall", 
                "xn": "4602;4725;4725;4602", 
                "yn": "72;72;5998;5998"
            }, 
            {
                "class": "Wall", 
                "xn": "2778;3558;3558;2778", 
                "yn": "5912;5912;5998;5998"
            }, 
            {
                "class": "Wall", 
                "xn": "476;1281;1281;476", 
                "yn": "5912;5912;5998;5998"
            }, 
            {
                "class": "Wall", 
                "xn": "2309;4726;4726;2309", 
                "yn": "72;72;159;159"
            }, 
            {
                "class": "Wall", 
                "xn": "3923;4726;4726;3923", 
                "yn": "5912;5912;5998;5998"
            }, 
            {
                "class": "Wall", 
                "xn": "476;1427;1427;476", 
                "yn": "72;72;158;158"
            }, 
            {
                "class": "Wall", 
                "xn": "1634;2415;2415;1634", 
                "yn": "5912;5912;5998;5998"
            }, 
            {
                "class": "Wall", 
                "xn": "476;3279;3279;476", 
                "yn": "2382;2382;2448;2448"
            }, 
            {
                "class": "Wall", 
                "xn": "477;544;544;477", 
                "yn": "72;72;5998;5998"
            }, 
            {
                "class": "Wall", 
                "xn": "3639;3705;3705;3639", 
                "yn": "72;72;1727;1727"
            }, 
            {
                "class": "Wall", 
                "xn": "3213;3278;3278;3213", 
                "yn": "1591;1591;1895;1895"
            }, 
            {
                "class": "Wall", 
                "xn": "3213;3278;3278;3213", 
                "yn": "72;72;517;517"
            }, 
            {
                "class": "Wall", 
                "xn": "3212;3758;3758;3212", 
                "yn": "1672;1672;1727;1727"
            }, 
            {
                "class": "Wall", 
                "xn": "4162;4726;4726;4162", 
                "yn": "1672;1672;1727;1727"
            }, 
            {
                "class": "Wall", 
                "xn": "3221;3278;3278;3221", 
                "yn": "2331;2331;2448;2448"
            }, 
            {
                "class": "Wall", 
                "xn": "4036;4726;4726;4036", 
                "yn": "3162;3162;3196;3196"
            }, 
            {
                "class": "Wall", 
                "xn": "3213;3219;3219;3213", 
                "yn": "2333;2333;2448;2448"
            }, 
            {
                "class": "Wall", 
                "xn": "4014;4027;4027;4014", 
                "yn": "1025;1025;1150;1150"
            }, 
            {
                "class": "Wall", 
                "xn": "3959;3970;3908;3898", 
                "yn": "1149;1145;1023;1029"
            }, 
            {
                "class": "Wall", 
                "xn": "2195;2315;2315;2195", 
                "yn": "6260;6260;6267;6267"
            }, 
            {
                "class": "Wall", 
                "xn": "2164;2171;2171;2164", 
                "yn": "6291;6291;6417;6417"
            }, 
            {
                "class": "Wall", 
                "xn": "2411;2546;2546;2411", 
                "yn": "6250;6250;6272;6272"
            }, 
            {
                "class": "Wall", 
                "xn": "2412;2434;2434;2412", 
                "yn": "6250;6250;6458;6458"
            }, 
            {
                "class": "Wall", 
                "xn": "1533;1684;1684;1533", 
                "yn": "6250;6250;6271;6271"
            }, 
            {
                "class": "Wall", 
                "xn": "1940;2061;2061;1940", 
                "yn": "6260;6260;6267;6267"
            }, 
            {
                "class": "Wall", 
                "xn": "1534;1556;1556;1534", 
                "yn": "6250;6250;6458;6458"
            }, 
            {
                "class": "Wall", 
                "xn": "3726;3744;3744;3726", 
                "yn": "1025;1025;1150;1150"
            }, 
            {
                "class": "Wall", 
                "xn": "2411;2559;2559;2411", 
                "yn": "6265;6265;6273;6273"
            }, 
            {
                "class": "Wall", 
                "xn": "2411;2536;2536;2411", 
                "yn": "6355;6355;6380;6380"
            }, 
            {
                "class": "Wall", 
                "xn": "1533;1671;1671;1533", 
                "yn": "6346;6346;6367;6367"
            }, 
            {
                "class": "Wall", 
                "xn": "2555;2572;2505;2487", 
                "yn": "6456;6441;6355;6370"
            }, 
            {
                "class": "Stair", 
                "xn": "4038;4039;4657;4658;4658;4657;4039;4038", 
                "yn": "3180;3179;3179;3180;5910;5911;5911;5910"
            }, 
            {
                "class": "Text", 
                "height": 70, 
                "width": 137, 
                "x": 4253, 
                "y": 3036, 
                "text": "dn"
            }, 
            {
                "class": "Text", 
                "height": 70, 
                "width": 208, 
                "x": 1101, 
                "y": 3256, 
                "text": "bir"
            }, 
            {
                "class": "Unknown", 
                "xn": "4082;4223;4223;4082", 
                "yn": "879;879;950;950"
            }
        ], 
        "class": "image", 
        "filename": "106.png"
    }
]