[
    {
        "annotations": [
            {
                "class": "Room", 
                "type": "single", 
                "xn": "1437;1437;1435;707;707;706;706;707;707;847;848;1063;1064;1471;1471", 
                "yn": "1806;1951;1953;1953;2244;2245;2367;2368;2439;2439;2438;2438;2439;2439;1806", 
                "text": "bedroom", 
                "x": 1099, 
                "y": 2150
            }, 
            {
                "class": "Room", 
                "type": "single", 
                "xn": "1070;1070;1129;1129", 
                "yn": "1732;1790;1790;1732", 
                "text": "unknown room", 
                "x": 1099, 
                "y": 1761
            }, 
            {
                "class": "Room", 
                "type": "single", 
                "xn": "1437;1437;1471;1471", 
                "yn": "1473;1790;1790;1473", 
                "text": "unknown room", 
                "x": 1454, 
                "y": 1631
            }, 
            {
                "class": "Room", 
                "type": "single", 
                "xn": "1313;1313;1312;1312;1313;1313;1312;1312;1311;1309;1309;1308;1308;1307;1307;1306;1306;1305;1305;1304;1304;1306;1306;1307;1307;1308;1308;1309;1309;1310;1310;1311;1311;1312;1312;1433;1433;1419;1419;1417;1415;1415", 
                "yn": "1473;1482;1483;1501;1502;1525;1526;1563;1564;1564;1570;1571;1592;1593;1614;1615;1636;1637;1658;1659;1661;1663;1673;1674;1694;1695;1715;1716;1737;1738;1758;1759;1771;1772;1788;1788;1473;1473;1488;1490;1488;1473", 
                "text": "unknown room", 
                "x": 1371, 
                "y": 1631
            }, 
            {
                "class": "Room", 
                "type": "single", 
                "xn": "790;790;1120;1120", 
                "yn": "1426;1509;1509;1426", 
                "text": "unknown room", 
                "x": 955, 
                "y": 1467
            }, 
            {
                "class": "Room", 
                "type": "single", 
                "xn": "673;676;676;679;679;683;683;687;687;691;691;695;695;698;698;702;702;705;706;707;708;709;710;711;712;713;714;715;716;717;718;719;720;721;723;724;725;726;727;728;729;730;731;732;733;734;735;736;737;738;740;741;742;743;744;745;746;747;748;749;750;751;752;753;788;790;790;1119;1119;1121;1121;1119;1119", 
                "yn": "1316;1319;1320;1323;1324;1328;1329;1333;1334;1338;1339;1343;1344;1347;1348;1352;1353;1356;1356;1357;1357;1358;1358;1359;1359;1360;1360;1361;1361;1362;1362;1363;1363;1364;1364;1365;1365;1366;1366;1367;1367;1368;1368;1369;1369;1370;1370;1371;1371;1372;1372;1373;1373;1374;1374;1375;1375;1376;1376;1377;1377;1378;1378;1379;1379;1381;1422;1422;1391;1389;1332;1330;1316", 
                "text": "bath", 
                "x": 884, 
                "y": 1349
            }, 
            {
                "class": "Room", 
                "type": "single", 
                "xn": "1145;1145;1144;1144;1157;1158;1159;1160;1160;1174;1176;1174;1144;1144;1143;1133;1132;1115;1114;1096;1095;1078;1077;1060;1059;1041;1040;1023;1022;1016;1016;1017;1017;1018;1018;1019;1019;1020;1020;1021;1021;1022;1022;1023;1023;1024;1024;1025;1025;1026;1026;1027;1027;1028;1028;1029;1029;1030;1030;1031;1031;1032;1032;1033;1033;1034;1034;1035;1035;1036;1036;1037;1037;1040;1040;1056;1056;1054;1053;1035;1035;1032;1032;1031;1031;1030;1030;1029;1029;1028;1028;1027;1027;1026;1026;1025;1025;1024;1024;1023;1023;1022;1022;1021;1021;1020;1020;1019;1019;1018;1018;1017;1017;1016;1016;1015;1015;1014;1014;1013;1013;1012;1012;1011;1011;1010;1010;1012;1120;1120;691;691;689;687;687;637;637;687;687;689;691;691;705;708;708;707;707;722;724;722;707;707;1066;1066;1068;1127;1127;1112;1110;1112;1142;1144;1144;1145;1145;1144;707;707;1433;1433;1296;1294;1294;1296;1302;1302;1300;1300;1299;1299;1298;1298;1297;1297;1296;1296;1295;1295;1294;1294;1281;1280;1280;1279;1279;1264;1262;1264;1294;1294", 
                "yn": "1315;1402;1403;1500;1500;1501;1501;1502;1521;1521;1523;1525;1525;1540;1541;1541;1542;1542;1543;1543;1544;1544;1545;1545;1546;1546;1547;1547;1548;1548;1550;1551;1553;1554;1556;1557;1559;1560;1562;1563;1565;1566;1568;1569;1571;1572;1574;1575;1577;1578;1580;1581;1583;1584;1586;1587;1588;1589;1591;1592;1594;1595;1597;1598;1600;1601;1602;1603;1604;1605;1606;1607;1608;1611;1612;1628;1629;1631;1631;1613;1612;1609;1607;1606;1604;1603;1601;1600;1598;1597;1596;1595;1594;1593;1592;1591;1590;1589;1587;1586;1585;1584;1583;1582;1581;1580;1579;1578;1577;1576;1575;1574;1572;1571;1570;1569;1568;1567;1566;1565;1564;1563;1562;1561;1559;1558;1539;1537;1537;1525;1525;1539;1541;1539;1525;1525;1667;1667;1652;1650;1652;1667;1667;1670;1684;1685;1734;1734;1736;1738;1738;1788;1788;1730;1728;1728;1658;1658;1656;1654;1654;1656;1790;1791;1805;1806;1806;1949;1949;1806;1806;1804;1771;1769;1769;1672;1670;1658;1657;1634;1633;1609;1608;1585;1584;1560;1559;1536;1535;1526;1526;1525;1524;1523;1504;1504;1502;1500;1500;1315", 
                "text": "walkincloset", 
                "x": 852, 
                "y": 1632
            }, 
            {
                "class": "Room", 
                "type": "single", 
                "xn": "1160;1160;1159;1145;1145;1296;1296;1281;1280", 
                "yn": "1052;1054;1055;1055;1311;1311;1053;1053;1052", 
                "text": "unknown room", 
                "x": 1220, 
                "y": 1181
            }, 
            {
                "class": "Room", 
                "type": "single", 
                "xn": "1160;1160;1159;1142;1142;1141;1130;1129;1129;987;987;1121;1121;1122;1144;1145;1145;1157;1158;1280;1281;1310;1310;1311;1457;1457;1458;1458;1459;1459;1460;1460;1461;1461;1462;1462;1464;1464;1465;1465;1466;1466;1467;1467;1468;1468;1470;1471;1471;1470;1470;1469;1469;1468;1468;1467;1467;1466;1466;1465;1465;1464;1312;1471;1471;1281;1280", 
                "yn": "783;784;785;785;795;796;796;795;785;785;1039;1039;1029;1028;1028;1029;1039;1039;1038;1038;1039;1039;963;962;962;961;960;959;958;957;956;955;954;953;952;951;949;948;947;946;945;944;943;942;941;940;938;939;982;983;1068;1069;1154;1155;1240;1241;1326;1327;1412;1413;1456;1457;1457;1457;784;784;783", 
                "text": "unknown room", 
                "x": 1214, 
                "y": 906
            }, 
            {
                "class": "Room", 
                "type": "single", 
                "xn": "761;761;759;757;757;719;719;961;961;942;942;940;927;926;925;924;922;921;919;918;917;916;914;913;911;910;908;907;906;905;903;902;900;899;898;897;895;894;892;891;890;889;887;886;884;883;881;880;879;878;876;875;873;864;863;852;851;848;848;847;847;846;846;845;845;844;844;843;843;842;842;841;841;840;840;839;839;838;838;837;837;836;836;835;835;834;834;833;833;832;832;831;831;830;830;829;829;828;828;827;827;826;826;825;825;824;824;823;823;822;822", 
                "yn": "656;671;673;671;657;657;1037;1037;657;657;771;773;773;772;772;771;771;770;770;769;769;768;768;767;767;766;766;765;765;764;764;763;763;762;762;761;761;760;760;759;759;758;758;757;757;756;756;755;755;754;754;753;753;744;744;733;733;730;728;727;726;725;724;723;722;721;720;719;718;717;716;715;714;713;712;711;710;709;708;707;706;705;704;703;702;701;700;699;698;697;696;695;694;693;692;691;690;689;688;687;685;684;683;682;681;680;679;678;677;676;656", 
                "text": "walkincloset", 
                "x": 856, 
                "y": 881
            }, 
            {
                "class": "Room", 
                "type": "single", 
                "xn": "707;707;718;719;719;823;824;956;956", 
                "yn": "92;318;318;319;347;347;346;346;92", 
                "text": "unknown room", 
                "x": 832, 
                "y": 218
            }, 
            {
                "class": "Room", 
                "type": "single", 
                "xn": "1103;1102;980;980;979;957;956;956;940;939;939;826;825;719;719;825;826;826;827;827;828;828;829;829;830;830;831;831;832;832;833;833;834;834;835;835;836;836;837;837;838;838;839;839;840;840;841;841;842;842;843;843;844;844;845;845;846;846;847;847;848;848;849;849;850;850;860;861;872;873;876;877;878;880;881;883;884;885;886;888;889;891;892;894;895;896;897;899;900;902;903;904;905;907;908;910;911;912;913;915;916;918;919;921;922;923;924;926;927;938;938;939;939;940;955;955;956;986;987;987;1157;1158;1280;1281;1471;1471;1317;1316", 
                "yn": "91;92;92;478;479;479;478;364;364;363;362;362;363;363;641;641;642;677;678;679;680;681;682;683;684;685;686;687;688;689;690;691;692;693;694;695;696;697;698;699;700;701;702;703;704;705;706;707;708;709;710;711;712;713;714;715;716;717;718;720;721;722;723;724;725;726;736;736;747;747;750;750;751;751;752;752;753;753;754;754;755;755;756;756;757;757;758;758;759;759;760;760;761;761;762;762;763;763;764;764;765;765;766;766;767;767;768;768;769;769;654;653;641;640;640;603;602;602;603;769;769;768;768;769;769;92;92;91", 
                "text": "bath", 
                "x": 870, 
                "y": 479
            }, 
            {
                "class": "Door", 
                "xn": "824;940;940;824", 
                "yn": "347;347;362;362"
            }, 
            {
                "class": "Door", 
                "xn": "1158;1281;1281;1158", 
                "yn": "769;769;783;783"
            }, 
            {
                "class": "Door", 
                "xn": "1158;1281;1281;1158", 
                "yn": "1039;1039;1052;1052"
            }, 
            {
                "class": "Door", 
                "xn": "1158;1281;1281;1158", 
                "yn": "1039;1039;1052;1052"
            }, 
            {
                "class": "Door", 
                "xn": "692;706;706;692", 
                "yn": "319;319;241;241"
            }, 
            {
                "class": "Window", 
                "xn": "621;636;636;621", 
                "yn": "1329;1329;1431;1431"
            }, 
            {
                "class": "Window", 
                "xn": "691;706;706;691", 
                "yn": "2243;2243;2368;2368"
            }, 
            {
                "class": "Window", 
                "xn": "1101;1317;1317;1101", 
                "yn": "77;77;91;91"
            }, 
            {
                "class": "Window", 
                "xn": "848;1064;1064;848", 
                "yn": "2439;2439;2454;2454"
            }, 
            {
                "class": "Window", 
                "xn": "1122;1144;1144;1122", 
                "yn": "1402;1402;1262;1262"
            }, 
            {
                "class": "Wall", 
                "xn": "691;719;719;691", 
                "yn": "1190;1190;1254;1254"
            }, 
            {
                "class": "Wall", 
                "xn": "692;718;718;692", 
                "yn": "319;319;1089;1089"
            }, 
            {
                "class": "Wall", 
                "xn": "964;986;986;964", 
                "yn": "603;603;1054;1054"
            }, 
            {
                "class": "Wall", 
                "xn": "957;979;979;957", 
                "yn": "78;78;478;478"
            }, 
            {
                "class": "Wall", 
                "xn": "1121;1143;1143;1121", 
                "yn": "1402;1402;1540;1540"
            }, 
            {
                "class": "Wall", 
                "xn": "1122;1144;1144;1122", 
                "yn": "1029;1029;1262;1262"
            }, 
            {
                "class": "Wall", 
                "xn": "1281;1312;1312;1281", 
                "yn": "1502;1502;1525;1525"
            }, 
            {
                "class": "Wall", 
                "xn": "1472;1486;1486;1472", 
                "yn": "78;78;2454;2454"
            }, 
            {
                "class": "Wall", 
                "xn": "622;636;636;622", 
                "yn": "1431;1431;1684;1684"
            }, 
            {
                "class": "Wall", 
                "xn": "691;1159;1159;691", 
                "yn": "1040;1040;1054;1054"
            }, 
            {
                "class": "Wall", 
                "xn": "691;849;849;691", 
                "yn": "2440;2440;2454;2454"
            }, 
            {
                "class": "Wall", 
                "xn": "691;1144;1144;691", 
                "yn": "1791;1791;1805;1805"
            }, 
            {
                "class": "Wall", 
                "xn": "622;636;636;622", 
                "yn": "1241;1241;1330;1330"
            }, 
            {
                "class": "Wall", 
                "xn": "692;706;706;692", 
                "yn": "1670;1670;2244;2244"
            }, 
            {
                "class": "Wall", 
                "xn": "691;825;825;691", 
                "yn": "348;348;362;362"
            }, 
            {
                "class": "Wall", 
                "xn": "1297;1311;1311;1297", 
                "yn": "1040;1040;1563;1563"
            }, 
            {
                "class": "Wall", 
                "xn": "1064;1487;1487;1064", 
                "yn": "2440;2440;2454;2454"
            }, 
            {
                "class": "Wall", 
                "xn": "692;706;706;692", 
                "yn": "2368;2368;2454;2454"
            }, 
            {
                "class": "Wall", 
                "xn": "1296;1487;1487;1296", 
                "yn": "1791;1791;1805;1805"
            }, 
            {
                "class": "Wall", 
                "xn": "1296;1487;1487;1296", 
                "yn": "1458;1458;1472;1472"
            }, 
            {
                "class": "Wall", 
                "xn": "621;707;707;621", 
                "yn": "1670;1670;1684;1684"
            }, 
            {
                "class": "Wall", 
                "xn": "963;1159;1159;963", 
                "yn": "770;770;784;784"
            }, 
            {
                "class": "Wall", 
                "xn": "1297;1311;1311;1297", 
                "yn": "1772;1772;1805;1805"
            }, 
            {
                "class": "Wall", 
                "xn": "621;1159;1159;621", 
                "yn": "1510;1510;1524;1524"
            }, 
            {
                "class": "Wall", 
                "xn": "940;979;979;940", 
                "yn": "347;347;363;363"
            }, 
            {
                "class": "Wall", 
                "xn": "691;1102;1102;691", 
                "yn": "78;78;91;91"
            }, 
            {
                "class": "Wall", 
                "xn": "776;789;789;776", 
                "yn": "1382;1382;1524;1524"
            }, 
            {
                "class": "Wall", 
                "xn": "691;825;825;691", 
                "yn": "642;642;655;655"
            }, 
            {
                "class": "Wall", 
                "xn": "621;790;790;621", 
                "yn": "1241;1241;1254;1254"
            }, 
            {
                "class": "Wall", 
                "xn": "1317;1487;1487;1317", 
                "yn": "78;78;91;91"
            }, 
            {
                "class": "Wall", 
                "xn": "940;979;979;940", 
                "yn": "641;641;656;656"
            }, 
            {
                "class": "Wall", 
                "xn": "1130;1143;1143;1130", 
                "yn": "1657;1657;1805;1805"
            }, 
            {
                "class": "Wall", 
                "xn": "1281;1312;1312;1281", 
                "yn": "1040;1040;1052;1052"
            }, 
            {
                "class": "Wall", 
                "xn": "1281;1487;1487;1281", 
                "yn": "770;770;783;783"
            }, 
            {
                "class": "Wall", 
                "xn": "1130;1141;1141;1130", 
                "yn": "770;770;795;795"
            }, 
            {
                "class": "Wall", 
                "xn": "692;706;706;692", 
                "yn": "78;78;241;241"
            }, 
            {
                "class": "Wall", 
                "xn": "776;789;789;776", 
                "yn": "1241;1241;1266;1266"
            }, 
            {
                "class": "Wall", 
                "xn": "956;963;963;956", 
                "yn": "603;603;655;655"
            }, 
            {
                "class": "Wall", 
                "xn": "1121;1159;1159;1121", 
                "yn": "1502;1502;1509;1509"
            }, 
            {
                "class": "Wall", 
                "xn": "757;761;761;757", 
                "yn": "671;671;655;655"
            }, 
            {
                "class": "Wall", 
                "xn": "757;761;761;757", 
                "yn": "671;671;654;654"
            }, 
            {
                "class": "Wall", 
                "xn": "822;826;826;822", 
                "yn": "676;676;654;654"
            }, 
            {
                "class": "Wall", 
                "xn": "848;851;825;822", 
                "yn": "729;728;675;676"
            }, 
            {
                "class": "Wall", 
                "xn": "872;875;851;848", 
                "yn": "752;749;727;730"
            }, 
            {
                "class": "Wall", 
                "xn": "927;928;874;873", 
                "yn": "772;769;749;752"
            }, 
            {
                "class": "Wall", 
                "xn": "928;940;940;928", 
                "yn": "773;773;769;769"
            }, 
            {
                "class": "Wall", 
                "xn": "938;942;942;938", 
                "yn": "771;771;654;654"
            }, 
            {
                "class": "Wall", 
                "xn": "1142;1296;1296;1142", 
                "yn": "1315;1315;1311;1311"
            }, 
            {
                "class": "Wall", 
                "xn": "1264;1281;1281;1264", 
                "yn": "1504;1504;1500;1500"
            }, 
            {
                "class": "Wall", 
                "xn": "1300;1303;1297;1294", 
                "yn": "1670;1669;1522;1523"
            }, 
            {
                "class": "Wall", 
                "xn": "1300;1303;1312;1309", 
                "yn": "1669;1670;1471;1470"
            }, 
            {
                "class": "Wall", 
                "xn": "1415;1419;1419;1415", 
                "yn": "1488;1488;1471;1471"
            }, 
            {
                "class": "Wall", 
                "xn": "1415;1419;1419;1415", 
                "yn": "1488;1488;1471;1471"
            }, 
            {
                "class": "Wall", 
                "xn": "1433;1437;1437;1433", 
                "yn": "1790;1790;1471;1471"
            }, 
            {
                "class": "Wall", 
                "xn": "1308;1311;1305;1302", 
                "yn": "1790;1789;1662;1663"
            }, 
            {
                "class": "Wall", 
                "xn": "1302;1306;1306;1302", 
                "yn": "1771;1771;1663;1663"
            }, 
            {
                "class": "Wall", 
                "xn": "1433;1437;1437;1433", 
                "yn": "1951;1951;1804;1804"
            }, 
            {
                "class": "Wall", 
                "xn": "705;1435;1435;705", 
                "yn": "1953;1953;1949;1949"
            }, 
            {
                "class": "Wall", 
                "xn": "1112;1142;1142;1112", 
                "yn": "1658;1658;1654;1654"
            }, 
            {
                "class": "Wall", 
                "xn": "1112;1129;1129;1112", 
                "yn": "1658;1658;1654;1654"
            }, 
            {
                "class": "Wall", 
                "xn": "1068;1129;1129;1068", 
                "yn": "1732;1732;1728;1728"
            }, 
            {
                "class": "Wall", 
                "xn": "1066;1070;1070;1066", 
                "yn": "1790;1790;1730;1730"
            }, 
            {
                "class": "Wall", 
                "xn": "705;722;722;705", 
                "yn": "1738;1738;1734;1734"
            }, 
            {
                "class": "Wall", 
                "xn": "705;722;722;705", 
                "yn": "1738;1738;1734;1734"
            }, 
            {
                "class": "Wall", 
                "xn": "687;691;691;687", 
                "yn": "1669;1669;1652;1652"
            }, 
            {
                "class": "Wall", 
                "xn": "687;691;691;687", 
                "yn": "1669;1669;1652;1652"
            }, 
            {
                "class": "Wall", 
                "xn": "687;691;691;687", 
                "yn": "1539;1539;1523;1523"
            }, 
            {
                "class": "Wall", 
                "xn": "687;691;691;687", 
                "yn": "1539;1539;1523;1523"
            }, 
            {
                "class": "Wall", 
                "xn": "1012;1129;1129;1012", 
                "yn": "1541;1541;1537;1537"
            }, 
            {
                "class": "Wall", 
                "xn": "1010;1014;1014;1010", 
                "yn": "1558;1558;1539;1539"
            }, 
            {
                "class": "Wall", 
                "xn": "1035;1038;1013;1010", 
                "yn": "1612;1611;1557;1558"
            }, 
            {
                "class": "Wall", 
                "xn": "1052;1055;1038;1035", 
                "yn": "1630;1627;1610;1613"
            }, 
            {
                "class": "Wall", 
                "xn": "1052;1055;1035;1032", 
                "yn": "1630;1627;1606;1609"
            }, 
            {
                "class": "Wall", 
                "xn": "1032;1035;1014;1011", 
                "yn": "1608;1607;1545;1546"
            }, 
            {
                "class": "Wall", 
                "xn": "1012;1013;1142;1141", 
                "yn": "1544;1547;1540;1537"
            }, 
            {
                "class": "Wall", 
                "xn": "1157;1174;1174;1157", 
                "yn": "1525;1525;1521;1521"
            }, 
            {
                "class": "Stair", 
                "xn": "1470;1471;1471;1470;1470;1469;1469;1468;1468;1467;1467;1466;1466;1465;1465;1464;1311;1310;1310;1311;1457;1457;1458;1458;1459;1459;1460;1460;1461;1461;1462;1462;1464;1464;1465;1465;1466;1466;1467;1467;1468;1468", 
                "yn": "938;939;982;983;1068;1069;1154;1155;1240;1241;1326;1327;1412;1413;1456;1457;1457;1456;963;962;962;961;960;959;958;957;956;955;954;953;952;951;949;948;947;946;945;944;943;942;941;940"
            }, 
            {
                "class": "Text", 
                "height": 30, 
                "width": 89, 
                "x": 826, 
                "y": 464, 
                "text": "bath"
            }, 
            {
                "class": "Text", 
                "height": 64, 
                "width": 118, 
                "x": 797, 
                "y": 849, 
                "text": "walkincloset"
            }, 
            {
                "class": "Text", 
                "height": 30, 
                "width": 89, 
                "x": 840, 
                "y": 1334, 
                "text": "bath"
            }, 
            {
                "class": "Text", 
                "height": 65, 
                "width": 119, 
                "x": 793, 
                "y": 1600, 
                "text": "walkincloset"
            }, 
            {
                "class": "Text", 
                "height": 31, 
                "width": 185, 
                "x": 1007, 
                "y": 2135, 
                "text": "bedroom"
            }, 
            {
                "class": "Unknown", 
                "xn": "1043;1154;1154;1043", 
                "yn": "1733;1733;1788;1788"
            }, 
            {
                "class": "Unknown", 
                "xn": "1398;1509;1509;1398", 
                "yn": "1603;1603;1658;1658"
            }, 
            {
                "class": "Unknown", 
                "xn": "1315;1426;1426;1315", 
                "yn": "1603;1603;1658;1658"
            }, 
            {
                "class": "Unknown", 
                "xn": "899;1010;1010;899", 
                "yn": "1439;1439;1494;1494"
            }, 
            {
                "class": "Unknown", 
                "xn": "1164;1275;1275;1164", 
                "yn": "1153;1153;1208;1208"
            }, 
            {
                "class": "Unknown", 
                "xn": "1158;1269;1269;1158", 
                "yn": "878;878;933;933"
            }, 
            {
                "class": "Unknown", 
                "xn": "776;887;887;776", 
                "yn": "190;190;245;245"
            }
        ], 
        "class": "image", 
        "filename": "12.png"
    }
]