[
    {
        "annotations": [
            {
                "class": "Room", 
                "type": "single", 
                "xn": "1770;1769;1769;1770;1897;1898;1898;1897", 
                "yn": "821;822;827;828;828;827;822;821", 
                "text": "unknown room", 
                "x": 1833, 
                "y": 824
            }, 
            {
                "class": "Room", 
                "type": "single", 
                "xn": "1649;1648;1648;1649;1667;1668;1668;1667", 
                "yn": "42;43;106;107;107;106;43;42", 
                "text": "unknown room", 
                "x": 1658, 
                "y": 74
            }, 
            {
                "class": "Door", 
                "xn": "705;829;829;705", 
                "yn": "960;960;992;992"
            }, 
            {
                "class": "Door", 
                "xn": "963;988;988;963", 
                "yn": "1625;1625;1785;1785"
            }, 
            {
                "class": "Door", 
                "xn": "1723;1721;1753;1727", 
                "yn": "1975;1992;1833;1833"
            }, 
            {
                "class": "Window", 
                "xn": "1248;1465;1465;1248", 
                "yn": "1992;1992;2020;2020"
            }, 
            {
                "class": "Window", 
                "xn": "1842;1852;1852;1842", 
                "yn": "987;987;1091;1091"
            }, 
            {
                "class": "Window", 
                "xn": "1249;1465;1465;1249", 
                "yn": "1992;1992;2020;2020"
            }, 
            {
                "class": "Window", 
                "xn": "963;994;994;963", 
                "yn": "1174;1174;1371;1371"
            }, 
            {
                "class": "Window", 
                "xn": "963;991;991;963", 
                "yn": "1445;1445;1545;1545"
            }, 
            {
                "class": "Window", 
                "xn": "963;994;994;963", 
                "yn": "1123;1123;1170;1170"
            }, 
            {
                "class": "Window", 
                "xn": "963;992;992;963", 
                "yn": "1398;1398;1545;1545"
            }, 
            {
                "class": "Window", 
                "xn": "1763;1838;1838;1763", 
                "yn": "987;987;1021;1021"
            }, 
            {
                "class": "Window", 
                "xn": "1249;1466;1466;1249", 
                "yn": "1992;1992;2021;2021"
            }, 
            {
                "class": "Wall", 
                "xn": "1649;1667;1667;1649", 
                "yn": "43;43;106;106"
            }, 
            {
                "class": "Wall", 
                "xn": "1852;1910;1910;1852", 
                "yn": "850;850;1193;1193"
            }, 
            {
                "class": "Wall", 
                "xn": "842;880;880;842", 
                "yn": "1351;1351;1603;1603"
            }, 
            {
                "class": "Wall", 
                "xn": "1726;2015;2015;1726", 
                "yn": "1780;1780;1814;1814"
            }, 
            {
                "class": "Wall", 
                "xn": "288;322;322;288", 
                "yn": "548;548;1603;1603"
            }, 
            {
                "class": "Wall", 
                "xn": "845;879;879;845", 
                "yn": "961;961;1136;1136"
            }, 
            {
                "class": "Wall", 
                "xn": "1729;2195;2195;1729", 
                "yn": "850;850;884;884"
            }, 
            {
                "class": "Wall", 
                "xn": "958;991;991;958", 
                "yn": "1090;1090;1446;1446"
            }, 
            {
                "class": "Wall", 
                "xn": "2015;2445;2445;2015", 
                "yn": "1778;1778;1811;1811"
            }, 
            {
                "class": "Wall", 
                "xn": "287;993;993;287", 
                "yn": "1570;1570;1603;1603"
            }, 
            {
                "class": "Wall", 
                "xn": "575;608;608;575", 
                "yn": "548;548;821;821"
            }, 
            {
                "class": "Wall", 
                "xn": "2412;2445;2445;2412", 
                "yn": "548;548;1811;1811"
            }, 
            {
                "class": "Wall", 
                "xn": "2114;2147;2147;2114", 
                "yn": "850;850;1041;1041"
            }, 
            {
                "class": "Wall", 
                "xn": "844;994;994;844", 
                "yn": "1089;1089;1124;1124"
            }, 
            {
                "class": "Wall", 
                "xn": "1217;1249;1249;1217", 
                "yn": "1992;1992;2125;2125"
            }, 
            {
                "class": "Wall", 
                "xn": "902;936;936;902", 
                "yn": "548;548;769;769"
            }, 
            {
                "class": "Wall", 
                "xn": "1466;1500;1500;1466", 
                "yn": "1993;1993;2125;2125"
            }, 
            {
                "class": "Wall", 
                "xn": "2295;2446;2446;2295", 
                "yn": "845;845;879;879"
            }, 
            {
                "class": "Wall", 
                "xn": "1723;1757;1757;1723", 
                "yn": "1975;1975;2019;2019"
            }, 
            {
                "class": "Wall", 
                "xn": "1843;2144;2144;1843", 
                "yn": "1156;1156;1189;1189"
            }, 
            {
                "class": "Wall", 
                "xn": "287;2446;2446;287", 
                "yn": "550;550;580;580"
            }, 
            {
                "class": "Wall", 
                "xn": "1889;1921;1921;1889", 
                "yn": "548;548;716;716"
            }, 
            {
                "class": "Wall", 
                "xn": "961;1250;1250;961", 
                "yn": "1992;1992;2021;2021"
            }, 
            {
                "class": "Wall", 
                "xn": "1216;1500;1500;1216", 
                "yn": "2095;2095;2125;2125"
            }, 
            {
                "class": "Wall", 
                "xn": "2291;2446;2446;2291", 
                "yn": "1172;1172;1202;1202"
            }, 
            {
                "class": "Wall", 
                "xn": "1727;1753;1753;1727", 
                "yn": "1312;1312;1833;1833"
            }, 
            {
                "class": "Wall", 
                "xn": "962;988;988;962", 
                "yn": "1785;1785;2021;2021"
            }, 
            {
                "class": "Wall", 
                "xn": "2097;2123;2123;2097", 
                "yn": "548;548;883;883"
            }, 
            {
                "class": "Wall", 
                "xn": "842;994;994;842", 
                "yn": "1371;1371;1399;1399"
            }, 
            {
                "class": "Wall", 
                "xn": "1465;1758;1758;1465", 
                "yn": "1993;1993;2020;2020"
            }, 
            {
                "class": "Wall", 
                "xn": "1889;1908;1908;1889", 
                "yn": "830;830;1019;1019"
            }, 
            {
                "class": "Wall", 
                "xn": "1852;1869;1846;1829", 
                "yn": "1213;1194;1172;1191"
            }, 
            {
                "class": "Wall", 
                "xn": "1729;1768;1768;1729", 
                "yn": "989;989;1012;1012"
            }, 
            {
                "class": "Wall", 
                "xn": "964;992;992;964", 
                "yn": "1545;1545;1626;1626"
            }, 
            {
                "class": "Wall", 
                "xn": "570;589;589;570", 
                "yn": "942;942;995;995"
            }, 
            {
                "class": "Wall", 
                "xn": "1729;1764;1764;1729", 
                "yn": "850;850;1021;1021"
            }, 
            {
                "class": "Wall", 
                "xn": "829;880;880;829", 
                "yn": "961;961;992;992"
            }, 
            {
                "class": "Wall", 
                "xn": "878;936;936;878", 
                "yn": "738;738;767;767"
            }, 
            {
                "class": "Wall", 
                "xn": "590;606;606;590", 
                "yn": "944;944;995;995"
            }, 
            {
                "class": "Wall", 
                "xn": "287;706;706;287", 
                "yn": "953;953;995;995"
            }, 
            {
                "class": "Wall", 
                "xn": "1835;1911;1911;1835", 
                "yn": "990;990;1016;1016"
            }, 
            {
                "class": "Wall", 
                "xn": "574;626;626;574", 
                "yn": "738;738;770;770"
            }, 
            {
                "class": "Wall", 
                "xn": "1364;2195;2195;1364", 
                "yn": "853;853;858;858"
            }, 
            {
                "class": "Wall", 
                "xn": "1835;2148;2148;1835", 
                "yn": "1013;1013;1018;1018"
            }, 
            {
                "class": "Wall", 
                "xn": "1835;2144;2144;1835", 
                "yn": "1179;1179;1184;1184"
            }, 
            {
                "class": "Wall", 
                "xn": "1824;1867;1867;1824", 
                "yn": "1194;1194;1202;1202"
            }, 
            {
                "class": "Wall", 
                "xn": "1828;2144;2144;1828", 
                "yn": "1185;1185;1193;1193"
            }, 
            {
                "class": "Wall", 
                "xn": "1910;1920;1920;1910", 
                "yn": "830;830;883;883"
            }, 
            {
                "class": "Wall", 
                "xn": "287;333;333;287", 
                "yn": "853;853;858;858"
            }, 
            {
                "class": "Wall", 
                "xn": "964;1005;1005;964", 
                "yn": "1170;1170;1175;1175"
            }, 
            {
                "class": "Wall", 
                "xn": "1571;1731;1731;1571", 
                "yn": "1972;1972;1977;1977"
            }, 
            {
                "class": "Wall", 
                "xn": "1862;1864;1856;1854", 
                "yn": "1245;1237;1156;1164"
            }, 
            {
                "class": "Wall", 
                "xn": "2016;2144;2144;2016", 
                "yn": "1148;1148;1156;1156"
            }, 
            {
                "class": "Wall", 
                "xn": "1847;1859;1859;1847", 
                "yn": "1164;1164;1210;1210"
            }, 
            {
                "class": "Wall", 
                "xn": "1770;1897;1897;1770", 
                "yn": "822;822;827;827"
            }, 
            {
                "class": "Wall", 
                "xn": "1838;1843;1843;1838", 
                "yn": "988;988;1091;1091"
            }, 
            {
                "class": "Text", 
                "height": 63, 
                "width": 159, 
                "x": 1643, 
                "y": 161, 
                "text": "bath"
            }, 
            {
                "class": "Text", 
                "height": 41, 
                "width": 201, 
                "x": 657, 
                "y": 632, 
                "text": "dn"
            }, 
            {
                "class": "Text", 
                "height": 48, 
                "width": 218, 
                "x": 1449, 
                "y": 750, 
                "text": "kitchen"
            }, 
            {
                "class": "Text", 
                "height": 48, 
                "width": 126, 
                "x": 2136, 
                "y": 1066, 
                "text": "bath"
            }, 
            {
                "class": "Text", 
                "height": 49, 
                "width": 246, 
                "x": 444, 
                "y": 1240, 
                "text": "bedroom"
            }, 
            {
                "class": "Text", 
                "height": 43, 
                "width": 359, 
                "x": 1187, 
                "y": 1516, 
                "text": "livingroom"
            }, 
            {
                "class": "Text", 
                "height": 44, 
                "width": 458, 
                "x": 1878, 
                "y": 1507, 
                "text": "masterbedroom"
            }, 
            {
                "class": "Text", 
                "height": 61, 
                "width": 387, 
                "x": 1916, 
                "y": 1914, 
                "text": "patiobalcony"
            }, 
            {
                "class": "Unknown", 
                "xn": "1748;1917;1917;1748", 
                "yn": "781;781;866;866"
            }, 
            {
                "class": "Unknown", 
                "xn": "1573;1742;1742;1573", 
                "yn": "31;31;116;116"
            }
        ], 
        "class": "image", 
        "filename": "17.png"
    }
]