[
    {
        "annotations": [
            {
                "class": "Room", 
                "type": "single", 
                "xn": "1883;1883;1884;1887;1888;1891;1892;1895;1896;1898;1899;1902;1903;1906;1907;1910;1911;1913;1914;1917;1918;1921;1922;1925;1926;1928;1929;1932;1933;1936;1937;1940;1941;1944;1945;1947;1948;1951;1952;1955;1956;1959;1960;1962;1963;1966;1967;1970;1971;1974;1975;1976;2043;2043", 
                "yn": "1481;1540;1540;1543;1543;1546;1546;1549;1549;1551;1551;1554;1554;1557;1557;1560;1560;1562;1562;1565;1565;1568;1568;1571;1571;1573;1573;1576;1576;1579;1579;1582;1582;1585;1585;1587;1587;1590;1590;1593;1593;1596;1596;1598;1598;1601;1601;1604;1604;1607;1607;1608;1608;1481", 
                "text": "unknown room", 
                "x": 1972, 
                "y": 1536
            }, 
            {
                "class": "Room", 
                "type": "single", 
                "xn": "1895;1895;1894;1883;1883;2043;2043;2042;2042;1961;1960", 
                "yn": "1221;1222;1223;1223;1470;1470;1404;1403;1222;1222;1221", 
                "text": "laundry", 
                "x": 1932, 
                "y": 1336
            }, 
            {
                "class": "Room", 
                "type": "single", 
                "xn": "2509;2509;2508;2485;2484;2461;2461;2460;2436;2435;2411;2411;2436;2437;2509;2509;2508;2508;2509", 
                "yn": "1150;1177;1178;1178;1179;1179;1235;1236;1236;1237;1237;1275;1275;1276;1276;1258;1257;1205;1204", 
                "text": "unknown room", 
                "x": 2470, 
                "y": 1235
            }, 
            {
                "class": "Room", 
                "type": "single", 
                "xn": "2411;2411;2412;2412;2460;2461;2461;2484;2485;2508;2509;2509;2509;2508;2508", 
                "yn": "974;995;996;1017;1017;1018;1069;1069;1070;1070;1071;1097;1043;1042;974", 
                "text": "unknown room", 
                "x": 2469, 
                "y": 1013
            }, 
            {
                "class": "Room", 
                "type": "single", 
                "xn": "1882;1882;1905;1905", 
                "yn": "955;1029;1029;955", 
                "text": "unknown room", 
                "x": 1893, 
                "y": 992
            }, 
            {
                "class": "Room", 
                "type": "single", 
                "xn": "1982;1981;1920;1920;1921;1921;1920;1920;2038;2039;2048;2048;2047;2047;2048;2048;2040;2039;2039", 
                "yn": "875;876;876;943;944;954;955;1029;1029;1030;1030;974;973;963;962;877;877;876;875", 
                "text": "bath", 
                "x": 1982, 
                "y": 914
            }, 
            {
                "class": "Room", 
                "type": "single", 
                "xn": "1920;1920;1979;1980;2048;2048", 
                "yn": "717;866;866;865;865;717", 
                "text": "unknown room", 
                "x": 1983, 
                "y": 791
            }, 
            {
                "class": "Room", 
                "type": "single", 
                "xn": "1839;1839;1838;1817;1817;1816;1816;1817;1817;1905;1905;1904;1904;1905;1905;1904;1904;1905;1905;1897;1896", 
                "yn": "657;659;660;660;815;816;874;875;943;943;876;875;867;866;717;716;708;707;658;658;657", 
                "text": "unknown room", 
                "x": 1860, 
                "y": 800
            }, 
            {
                "class": "Room", 
                "type": "single", 
                "xn": "1823;1823;1824;1824;1925;1925;1924;1924;1925;1925", 
                "yn": "268;498;499;538;538;375;374;296;295;268", 
                "text": "unknown room", 
                "x": 1873, 
                "y": 403
            }, 
            {
                "class": "Room", 
                "type": "single", 
                "xn": "1667;1667;1666;1666;1667;1667;1811;1811;1812;1826;1827;1827;1836;1837;1896;1897;1919;1920;1920;2048;2048;2045;2045;2039;2039;2033;2033;2027;2027;2021;2021;2015;2015;2009;2009;2004;2004;1998;1998;1992;1992;1986;1986;1980;1980;1974;1974;1968;1968;1966;1824;1824;1823;1813;1812;1812;1811;1811;1812;1812;1811;1811;1803;1802", 
                "yn": "267;582;583;642;643;650;650;645;644;644;645;650;650;649;649;650;650;651;707;707;645;642;641;635;634;628;627;621;620;614;613;607;606;600;599;594;593;587;586;580;579;573;572;566;565;559;558;552;551;549;549;554;555;555;554;549;548;539;538;499;498;268;268;267", 
                "text": "masterbath", 
                "x": 1757, 
                "y": 404
            }, 
            {
                "class": "Room", 
                "type": "single", 
                "xn": "1550;1549;1490;1490;1659;1659;1658;1658;1657;1657", 
                "yn": "265;266;266;650;650;643;642;583;582;265", 
                "text": "unknown room", 
                "x": 1573, 
                "y": 457
            }, 
            {
                "class": "Room", 
                "type": "single", 
                "xn": "1059;1059;1085;1086;1239;1240;1263;1263", 
                "yn": "1347;1398;1398;1397;1397;1398;1398;1347", 
                "text": "unknown room", 
                "x": 1160, 
                "y": 1372
            }, 
            {
                "class": "Room", 
                "type": "single", 
                "xn": "966;966;978;979;1038;1039;1050;1050", 
                "yn": "1187;1235;1235;1234;1234;1235;1235;1187", 
                "text": "unknown room", 
                "x": 1007, 
                "y": 1210
            }, 
            {
                "class": "Room", 
                "type": "single", 
                "xn": "404;404;403;387;386;319;318;244;244;243;243;244;244;313;314;729;730;801;801;800;800;801;801", 
                "yn": "976;1049;1050;1050;1049;1049;1050;1050;1062;1063;1125;1126;1577;1577;1576;1576;1577;1577;1540;1539;1529;1528;976", 
                "text": "storage", 
                "x": 588, 
                "y": 1016
            }, 
            {
                "class": "Room", 
                "type": "single", 
                "xn": "1174;1174;1175;1175;1174;1173;1173;1174;1174;1263;1263", 
                "yn": "972;1068;1069;1091;1092;1092;1155;1156;1176;1176;972", 
                "text": "storage", 
                "x": 1213, 
                "y": 1122
            }, 
            {
                "class": "Door", 
                "xn": "317;387;387;317", 
                "yn": "1040;1040;1049;1049"
            }, 
            {
                "class": "Door", 
                "xn": "317;387;387;317", 
                "yn": "1040;1040;1049;1049"
            }, 
            {
                "class": "Door", 
                "xn": "1980;2040;2040;1980", 
                "yn": "866;866;875;875"
            }, 
            {
                "class": "Door", 
                "xn": "1734;1798;1798;1734", 
                "yn": "944;944;953;953"
            }, 
            {
                "class": "Door", 
                "xn": "1734;1798;1798;1734", 
                "yn": "944;944;953;953"
            }, 
            {
                "class": "Door", 
                "xn": "1979;2039;2039;1979", 
                "yn": "1030;1030;1039;1039"
            }, 
            {
                "class": "Door", 
                "xn": "1795;1859;1859;1795", 
                "yn": "1272;1272;1279;1279"
            }, 
            {
                "class": "Door", 
                "xn": "1837;1897;1897;1837", 
                "yn": "650;650;657;657"
            }, 
            {
                "class": "Door", 
                "xn": "977;1041;1041;977", 
                "yn": "1337;1337;1346;1346"
            }, 
            {
                "class": "Door", 
                "xn": "843;919;919;843", 
                "yn": "1528;1528;1539;1539"
            }, 
            {
                "class": "Door", 
                "xn": "1893;1961;1961;1893", 
                "yn": "1212;1212;1221;1221"
            }, 
            {
                "class": "Door", 
                "xn": "1893;1961;1961;1893", 
                "yn": "1212;1212;1221;1221"
            }, 
            {
                "class": "Door", 
                "xn": "234;243;243;234", 
                "yn": "1061;1061;1126;1126"
            }, 
            {
                "class": "Door", 
                "xn": "234;243;243;234", 
                "yn": "1061;1061;1126;1126"
            }, 
            {
                "class": "Door", 
                "xn": "1807;1816;1816;1807", 
                "yn": "814;814;875;875"
            }, 
            {
                "class": "Door", 
                "xn": "1807;1816;1816;1807", 
                "yn": "814;814;875;875"
            }, 
            {
                "class": "Door", 
                "xn": "1659;1666;1666;1659", 
                "yn": "581;581;643;643"
            }, 
            {
                "class": "Window", 
                "xn": "1480;1489;1489;1480", 
                "yn": "1028;1028;1198;1198"
            }, 
            {
                "class": "Window", 
                "xn": "1086;1240;1240;1086", 
                "yn": "1398;1398;1408;1408"
            }, 
            {
                "class": "Window", 
                "xn": "2126;2176;2176;2126", 
                "yn": "1276;1276;1290;1290"
            }, 
            {
                "class": "Window", 
                "xn": "1548;1803;1803;1548", 
                "yn": "256;256;265;265"
            }, 
            {
                "class": "Window", 
                "xn": "1548;1658;1658;1548", 
                "yn": "256;256;265;265"
            }, 
            {
                "class": "Window", 
                "xn": "1677;1803;1803;1677", 
                "yn": "256;256;265;265"
            }, 
            {
                "class": "Window", 
                "xn": "314;730;730;314", 
                "yn": "1577;1577;1590;1590"
            }, 
            {
                "class": "Window", 
                "xn": "2509;2523;2523;2509", 
                "yn": "972;972;1043;1043"
            }, 
            {
                "class": "Window", 
                "xn": "2509;2523;2523;2509", 
                "yn": "990;990;1043;1043"
            }, 
            {
                "class": "Window", 
                "xn": "1859;1867;1867;1859", 
                "yn": "1280;1280;1346;1346"
            }, 
            {
                "class": "Window", 
                "xn": "1925;1934;1934;1925", 
                "yn": "296;296;375;375"
            }, 
            {
                "class": "Window", 
                "xn": "1263;1276;1276;1263", 
                "yn": "1233;1233;1312;1312"
            }, 
            {
                "class": "Window", 
                "xn": "1665;1803;1803;1665", 
                "yn": "256;256;267;267"
            }, 
            {
                "class": "Window", 
                "xn": "2386;2437;2437;2386", 
                "yn": "1276;1276;1290;1290"
            }, 
            {
                "class": "Window", 
                "xn": "1548;1598;1598;1548", 
                "yn": "256;256;265;265"
            }, 
            {
                "class": "Window", 
                "xn": "813;1150;1150;813", 
                "yn": "538;538;547;547"
            }, 
            {
                "class": "Window", 
                "xn": "1164;1174;1174;1164", 
                "yn": "970;970;1069;1069"
            }, 
            {
                "class": "Window", 
                "xn": "1263;1276;1276;1263", 
                "yn": "1233;1233;1338;1338"
            }, 
            {
                "class": "Window", 
                "xn": "1268;1276;1276;1268", 
                "yn": "576;576;932;932"
            }, 
            {
                "class": "Window", 
                "xn": "1812;1823;1823;1812", 
                "yn": "266;266;499;499"
            }, 
            {
                "class": "Window", 
                "xn": "979;1039;1039;979", 
                "yn": "1235;1235;1246;1246"
            }, 
            {
                "class": "Window", 
                "xn": "679;688;688;679", 
                "yn": "292;292;501;501"
            }, 
            {
                "class": "Window", 
                "xn": "2043;2056;2056;2043", 
                "yn": "1352;1352;1404;1404"
            }, 
            {
                "class": "Window", 
                "xn": "1164;1173;1173;1164", 
                "yn": "1090;1090;1156;1156"
            }, 
            {
                "class": "Window", 
                "xn": "2509;2523;2523;2509", 
                "yn": "1098;1098;1150;1150"
            }, 
            {
                "class": "Window", 
                "xn": "1480;1489;1489;1480", 
                "yn": "717;717;887;887"
            }, 
            {
                "class": "Window", 
                "xn": "2256;2307;2307;2256", 
                "yn": "1276;1276;1290;1290"
            }, 
            {
                "class": "Window", 
                "xn": "2509;2523;2523;2509", 
                "yn": "1205;1205;1258;1258"
            }, 
            {
                "class": "Window", 
                "xn": "2103;2179;2179;2103", 
                "yn": "973;973;964;963"
            }, 
            {
                "class": "Window", 
                "xn": "2049;2062;1966;1966", 
                "yn": "645;645;539;548"
            }, 
            {
                "class": "Window", 
                "xn": "1976;1976;1882;1867", 
                "yn": "1617;1609;1540;1540"
            }, 
            {
                "class": "Wall", 
                "xn": "678;775;775;678", 
                "yn": "255;255;271;271"
            }, 
            {
                "class": "Wall", 
                "xn": "1260;1276;1276;1260", 
                "yn": "487;487;547;547"
            }, 
            {
                "class": "Wall", 
                "xn": "234;311;311;234", 
                "yn": "906;906;919;919"
            }, 
            {
                "class": "Wall", 
                "xn": "1164;1277;1277;1164", 
                "yn": "958;958;971;971"
            }, 
            {
                "class": "Wall", 
                "xn": "393;811;811;393", 
                "yn": "963;963;975;975"
            }, 
            {
                "class": "Wall", 
                "xn": "680;692;692;680", 
                "yn": "906;906;975;975"
            }, 
            {
                "class": "Wall", 
                "xn": "730;811;811;730", 
                "yn": "1578;1578;1590;1590"
            }, 
            {
                "class": "Wall", 
                "xn": "1264;1276;1276;1264", 
                "yn": "932;932;1234;1234"
            }, 
            {
                "class": "Wall", 
                "xn": "387;403;403;387", 
                "yn": "906;906;1049;1049"
            }, 
            {
                "class": "Wall", 
                "xn": "234;315;315;234", 
                "yn": "1578;1578;1590;1590"
            }, 
            {
                "class": "Wall", 
                "xn": "679;693;693;679", 
                "yn": "501;501;567;567"
            }, 
            {
                "class": "Wall", 
                "xn": "234;300;300;234", 
                "yn": "539;539;551;551"
            }, 
            {
                "class": "Wall", 
                "xn": "802;815;815;802", 
                "yn": "963;963;1590;1590"
            }, 
            {
                "class": "Wall", 
                "xn": "953;965;965;953", 
                "yn": "1177;1177;1252;1252"
            }, 
            {
                "class": "Wall", 
                "xn": "1264;1276;1276;1264", 
                "yn": "1312;1312;1434;1434"
            }, 
            {
                "class": "Wall", 
                "xn": "952;965;965;952", 
                "yn": "1331;1331;1720;1720"
            }, 
            {
                "class": "Wall", 
                "xn": "666;814;814;666", 
                "yn": "539;539;549;549"
            }, 
            {
                "class": "Wall", 
                "xn": "945;1277;1277;945", 
                "yn": "1177;1177;1186;1186"
            }, 
            {
                "class": "Wall", 
                "xn": "1050;1087;1087;1050", 
                "yn": "1399;1399;1408;1408"
            }, 
            {
                "class": "Wall", 
                "xn": "1165;1174;1174;1165", 
                "yn": "1069;1069;1091;1091"
            }, 
            {
                "class": "Wall", 
                "xn": "590;775;775;590", 
                "yn": "255;255;264;264"
            }, 
            {
                "class": "Wall", 
                "xn": "919;962;962;919", 
                "yn": "1529;1529;1539;1539"
            }, 
            {
                "class": "Wall", 
                "xn": "1039;1059;1059;1039", 
                "yn": "1236;1236;1246;1246"
            }, 
            {
                "class": "Wall", 
                "xn": "801;844;844;801", 
                "yn": "1529;1529;1539;1539"
            }, 
            {
                "class": "Wall", 
                "xn": "952;980;980;952", 
                "yn": "1236;1236;1246;1246"
            }, 
            {
                "class": "Wall", 
                "xn": "1240;1277;1277;1240", 
                "yn": "1399;1399;1409;1409"
            }, 
            {
                "class": "Wall", 
                "xn": "952;978;978;952", 
                "yn": "1337;1337;1347;1347"
            }, 
            {
                "class": "Wall", 
                "xn": "1189;1277;1277;1189", 
                "yn": "255;255;271;271"
            }, 
            {
                "class": "Wall", 
                "xn": "1261;1276;1276;1261", 
                "yn": "255;255;308;308"
            }, 
            {
                "class": "Wall", 
                "xn": "2043;2063;2063;2043", 
                "yn": "1207;1207;1353;1353"
            }, 
            {
                "class": "Wall", 
                "xn": "2509;2523;2523;2509", 
                "yn": "934;934;991;991"
            }, 
            {
                "class": "Wall", 
                "xn": "2307;2387;2387;2307", 
                "yn": "1277;1277;1290;1290"
            }, 
            {
                "class": "Wall", 
                "xn": "2049;2062;2062;2049", 
                "yn": "645;645;1046;1046"
            }, 
            {
                "class": "Wall", 
                "xn": "1906;1919;1919;1906", 
                "yn": "651;651;1039;1039"
            }, 
            {
                "class": "Wall", 
                "xn": "2176;2257;2257;2176", 
                "yn": "1277;1277;1290;1290"
            }, 
            {
                "class": "Wall", 
                "xn": "2510;2523;2523;2510", 
                "yn": "1150;1150;1206;1206"
            }, 
            {
                "class": "Wall", 
                "xn": "2043;2127;2127;2043", 
                "yn": "1276;1276;1290;1290"
            }, 
            {
                "class": "Wall", 
                "xn": "2510;2523;2523;2510", 
                "yn": "1043;1043;1099;1099"
            }, 
            {
                "class": "Wall", 
                "xn": "2044;2056;2056;2044", 
                "yn": "1404;1404;1617;1617"
            }, 
            {
                "class": "Wall", 
                "xn": "2437;2524;2524;2437", 
                "yn": "1277;1277;1290;1290"
            }, 
            {
                "class": "Wall", 
                "xn": "2510;2523;2523;2510", 
                "yn": "1258;1258;1290;1290"
            }, 
            {
                "class": "Wall", 
                "xn": "2048;2063;2063;2048", 
                "yn": "540;540;554;554"
            }, 
            {
                "class": "Wall", 
                "xn": "1867;1882;1882;1867", 
                "yn": "1207;1207;1540;1540"
            }, 
            {
                "class": "Wall", 
                "xn": "1812;1826;1826;1812", 
                "yn": "645;645;659;659"
            }, 
            {
                "class": "Wall", 
                "xn": "1803;1935;1935;1803", 
                "yn": "257;257;267;267"
            }, 
            {
                "class": "Wall", 
                "xn": "1867;1980;1980;1867", 
                "yn": "1030;1030;1039;1039"
            }, 
            {
                "class": "Wall", 
                "xn": "1812;1966;1966;1812", 
                "yn": "539;539;548;548"
            }, 
            {
                "class": "Wall", 
                "xn": "1798;1920;1920;1798", 
                "yn": "944;944;954;954"
            }, 
            {
                "class": "Wall", 
                "xn": "2179;2524;2524;2179", 
                "yn": "964;964;973;973"
            }, 
            {
                "class": "Wall", 
                "xn": "1807;1915;1915;1807", 
                "yn": "798;798;807;807"
            }, 
            {
                "class": "Wall", 
                "xn": "1867;2057;2057;1867", 
                "yn": "1471;1471;1480;1480"
            }, 
            {
                "class": "Wall", 
                "xn": "1867;1894;1894;1867", 
                "yn": "1212;1212;1222;1222"
            }, 
            {
                "class": "Wall", 
                "xn": "2048;2103;2103;2048", 
                "yn": "963;963;973;973"
            }, 
            {
                "class": "Wall", 
                "xn": "2039;2090;2090;2039", 
                "yn": "1031;1031;1040;1040"
            }, 
            {
                "class": "Wall", 
                "xn": "2040;2063;2063;2040", 
                "yn": "866;866;876;876"
            }, 
            {
                "class": "Wall", 
                "xn": "2361;2371;2371;2361", 
                "yn": "1209;1209;1219;1219"
            }, 
            {
                "class": "Wall", 
                "xn": "1870;1881;1881;1870", 
                "yn": "945;945;1046;1046"
            }, 
            {
                "class": "Wall", 
                "xn": "1813;1823;1823;1813", 
                "yn": "499;499;554;554"
            }, 
            {
                "class": "Wall", 
                "xn": "680;688;688;680", 
                "yn": "255;255;293;293"
            }, 
            {
                "class": "Wall", 
                "xn": "1150;1277;1277;1150", 
                "yn": "539;539;547;547"
            }, 
            {
                "class": "Wall", 
                "xn": "235;243;243;235", 
                "yn": "517;517;1062;1062"
            }, 
            {
                "class": "Wall", 
                "xn": "235;243;243;235", 
                "yn": "1126;1126;1590;1590"
            }, 
            {
                "class": "Wall", 
                "xn": "946;951;951;946", 
                "yn": "1177;1177;1190;1190"
            }, 
            {
                "class": "Wall", 
                "xn": "1041;1277;1277;1041", 
                "yn": "1338;1338;1346;1346"
            }, 
            {
                "class": "Wall", 
                "xn": "952;1064;1064;952", 
                "yn": "1712;1712;1720;1720"
            }, 
            {
                "class": "Wall", 
                "xn": "1051;1058;1058;1051", 
                "yn": "1177;1177;1269;1269"
            }, 
            {
                "class": "Wall", 
                "xn": "1165;1173;1173;1165", 
                "yn": "1156;1156;1185;1185"
            }, 
            {
                "class": "Wall", 
                "xn": "1051;1058;1058;1051", 
                "yn": "1329;1329;1408;1408"
            }, 
            {
                "class": "Wall", 
                "xn": "1961;2063;2063;1961", 
                "yn": "1213;1213;1221;1221"
            }, 
            {
                "class": "Wall", 
                "xn": "1905;2063;2063;1905", 
                "yn": "708;708;716;716"
            }, 
            {
                "class": "Wall", 
                "xn": "1897;1915;1915;1897", 
                "yn": "651;651;657;657"
            }, 
            {
                "class": "Wall", 
                "xn": "1905;1981;1981;1905", 
                "yn": "867;867;875;875"
            }, 
            {
                "class": "Wall", 
                "xn": "1976;2057;2057;1976", 
                "yn": "1609;1609;1617;1617"
            }, 
            {
                "class": "Wall", 
                "xn": "1859;1877;1877;1859", 
                "yn": "1272;1272;1279;1279"
            }, 
            {
                "class": "Wall", 
                "xn": "1480;1838;1838;1480", 
                "yn": "651;651;659;659"
            }, 
            {
                "class": "Wall", 
                "xn": "1926;1934;1934;1926", 
                "yn": "257;257;297;297"
            }, 
            {
                "class": "Wall", 
                "xn": "1926;1934;1934;1926", 
                "yn": "375;375;548;548"
            }, 
            {
                "class": "Wall", 
                "xn": "1808;1816;1816;1808", 
                "yn": "875;875;953;953"
            }, 
            {
                "class": "Wall", 
                "xn": "1808;1816;1816;1808", 
                "yn": "651;651;815;815"
            }, 
            {
                "class": "Wall", 
                "xn": "1269;1276;1276;1269", 
                "yn": "487;487;577;577"
            }, 
            {
                "class": "Wall", 
                "xn": "234;318;318;234", 
                "yn": "1041;1041;1049;1049"
            }, 
            {
                "class": "Wall", 
                "xn": "1855;1860;1860;1855", 
                "yn": "1281;1281;1346;1346"
            }, 
            {
                "class": "Wall", 
                "xn": "1660;1666;1666;1660", 
                "yn": "643;643;659;659"
            }, 
            {
                "class": "Wall", 
                "xn": "1481;1489;1489;1481", 
                "yn": "257;257;718;718"
            }, 
            {
                "class": "Wall", 
                "xn": "1480;1549;1549;1480", 
                "yn": "257;257;265;265"
            }, 
            {
                "class": "Wall", 
                "xn": "1480;1735;1735;1480", 
                "yn": "945;945;953;953"
            }, 
            {
                "class": "Wall", 
                "xn": "1481;1489;1489;1481", 
                "yn": "887;887;1029;1029"
            }, 
            {
                "class": "Wall", 
                "xn": "1480;1796;1796;1480", 
                "yn": "1273;1273;1281;1281"
            }, 
            {
                "class": "Wall", 
                "xn": "1481;1489;1489;1481", 
                "yn": "1198;1198;1307;1307"
            }, 
            {
                "class": "Wall", 
                "xn": "1658;1666;1666;1658", 
                "yn": "257;257;582;582"
            }, 
            {
                "class": "Wall", 
                "xn": "1598;1678;1678;1598", 
                "yn": "257;257;265;265"
            }, 
            {
                "class": "Stair", 
                "xn": "2281;2282;2410;2411;2411;2412;2412;2460;2461;2461;2484;2485;2508;2509;2509;2508;2485;2484;2461;2461;2460;2436;2435;2411;2411;2412;2413;2414;2416;2417;2419;2420;2421;2422;2424;2425;2426;2427;2429;2430;2432;2433;2434;2435;2436;2437;2436;2386;2385;2385;2386;2386;2387;2387;2388;2388;2389;2389;2390;2405;2406;2419;2419;2352;2351;2282;2281", 
                "yn": "972;971;971;972;995;996;1017;1017;1018;1069;1069;1070;1070;1071;1177;1178;1178;1179;1179;1235;1236;1236;1237;1237;1276;1277;1277;1278;1278;1279;1279;1280;1280;1281;1281;1282;1282;1283;1283;1284;1284;1285;1285;1286;1286;1287;1288;1288;1287;1275;1274;1250;1249;1225;1224;1200;1199;1187;1186;1186;1185;1185;1063;1063;1062;1062;1061"
            }, 
            {
                "class": "Text", 
                "height": 54, 
                "width": 110, 
                "x": 400, 
                "y": 377, 
                "text": "diningroom"
            }, 
            {
                "class": "Text", 
                "height": 47, 
                "width": 103, 
                "x": 907, 
                "y": 381, 
                "text": "coveredpatio"
            }, 
            {
                "class": "Text", 
                "height": 37, 
                "width": 77, 
                "x": 1719, 
                "y": 386, 
                "text": "masterbath"
            }, 
            {
                "class": "Text", 
                "height": 53, 
                "width": 111, 
                "x": 920, 
                "y": 726, 
                "text": "greatroom"
            }, 
            {
                "class": "Text", 
                "height": 54, 
                "width": 152, 
                "x": 2218, 
                "y": 729, 
                "text": "masterbedroom"
            }, 
            {
                "class": "Text", 
                "height": 22, 
                "width": 191, 
                "x": 1553, 
                "y": 789, 
                "text": "bedroom 2"
            }, 
            {
                "class": "Text", 
                "height": 23, 
                "width": 150, 
                "x": 393, 
                "y": 839, 
                "text": "kitchen"
            }, 
            {
                "class": "Text", 
                "height": 43, 
                "width": 112, 
                "x": 1926, 
                "y": 893, 
                "text": "bath"
            }, 
            {
                "class": "Text", 
                "height": 11, 
                "width": 64, 
                "x": 494, 
                "y": 936, 
                "text": "pantry"
            }, 
            {
                "class": "Text", 
                "height": 14, 
                "width": 92, 
                "x": 542, 
                "y": 1009, 
                "text": "storage"
            }, 
            {
                "class": "Text", 
                "height": 17, 
                "width": 33, 
                "x": 951, 
                "y": 1016, 
                "text": "up"
            }, 
            {
                "class": "Text", 
                "height": 13, 
                "width": 92, 
                "x": 1167, 
                "y": 1116, 
                "text": "storage"
            }, 
            {
                "class": "Text", 
                "height": 59, 
                "width": 105, 
                "x": 1618, 
                "y": 1104, 
                "text": "bonusroom"
            }, 
            {
                "class": "Text", 
                "height": 43, 
                "width": 104, 
                "x": 2291, 
                "y": 1107, 
                "text": "opentobelow"
            }, 
            {
                "class": "Text", 
                "height": 18, 
                "width": 36, 
                "x": 2347, 
                "y": 1231, 
                "text": "dn"
            }, 
            {
                "class": "Text", 
                "height": 22, 
                "width": 109, 
                "x": 1071, 
                "y": 1278, 
                "text": "bath 3"
            }, 
            {
                "class": "Text", 
                "height": 29, 
                "width": 94, 
                "x": 1885, 
                "y": 1322, 
                "text": "laundry"
            }, 
            {
                "class": "Text", 
                "height": 18, 
                "width": 87, 
                "x": 827, 
                "y": 1371, 
                "text": "entry"
            }, 
            {
                "class": "Text", 
                "height": 22, 
                "width": 190, 
                "x": 1575, 
                "y": 1455, 
                "text": "bedroom 3"
            }, 
            {
                "class": "Text", 
                "height": 22, 
                "width": 191, 
                "x": 1032, 
                "y": 1554, 
                "text": "bedroom 4"
            }, 
            {
                "class": "Text", 
                "height": 47, 
                "width": 112, 
                "x": 976, 
                "y": 1756, 
                "text": "coveredporch"
            }, 
            {
                "class": "Unknown", 
                "xn": "1939;2004;2004;1939", 
                "yn": "1519;1519;1552;1552"
            }, 
            {
                "class": "Unknown", 
                "xn": "2437;2502;2502;2437", 
                "yn": "1218;1218;1251;1251"
            }, 
            {
                "class": "Unknown", 
                "xn": "2436;2501;2501;2436", 
                "yn": "996;996;1029;1029"
            }, 
            {
                "class": "Unknown", 
                "xn": "1860;1925;1925;1860", 
                "yn": "975;975;1008;1008"
            }, 
            {
                "class": "Unknown", 
                "xn": "1950;2015;2015;1950", 
                "yn": "774;774;807;807"
            }, 
            {
                "class": "Unknown", 
                "xn": "1827;1892;1892;1827", 
                "yn": "783;783;816;816"
            }, 
            {
                "class": "Unknown", 
                "xn": "1840;1905;1905;1840", 
                "yn": "386;386;419;419"
            }, 
            {
                "class": "Unknown", 
                "xn": "1540;1605;1605;1540", 
                "yn": "440;440;473;473"
            }, 
            {
                "class": "Unknown", 
                "xn": "1127;1192;1192;1127", 
                "yn": "1355;1355;1388;1388"
            }, 
            {
                "class": "Unknown", 
                "xn": "974;1039;1039;974", 
                "yn": "1193;1193;1226;1226"
            }
        ], 
        "class": "image", 
        "filename": "29.png"
    }
]