[
    {
        "annotations": [
            {
                "class": "Room", 
                "type": "single", 
                "xn": "2522;2522;2702;2703;2703;2702;2490;2489;2362;2362;2361;2348;2348;2347;2301;2300;2300;2299;2299;2113;2112;2112;2098;2097;1963;1962;1925;1925;1926;1926;1925;1526;1526;1527;1527;1526;1526;1732;1733;1992;1993;2300;2300;2299;2299;2300;2300;2301;2317;2318;2318;2852;2852;2853;2872;2873;2873;2962;2963;3020;3020;2985;2984;2852;2851;2851;2852;2984;2985;3020;3020", 
                "yn": "3417;3702;3702;3703;3723;3724;3724;3723;3723;3724;3725;3725;3774;3775;3775;3774;3725;3724;3702;3702;3701;3605;3605;3604;3604;3605;3605;3673;3674;3701;3702;3702;3978;3979;4008;4009;4400;4400;4399;4399;4400;4400;4049;4048;4028;4027;3897;3896;3896;3897;4027;4027;3868;3867;3867;3868;4025;4025;4026;4026;3725;3725;3724;3724;3723;3703;3702;3702;3701;3701;3417", 
                "text": "unknown room", 
                "x": 2224, 
                "y": 3924
            }, 
            {
                "class": "Room", 
                "type": "single", 
                "xn": "2135;2135;2134;2134;2135;2136;2136;2279;2279;2280;2299;2300;2300;2322;2323;2323;2489;2490;2501;2501;2300;2300;2299;2280;2279;2279", 
                "yn": "3417;3438;3439;3575;3575;3576;3676;3676;3630;3629;3629;3630;3676;3676;3677;3701;3701;3702;3702;3417;3417;3601;3602;3602;3601;3417", 
                "text": "unknown room", 
                "x": 2323, 
                "y": 3553
            }, 
            {
                "class": "Room", 
                "type": "single", 
                "xn": "1759;1758;1526;1526;1898;1898;1886;1885;1885", 
                "yn": "3416;3417;3417;3673;3673;3418;3418;3417;3416", 
                "text": "unknown room", 
                "x": 1712, 
                "y": 3544
            }, 
            {
                "class": "Room", 
                "type": "single", 
                "xn": "1526;1526;1566;1567;1710;1711;1737;1737", 
                "yn": "3048;3157;3157;3156;3156;3157;3157;3048", 
                "text": "unknown room", 
                "x": 1631, 
                "y": 3102
            }, 
            {
                "class": "Room", 
                "type": "single", 
                "xn": "2120;2119;2106;2106;2257;2257;2247;2246", 
                "yn": "2894;2895;2895;3157;3157;2895;2895;2894", 
                "text": "unknown room", 
                "x": 2181, 
                "y": 3025
            }, 
            {
                "class": "Room", 
                "type": "single", 
                "xn": "229;229;765;765;686;685;685;686;686", 
                "yn": "2807;3396;3396;3072;3072;3071;2900;2899;2807", 
                "text": "unknown room", 
                "x": 480, 
                "y": 3113
            }, 
            {
                "class": "Room", 
                "type": "single", 
                "xn": "1759;1759;1760;1760;1759;1759;1758;1739;1738;1738;1461;1461;1737;1737;1738;1758;1759;1759;1808;1809;1809;1808;1759;1759;1760;1760;1759;1759;2084;2084;2058;2057;2057;2058;2084;2084;2083;2083;2084;2117;2118;2257;2257;2258;2288;2289;2289;2290;2290;2289;2289;2290;2290;2289;2289;2288;2288;2289;2289;2290;2290;3020;3020;3019;3019;3020;3020;2290;2290;2289;2257;2256;2256", 
                "yn": "2555;2665;2666;2686;2687;2700;2701;2701;2700;2687;2687;3026;3026;2823;2822;2822;2823;2931;2931;2932;2953;2954;2954;3026;3027;3047;3048;3157;3157;2958;2958;2957;2932;2931;2931;2895;2894;2874;2873;2873;2872;2872;2819;2818;2818;2819;2872;2873;2894;2895;3157;3158;3209;3210;3218;3219;3355;3356;3365;3366;3395;3395;3331;3330;3068;3067;2555;2555;2700;2701;2701;2700;2555", 
                "text": "unknown room", 
                "x": 2372, 
                "y": 2923
            }, 
            {
                "class": "Room", 
                "type": "single", 
                "xn": "1759;1759;2256;2256", 
                "yn": "2456;2533;2533;2456", 
                "text": "unknown room", 
                "x": 2007, 
                "y": 2494
            }, 
            {
                "class": "Room", 
                "type": "single", 
                "xn": "1475;1474;1461;1461;1738;1738;1737;1737;1738;1738;1610;1609;1609", 
                "yn": "2453;2454;2454;2665;2665;2555;2554;2534;2533;2456;2456;2455;2453", 
                "text": "unknown room", 
                "x": 1598, 
                "y": 2559
            }, 
            {
                "class": "Room", 
                "type": "single", 
                "xn": "229;229;422;423;729;729", 
                "yn": "1990;2231;2231;2230;2230;1990", 
                "text": "unknown room", 
                "x": 478, 
                "y": 2110
            }, 
            {
                "class": "Room", 
                "type": "single", 
                "xn": "949;949;948;948;949;950;950;1099;1099", 
                "yn": "2740;2747;2748;2883;2883;2884;3042;3042;2740", 
                "text": "unknown room", 
                "x": 1024, 
                "y": 2890
            }, 
            {
                "class": "Room", 
                "type": "single", 
                "xn": "875;875;1000;1000", 
                "yn": "901;954;954;901", 
                "text": "unknown room", 
                "x": 937, 
                "y": 927
            }, 
            {
                "class": "Door", 
                "xn": "1567;1711;1711;1567", 
                "yn": "3157;3157;3178;3178"
            }, 
            {
                "class": "Door", 
                "xn": "1757;1886;1886;1757", 
                "yn": "3395;3395;3416;3416"
            }, 
            {
                "class": "Door", 
                "xn": "1757;1886;1886;1757", 
                "yn": "3395;3395;3416;3416"
            }, 
            {
                "class": "Door", 
                "xn": "2360;2490;2490;2360", 
                "yn": "3702;3702;3723;3723"
            }, 
            {
                "class": "Door", 
                "xn": "2360;2490;2490;2360", 
                "yn": "3702;3702;3723;3723"
            }, 
            {
                "class": "Door", 
                "xn": "1473;1610;1610;1473", 
                "yn": "2440;2440;2453;2453"
            }, 
            {
                "class": "Door", 
                "xn": "1473;1610;1610;1473", 
                "yn": "2440;2440;2453;2453"
            }, 
            {
                "class": "Door", 
                "xn": "1473;1610;1610;1473", 
                "yn": "2440;2440;2453;2453"
            }, 
            {
                "class": "Door", 
                "xn": "2118;2247;2247;2118", 
                "yn": "2873;2873;2894;2894"
            }, 
            {
                "class": "Door", 
                "xn": "2118;2247;2247;2118", 
                "yn": "2873;2873;2894;2894"
            }, 
            {
                "class": "Door", 
                "xn": "1052;1072;1072;1052", 
                "yn": "2026;2026;2165;2165"
            }, 
            {
                "class": "Door", 
                "xn": "1052;1072;1072;1052", 
                "yn": "2026;2026;2165;2165"
            }, 
            {
                "class": "Door", 
                "xn": "927;948;948;927", 
                "yn": "2746;2746;2884;2884"
            }, 
            {
                "class": "Door", 
                "xn": "981;1001;1001;981", 
                "yn": "3433;3433;3572;3572"
            }, 
            {
                "class": "Door", 
                "xn": "981;1001;1001;981", 
                "yn": "3433;3433;3572;3572"
            }, 
            {
                "class": "Door", 
                "xn": "2279;2288;2288;2279", 
                "yn": "3217;3217;3356;3356"
            }, 
            {
                "class": "Door", 
                "xn": "2113;2134;2134;2113", 
                "yn": "3437;3437;3576;3576"
            }, 
            {
                "class": "Door", 
                "xn": "2113;2134;2134;2113", 
                "yn": "3437;3437;3576;3576"
            }, 
            {
                "class": "Window", 
                "xn": "2260;2288;2288;2260", 
                "yn": "837;837;1100;1100"
            }, 
            {
                "class": "Window", 
                "xn": "423;730;730;423", 
                "yn": "2231;2231;2241;2241"
            }, 
            {
                "class": "Window", 
                "xn": "1057;1100;1100;1057", 
                "yn": "3043;3043;3111;3111"
            }, 
            {
                "class": "Window", 
                "xn": "3020;3048;3048;3020", 
                "yn": "3068;3068;3331;3331"
            }, 
            {
                "class": "Window", 
                "xn": "2939;2963;2963;2939", 
                "yn": "4027;4027;4048;4048"
            }, 
            {
                "class": "Window", 
                "xn": "686;706;706;686", 
                "yn": "2900;2900;3051;3051"
            }, 
            {
                "class": "Window", 
                "xn": "1027;1053;1053;1027", 
                "yn": "1916;1916;1988;1988"
            }, 
            {
                "class": "Window", 
                "xn": "991;1012;1012;991", 
                "yn": "2202;2202;2241;2241"
            }, 
            {
                "class": "Window", 
                "xn": "1961;2113;2113;1961", 
                "yn": "3582;3582;3604;3604"
            }, 
            {
                "class": "Window", 
                "xn": "461;723;723;461", 
                "yn": "4027;4027;4054;4054"
            }, 
            {
                "class": "Window", 
                "xn": "2037;2289;2289;2037", 
                "yn": "642;642;664;664"
            }, 
            {
                "class": "Window", 
                "xn": "2871;2963;2963;2871", 
                "yn": "4026;4026;4048;4048"
            }, 
            {
                "class": "Window", 
                "xn": "422;730;730;422", 
                "yn": "2232;2232;2241;2241"
            }, 
            {
                "class": "Window", 
                "xn": "1119;1438;1438;1119", 
                "yn": "3978;3978;4008;4008"
            }, 
            {
                "class": "Window", 
                "xn": "1733;1993;1993;1733", 
                "yn": "4400;4400;4427;4427"
            }, 
            {
                "class": "Wall", 
                "xn": "981;1120;1120;981", 
                "yn": "3979;3979;4028;4028"
            }, 
            {
                "class": "Wall", 
                "xn": "905;1120;1120;905", 
                "yn": "2696;2696;2739;2739"
            }, 
            {
                "class": "Wall", 
                "xn": "1100;1141;1141;1100", 
                "yn": "2439;2439;2484;2484"
            }, 
            {
                "class": "Wall", 
                "xn": "1012;1100;1100;1012", 
                "yn": "2202;2202;2241;2241"
            }, 
            {
                "class": "Wall", 
                "xn": "686;769;769;686", 
                "yn": "2696;2696;2735;2735"
            }, 
            {
                "class": "Wall", 
                "xn": "905;992;992;905", 
                "yn": "2203;2203;2241;2241"
            }, 
            {
                "class": "Wall", 
                "xn": "212;769;769;212", 
                "yn": "1950;1950;1989;1989"
            }, 
            {
                "class": "Wall", 
                "xn": "730;768;768;730", 
                "yn": "1950;1950;2241;2241"
            }, 
            {
                "class": "Wall", 
                "xn": "854;1029;1029;854", 
                "yn": "868;868;900;900"
            }, 
            {
                "class": "Wall", 
                "xn": "1000;1252;1252;1000", 
                "yn": "612;612;643;643"
            }, 
            {
                "class": "Wall", 
                "xn": "723;1099;1099;723", 
                "yn": "4027;4027;4055;4055"
            }, 
            {
                "class": "Wall", 
                "xn": "212;462;462;212", 
                "yn": "4028;4028;4054;4054"
            }, 
            {
                "class": "Wall", 
                "xn": "1001;1028;1028;1001", 
                "yn": "612;612;1988;1988"
            }, 
            {
                "class": "Wall", 
                "xn": "979;1120;1120;979", 
                "yn": "3044;3044;3071;3071"
            }, 
            {
                "class": "Wall", 
                "xn": "212;331;331;212", 
                "yn": "868;868;895;895"
            }, 
            {
                "class": "Wall", 
                "xn": "1000;1252;1252;1000", 
                "yn": "664;664;687;687"
            }, 
            {
                "class": "Wall", 
                "xn": "212;791;791;212", 
                "yn": "3397;3397;3417;3417"
            }, 
            {
                "class": "Wall", 
                "xn": "212;707;707;212", 
                "yn": "2786;2786;2806;2806"
            }, 
            {
                "class": "Wall", 
                "xn": "927;949;949;927", 
                "yn": "2884;2884;3057;3057"
            }, 
            {
                "class": "Wall", 
                "xn": "1038;1058;1058;1038", 
                "yn": "3044;3044;3417;3417"
            }, 
            {
                "class": "Wall", 
                "xn": "979;1059;1059;979", 
                "yn": "3396;3396;3418;3418"
            }, 
            {
                "class": "Wall", 
                "xn": "404;423;423;404", 
                "yn": "2233;2233;2274;2274"
            }, 
            {
                "class": "Wall", 
                "xn": "1053;1072;1072;1053", 
                "yn": "1917;1917;2027;2027"
            }, 
            {
                "class": "Wall", 
                "xn": "212;424;424;212", 
                "yn": "2232;2232;2252;2252"
            }, 
            {
                "class": "Wall", 
                "xn": "1100;1119;1119;1100", 
                "yn": "2222;2222;3111;3111"
            }, 
            {
                "class": "Wall", 
                "xn": "687;706;706;687", 
                "yn": "2696;2696;2901;2901"
            }, 
            {
                "class": "Wall", 
                "xn": "855;874;874;855", 
                "yn": "868;868;972;972"
            }, 
            {
                "class": "Wall", 
                "xn": "404;423;423;404", 
                "yn": "2674;2674;2806;2806"
            }, 
            {
                "class": "Wall", 
                "xn": "1053;1072;1072;1053", 
                "yn": "2165;2165;2241;2241"
            }, 
            {
                "class": "Wall", 
                "xn": "686;791;791;686", 
                "yn": "3051;3051;3071;3071"
            }, 
            {
                "class": "Wall", 
                "xn": "311;330;330;311", 
                "yn": "868;868;972;972"
            }, 
            {
                "class": "Wall", 
                "xn": "982;1002;1002;982", 
                "yn": "3572;3572;3601;3601"
            }, 
            {
                "class": "Wall", 
                "xn": "854;1029;1029;854", 
                "yn": "955;955;972;972"
            }, 
            {
                "class": "Wall", 
                "xn": "282;331;331;282", 
                "yn": "955;955;972;972"
            }, 
            {
                "class": "Wall", 
                "xn": "212;260;260;212", 
                "yn": "956;956;973;973"
            }, 
            {
                "class": "Wall", 
                "xn": "213;228;228;213", 
                "yn": "956;956;4054;4054"
            }, 
            {
                "class": "Wall", 
                "xn": "927;1120;1120;927", 
                "yn": "3043;3043;3058;3058"
            }, 
            {
                "class": "Wall", 
                "xn": "2257;2288;2288;2257", 
                "yn": "613;613;838;838"
            }, 
            {
                "class": "Wall", 
                "xn": "2038;2289;2289;2038", 
                "yn": "613;613;643;643"
            }, 
            {
                "class": "Wall", 
                "xn": "2261;2288;2288;2261", 
                "yn": "1100;1100;1315;1315"
            }, 
            {
                "class": "Wall", 
                "xn": "2260;2369;2369;2260", 
                "yn": "1288;1288;1315;1315"
            }, 
            {
                "class": "Wall", 
                "xn": "2038;2289;2289;2038", 
                "yn": "664;664;687;687"
            }, 
            {
                "class": "Wall", 
                "xn": "2219;2289;2289;2219", 
                "yn": "3366;3366;3416;3416"
            }, 
            {
                "class": "Wall", 
                "xn": "2219;2289;2289;2219", 
                "yn": "3158;3158;3209;3209"
            }, 
            {
                "class": "Wall", 
                "xn": "2301;2347;2347;2301", 
                "yn": "3703;3703;3774;3774"
            }, 
            {
                "class": "Wall", 
                "xn": "1417;1460;1460;1417", 
                "yn": "2439;2439;2484;2484"
            }, 
            {
                "class": "Wall", 
                "xn": "2257;2289;2289;2257", 
                "yn": "2439;2439;2700;2700"
            }, 
            {
                "class": "Wall", 
                "xn": "2258;2288;2288;2258", 
                "yn": "2819;2819;3218;3218"
            }, 
            {
                "class": "Wall", 
                "xn": "3021;3048;3048;3021", 
                "yn": "1289;1289;3069;3069"
            }, 
            {
                "class": "Wall", 
                "xn": "3021;3048;3048;3021", 
                "yn": "3331;3331;4047;4047"
            }, 
            {
                "class": "Wall", 
                "xn": "1504;1925;1925;1504", 
                "yn": "3674;3674;3701;3701"
            }, 
            {
                "class": "Wall", 
                "xn": "1498;1525;1525;1498", 
                "yn": "3396;3396;4427;4427"
            }, 
            {
                "class": "Wall", 
                "xn": "1497;1734;1734;1497", 
                "yn": "4401;4401;4427;4427"
            }, 
            {
                "class": "Wall", 
                "xn": "1438;1526;1526;1438", 
                "yn": "3979;3979;4008;4008"
            }, 
            {
                "class": "Wall", 
                "xn": "2891;3049;3049;2891", 
                "yn": "1289;1289;1315;1315"
            }, 
            {
                "class": "Wall", 
                "xn": "1993;2318;2318;1993", 
                "yn": "4401;4401;4427;4427"
            }, 
            {
                "class": "Wall", 
                "xn": "2113;2322;2322;2113", 
                "yn": "3677;3677;3701;3701"
            }, 
            {
                "class": "Wall", 
                "xn": "2058;2105;2105;2058", 
                "yn": "2932;2932;2957;2957"
            }, 
            {
                "class": "Wall", 
                "xn": "1504;1758;1758;1504", 
                "yn": "3396;3396;3416;3416"
            }, 
            {
                "class": "Wall", 
                "xn": "2113;2135;2135;2113", 
                "yn": "3576;3576;3701;3701"
            }, 
            {
                "class": "Wall", 
                "xn": "2490;2702;2702;2490", 
                "yn": "3703;3703;3723;3723"
            }, 
            {
                "class": "Wall", 
                "xn": "2300;2940;2940;2300", 
                "yn": "4028;4028;4048;4048"
            }, 
            {
                "class": "Wall", 
                "xn": "1738;3049;3049;1738", 
                "yn": "2534;2534;2554;2554"
            }, 
            {
                "class": "Wall", 
                "xn": "2113;3049;3049;2113", 
                "yn": "3396;3396;3416;3416"
            }, 
            {
                "class": "Wall", 
                "xn": "1438;1460;1460;1438", 
                "yn": "2439;2439;3111;3111"
            }, 
            {
                "class": "Wall", 
                "xn": "1505;1525;1525;1505", 
                "yn": "3027;3027;3178;3178"
            }, 
            {
                "class": "Wall", 
                "xn": "2985;3049;3049;2985", 
                "yn": "3702;3702;3724;3724"
            }, 
            {
                "class": "Wall", 
                "xn": "2963;3049;3049;2963", 
                "yn": "4027;4027;4048;4048"
            }, 
            {
                "class": "Wall", 
                "xn": "1738;1758;1758;1738", 
                "yn": "2823;2823;3178;3178"
            }, 
            {
                "class": "Wall", 
                "xn": "1711;2289;2289;1711", 
                "yn": "3158;3158;3178;3178"
            }, 
            {
                "class": "Wall", 
                "xn": "2114;2134;2134;2114", 
                "yn": "3396;3396;3438;3438"
            }, 
            {
                "class": "Wall", 
                "xn": "1438;1759;1759;1438", 
                "yn": "2666;2666;2686;2686"
            }, 
            {
                "class": "Wall", 
                "xn": "2085;2105;2105;2085", 
                "yn": "2874;2874;3178;3178"
            }, 
            {
                "class": "Wall", 
                "xn": "2280;2299;2299;2280", 
                "yn": "3396;3396;3601;3601"
            }, 
            {
                "class": "Wall", 
                "xn": "1739;1758;1758;1739", 
                "yn": "2439;2439;2700;2700"
            }, 
            {
                "class": "Wall", 
                "xn": "2502;2521;2521;2502", 
                "yn": "3396;3396;3723;3723"
            }, 
            {
                "class": "Wall", 
                "xn": "2853;2872;2872;2853", 
                "yn": "3868;3868;4048;4048"
            }, 
            {
                "class": "Wall", 
                "xn": "1738;1808;1808;1738", 
                "yn": "2932;2932;2953;2953"
            }, 
            {
                "class": "Wall", 
                "xn": "1438;1759;1759;1438", 
                "yn": "3027;3027;3047;3047"
            }, 
            {
                "class": "Wall", 
                "xn": "2280;2299;2299;2280", 
                "yn": "3630;3630;3701;3701"
            }, 
            {
                "class": "Wall", 
                "xn": "1904;1962;1962;1904", 
                "yn": "3583;3583;3604;3604"
            }, 
            {
                "class": "Wall", 
                "xn": "1504;1568;1568;1504", 
                "yn": "3158;3158;3178;3178"
            }, 
            {
                "class": "Wall", 
                "xn": "2301;2317;2317;2301", 
                "yn": "3897;3897;4427;4427"
            }, 
            {
                "class": "Wall", 
                "xn": "1610;2289;2289;1610", 
                "yn": "2439;2439;2455;2455"
            }, 
            {
                "class": "Wall", 
                "xn": "1416;1474;1474;1416", 
                "yn": "2441;2441;2453;2453"
            }, 
            {
                "class": "Wall", 
                "xn": "2169;2289;2289;2169", 
                "yn": "1845;1845;1870;1870"
            }, 
            {
                "class": "Wall", 
                "xn": "2269;2288;2288;2269", 
                "yn": "1845;1845;2287;2287"
            }, 
            {
                "class": "Wall", 
                "xn": "993;1011;1011;993", 
                "yn": "3603;3603;3628;3628"
            }, 
            {
                "class": "Wall", 
                "xn": "2084;2119;2119;2084", 
                "yn": "2874;2874;2894;2894"
            }, 
            {
                "class": "Wall", 
                "xn": "2098;2135;2135;2098", 
                "yn": "3586;3586;3604;3604"
            }, 
            {
                "class": "Wall", 
                "xn": "1899;1924;1924;1899", 
                "yn": "3396;3396;3701;3701"
            }, 
            {
                "class": "Wall", 
                "xn": "2300;2361;2361;2300", 
                "yn": "3702;3702;3724;3724"
            }, 
            {
                "class": "Wall", 
                "xn": "2247;2289;2289;2247", 
                "yn": "2873;2873;2894;2894"
            }, 
            {
                "class": "Wall", 
                "xn": "2852;3049;3049;2852", 
                "yn": "3703;3703;3723;3723"
            }, 
            {
                "class": "Wall", 
                "xn": "1886;1925;1925;1886", 
                "yn": "3396;3396;3417;3417"
            }, 
            {
                "class": "Wall", 
                "xn": "928;948;948;928", 
                "yn": "2696;2696;2747;2747"
            }, 
            {
                "class": "Wall", 
                "xn": "687;706;706;687", 
                "yn": "3040;3040;3070;3070"
            }, 
            {
                "class": "Wall", 
                "xn": "982;1001;1001;982", 
                "yn": "3397;3397;3434;3434"
            }, 
            {
                "class": "Wall", 
                "xn": "766;790;790;766", 
                "yn": "3051;3051;3417;3417"
            }, 
            {
                "class": "Wall", 
                "xn": "912;1120;1120;912", 
                "yn": "3051;3051;3071;3071"
            }, 
            {
                "class": "Wall", 
                "xn": "912;1059;1059;912", 
                "yn": "3397;3397;3417;3417"
            }, 
            {
                "class": "Wall", 
                "xn": "722;1105;1105;722", 
                "yn": "4030;4030;4035;4035"
            }, 
            {
                "class": "Wall", 
                "xn": "905;1099;1099;905", 
                "yn": "2203;2203;2213;2213"
            }, 
            {
                "class": "Wall", 
                "xn": "212;331;331;212", 
                "yn": "967;967;972;972"
            }, 
            {
                "class": "Wall", 
                "xn": "212;331;331;212", 
                "yn": "956;956;962;962"
            }, 
            {
                "class": "Wall", 
                "xn": "2269;2277;2277;2269", 
                "yn": "3356;3356;3416;3416"
            }, 
            {
                "class": "Wall", 
                "xn": "2280;2288;2288;2280", 
                "yn": "3356;3356;3601;3601"
            }, 
            {
                "class": "Wall", 
                "xn": "2300;3049;3049;2300", 
                "yn": "4041;4041;4048;4048"
            }, 
            {
                "class": "Unknown", 
                "xn": "2155;2292;2292;2155", 
                "yn": "3889;3889;3958;3958"
            }, 
            {
                "class": "Unknown", 
                "xn": "2254;2391;2391;2254", 
                "yn": "3518;3518;3587;3587"
            }, 
            {
                "class": "Unknown", 
                "xn": "1643;1780;1780;1643", 
                "yn": "3509;3509;3578;3578"
            }, 
            {
                "class": "Unknown", 
                "xn": "1562;1699;1699;1562", 
                "yn": "3067;3067;3136;3136"
            }, 
            {
                "class": "Unknown", 
                "xn": "2112;2249;2249;2112", 
                "yn": "2990;2990;3059;3059"
            }, 
            {
                "class": "Unknown", 
                "xn": "411;548;548;411", 
                "yn": "3078;3078;3147;3147"
            }, 
            {
                "class": "Unknown", 
                "xn": "2303;2440;2440;2303", 
                "yn": "2888;2888;2957;2957"
            }, 
            {
                "class": "Unknown", 
                "xn": "1938;2075;2075;1938", 
                "yn": "2459;2459;2528;2528"
            }, 
            {
                "class": "Unknown", 
                "xn": "1529;1666;1666;1529", 
                "yn": "2524;2524;2593;2593"
            }, 
            {
                "class": "Unknown", 
                "xn": "409;546;546;409", 
                "yn": "2075;2075;2144;2144"
            }, 
            {
                "class": "Unknown", 
                "xn": "955;1092;1092;955", 
                "yn": "2855;2855;2924;2924"
            }, 
            {
                "class": "Unknown", 
                "xn": "868;1005;1005;868", 
                "yn": "892;892;961;961"
            }
        ], 
        "class": "image", 
        "filename": "37.png"
    }
]