[
    {
        "annotations": [
            {
                "class": "Door", 
                "xn": "2182;2279;2279;2182", 
                "yn": "719;719;722;722"
            }, 
            {
                "class": "Door", 
                "xn": "611;654;654;611", 
                "yn": "940;940;957;957"
            }, 
            {
                "class": "Door", 
                "xn": "580;613;613;580", 
                "yn": "923;923;939;939"
            }, 
            {
                "class": "Door", 
                "xn": "669;731;731;669", 
                "yn": "940;940;957;957"
            }, 
            {
                "class": "Door", 
                "xn": "651;689;689;651", 
                "yn": "1016;1016;1028;1028"
            }, 
            {
                "class": "Door", 
                "xn": "580;613;613;580", 
                "yn": "923;923;939;939"
            }, 
            {
                "class": "Door", 
                "xn": "733;790;790;733", 
                "yn": "1016;1016;1031;1031"
            }, 
            {
                "class": "Door", 
                "xn": "745;790;790;745", 
                "yn": "998;998;1017;1017"
            }, 
            {
                "class": "Door", 
                "xn": "341;379;379;341", 
                "yn": "2221;2221;2239;2239"
            }, 
            {
                "class": "Door", 
                "xn": "3934;3955;3955;3934", 
                "yn": "4584;4584;4603;4603"
            }, 
            {
                "class": "Door", 
                "xn": "4229;4273;4273;4229", 
                "yn": "4584;4584;4600;4600"
            }, 
            {
                "class": "Door", 
                "xn": "4158;4227;4227;4158", 
                "yn": "4622;4622;4639;4639"
            }, 
            {
                "class": "Door", 
                "xn": "4229;4249;4249;4229", 
                "yn": "4586;4586;4603;4603"
            }, 
            {
                "class": "Door", 
                "xn": "4125;4163;4163;4125", 
                "yn": "4531;4531;4549;4549"
            }, 
            {
                "class": "Door", 
                "xn": "4157;4192;4192;4157", 
                "yn": "4632;4632;4639;4639"
            }, 
            {
                "class": "Door", 
                "xn": "1067;1115;1115;1067", 
                "yn": "4541;4541;4544;4544"
            }, 
            {
                "class": "Door", 
                "xn": "271;329;329;271", 
                "yn": "4648;4648;4606;4606"
            }, 
            {
                "class": "Door", 
                "xn": "370;466;466;370", 
                "yn": "4695;4695;4711;4711"
            }, 
            {
                "class": "Door", 
                "xn": "2182;2194;2194;2182", 
                "yn": "704;704;722;722"
            }, 
            {
                "class": "Door", 
                "xn": "2040;2091;2091;2040", 
                "yn": "750;750;769;769"
            }, 
            {
                "class": "Door", 
                "xn": "2182;2279;2279;2182", 
                "yn": "719;719;722;722"
            }, 
            {
                "class": "Door", 
                "xn": "611;654;654;611", 
                "yn": "940;940;957;957"
            }, 
            {
                "class": "Door", 
                "xn": "669;731;731;669", 
                "yn": "940;940;957;957"
            }, 
            {
                "class": "Door", 
                "xn": "580;613;613;580", 
                "yn": "923;923;939;939"
            }, 
            {
                "class": "Door", 
                "xn": "812;865;865;812", 
                "yn": "1063;1063;1072;1072"
            }, 
            {
                "class": "Door", 
                "xn": "3682;3704;3704;3682", 
                "yn": "1794;1794;1799;1799"
            }, 
            {
                "class": "Door", 
                "xn": "343;395;395;343", 
                "yn": "2312;2312;2323;2323"
            }, 
            {
                "class": "Door", 
                "xn": "4996;5052;5052;4996", 
                "yn": "3998;3998;4005;4005"
            }, 
            {
                "class": "Door", 
                "xn": "3972;3996;3996;3972", 
                "yn": "4622;4622;4639;4639"
            }, 
            {
                "class": "Door", 
                "xn": "4125;4163;4163;4125", 
                "yn": "4531;4531;4549;4549"
            }, 
            {
                "class": "Door", 
                "xn": "4125;4163;4163;4125", 
                "yn": "4531;4531;4549;4549"
            }, 
            {
                "class": "Door", 
                "xn": "4157;4192;4192;4157", 
                "yn": "4632;4632;4639;4639"
            }, 
            {
                "class": "Door", 
                "xn": "4203;4215;4215;4203", 
                "yn": "4598;4598;4617;4617"
            }, 
            {
                "class": "Door", 
                "xn": "370;466;466;370", 
                "yn": "4695;4695;4711;4711"
            }, 
            {
                "class": "Door", 
                "xn": "1631;1654;1654;1631", 
                "yn": "6839;6839;6845;6845"
            }, 
            {
                "class": "Wall", 
                "xn": "24;106;106;24", 
                "yn": "422;422;6499;6499"
            }, 
            {
                "class": "Wall", 
                "xn": "3992;4206;4206;3992", 
                "yn": "5864;5864;5942;5942"
            }, 
            {
                "class": "Wall", 
                "xn": "5045;5259;5259;5045", 
                "yn": "5864;5864;5942;5942"
            }, 
            {
                "class": "Wall", 
                "xn": "1216;1321;1321;1216", 
                "yn": "5133;5133;5207;5207"
            }, 
            {
                "class": "Wall", 
                "xn": "1780;1851;1851;1780", 
                "yn": "6352;6352;7178;7178"
            }, 
            {
                "class": "Wall", 
                "xn": "5198;5259;5259;5198", 
                "yn": "2711;2711;5942;5942"
            }, 
            {
                "class": "Wall", 
                "xn": "2996;3105;3105;2996", 
                "yn": "5794;5794;5856;5856"
            }, 
            {
                "class": "Wall", 
                "xn": "655;1278;1278;655", 
                "yn": "5061;5061;5121;5121"
            }, 
            {
                "class": "Wall", 
                "xn": "3522;4401;4401;3522", 
                "yn": "2132;2132;2191;2191"
            }, 
            {
                "class": "Wall", 
                "xn": "621;663;663;621", 
                "yn": "1714;1714;2644;2644"
            }, 
            {
                "class": "Wall", 
                "xn": "5198;5240;5240;5198", 
                "yn": "422;422;2296;2296"
            }, 
            {
                "class": "Wall", 
                "xn": "1235;1277;1277;1235", 
                "yn": "422;422;2626;2626"
            }, 
            {
                "class": "Wall", 
                "xn": "24;664;664;24", 
                "yn": "1714;1714;1756;1756"
            }, 
            {
                "class": "Wall", 
                "xn": "2997;3039;3039;2997", 
                "yn": "3622;3622;6915;6915"
            }, 
            {
                "class": "Wall", 
                "xn": "3457;5241;5241;3457", 
                "yn": "3287;3287;3329;3329"
            }, 
            {
                "class": "Wall", 
                "xn": "2997;3039;3039;2997", 
                "yn": "422;422;2626;2626"
            }, 
            {
                "class": "Wall", 
                "xn": "2996;3601;3601;2996", 
                "yn": "2937;2937;2980;2980"
            }, 
            {
                "class": "Wall", 
                "xn": "3448;4267;4267;3448", 
                "yn": "422;422;464;464"
            }, 
            {
                "class": "Wall", 
                "xn": "1235;1277;1277;1235", 
                "yn": "4838;4838;5250;5250"
            }, 
            {
                "class": "Wall", 
                "xn": "4640;5241;5241;4640", 
                "yn": "2132;2132;2174;2174"
            }, 
            {
                "class": "Wall", 
                "xn": "24;934;934;24", 
                "yn": "2937;2937;2979;2979"
            }, 
            {
                "class": "Wall", 
                "xn": "3523;3565;3565;3523", 
                "yn": "2132;2132;2626;2626"
            }, 
            {
                "class": "Wall", 
                "xn": "1235;1277;1277;1235", 
                "yn": "2902;2902;4597;4597"
            }, 
            {
                "class": "Wall", 
                "xn": "4675;5241;5241;4675", 
                "yn": "1275;1275;1317;1317"
            }, 
            {
                "class": "Wall", 
                "xn": "2735;3040;3040;2735", 
                "yn": "5373;5373;5415;5415"
            }, 
            {
                "class": "Wall", 
                "xn": "4575;5241;5241;4575", 
                "yn": "422;422;464;464"
            }, 
            {
                "class": "Wall", 
                "xn": "991;1035;1035;991", 
                "yn": "1714;1714;2592;2592"
            }, 
            {
                "class": "Wall", 
                "xn": "1234;1417;1417;1234", 
                "yn": "1256;1256;1300;1300"
            }, 
            {
                "class": "Wall", 
                "xn": "1217;1259;1259;1217", 
                "yn": "5508;5508;6499;6499"
            }, 
            {
                "class": "Wall", 
                "xn": "24;277;277;24", 
                "yn": "4333;4333;4376;4376"
            }, 
            {
                "class": "Wall", 
                "xn": "24;589;589;24", 
                "yn": "4812;4812;4854;4854"
            }, 
            {
                "class": "Wall", 
                "xn": "3893;3935;3935;3893", 
                "yn": "2937;2937;3331;3331"
            }, 
            {
                "class": "Wall", 
                "xn": "4676;4718;4718;4676", 
                "yn": "914;914;1682;1682"
            }, 
            {
                "class": "Wall", 
                "xn": "3458;3500;3500;3458", 
                "yn": "2937;2937;3714;3714"
            }, 
            {
                "class": "Wall", 
                "xn": "4119;4161;4161;4119", 
                "yn": "2132;2132;2979;2979"
            }, 
            {
                "class": "Wall", 
                "xn": "4676;4718;4718;4676", 
                "yn": "1923;1923;2174;2174"
            }, 
            {
                "class": "Wall", 
                "xn": "2996;3039;3039;2996", 
                "yn": "2902;2902;3279;3279"
            }, 
            {
                "class": "Wall", 
                "xn": "516;1278;1278;516", 
                "yn": "4333;4333;4375;4375"
            }, 
            {
                "class": "Wall", 
                "xn": "858;1278;1278;858", 
                "yn": "422;422;464;464"
            }, 
            {
                "class": "Wall", 
                "xn": "4676;4718;4718;4676", 
                "yn": "422;422;673;673"
            }, 
            {
                "class": "Wall", 
                "xn": "726;768;768;726", 
                "yn": "4333;4333;5102;5102"
            }, 
            {
                "class": "Wall", 
                "xn": "24;445;445;24", 
                "yn": "422;422;464;464"
            }, 
            {
                "class": "Wall", 
                "xn": "24;305;305;24", 
                "yn": "6457;6457;6499;6499"
            }, 
            {
                "class": "Wall", 
                "xn": "1808;2165;2165;1808", 
                "yn": "6874;6874;6917;6917"
            }, 
            {
                "class": "Wall", 
                "xn": "990;1436;1436;990", 
                "yn": "2353;2353;2397;2397"
            }, 
            {
                "class": "Wall", 
                "xn": "979;1295;1295;979", 
                "yn": "6457;6457;6500;6500"
            }, 
            {
                "class": "Wall", 
                "xn": "990;1279;1279;990", 
                "yn": "1714;1714;1757;1757"
            }, 
            {
                "class": "Wall", 
                "xn": "2996;3140;3140;2996", 
                "yn": "422;422;465;465"
            }, 
            {
                "class": "Wall", 
                "xn": "2996;3114;3114;2996", 
                "yn": "3671;3671;3715;3715"
            }, 
            {
                "class": "Wall", 
                "xn": "621;663;663;621", 
                "yn": "2885;2885;2979;2979"
            }, 
            {
                "class": "Wall", 
                "xn": "1190;1278;1278;1190", 
                "yn": "2936;2936;2980;2980"
            }, 
            {
                "class": "Wall", 
                "xn": "2844;3040;3040;2844", 
                "yn": "1258;1258;1300;1300"
            }, 
            {
                "class": "Wall", 
                "xn": "2683;3040;3040;2683", 
                "yn": "6876;6876;6915;6915"
            }, 
            {
                "class": "Wall", 
                "xn": "3422;3501;3501;3422", 
                "yn": "3675;3675;3709;3709"
            }, 
            {
                "class": "Wall", 
                "xn": "4356;4400;4400;4356", 
                "yn": "2577;2577;2595;2595"
            }, 
            {
                "class": "Wall", 
                "xn": "3545;3566;3518;3497", 
                "yn": "2456;2427;2392;2420"
            }, 
            {
                "class": "Wall", 
                "xn": "1278;1259;1213;1232", 
                "yn": "2565;2533;2560;2592"
            }, 
            {
                "class": "Wall", 
                "xn": "2237;2281;2281;2237", 
                "yn": "703;703;721;721"
            }, 
            {
                "class": "Wall", 
                "xn": "2237;2281;2281;2237", 
                "yn": "796;796;814;814"
            }, 
            {
                "class": "Wall", 
                "xn": "1985;2041;2041;1985", 
                "yn": "751;751;769;769"
            }, 
            {
                "class": "Wall", 
                "xn": "2072;2098;2098;2072", 
                "yn": "705;705;725;725"
            }, 
            {
                "class": "Wall", 
                "xn": "302;352;352;302", 
                "yn": "965;965;985;985"
            }, 
            {
                "class": "Wall", 
                "xn": "449;502;502;449", 
                "yn": "1014;1014;1032;1032"
            }, 
            {
                "class": "Wall", 
                "xn": "449;502;502;449", 
                "yn": "924;924;942;942"
            }, 
            {
                "class": "Wall", 
                "xn": "526;580;580;526", 
                "yn": "970;970;988;988"
            }, 
            {
                "class": "Wall", 
                "xn": "816;838;838;816", 
                "yn": "924;924;1031;1031"
            }, 
            {
                "class": "Wall", 
                "xn": "759;781;781;759", 
                "yn": "924;924;1031;1031"
            }, 
            {
                "class": "Wall", 
                "xn": "790;810;810;790", 
                "yn": "999;999;1031;1031"
            }, 
            {
                "class": "Wall", 
                "xn": "4794;4818;4818;4794", 
                "yn": "996;996;1027;1027"
            }, 
            {
                "class": "Wall", 
                "xn": "4815;4837;4837;4815", 
                "yn": "1067;1067;1103;1103"
            }, 
            {
                "class": "Wall", 
                "xn": "4773;4797;4797;4773", 
                "yn": "1067;1067;1103;1103"
            }, 
            {
                "class": "Wall", 
                "xn": "3743;3752;3722;3713", 
                "yn": "1309;1293;1276;1292"
            }, 
            {
                "class": "Wall", 
                "xn": "4765;4787;4787;4765", 
                "yn": "1612;1612;1646;1646"
            }, 
            {
                "class": "Wall", 
                "xn": "287;337;337;287", 
                "yn": "2265;2265;2283;2283"
            }, 
            {
                "class": "Wall", 
                "xn": "379;405;405;379", 
                "yn": "2222;2222;2243;2243"
            }, 
            {
                "class": "Wall", 
                "xn": "364;420;420;364", 
                "yn": "2289;2289;2307;2307"
            }, 
            {
                "class": "Wall", 
                "xn": "428;491;491;428", 
                "yn": "2222;2222;2240;2240"
            }, 
            {
                "class": "Wall", 
                "xn": "499;567;567;499", 
                "yn": "2265;2265;2284;2284"
            }, 
            {
                "class": "Wall", 
                "xn": "3955;3988;3988;3955", 
                "yn": "4585;4585;4603;4603"
            }, 
            {
                "class": "Wall", 
                "xn": "4228;4271;4271;4228", 
                "yn": "4530;4530;4548;4548"
            }, 
            {
                "class": "Wall", 
                "xn": "4016;4042;4042;4016", 
                "yn": "4532;4532;4552;4552"
            }, 
            {
                "class": "Wall", 
                "xn": "4001;4057;4057;4001", 
                "yn": "4599;4599;4617;4617"
            }, 
            {
                "class": "Wall", 
                "xn": "4038;4055;4038;4021", 
                "yn": "4601;4597;4532;4536"
            }, 
            {
                "class": "Wall", 
                "xn": "4071;4125;4125;4071", 
                "yn": "4578;4578;4597;4597"
            }, 
            {
                "class": "Wall", 
                "xn": "4163;4189;4189;4163", 
                "yn": "4532;4532;4552;4552"
            }, 
            {
                "class": "Wall", 
                "xn": "4147;4204;4204;4147", 
                "yn": "4599;4599;4617;4617"
            }, 
            {
                "class": "Wall", 
                "xn": "4186;4203;4185;4168", 
                "yn": "4605;4602;4533;4536"
            }, 
            {
                "class": "Wall", 
                "xn": "466;509;509;466", 
                "yn": "4602;4602;4620;4620"
            }, 
            {
                "class": "Wall", 
                "xn": "309;331;331;309", 
                "yn": "4676;4676;4711;4711"
            }, 
            {
                "class": "Wall", 
                "xn": "267;289;289;267", 
                "yn": "4676;4676;4711;4711"
            }, 
            {
                "class": "Wall", 
                "xn": "285;309;309;285", 
                "yn": "4604;4604;4636;4636"
            }, 
            {
                "class": "Wall", 
                "xn": "1779;1852;1852;1779", 
                "yn": "5134;5134;5520;5520"
            }, 
            {
                "class": "Wall", 
                "xn": "1778;2479;2479;1778", 
                "yn": "5375;5375;5414;5414"
            }, 
            {
                "class": "Wall", 
                "xn": "1659;1704;1704;1659", 
                "yn": "6747;6747;6765;6765"
            }, 
            {
                "class": "Wall", 
                "xn": "1589;1632;1632;1589", 
                "yn": "6840;6840;6858;6858"
            }, 
            {
                "class": "Wall", 
                "xn": "1255;1310;1310;1255", 
                "yn": "6795;6795;6813;6813"
            }, 
            {
                "class": "Wall", 
                "xn": "1403;1456;1456;1403", 
                "yn": "6795;6795;6813;6813"
            }, 
            {
                "class": "Wall", 
                "xn": "1716;1822;1822;1716", 
                "yn": "5134;5134;5207;5207"
            }, 
            {
                "class": "Wall", 
                "xn": "450;471;471;450", 
                "yn": "924;924;1032;1032"
            }, 
            {
                "class": "Wall", 
                "xn": "3487;3566;3566;3487", 
                "yn": "2392;2392;2436;2436"
            }, 
            {
                "class": "Wall", 
                "xn": "1207;1279;1279;1207", 
                "yn": "2549;2549;2593;2593"
            }, 
            {
                "class": "Wall", 
                "xn": "955;1056;1056;955", 
                "yn": "2549;2549;2592;2592"
            }, 
            {
                "class": "Wall", 
                "xn": "4402;4444;4444;4402", 
                "yn": "2937;2937;3014;3014"
            }, 
            {
                "class": "Wall", 
                "xn": "3840;4445;4445;3840", 
                "yn": "2937;2937;2983;2983"
            }, 
            {
                "class": "Wall", 
                "xn": "24;138;138;24", 
                "yn": "5059;5059;5103;5103"
            }, 
            {
                "class": "Wall", 
                "xn": "704;769;769;704", 
                "yn": "4811;4811;4855;4855"
            }, 
            {
                "class": "Wall", 
                "xn": "3944;4071;4071;3944", 
                "yn": "5800;5800;5854;5854"
            }, 
            {
                "class": "Wall", 
                "xn": "1760;1852;1852;1760", 
                "yn": "6456;6456;6500;6500"
            }, 
            {
                "class": "Wall", 
                "xn": "3523;3565;3565;3523", 
                "yn": "2902;2902;3331;3331"
            }, 
            {
                "class": "Wall", 
                "xn": "3995;4070;4070;3995", 
                "yn": "5795;5795;5942;5942"
            }, 
            {
                "class": "Wall", 
                "xn": "620;699;699;620", 
                "yn": "2549;2549;2593;2593"
            }, 
            {
                "class": "Wall", 
                "xn": "2996;3074;3074;2996", 
                "yn": "2392;2392;2436;2436"
            }, 
            {
                "class": "Wall", 
                "xn": "4402;4444;4444;4402", 
                "yn": "3255;3255;3331;3331"
            }, 
            {
                "class": "Wall", 
                "xn": "1096;1179;1179;1096", 
                "yn": "7018;7018;7178;7178"
            }, 
            {
                "class": "Wall", 
                "xn": "5;68;68;5", 
                "yn": "6371;6371;6376;6376"
            }, 
            {
                "class": "Wall", 
                "xn": "24;416;416;24", 
                "yn": "5066;5066;5071;5071"
            }, 
            {
                "class": "Wall", 
                "xn": "5198;5203;5203;5198", 
                "yn": "422;422;5942;5942"
            }, 
            {
                "class": "Wall", 
                "xn": "1217;1234;1234;1217", 
                "yn": "5060;5060;5250;5250"
            }, 
            {
                "class": "Wall", 
                "xn": "5197;5295;5295;5197", 
                "yn": "3819;3819;3824;3824"
            }, 
            {
                "class": "Wall", 
                "xn": "5197;5280;5280;5197", 
                "yn": "4132;4132;4137;4137"
            }, 
            {
                "class": "Wall", 
                "xn": "3992;5259;5259;3992", 
                "yn": "5929;5929;5934;5934"
            }, 
            {
                "class": "Wall", 
                "xn": "1234;1505;1505;1234", 
                "yn": "2426;2426;2431;2431"
            }, 
            {
                "class": "Wall", 
                "xn": "1234;1506;1506;1234", 
                "yn": "1904;1904;1909;1909"
            }, 
            {
                "class": "Wall", 
                "xn": "990;1279;1279;990", 
                "yn": "2531;2531;2536;2536"
            }, 
            {
                "class": "Wall", 
                "xn": "1234;2213;2213;1234", 
                "yn": "1295;1295;1300;1300"
            }, 
            {
                "class": "Wall", 
                "xn": "2996;3501;3501;2996", 
                "yn": "3670;3670;3676;3676"
            }, 
            {
                "class": "Wall", 
                "xn": "2996;4071;4071;2996", 
                "yn": "5795;5795;5800;5800"
            }, 
            {
                "class": "Wall", 
                "xn": "4871;4877;4877;4871", 
                "yn": "2754;2754;3287;3287"
            }, 
            {
                "class": "Wall", 
                "xn": "4831;4836;4836;4831", 
                "yn": "2741;2741;3331;3331"
            }, 
            {
                "class": "Wall", 
                "xn": "1216;1372;1372;1216", 
                "yn": "5133;5133;5138;5138"
            }, 
            {
                "class": "Wall", 
                "xn": "378;1278;1278;378", 
                "yn": "5092;5092;5097;5097"
            }, 
            {
                "class": "Wall", 
                "xn": "3457;3936;3936;3457", 
                "yn": "3166;3166;3171;3171"
            }, 
            {
                "class": "Wall", 
                "xn": "4675;4804;4804;4675", 
                "yn": "1430;1430;1435;1435"
            }, 
            {
                "class": "Wall", 
                "xn": "4070;4162;4162;4070", 
                "yn": "2292;2292;2297;2297"
            }, 
            {
                "class": "Wall", 
                "xn": "4675;4747;4747;4675", 
                "yn": "565;565;570;570"
            }, 
            {
                "class": "Wall", 
                "xn": "4397;4414;4414;4397", 
                "yn": "2501;2501;2578;2578"
            }, 
            {
                "class": "Wall", 
                "xn": "4342;4358;4358;4342", 
                "yn": "2503;2503;2577;2577"
            }, 
            {
                "class": "Wall", 
                "xn": "2279;2294;2294;2279", 
                "yn": "720;720;797;797"
            }, 
            {
                "class": "Wall", 
                "xn": "2223;2239;2239;2223", 
                "yn": "721;721;796;796"
            }, 
            {
                "class": "Wall", 
                "xn": "1986;2003;2003;1986", 
                "yn": "705;705;812;812"
            }, 
            {
                "class": "Wall", 
                "xn": "2104;2118;2094;2080", 
                "yn": "809;805;704;709"
            }, 
            {
                "class": "Wall", 
                "xn": "2091;2074;2056;2073", 
                "yn": "710;708;783;785"
            }, 
            {
                "class": "Wall", 
                "xn": "303;319;319;303", 
                "yn": "924;924;1031;1031"
            }, 
            {
                "class": "Wall", 
                "xn": "501;515;515;501", 
                "yn": "941;941;1015;1015"
            }, 
            {
                "class": "Wall", 
                "xn": "527;543;543;527", 
                "yn": "924;924;1031;1031"
            }, 
            {
                "class": "Wall", 
                "xn": "577;590;566;553", 
                "yn": "1030;1024;969;974"
            }, 
            {
                "class": "Wall", 
                "xn": "828;815;792;805", 
                "yn": "930;927;1025;1029"
            }, 
            {
                "class": "Wall", 
                "xn": "4820;4834;4813;4799", 
                "yn": "1102;1100;996;998"
            }, 
            {
                "class": "Wall", 
                "xn": "4815;4799;4777;4793", 
                "yn": "1002;996;1095;1101"
            }, 
            {
                "class": "Wall", 
                "xn": "4777;4786;4769;4760", 
                "yn": "1101;1097;995;998"
            }, 
            {
                "class": "Wall", 
                "xn": "287;304;304;287", 
                "yn": "2222;2222;2329;2329"
            }, 
            {
                "class": "Wall", 
                "xn": "395;381;361;375", 
                "yn": "2227;2225;2323;2325"
            }, 
            {
                "class": "Wall", 
                "xn": "397;411;411;397", 
                "yn": "2233;2233;2306;2306"
            }, 
            {
                "class": "Wall", 
                "xn": "448;465;465;448", 
                "yn": "2222;2222;2330;2330"
            }, 
            {
                "class": "Wall", 
                "xn": "500;516;516;500", 
                "yn": "2222;2222;2330;2330"
            }, 
            {
                "class": "Wall", 
                "xn": "550;566;566;550", 
                "yn": "2222;2222;2330;2330"
            }, 
            {
                "class": "Wall", 
                "xn": "3970;3987;3987;3970", 
                "yn": "4585;4585;4639;4639"
            }, 
            {
                "class": "Wall", 
                "xn": "4215;4230;4230;4215", 
                "yn": "4548;4548;4624;4624"
            }, 
            {
                "class": "Wall", 
                "xn": "4034;4019;3999;4014", 
                "yn": "4537;4532;4615;4620"
            }, 
            {
                "class": "Wall", 
                "xn": "4072;4088;4088;4072", 
                "yn": "4532;4532;4639;4639"
            }, 
            {
                "class": "Wall", 
                "xn": "4124;4135;4111;4100", 
                "yn": "4638;4633;4578;4582"
            }, 
            {
                "class": "Wall", 
                "xn": "4155;4168;4168;4155", 
                "yn": "4555;4555;4616;4616"
            }, 
            {
                "class": "Wall", 
                "xn": "453;469;469;453", 
                "yn": "4620;4620;4695;4695"
            }, 
            {
                "class": "Wall", 
                "xn": "311;326;304;289", 
                "yn": "4710;4706;4606;4610"
            }, 
            {
                "class": "Wall", 
                "xn": "269;279;261;251", 
                "yn": "4710;4705;4603;4609"
            }, 
            {
                "class": "Wall", 
                "xn": "1654;1659;1659;1654", 
                "yn": "6760;6760;6845;6845"
            }, 
            {
                "class": "Wall", 
                "xn": "1646;1661;1661;1646", 
                "yn": "6766;6766;6838;6838"
            }, 
            {
                "class": "Wall", 
                "xn": "1702;1717;1717;1702", 
                "yn": "6765;6765;6840;6840"
            }, 
            {
                "class": "Wall", 
                "xn": "1576;1592;1592;1576", 
                "yn": "6764;6764;6841;6841"
            }, 
            {
                "class": "Wall", 
                "xn": "1256;1272;1272;1256", 
                "yn": "6749;6749;6856;6856"
            }, 
            {
                "class": "Wall", 
                "xn": "1404;1420;1420;1404", 
                "yn": "6749;6749;6856;6856"
            }, 
            {
                "class": "Wall", 
                "xn": "1451;1467;1443;1427", 
                "yn": "6855;6849;6794;6799"
            }, 
            {
                "class": "Wall", 
                "xn": "1985;2040;2040;1985", 
                "yn": "705;705;722;722"
            }, 
            {
                "class": "Wall", 
                "xn": "2056;2113;2113;2056", 
                "yn": "773;773;790;790"
            }, 
            {
                "class": "Wall", 
                "xn": "302;358;358;302", 
                "yn": "1015;1015;1031;1031"
            }, 
            {
                "class": "Wall", 
                "xn": "302;357;357;302", 
                "yn": "924;924;941;941"
            }, 
            {
                "class": "Wall", 
                "xn": "526;581;581;526", 
                "yn": "924;924;941;941"
            }, 
            {
                "class": "Wall", 
                "xn": "4851;4838;4823;4836", 
                "yn": "1006;998;1092;1100"
            }, 
            {
                "class": "Wall", 
                "xn": "4777;4790;4773;4760", 
                "yn": "1099;1095;995;999"
            }, 
            {
                "class": "Wall", 
                "xn": "287;344;344;287", 
                "yn": "2313;2313;2329;2329"
            }, 
            {
                "class": "Wall", 
                "xn": "287;342;342;287", 
                "yn": "2222;2222;2239;2239"
            }, 
            {
                "class": "Wall", 
                "xn": "4071;4126;4126;4071", 
                "yn": "4532;4532;4549;4549"
            }, 
            {
                "class": "Wall", 
                "xn": "279;291;291;279", 
                "yn": "4632;4632;4704;4704"
            }, 
            {
                "class": "Wall", 
                "xn": "1255;1310;1310;1255", 
                "yn": "6749;6749;6766;6766"
            }, 
            {
                "class": "Wall", 
                "xn": "1403;1458;1458;1403", 
                "yn": "6749;6749;6766;6766"
            }, 
            {
                "class": "Wall", 
                "xn": "2120;2183;2183;2120", 
                "yn": "705;705;722;722"
            }, 
            {
                "class": "Wall", 
                "xn": "2144;2159;2159;2144", 
                "yn": "705;705;812;812"
            }, 
            {
                "class": "Wall", 
                "xn": "607;612;612;607", 
                "yn": "935;935;1021;1021"
            }, 
            {
                "class": "Wall", 
                "xn": "654;670;670;654", 
                "yn": "941;941;1015;1015"
            }, 
            {
                "class": "Wall", 
                "xn": "599;614;614;599", 
                "yn": "942;942;1014;1014"
            }, 
            {
                "class": "Wall", 
                "xn": "731;746;746;731", 
                "yn": "939;939;1017;1017"
            }, 
            {
                "class": "Wall", 
                "xn": "676;691;691;676", 
                "yn": "940;940;1016;1016"
            }, 
            {
                "class": "Wall", 
                "xn": "3921;3935;3935;3921", 
                "yn": "4548;4548;4624;4624"
            }, 
            {
                "class": "Wall", 
                "xn": "4273;4282;4282;4273", 
                "yn": "4585;4585;4639;4639"
            }, 
            {
                "class": "Wall", 
                "xn": "2194;2210;2210;2194", 
                "yn": "705;705;812;812"
            }, 
            {
                "class": "Wall", 
                "xn": "802;808;808;802", 
                "yn": "1067;1067;1127;1127"
            }, 
            {
                "class": "Text", 
                "height": 47, 
                "width": 57, 
                "x": 159, 
                "y": 137, 
                "text": "ac"
            }, 
            {
                "class": "Text", 
                "height": 46, 
                "width": 136, 
                "x": 1073, 
                "y": 2444, 
                "text": "linen"
            }, 
            {
                "class": "Text", 
                "height": 112, 
                "width": 512, 
                "x": 3587, 
                "y": 2492, 
                "text": "laundry"
            }, 
            {
                "class": "Text", 
                "height": 111, 
                "width": 470, 
                "x": 1911, 
                "y": 4810, 
                "text": "kitchen"
            }, 
            {
                "class": "Text", 
                "height": 111, 
                "width": 340, 
                "x": 1349, 
                "y": 5728, 
                "text": "foyer"
            }, 
            {
                "class": "Text", 
                "height": 154, 
                "width": 382, 
                "x": 2055, 
                "y": 5952, 
                "text": "dining"
            }
        ], 
        "class": "image", 
        "filename": "73.png"
    }
]