[
    {
        "annotations": [
            {
                "class": "Room", 
                "type": "single", 
                "xn": "601;601;612;613;613;619;620;620;619;612;611;611;601;601;609;610;610;614;615;615;619;620;620;623;624;624;627;628;628;630;631;631;633;634;634;633;629;628;628;626;625;625;623;622;622;619;618;618;614;613;613;608;607;607;601;601;1392;1392", 
                "yn": "1397;1670;1670;1671;1673;1673;1674;1678;1679;1679;1678;1677;1677;1706;1706;1707;1708;1708;1709;1711;1711;1712;1714;1714;1715;1718;1718;1719;1721;1721;1722;1726;1726;1727;1732;1733;1733;1732;1728;1728;1727;1724;1724;1723;1720;1720;1719;1717;1717;1716;1715;1715;1714;1713;1713;1741;1741;1397", 
                "text": "unknown room", 
                "x": 997, 
                "y": 1568
            }, 
            {
                "class": "Room", 
                "type": "single", 
                "xn": "992;990;984;983;983;984;990;991;991;992;1002;1003;1003;1004;1010;1011;1011;1010;1004;1002", 
                "yn": "1620;1622;1622;1623;1641;1642;1642;1643;1644;1645;1645;1644;1643;1642;1642;1641;1623;1622;1622;1620", 
                "text": "unknown room", 
                "x": 997, 
                "y": 1632
            }, 
            {
                "class": "Room", 
                "type": "single", 
                "xn": "951;950;950;949;948;947;947;948;986;987;987;988;1006;1007;1007;1008;1015;1016;1016;1015;948;947;947;948;1032;1033;1033;1032;1032;1033;1033;1032;1032;1030;1030;1029", 
                "yn": "1600;1601;1611;1612;1612;1613;1618;1619;1619;1618;1614;1613;1613;1614;1619;1620;1620;1621;1647;1648;1648;1649;1659;1660;1660;1659;1649;1648;1620;1619;1613;1612;1606;1604;1601;1600", 
                "text": "unknown room", 
                "x": 995, 
                "y": 1628
            }, 
            {
                "class": "Room", 
                "type": "single", 
                "xn": "1948;1948;2045;2045", 
                "yn": "896;958;958;896", 
                "text": "bbq", 
                "x": 1995, 
                "y": 925
            }, 
            {
                "class": "Room", 
                "type": "single", 
                "xn": "1431;1431;1430;1427;1426;1426;1424;1422;1421;1419;1402;1402;1461;1461;1455;1454;1454", 
                "yn": "848;853;854;854;855;856;858;856;856;854;854;883;883;855;855;854;848", 
                "text": "unknown room", 
                "x": 1432, 
                "y": 867
            }, 
            {
                "class": "Room", 
                "type": "single", 
                "xn": "1433;1432;1432;1431;1429;1428;1428;1429;1431;1432;1432;1433;1451;1452;1452;1453;1455;1456;1456;1455;1453;1452;1452;1451", 
                "yn": "854;855;860;861;861;862;869;870;870;871;879;880;880;879;871;870;870;869;862;861;861;860;855;854", 
                "text": "unknown room", 
                "x": 1442, 
                "y": 866
            }, 
            {
                "class": "Room", 
                "type": "single", 
                "xn": "1160;1160;1161;1161;1160;1160;1234;1234", 
                "yn": "571;582;583;594;595;613;613;571", 
                "text": "unknown room", 
                "x": 1197, 
                "y": 592
            }, 
            {
                "class": "Door", 
                "xn": "1662;1739;1739;1662", 
                "yn": "580;580;590;590"
            }, 
            {
                "class": "Door", 
                "xn": "907;957;957;907", 
                "yn": "504;504;509;509"
            }, 
            {
                "class": "Door", 
                "xn": "1554;1560;1560;1554", 
                "yn": "719;719;795;795"
            }, 
            {
                "class": "Door", 
                "xn": "1392;1402;1402;1392", 
                "yn": "852;852;884;884"
            }, 
            {
                "class": "Window", 
                "xn": "776;793;793;776", 
                "yn": "452;452;458;458"
            }, 
            {
                "class": "Window", 
                "xn": "1089;1546;1546;1089", 
                "yn": "791;791;800;800"
            }, 
            {
                "class": "Window", 
                "xn": "1648;1666;1666;1648", 
                "yn": "570;570;582;582"
            }, 
            {
                "class": "Window", 
                "xn": "1033;1039;1039;1033", 
                "yn": "457;457;461;461"
            }, 
            {
                "class": "Window", 
                "xn": "546;556;556;546", 
                "yn": "679;679;691;691"
            }, 
            {
                "class": "Window", 
                "xn": "1743;1747;1747;1743", 
                "yn": "443;443;449;449"
            }, 
            {
                "class": "Window", 
                "xn": "1436;1441;1441;1436", 
                "yn": "519;519;531;531"
            }, 
            {
                "class": "Window", 
                "xn": "582;588;588;582", 
                "yn": "629;629;640;640"
            }, 
            {
                "class": "Window", 
                "xn": "990;1036;1036;990", 
                "yn": "506;506;511;511"
            }, 
            {
                "class": "Wall", 
                "xn": "541;556;556;541", 
                "yn": "651;651;680;680"
            }, 
            {
                "class": "Wall", 
                "xn": "1520;1671;1671;1520", 
                "yn": "582;582;594;594"
            }, 
            {
                "class": "Wall", 
                "xn": "1078;1820;1820;1078", 
                "yn": "299;299;309;309"
            }, 
            {
                "class": "Wall", 
                "xn": "1314;1325;1325;1314", 
                "yn": "841;841;931;931"
            }, 
            {
                "class": "Wall", 
                "xn": "1520;1530;1530;1520", 
                "yn": "507;507;594;594"
            }, 
            {
                "class": "Wall", 
                "xn": "1809;1819;1819;1809", 
                "yn": "146;146;931;931"
            }, 
            {
                "class": "Wall", 
                "xn": "1314;1820;1820;1314", 
                "yn": "921;921;931;931"
            }, 
            {
                "class": "Wall", 
                "xn": "1347;1357;1357;1347", 
                "yn": "299;299;454;454"
            }, 
            {
                "class": "Wall", 
                "xn": "1452;1678;1678;1452", 
                "yn": "675;675;685;685"
            }, 
            {
                "class": "Wall", 
                "xn": "1149;1245;1245;1149", 
                "yn": "614;614;624;624"
            }, 
            {
                "class": "Wall", 
                "xn": "1080;1090;1090;1080", 
                "yn": "674;674;801;801"
            }, 
            {
                "class": "Wall", 
                "xn": "578;588;588;578", 
                "yn": "563;563;630;630"
            }, 
            {
                "class": "Wall", 
                "xn": "286;358;358;286", 
                "yn": "678;678;691;691"
            }, 
            {
                "class": "Wall", 
                "xn": "1080;1385;1385;1080", 
                "yn": "674;674;685;685"
            }, 
            {
                "class": "Wall", 
                "xn": "704;1090;1090;704", 
                "yn": "789;789;800;800"
            }, 
            {
                "class": "Wall", 
                "xn": "1112;1122;1122;1112", 
                "yn": "146;146;594;594"
            }, 
            {
                "class": "Wall", 
                "xn": "1646;1657;1657;1646", 
                "yn": "802;802;931;931"
            }, 
            {
                "class": "Wall", 
                "xn": "566;577;559;548", 
                "yn": "497;492;366;371"
            }, 
            {
                "class": "Wall", 
                "xn": "1520;1530;1530;1520", 
                "yn": "299;299;343;343"
            }, 
            {
                "class": "Wall", 
                "xn": "1744;1820;1820;1744", 
                "yn": "675;675;687;687"
            }, 
            {
                "class": "Wall", 
                "xn": "1736;1820;1820;1736", 
                "yn": "584;584;594;594"
            }, 
            {
                "class": "Wall", 
                "xn": "586;598;598;586", 
                "yn": "952;952;1021;1021"
            }, 
            {
                "class": "Wall", 
                "xn": "583;662;662;583", 
                "yn": "640;640;652;652"
            }, 
            {
                "class": "Wall", 
                "xn": "1111;1160;1160;1111", 
                "yn": "583;583;594;594"
            }, 
            {
                "class": "Wall", 
                "xn": "839;845;809;803", 
                "yn": "625;618;330;337"
            }, 
            {
                "class": "Wall", 
                "xn": "1315;1325;1325;1315", 
                "yn": "675;675;707;707"
            }, 
            {
                "class": "Wall", 
                "xn": "1051;1123;1123;1051", 
                "yn": "442;442;454;454"
            }, 
            {
                "class": "Wall", 
                "xn": "563;637;637;563", 
                "yn": "804;804;816;816"
            }, 
            {
                "class": "Wall", 
                "xn": "128;125;117;120", 
                "yn": "1059;1036;1036;1059"
            }, 
            {
                "class": "Wall", 
                "xn": "742;739;541;544", 
                "yn": "637;626;653;664"
            }, 
            {
                "class": "Wall", 
                "xn": "1034;1091;1091;1034", 
                "yn": "447;447;458;458"
            }, 
            {
                "class": "Wall", 
                "xn": "293;299;276;270", 
                "yn": "557;551;398;405"
            }, 
            {
                "class": "Wall", 
                "xn": "597;606;569;560", 
                "yn": "1074;1067;773;779"
            }, 
            {
                "class": "Wall", 
                "xn": "311;321;309;299", 
                "yn": "684;684;611;611"
            }, 
            {
                "class": "Wall", 
                "xn": "1126;1124;733;735", 
                "yn": "309;299;339;350"
            }, 
            {
                "class": "Wall", 
                "xn": "834;831;270;273", 
                "yn": "338;328;399;409"
            }, 
            {
                "class": "Wall", 
                "xn": "1546;1555;1555;1546", 
                "yn": "792;792;931;931"
            }, 
            {
                "class": "Wall", 
                "xn": "811;849;849;811", 
                "yn": "614;614;625;625"
            }, 
            {
                "class": "Wall", 
                "xn": "118;127;84;75", 
                "yn": "1052;1052;709;709"
            }, 
            {
                "class": "Wall", 
                "xn": "784;792;759;751", 
                "yn": "1049;1042;786;792"
            }, 
            {
                "class": "Wall", 
                "xn": "550;560;560;550", 
                "yn": "650;650;699;699"
            }, 
            {
                "class": "Wall", 
                "xn": "699;708;708;699", 
                "yn": "608;608;641;641"
            }, 
            {
                "class": "Wall", 
                "xn": "842;901;901;842", 
                "yn": "463;463;473;473"
            }, 
            {
                "class": "Wall", 
                "xn": "1150;1159;1159;1150", 
                "yn": "561;561;624;624"
            }, 
            {
                "class": "Wall", 
                "xn": "1149;1244;1244;1149", 
                "yn": "561;561;570;570"
            }, 
            {
                "class": "Wall", 
                "xn": "235;232;120;123", 
                "yn": "1045;1035;1050;1060"
            }, 
            {
                "class": "Wall", 
                "xn": "1546;1555;1555;1546", 
                "yn": "675;675;723;723"
            }, 
            {
                "class": "Wall", 
                "xn": "597;594;508;511", 
                "yn": "1000;989;999;1009"
            }, 
            {
                "class": "Wall", 
                "xn": "1235;1244;1244;1235", 
                "yn": "561;561;624;624"
            }, 
            {
                "class": "Wall", 
                "xn": "414;473;473;414", 
                "yn": "662;662;674;674"
            }, 
            {
                "class": "Wall", 
                "xn": "819;882;882;819", 
                "yn": "467;467;478;478"
            }, 
            {
                "class": "Wall", 
                "xn": "1654;1663;1663;1654", 
                "yn": "567;567;594;594"
            }, 
            {
                "class": "Wall", 
                "xn": "469;540;540;469", 
                "yn": "1000;1000;1009;1009"
            }, 
            {
                "class": "Wall", 
                "xn": "585;593;593;585", 
                "yn": "603;603;656;656"
            }, 
            {
                "class": "Wall", 
                "xn": "1676;1683;1683;1676", 
                "yn": "690;690;758;758"
            }, 
            {
                "class": "Wall", 
                "xn": "1731;1738;1738;1731", 
                "yn": "511;511;580;580"
            }, 
            {
                "class": "Wall", 
                "xn": "1385;1392;1392;1385", 
                "yn": "691;691;760;760"
            }, 
            {
                "class": "Wall", 
                "xn": "710;716;705;699", 
                "yn": "870;866;805;809"
            }, 
            {
                "class": "Wall", 
                "xn": "695;694;629;630", 
                "yn": "611;604;612;619"
            }, 
            {
                "class": "Wall", 
                "xn": "533;540;531;524", 
                "yn": "643;647;589;585"
            }, 
            {
                "class": "Wall", 
                "xn": "420;418;352;354", 
                "yn": "648;641;649;656"
            }, 
            {
                "class": "Wall", 
                "xn": "299;311;311;299", 
                "yn": "605;605;612;612"
            }, 
            {
                "class": "Wall", 
                "xn": "524;531;531;524", 
                "yn": "581;581;602;602"
            }, 
            {
                "class": "Wall", 
                "xn": "289;299;279;270", 
                "yn": "531;535;398;402"
            }, 
            {
                "class": "Wall", 
                "xn": "839;848;812;803", 
                "yn": "623;617;331;337"
            }, 
            {
                "class": "Wall", 
                "xn": "1260;1275;1275;1260", 
                "yn": "428;428;481;481"
            }, 
            {
                "class": "Wall", 
                "xn": "1222;1259;1259;1222", 
                "yn": "421;421;435;435"
            }, 
            {
                "class": "Wall", 
                "xn": "1192;1276;1276;1192", 
                "yn": "471;471;481;481"
            }, 
            {
                "class": "Wall", 
                "xn": "1223;1231;1223;1215", 
                "yn": "445;433;427;439"
            }, 
            {
                "class": "Wall", 
                "xn": "1752;1766;1766;1752", 
                "yn": "432;432;484;484"
            }, 
            {
                "class": "Wall", 
                "xn": "1717;1750;1750;1717", 
                "yn": "422;422;437;437"
            }, 
            {
                "class": "Wall", 
                "xn": "1685;1769;1769;1685", 
                "yn": "474;474;484;484"
            }, 
            {
                "class": "Wall", 
                "xn": "1228;1254;1254;1228", 
                "yn": "445;445;463;463"
            }, 
            {
                "class": "Wall", 
                "xn": "1721;1747;1747;1721", 
                "yn": "449;449;467;467"
            }, 
            {
                "class": "Wall", 
                "xn": "782;798;798;782", 
                "yn": "447;447;500;500"
            }, 
            {
                "class": "Wall", 
                "xn": "715;785;785;715", 
                "yn": "494;494;506;506"
            }, 
            {
                "class": "Wall", 
                "xn": "749;775;775;749", 
                "yn": "468;468;486;486"
            }, 
            {
                "class": "Wall", 
                "xn": "1459;1473;1473;1459", 
                "yn": "479;479;531;531"
            }, 
            {
                "class": "Wall", 
                "xn": "1391;1473;1473;1391", 
                "yn": "476;476;488;488"
            }, 
            {
                "class": "Wall", 
                "xn": "1390;1437;1437;1390", 
                "yn": "520;520;531;531"
            }, 
            {
                "class": "Wall", 
                "xn": "1441;1474;1474;1441", 
                "yn": "520;520;531;531"
            }, 
            {
                "class": "Wall", 
                "xn": "661;696;696;661", 
                "yn": "488;488;496;496"
            }, 
            {
                "class": "Wall", 
                "xn": "1426;1452;1452;1426", 
                "yn": "496;496;514;514"
            }, 
            {
                "class": "Wall", 
                "xn": "1462;1476;1476;1462", 
                "yn": "840;840;893;893"
            }, 
            {
                "class": "Wall", 
                "xn": "1424;1460;1460;1424", 
                "yn": "834;834;847;847"
            }, 
            {
                "class": "Wall", 
                "xn": "1393;1477;1477;1393", 
                "yn": "884;884;893;893"
            }, 
            {
                "class": "Wall", 
                "xn": "1424;1432;1424;1416", 
                "yn": "857;845;839;851"
            }, 
            {
                "class": "Wall", 
                "xn": "1224;1238;1238;1224", 
                "yn": "841;841;891;891"
            }, 
            {
                "class": "Wall", 
                "xn": "1155;1239;1239;1155", 
                "yn": "881;881;891;891"
            }, 
            {
                "class": "Wall", 
                "xn": "1209;1239;1239;1209", 
                "yn": "841;841;849;849"
            }, 
            {
                "class": "Wall", 
                "xn": "1196;1214;1214;1196", 
                "yn": "853;853;877;877"
            }, 
            {
                "class": "Wall", 
                "xn": "1433;1451;1451;1433", 
                "yn": "855;855;879;879"
            }, 
            {
                "class": "Wall", 
                "xn": "1942;2052;2052;1942", 
                "yn": "959;959;967;967"
            }, 
            {
                "class": "Wall", 
                "xn": "1942;2052;2052;1942", 
                "yn": "887;887;895;895"
            }, 
            {
                "class": "Wall", 
                "xn": "712;726;726;712", 
                "yn": "973;973;1014;1014"
            }, 
            {
                "class": "Wall", 
                "xn": "645;722;722;645", 
                "yn": "1007;1007;1020;1020"
            }, 
            {
                "class": "Wall", 
                "xn": "679;705;705;679", 
                "yn": "981;981;999;999"
            }, 
            {
                "class": "Wall", 
                "xn": "590;1404;1404;590", 
                "yn": "1386;1386;1396;1396"
            }, 
            {
                "class": "Wall", 
                "xn": "590;1404;1404;590", 
                "yn": "1742;1742;1753;1753"
            }, 
            {
                "class": "Wall", 
                "xn": "1393;1403;1403;1393", 
                "yn": "1386;1386;1753;1753"
            }, 
            {
                "class": "Wall", 
                "xn": "591;600;600;591", 
                "yn": "1386;1386;1753;1753"
            }, 
            {
                "class": "Wall", 
                "xn": "1017;1031;1031;1017", 
                "yn": "1606;1606;1659;1659"
            }, 
            {
                "class": "Wall", 
                "xn": "951;1029;1029;951", 
                "yn": "1601;1601;1612;1612"
            }, 
            {
                "class": "Wall", 
                "xn": "948;1032;1032;948", 
                "yn": "1649;1649;1659;1659"
            }, 
            {
                "class": "Wall", 
                "xn": "984;1010;1010;984", 
                "yn": "1623;1623;1641;1641"
            }, 
            {
                "class": "Wall", 
                "xn": "992;1002;1002;992", 
                "yn": "1621;1621;1644;1644"
            }, 
            {
                "class": "Wall", 
                "xn": "687;698;698;687", 
                "yn": "979;979;1003;1003"
            }, 
            {
                "class": "Wall", 
                "xn": "1429;1455;1455;1429", 
                "yn": "862;862;869;869"
            }, 
            {
                "class": "Wall", 
                "xn": "1191;1217;1217;1191", 
                "yn": "860;860;870;870"
            }, 
            {
                "class": "Wall", 
                "xn": "1436;1443;1443;1436", 
                "yn": "493;493;517;517"
            }, 
            {
                "class": "Wall", 
                "xn": "1730;1738;1738;1730", 
                "yn": "446;446;470;470"
            }, 
            {
                "class": "Wall", 
                "xn": "1236;1244;1244;1236", 
                "yn": "443;443;467;467"
            }, 
            {
                "class": "Wall", 
                "xn": "803;811;811;803", 
                "yn": "610;610;553;551"
            }, 
            {
                "class": "Wall", 
                "xn": "574;586;586;574", 
                "yn": "564;564;572;572"
            }, 
            {
                "class": "Wall", 
                "xn": "966;975;975;966", 
                "yn": "477;477;486;486"
            }, 
            {
                "class": "Wall", 
                "xn": "1664;1669;1669;1664", 
                "yn": "581;581;597;597"
            }, 
            {
                "class": "Wall", 
                "xn": "1454;1460;1460;1454", 
                "yn": "674;674;690;690"
            }, 
            {
                "class": "Wall", 
                "xn": "1379;1385;1385;1379", 
                "yn": "674;674;690;690"
            }, 
            {
                "class": "Wall", 
                "xn": "567;572;572;567", 
                "yn": "448;448;525;525"
            }, 
            {
                "class": "Wall", 
                "xn": "1742;1746;1746;1742", 
                "yn": "690;690;704;704"
            }, 
            {
                "class": "Wall", 
                "xn": "1739;1743;1743;1739", 
                "yn": "581;581;597;597"
            }, 
            {
                "class": "Wall", 
                "xn": "836;848;848;836", 
                "yn": "609;609;613;613"
            }, 
            {
                "class": "Wall", 
                "xn": "630;634;634;630", 
                "yn": "800;800;815;815"
            }, 
            {
                "class": "Wall", 
                "xn": "562;568;568;562", 
                "yn": "766;766;813;813"
            }, 
            {
                "class": "Wall", 
                "xn": "1033;1039;1039;1033", 
                "yn": "461;461;507;507"
            }, 
            {
                "class": "Wall", 
                "xn": "416;415;35;36", 
                "yn": "385;381;434;438"
            }, 
            {
                "class": "Wall", 
                "xn": "294;299;299;294", 
                "yn": "518;518;576;576"
            }, 
            {
                "class": "Wall", 
                "xn": "568;572;559;556", 
                "yn": "785;782;767;771"
            }, 
            {
                "class": "Wall", 
                "xn": "1543;1560;1560;1543", 
                "yn": "795;795;800;800"
            }, 
            {
                "class": "Wall", 
                "xn": "813;818;818;813", 
                "yn": "614;614;630;630"
            }, 
            {
                "class": "Wall", 
                "xn": "74;77;38;35", 
                "yn": "709;713;441;438"
            }, 
            {
                "class": "Wall", 
                "xn": "547;565;565;547", 
                "yn": "691;691;697;697"
            }, 
            {
                "class": "Wall", 
                "xn": "698;714;714;698", 
                "yn": "608;608;614;614"
            }, 
            {
                "class": "Wall", 
                "xn": "902;908;908;902", 
                "yn": "474;474;523;523"
            }, 
            {
                "class": "Wall", 
                "xn": "132;134;98;96", 
                "yn": "1133;1128;878;883"
            }, 
            {
                "class": "Wall", 
                "xn": "122;126;126;122", 
                "yn": "1062;1062;1073;1073"
            }, 
            {
                "class": "Wall", 
                "xn": "1543;1560;1560;1543", 
                "yn": "716;716;720;720"
            }, 
            {
                "class": "Wall", 
                "xn": "1649;1666;1666;1649", 
                "yn": "567;567;571;571"
            }, 
            {
                "class": "Wall", 
                "xn": "1684;1693;1693;1684", 
                "yn": "754;754;758;758"
            }, 
            {
                "class": "Wall", 
                "xn": "1725;1739;1739;1725", 
                "yn": "511;511;515;515"
            }, 
            {
                "class": "Wall", 
                "xn": "1394;1402;1402;1394", 
                "yn": "755;755;759;759"
            }, 
            {
                "class": "Wall", 
                "xn": "711;715;715;711", 
                "yn": "859;859;874;874"
            }, 
            {
                "class": "Wall", 
                "xn": "519;532;532;519", 
                "yn": "581;581;585;585"
            }, 
            {
                "class": "Wall", 
                "xn": "1192;1229;1229;1192", 
                "yn": "436;436;441;441"
            }, 
            {
                "class": "Wall", 
                "xn": "1744;1769;1769;1744", 
                "yn": "438;438;444;444"
            }, 
            {
                "class": "Wall", 
                "xn": "1685;1724;1724;1685", 
                "yn": "438;438;443;443"
            }, 
            {
                "class": "Wall", 
                "xn": "1685;1718;1718;1685", 
                "yn": "443;443;447;447"
            }, 
            {
                "class": "Wall", 
                "xn": "777;793;793;777", 
                "yn": "449;449;453;453"
            }, 
            {
                "class": "Wall", 
                "xn": "777;794;794;777", 
                "yn": "458;458;462;462"
            }, 
            {
                "class": "Wall", 
                "xn": "760;764;764;760", 
                "yn": "465;465;489;489"
            }, 
            {
                "class": "Wall", 
                "xn": "1455;1477;1477;1455", 
                "yn": "848;848;854;854"
            }, 
            {
                "class": "Wall", 
                "xn": "1393;1430;1430;1393", 
                "yn": "848;848;853;853"
            }, 
            {
                "class": "Wall", 
                "xn": "1393;1427;1427;1393", 
                "yn": "878;878;882;882"
            }, 
            {
                "class": "Wall", 
                "xn": "1220;1239;1239;1220", 
                "yn": "849;849;853;853"
            }, 
            {
                "class": "Wall", 
                "xn": "1220;1239;1239;1220", 
                "yn": "876;876;880;880"
            }, 
            {
                "class": "Wall", 
                "xn": "1943;1947;1947;1943", 
                "yn": "887;887;967;967"
            }, 
            {
                "class": "Wall", 
                "xn": "2046;2051;2051;2046", 
                "yn": "887;887;967;967"
            }, 
            {
                "class": "Wall", 
                "xn": "724;727;709;706", 
                "yn": "998;994;972;976"
            }, 
            {
                "class": "Wall", 
                "xn": "644;677;677;644", 
                "yn": "1001;1001;1006;1006"
            }, 
            {
                "class": "Wall", 
                "xn": "640;679;679;640", 
                "yn": "973;973;978;978"
            }, 
            {
                "class": "Wall", 
                "xn": "632;636;636;632", 
                "yn": "1735;1735;1740;1740"
            }, 
            {
                "class": "Wall", 
                "xn": "667;671;671;667", 
                "yn": "1731;1731;1740;1740"
            }, 
            {
                "class": "Wall", 
                "xn": "590;612;612;590", 
                "yn": "1671;1671;1676;1676"
            }, 
            {
                "class": "Wall", 
                "xn": "602;611;611;602", 
                "yn": "1690;1690;1694;1694"
            }, 
            {
                "class": "Wall", 
                "xn": "590;609;609;590", 
                "yn": "1707;1707;1712;1712"
            }, 
            {
                "class": "Wall", 
                "xn": "1008;1032;1032;1008", 
                "yn": "1613;1613;1619;1619"
            }, 
            {
                "class": "Wall", 
                "xn": "948;986;986;948", 
                "yn": "1613;1613;1618;1618"
            }, 
            {
                "class": "Wall", 
                "xn": "967;972;972;967", 
                "yn": "467;467;477;477"
            }, 
            {
                "class": "Wall", 
                "xn": "974;978;978;974", 
                "yn": "487;487;492;492"
            }, 
            {
                "class": "Wall", 
                "xn": "1450;1454;1454;1450", 
                "yn": "691;691;707;707"
            }, 
            {
                "class": "Wall", 
                "xn": "565;577;577;565", 
                "yn": "493;493;497;497"
            }, 
            {
                "class": "Wall", 
                "xn": "1739;1743;1743;1739", 
                "yn": "707;707;712;712"
            }, 
            {
                "class": "Wall", 
                "xn": "556;573;573;556", 
                "yn": "769;769;773;773"
            }, 
            {
                "class": "Wall", 
                "xn": "1036;1042;1042;1036", 
                "yn": "485;485;530;530"
            }, 
            {
                "class": "Wall", 
                "xn": "539;546;546;539", 
                "yn": "699;699;703;703"
            }, 
            {
                "class": "Wall", 
                "xn": "905;911;911;905", 
                "yn": "501;501;542;542"
            }, 
            {
                "class": "Wall", 
                "xn": "1559;1629;1629;1559", 
                "yn": "723;723;729;729"
            }, 
            {
                "class": "Wall", 
                "xn": "1690;1697;1697;1690", 
                "yn": "753;753;757;757"
            }, 
            {
                "class": "Wall", 
                "xn": "1720;1727;1727;1720", 
                "yn": "512;512;516;516"
            }, 
            {
                "class": "Wall", 
                "xn": "1399;1406;1406;1399", 
                "yn": "754;754;758;758"
            }, 
            {
                "class": "Wall", 
                "xn": "511;516;516;511", 
                "yn": "584;584;588;588"
            }, 
            {
                "class": "Wall", 
                "xn": "629;633;633;629", 
                "yn": "1727;1727;1732;1732"
            }, 
            {
                "class": "Wall", 
                "xn": "612;619;619;612", 
                "yn": "1674;1674;1678;1678"
            }, 
            {
                "class": "Wall", 
                "xn": "614;620;620;614", 
                "yn": "1693;1693;1697;1697"
            }, 
            {
                "class": "Wall", 
                "xn": "608;614;614;608", 
                "yn": "1709;1709;1714;1714"
            }, 
            {
                "class": "Wall", 
                "xn": "977;981;981;977", 
                "yn": "493;493;497;497"
            }, 
            {
                "class": "Wall", 
                "xn": "1448;1452;1452;1448", 
                "yn": "705;705;711;711"
            }, 
            {
                "class": "Wall", 
                "xn": "1736;1740;1740;1736", 
                "yn": "715;715;720;720"
            }, 
            {
                "class": "Wall", 
                "xn": "535;541;541;535", 
                "yn": "700;700;704;704"
            }, 
            {
                "class": "Wall", 
                "xn": "905;918;918;905", 
                "yn": "538;538;542;542"
            }, 
            {
                "class": "Wall", 
                "xn": "1698;1703;1703;1698", 
                "yn": "751;751;755;755"
            }, 
            {
                "class": "Wall", 
                "xn": "1713;1718;1718;1713", 
                "yn": "514;514;518;518"
            }, 
            {
                "class": "Wall", 
                "xn": "1409;1414;1414;1409", 
                "yn": "751;751;755;755"
            }, 
            {
                "class": "Wall", 
                "xn": "507;511;511;507", 
                "yn": "586;586;590;590"
            }, 
            {
                "class": "Wall", 
                "xn": "626;630;630;626", 
                "yn": "1722;1722;1727;1727"
            }, 
            {
                "class": "Wall", 
                "xn": "614;619;619;614", 
                "yn": "1712;1712;1716;1716"
            }, 
            {
                "class": "Wall", 
                "xn": "979;983;983;979", 
                "yn": "497;497;501;501"
            }, 
            {
                "class": "Wall", 
                "xn": "1446;1450;1450;1446", 
                "yn": "712;712;717;717"
            }, 
            {
                "class": "Wall", 
                "xn": "1734;1738;1738;1734", 
                "yn": "719;719;723;723"
            }, 
            {
                "class": "Wall", 
                "xn": "1732;1736;1736;1732", 
                "yn": "723;723;727;727"
            }, 
            {
                "class": "Wall", 
                "xn": "530;535;535;530", 
                "yn": "702;702;706;706"
            }, 
            {
                "class": "Wall", 
                "xn": "920;925;925;920", 
                "yn": "536;536;540;540"
            }, 
            {
                "class": "Wall", 
                "xn": "916;922;922;916", 
                "yn": "537;537;541;541"
            }, 
            {
                "class": "Wall", 
                "xn": "1705;1709;1709;1705", 
                "yn": "748;748;752;752"
            }, 
            {
                "class": "Wall", 
                "xn": "1708;1713;1713;1708", 
                "yn": "516;516;520;520"
            }, 
            {
                "class": "Wall", 
                "xn": "1414;1418;1418;1414", 
                "yn": "749;749;753;753"
            }, 
            {
                "class": "Wall", 
                "xn": "503;507;507;503", 
                "yn": "588;588;592;592"
            }, 
            {
                "class": "Wall", 
                "xn": "623;627;627;623", 
                "yn": "1719;1719;1723;1723"
            }, 
            {
                "class": "Wall", 
                "xn": "619;623;623;619", 
                "yn": "1715;1715;1719;1719"
            }, 
            {
                "class": "Wall", 
                "xn": "983;987;987;983", 
                "yn": "502;502;506;506"
            }, 
            {
                "class": "Wall", 
                "xn": "1444;1448;1448;1444", 
                "yn": "717;717;721;721"
            }, 
            {
                "class": "Wall", 
                "xn": "1727;1731;1731;1727", 
                "yn": "730;730;734;734"
            }, 
            {
                "class": "Wall", 
                "xn": "525;530;530;525", 
                "yn": "704;704;708;708"
            }, 
            {
                "class": "Wall", 
                "xn": "928;932;932;928", 
                "yn": "533;533;537;537"
            }, 
            {
                "class": "Wall", 
                "xn": "1709;1713;1713;1709", 
                "yn": "746;746;750;750"
            }, 
            {
                "class": "Wall", 
                "xn": "1701;1705;1705;1701", 
                "yn": "520;520;524;524"
            }, 
            {
                "class": "Wall", 
                "xn": "498;502;502;498", 
                "yn": "591;591;595;595"
            }, 
            {
                "class": "Wall", 
                "xn": "987;991;991;987", 
                "yn": "507;507;511;511"
            }, 
            {
                "class": "Wall", 
                "xn": "1442;1446;1446;1442", 
                "yn": "721;721;725;725"
            }, 
            {
                "class": "Wall", 
                "xn": "521;525;525;521", 
                "yn": "706;706;710;710"
            }, 
            {
                "class": "Wall", 
                "xn": "933;937;937;933", 
                "yn": "530;530;534;534"
            }, 
            {
                "class": "Wall", 
                "xn": "1715;1719;1719;1715", 
                "yn": "742;742;746;746"
            }, 
            {
                "class": "Wall", 
                "xn": "1696;1700;1700;1696", 
                "yn": "523;523;527;527"
            }, 
            {
                "class": "Wall", 
                "xn": "1440;1444;1444;1440", 
                "yn": "725;725;729;729"
            }, 
            {
                "class": "Wall", 
                "xn": "516;520;520;516", 
                "yn": "709;709;713;713"
            }, 
            {
                "class": "Wall", 
                "xn": "938;942;942;938", 
                "yn": "527;527;531;531"
            }, 
            {
                "class": "Wall", 
                "xn": "1689;1693;1693;1689", 
                "yn": "529;529;533;533"
            }, 
            {
                "class": "Wall", 
                "xn": "1437;1441;1441;1437", 
                "yn": "729;729;733;733"
            }, 
            {
                "class": "Wall", 
                "xn": "512;516;516;512", 
                "yn": "712;712;716;716"
            }, 
            {
                "class": "Wall", 
                "xn": "945;949;949;945", 
                "yn": "521;521;525;525"
            }, 
            {
                "class": "Wall", 
                "xn": "1434;1438;1438;1434", 
                "yn": "733;733;737;737"
            }, 
            {
                "class": "Wall", 
                "xn": "506;510;510;506", 
                "yn": "717;717;721;721"
            }, 
            {
                "class": "Wall", 
                "xn": "951;955;955;951", 
                "yn": "514;514;518;518"
            }, 
            {
                "class": "Wall", 
                "xn": "1427;1431;1431;1427", 
                "yn": "740;740;744;744"
            }, 
            {
                "class": "Wall", 
                "xn": "502;506;506;502", 
                "yn": "721;721;725;725"
            }, 
            {
                "class": "Wall", 
                "xn": "954;958;958;954", 
                "yn": "510;510;514;514"
            }, 
            {
                "class": "Wall", 
                "xn": "1422;1426;1426;1422", 
                "yn": "744;744;748;748"
            }, 
            {
                "class": "Wall", 
                "xn": "499;503;503;499", 
                "yn": "725;725;729;729"
            }, 
            {
                "class": "Wall", 
                "xn": "957;961;961;957", 
                "yn": "505;505;509;509"
            }, 
            {
                "class": "Wall", 
                "xn": "496;500;500;496", 
                "yn": "729;729;733;733"
            }, 
            {
                "class": "Wall", 
                "xn": "959;963;963;959", 
                "yn": "501;501;505;505"
            }, 
            {
                "class": "Wall", 
                "xn": "493;497;497;493", 
                "yn": "734;734;738;738"
            }, 
            {
                "class": "Wall", 
                "xn": "962;966;966;962", 
                "yn": "493;493;498;498"
            }, 
            {
                "class": "Wall", 
                "xn": "490;494;494;490", 
                "yn": "740;740;745;745"
            }, 
            {
                "class": "Text", 
                "height": 56, 
                "width": 171, 
                "x": 1576, 
                "y": 361, 
                "text": "bedroom"
            }, 
            {
                "class": "Text", 
                "height": 79, 
                "width": 177, 
                "x": 240, 
                "y": 806, 
                "text": "bedroom"
            }, 
            {
                "class": "Text", 
                "height": 79, 
                "width": 177, 
                "x": 330, 
                "y": 431, 
                "text": "bedroom"
            }, 
            {
                "class": "Text", 
                "height": 83, 
                "width": 177, 
                "x": 597, 
                "y": 375, 
                "text": "bedroom"
            }, 
            {
                "class": "Text", 
                "height": 59, 
                "width": 150, 
                "x": 1156, 
                "y": 358, 
                "text": "lounge"
            }, 
            {
                "class": "Text", 
                "height": 56, 
                "width": 156, 
                "x": 1354, 
                "y": 774, 
                "text": "kitchen"
            }, 
            {
                "class": "Text", 
                "height": 59, 
                "width": 122, 
                "x": 1663, 
                "y": 767, 
                "text": "utility"
            }, 
            {
                "class": "Text", 
                "height": 59, 
                "width": 94, 
                "x": 1948, 
                "y": 896, 
                "text": "bbq"
            }, 
            {
                "class": "Text", 
                "height": 59, 
                "width": 153, 
                "x": 1521, 
                "y": 444, 
                "text": "ensuite"
            }, 
            {
                "class": "Text", 
                "height": 66, 
                "width": 128, 
                "x": 299, 
                "y": 535, 
                "text": "ensuite"
            }, 
            {
                "class": "Text", 
                "height": 62, 
                "width": 125, 
                "x": 573, 
                "y": 497, 
                "text": "ensuite"
            }, 
            {
                "class": "Unknown", 
                "xn": "964;1029;1029;964", 
                "yn": "1551;1551;1584;1584"
            }, 
            {
                "class": "Unknown", 
                "xn": "964;1029;1029;964", 
                "yn": "1615;1615;1648;1648"
            }, 
            {
                "class": "Unknown", 
                "xn": "962;1027;1027;962", 
                "yn": "1611;1611;1644;1644"
            }, 
            {
                "class": "Unknown", 
                "xn": "1399;1464;1464;1399", 
                "yn": "850;850;883;883"
            }, 
            {
                "class": "Unknown", 
                "xn": "1409;1474;1474;1409", 
                "yn": "849;849;882;882"
            }, 
            {
                "class": "Unknown", 
                "xn": "1164;1229;1229;1164", 
                "yn": "575;575;608;608"
            }
        ], 
        "class": "image", 
        "filename": "77.png"
    }
]