[
    {
        "annotations": [
            {
                "class": "Room", 
                "type": "single", 
                "xn": "501;501;500;487;487;552;552;546;545;545", 
                "yn": "807;808;809;809;854;854;809;809;808;807", 
                "text": "unknown room", 
                "x": 519, 
                "y": 830
            }, 
            {
                "class": "Room", 
                "type": "single", 
                "xn": "801;801;802;802;801;801;802;802;801;801;802;802;801;571;571;570;567;567;741;742;742;743;743;744;744;745;745;746;746;747;747;748;748;749;749;750;750;751;751;752;752;753;753;754;754;755;755;756;756;757;757;758;758;759;759;760;760;761;761;762;762;763;763;764;764;765;765;766;766;767;767;768;768;769;769;770;770;771;771;772;772;773;773;774;774;775;775;776;776;777;777;778;778;779;779;780;780;781;781;782;782;783;783;784;784;785;785;786;786;787;787;788;788;789;789;790;790;791;791;792;792;793;793;794;794;795;795;796;796;797;797;798;798;799;799;800;800;801;801;802;802;803;803;804;804;805;805;806;806;807;807;808;808;809;809;810;810;811;811;812;812;813;813;814;814;815;815;816;816;817;817;818;818;819;819;820;820;821;821;822;822;823;823;824;824;825;825;826;826;827;827;828;828;829;829;830;830;831;831;832;832;833;833;834;834;835;835;836;836;837;837;838;838;839;839;840;840;841;841;842;842;843;843;844;844;845;845;846;846;847;847;848;848;849;849;850;850;851;851;852;852;853;853;854;854;855;855;856;856;857;857;858;858;859;859;860;860;861;861;862;862;863;863;864;864;865;865;866;866;867;867;868;868;869;869;870;870;871;871;872;872;873;873;874;874;875;875;876;876;877;877;878;878;879;879;880;880;881;881;882;882;883;883;884;884;885;885;886;886;887;887;888;888;889;889;890;890;891;891;892;892;893;893;894;894;895;895;896;896;897;897;898;898;899;899;900;900;901;901;902;902;903;903;904;904;905;905;906;906;907;907;908;908;909;909;910;910;911;911;912;912;913;913;914;914;915;915;916;916;917;917;918;918;919;919;920;920;921;921;922;922;923;923;924;924;925;925;926;926;927;927;928;928;929;929;930;930;931;931;932;932;933;933;934;934;935;935;936;936;937;937;938;938;939;939;940;940;941;941;942;942;943;943;944;944;945;945;946;946;947;947;948;948;949;949;950;950;951;951;952;952;953;953;954;954;955;955;956;956;957;957;958;958;959;959;960;960;961;961;962;962;963;963;964;964;965;965;966;966;967;967;968;968;969;969;970;970;971;971;972;972;973;973;974;974;975;975;976;976;977;977;978;978;979;979;980;980;981;981;982;982;983;983;984;984;985;985;986;986;987;987;988;988;989;989;990;990;991;991;992;992;993;993;994;994;995;995;996;996;997;997;998;998;999;999;1000;1000;1001;1001;1002;1002;1003;1003;1004;1004;1005;1005;1006;1006;1007;1007;1008;1008;1009;1009;1010;1010;1011;1011;1012;1012;1013;1013;1014;1014;1015;1015;1016;1016;1017;1017;1018;1018;1019;1019;1020;1020;1021;1021;1022;1022;1023;1023;1024;1024;1025;1025;1026;1026;1027;1027;1028;1028;1029;1029;1030;1030;1031;1031;1032;1032;1033;1033;1034;1034;1035;1035;1036;1036;1037;1037;1038;1038;1039;1039;1040;1040;1041;1041;1042;1042;1043;1043;1044;1044;1045;1045;1046;1046;1047;1047;1048;1048;1049;1049;1050;1050;1051;1051;1052;1052;1053;1053;1054;1054;1055;1055", 
                "yn": "789;854;855;863;864;936;937;946;947;1017;1018;1084;1085;1085;1199;1200;1200;1632;1632;1631;1630;1629;1627;1626;1625;1624;1622;1621;1620;1619;1618;1617;1615;1614;1613;1612;1610;1609;1608;1607;1605;1604;1603;1602;1600;1599;1598;1597;1595;1594;1593;1592;1591;1590;1588;1587;1586;1585;1583;1582;1581;1580;1578;1577;1576;1575;1573;1572;1571;1570;1568;1567;1566;1565;1564;1563;1561;1560;1559;1558;1556;1555;1554;1553;1551;1550;1549;1548;1546;1545;1544;1543;1541;1540;1539;1538;1537;1536;1534;1533;1532;1531;1529;1528;1527;1526;1524;1523;1522;1521;1519;1518;1517;1516;1514;1513;1512;1511;1510;1509;1507;1506;1505;1504;1502;1501;1500;1499;1497;1496;1495;1494;1492;1491;1490;1489;1487;1486;1485;1484;1482;1481;1480;1479;1478;1477;1475;1474;1473;1472;1470;1469;1468;1467;1465;1464;1463;1462;1460;1459;1458;1457;1455;1454;1453;1452;1451;1450;1448;1447;1446;1445;1443;1442;1441;1440;1438;1437;1436;1435;1433;1432;1431;1430;1428;1427;1426;1425;1424;1423;1421;1420;1419;1418;1416;1415;1414;1413;1411;1410;1409;1408;1406;1405;1404;1403;1401;1400;1399;1398;1397;1396;1394;1393;1392;1391;1389;1388;1387;1386;1384;1383;1382;1381;1379;1378;1377;1376;1374;1373;1372;1371;1370;1369;1367;1366;1365;1364;1362;1361;1360;1359;1357;1356;1355;1354;1352;1351;1350;1349;1347;1346;1345;1344;1343;1342;1340;1339;1338;1337;1335;1334;1333;1332;1330;1329;1328;1327;1325;1324;1323;1322;1320;1319;1318;1317;1316;1315;1313;1312;1311;1310;1308;1307;1306;1305;1303;1302;1301;1300;1298;1297;1296;1295;1293;1292;1291;1290;1289;1288;1286;1285;1284;1283;1281;1280;1279;1278;1276;1275;1274;1273;1271;1270;1269;1268;1266;1265;1264;1263;1262;1261;1259;1258;1257;1256;1254;1253;1252;1251;1249;1248;1247;1246;1244;1243;1242;1241;1239;1238;1237;1236;1234;1233;1232;1231;1230;1229;1227;1226;1225;1224;1222;1221;1220;1219;1217;1216;1215;1214;1212;1211;1210;1209;1207;1206;1205;1204;1203;1202;1200;1199;1198;1197;1195;1194;1193;1192;1190;1189;1188;1187;1185;1184;1183;1182;1180;1179;1178;1177;1176;1175;1173;1172;1171;1170;1168;1167;1166;1165;1163;1162;1161;1160;1158;1157;1156;1155;1153;1152;1151;1150;1149;1148;1146;1145;1144;1143;1141;1140;1139;1138;1136;1135;1134;1133;1131;1130;1129;1128;1126;1125;1124;1123;1122;1121;1119;1118;1117;1116;1114;1113;1112;1111;1109;1108;1107;1106;1104;1103;1102;1101;1099;1098;1097;1096;1095;1094;1092;1091;1090;1089;1087;1086;1085;1084;1082;1081;1080;1079;1077;1076;1075;1074;1072;1071;1070;1069;1068;1067;1065;1064;1063;1062;1060;1059;1058;1057;1055;1054;1053;1052;1050;1049;1048;1047;1045;1044;1043;1042;1041;1040;1038;1037;1036;1035;1033;1032;1031;1030;1028;1027;1026;1025;1023;1022;1021;1020;1018;1017;1016;1015;1014;1013;1011;1010;1009;1008;1006;1005;1004;1003;1001;1000;999;998;996;995;994;993;991;990;989;988;986;985;984;983;982;981;979;978;977;976;974;973;972;971;969;968;967;966;964;963;962;961;959;958;957;956;955;954;952;951;950;949;947;946;945;944;942;941;940;939;937;936;935;934;932;931;930;929;928;927;925;924;923;922;920;919;918;917;915;914;913;912;910;909;908;907;905;904;903;902;901;900;898;897;896;895;893;892;891;890;888;887;886;885;883;882;881;880;878;877;876;875;874;873;871;870;869;868;866;865;864;863;789", 
                "text": "cargarage", 
                "x": 814, 
                "y": 1348
            }, 
            {
                "class": "Room", 
                "type": "single", 
                "xn": "276;276;322;322;321;321;322;322;301;300;300", 
                "yn": "789;853;853;847;846;798;797;793;793;792;789", 
                "text": "unknown room", 
                "x": 298, 
                "y": 821
            }, 
            {
                "class": "Room", 
                "type": "single", 
                "xn": "801;801;870;870", 
                "yn": "742;773;773;742", 
                "text": "linen", 
                "x": 834, 
                "y": 759
            }, 
            {
                "class": "Room", 
                "type": "single", 
                "xn": "938;939;1053;1054;1054;1053;883;882;882;883;937;938", 
                "yn": "648;647;647;648;773;774;774;773;657;656;656;655", 
                "text": "eat", 
                "x": 952, 
                "y": 686
            }, 
            {
                "class": "Room", 
                "type": "single", 
                "xn": "798;799;1053;1054;1054;1053;883;882;882;881;799;798", 
                "yn": "266;265;265;266;644;645;645;644;488;487;487;486", 
                "text": "wc", 
                "x": 950, 
                "y": 565
            }, 
            {
                "class": "Room", 
                "type": "single", 
                "xn": "581;582;744;745;745;746;751;752;752;753;786;787;787;786;779;778;778;779;785;786;786;785;573;572;572;573;580;581;581;582;675;676;676;675;582;581", 
                "yn": "866;865;865;866;950;951;951;950;866;865;865;866;934;935;935;936;947;948;948;949;1070;1071;1071;1070;936;935;935;934;908;907;907;906;891;890;890;889", 
                "text": "store", 
                "x": 682, 
                "y": 985
            }, 
            {
                "class": "Room", 
                "type": "single", 
                "xn": "405;406;413;414;414;415;415;416;416;417;417;418;418;419;419;420;420;421;421;422;422;423;423;424;424;425;425;426;426;427;427;428;428;429;429;430;430;431;431;432;432;431;278;277;277;278;331;332;332;333;344;345;345;346;354;355;364;365;374;375;385;386;395;396", 
                "yn": "769;768;768;769;774;775;782;783;790;791;798;799;806;807;814;815;822;823;830;831;838;839;846;847;854;855;862;863;870;871;878;879;886;887;894;895;902;903;910;911;1040;1041;1041;1040;866;865;865;864;795;794;794;793;775;774;774;773;773;772;772;771;771;770;770;769", 
                "text": "foyer", 
                "x": 386, 
                "y": 919
            }, 
            {
                "class": "Room", 
                "type": "single", 
                "xn": "466;467;475;476;476;475;464;463;463;464;474;475;475;476;477;478;478;479;569;570;570;569;558;557;557;556;435;434;434;433;433;432;432;431;431;430;430;429;429;428;428;427;427;426;426;425;425;424;424;423;423;422;422;421;421;420;420;419;419;418;418;417;417;416;416;415;415;416;425;426;436;437;446;447;456;457", 
                "yn": "763;762;762;763;772;773;773;774;790;791;791;792;864;865;865;866;934;935;935;936;1017;1018;1018;1019;1040;1041;1041;1040;919;918;912;911;904;903;896;895;888;887;880;879;872;871;864;863;856;855;848;847;840;839;832;831;824;823;816;815;808;807;800;799;792;791;784;783;776;775;768;767;767;766;766;765;765;764;764;763", 
                "text": "up", 
                "x": 463, 
                "y": 900
            }, 
            {
                "class": "Room", 
                "type": "single", 
                "xn": "342;343;344;344;343;109;108;108;107;107;106;106;107;324;325;326;327;328;329;331;332;333;334;335;336;337;338;339;340", 
                "yn": "354;353;354;772;773;773;772;637;636;499;498;363;362;362;361;361;360;360;359;359;358;358;357;357;356;356;355;355;354", 
                "text": "greatroom", 
                "x": 289, 
                "y": 557
            }, 
            {
                "class": "Door", 
                "xn": "746;751;751;746", 
                "yn": "862;862;945;945"
            }, 
            {
                "class": "Door", 
                "xn": "941;1049;1049;941", 
                "yn": "633;633;650;650"
            }, 
            {
                "class": "Door", 
                "xn": "561;567;582;576", 
                "yn": "940;1015;1014;939"
            }, 
            {
                "class": "Window", 
                "xn": "562;580;580;562", 
                "yn": "862;862;893;893"
            }, 
            {
                "class": "Window", 
                "xn": "345;488;488;345", 
                "yn": "1043;1043;1055;1055"
            }, 
            {
                "class": "Window", 
                "xn": "787;801;801;787", 
                "yn": "945;945;1018;1018"
            }, 
            {
                "class": "Window", 
                "xn": "263;275;275;263", 
                "yn": "891;891;989;989"
            }, 
            {
                "class": "Window", 
                "xn": "221;315;315;221", 
                "yn": "348;348;360;360"
            }, 
            {
                "class": "Window", 
                "xn": "124;242;242;124", 
                "yn": "775;775;787;787"
            }, 
            {
                "class": "Window", 
                "xn": "322;330;330;322", 
                "yn": "798;798;847;847"
            }, 
            {
                "class": "Window", 
                "xn": "804;864;864;804", 
                "yn": "489;489;498;498"
            }, 
            {
                "class": "Window", 
                "xn": "569;711;711;569", 
                "yn": "253;253;263;263"
            }, 
            {
                "class": "Window", 
                "xn": "493;553;553;493", 
                "yn": "799;799;807;807"
            }, 
            {
                "class": "Window", 
                "xn": "788;800;800;788", 
                "yn": "952;952;1018;1018"
            }, 
            {
                "class": "Window", 
                "xn": "579;657;657;579", 
                "yn": "892;892;905;905"
            }, 
            {
                "class": "Window", 
                "xn": "891;960;960;891", 
                "yn": "251;251;263;263"
            }, 
            {
                "class": "Window", 
                "xn": "1055;1067;1067;1055", 
                "yn": "616;616;657;657"
            }, 
            {
                "class": "Window", 
                "xn": "872;880;880;872", 
                "yn": "662;662;719;719"
            }, 
            {
                "class": "Window", 
                "xn": "324;324;493;480", 
                "yn": "349;360;271;271"
            }, 
            {
                "class": "Window", 
                "xn": "93;107;104;93", 
                "yn": "749;749;692;692"
            }, 
            {
                "class": "Wall", 
                "xn": "478;494;494;478", 
                "yn": "762;762;807;807"
            }, 
            {
                "class": "Wall", 
                "xn": "301;343;343;301", 
                "yn": "776;776;792;792"
            }, 
            {
                "class": "Wall", 
                "xn": "480;570;570;480", 
                "yn": "254;254;266;266"
            }, 
            {
                "class": "Wall", 
                "xn": "1056;1067;1067;1056", 
                "yn": "252;252;617;617"
            }, 
            {
                "class": "Wall", 
                "xn": "788;1068;1068;788", 
                "yn": "776;776;788;788"
            }, 
            {
                "class": "Wall", 
                "xn": "263;346;346;263", 
                "yn": "1043;1043;1055;1055"
            }, 
            {
                "class": "Wall", 
                "xn": "92;222;222;92", 
                "yn": "349;349;360;360"
            }, 
            {
                "class": "Wall", 
                "xn": "93;104;104;93", 
                "yn": "349;349;692;692"
            }, 
            {
                "class": "Wall", 
                "xn": "558;801;801;558", 
                "yn": "1073;1073;1084;1084"
            }, 
            {
                "class": "Wall", 
                "xn": "264;275;275;264", 
                "yn": "776;776;892;892"
            }, 
            {
                "class": "Wall", 
                "xn": "788;801;801;788", 
                "yn": "1018;1018;1084;1084"
            }, 
            {
                "class": "Wall", 
                "xn": "263;275;275;263", 
                "yn": "989;989;1055;1055"
            }, 
            {
                "class": "Wall", 
                "xn": "960;1068;1068;960", 
                "yn": "252;252;263;263"
            }, 
            {
                "class": "Wall", 
                "xn": "789;800;800;789", 
                "yn": "564;564;953;953"
            }, 
            {
                "class": "Wall", 
                "xn": "711;892;892;711", 
                "yn": "252;252;263;263"
            }, 
            {
                "class": "Wall", 
                "xn": "1056;1067;1067;1056", 
                "yn": "657;657;862;862"
            }, 
            {
                "class": "Wall", 
                "xn": "92;125;125;92", 
                "yn": "775;775;787;787"
            }, 
            {
                "class": "Wall", 
                "xn": "242;343;343;242", 
                "yn": "776;776;788;788"
            }, 
            {
                "class": "Wall", 
                "xn": "559;570;570;559", 
                "yn": "1020;1020;1199;1199"
            }, 
            {
                "class": "Wall", 
                "xn": "488;571;571;488", 
                "yn": "1044;1044;1055;1055"
            }, 
            {
                "class": "Wall", 
                "xn": "872;937;937;872", 
                "yn": "647;647;655;655"
            }, 
            {
                "class": "Wall", 
                "xn": "553;561;561;553", 
                "yn": "800;800;863;863"
            }, 
            {
                "class": "Wall", 
                "xn": "477;801;801;477", 
                "yn": "855;855;863;863"
            }, 
            {
                "class": "Wall", 
                "xn": "862;881;881;862", 
                "yn": "724;724;734;734"
            }, 
            {
                "class": "Wall", 
                "xn": "315;324;324;315", 
                "yn": "349;349;360;360"
            }, 
            {
                "class": "Wall", 
                "xn": "263;331;331;263", 
                "yn": "854;854;863;863"
            }, 
            {
                "class": "Wall", 
                "xn": "657;674;674;657", 
                "yn": "893;893;905;905"
            }, 
            {
                "class": "Wall", 
                "xn": "478;486;486;478", 
                "yn": "762;762;863;863"
            }, 
            {
                "class": "Wall", 
                "xn": "563;580;580;563", 
                "yn": "893;893;905;905"
            }, 
            {
                "class": "Wall", 
                "xn": "788;805;805;788", 
                "yn": "489;489;498;498"
            }, 
            {
                "class": "Wall", 
                "xn": "864;881;881;864", 
                "yn": "490;490;498;498"
            }, 
            {
                "class": "Wall", 
                "xn": "780;801;801;780", 
                "yn": "937;937;946;946"
            }, 
            {
                "class": "Wall", 
                "xn": "465;494;494;465", 
                "yn": "775;775;789;789"
            }, 
            {
                "class": "Wall", 
                "xn": "788;807;807;788", 
                "yn": "724;724;734;734"
            }, 
            {
                "class": "Wall", 
                "xn": "93;107;107;93", 
                "yn": "749;749;787;787"
            }, 
            {
                "class": "Wall", 
                "xn": "480;493;493;480", 
                "yn": "252;252;271;271"
            }, 
            {
                "class": "Wall", 
                "xn": "477;500;500;477", 
                "yn": "802;802;808;808"
            }, 
            {
                "class": "Wall", 
                "xn": "323;330;330;323", 
                "yn": "776;776;799;799"
            }, 
            {
                "class": "Wall", 
                "xn": "873;880;880;873", 
                "yn": "719;719;787;787"
            }, 
            {
                "class": "Wall", 
                "xn": "789;796;796;789", 
                "yn": "252;252;503;503"
            }, 
            {
                "class": "Wall", 
                "xn": "562;566;566;562", 
                "yn": "1200;1200;1588;1588"
            }, 
            {
                "class": "Wall", 
                "xn": "873;880;880;873", 
                "yn": "490;490;663;663"
            }, 
            {
                "class": "Wall", 
                "xn": "546;562;562;546", 
                "yn": "802;802;808;808"
            }, 
            {
                "class": "Wall", 
                "xn": "323;330;330;323", 
                "yn": "847;847;863;863"
            }, 
            {
                "class": "Wall", 
                "xn": "559;566;566;559", 
                "yn": "1589;1589;1640;1640"
            }, 
            {
                "class": "Wall", 
                "xn": "558;742;742;558", 
                "yn": "1633;1633;1640;1640"
            }, 
            {
                "class": "Wall", 
                "xn": "747;751;751;747", 
                "yn": "945;945;949;949"
            }, 
            {
                "class": "Wall", 
                "xn": "797;872;872;797", 
                "yn": "742;742;738;738"
            }, 
            {
                "class": "Wall", 
                "xn": "797;872;872;797", 
                "yn": "742;742;738;738"
            }, 
            {
                "class": "Stair", 
                "xn": "479;480;579;580;580;579;480;479", 
                "yn": "863;862;862;863;933;934;934;933"
            }, 
            {
                "class": "Text", 
                "height": 52, 
                "width": 93, 
                "x": 243, 
                "y": 531, 
                "text": "greatroom"
            }, 
            {
                "class": "Text", 
                "height": 15, 
                "width": 28, 
                "x": 936, 
                "y": 558, 
                "text": "wc"
            }, 
            {
                "class": "Text", 
                "height": 44, 
                "width": 64, 
                "x": 920, 
                "y": 664, 
                "text": "eat"
            }, 
            {
                "class": "Text", 
                "height": 22, 
                "width": 128, 
                "x": 577, 
                "y": 732, 
                "text": "kitchen"
            }, 
            {
                "class": "Text", 
                "height": 15, 
                "width": 45, 
                "x": 812, 
                "y": 752, 
                "text": "linen"
            }, 
            {
                "class": "Text", 
                "height": 19, 
                "width": 88, 
                "x": 132, 
                "y": 834, 
                "text": "porch"
            }, 
            {
                "class": "Text", 
                "height": 19, 
                "width": 22, 
                "x": 452, 
                "y": 891, 
                "text": "up"
            }, 
            {
                "class": "Text", 
                "height": 19, 
                "width": 85, 
                "x": 344, 
                "y": 910, 
                "text": "foyer"
            }, 
            {
                "class": "Text", 
                "height": 16, 
                "width": 44, 
                "x": 660, 
                "y": 977, 
                "text": "store"
            }, 
            {
                "class": "Text", 
                "height": 22, 
                "width": 224, 
                "x": 702, 
                "y": 1337, 
                "text": "cargarage"
            }, 
            {
                "class": "Unknown", 
                "xn": "742;742;1067;1056", 
                "yn": "1633;1640;862;862"
            }, 
            {
                "class": "Unknown", 
                "xn": "478;559;559;478", 
                "yn": "809;809;850;850"
            }, 
            {
                "class": "Unknown", 
                "xn": "257;338;338;257", 
                "yn": "800;800;841;841"
            }
        ], 
        "class": "image", 
        "filename": "85.png"
    }
]