contour_details : [860 1630],[860 1729],[1044 1729],[1044 1630]
contour_details : [1460 1620],[1460 1679],[1459 1680],[1410 1680],[1409 1679],[1409 1625],[1050 1625],[1050 1724],[1399 1724],[1400 1725],[1400 2194],[1499 2194],[1499 1720],[1500 1719],[1754 1719],[1754 1620]
contour_details : [1200 1480],[1200 1579],[1304 1579],[1304 1480]
contour_details : [1145 1090],[1145 1194],[1244 1194],[1244 1090]
