contour_details : [1460 1680],[1460 2189],[1759 2189],[1759 2122],[1758 2121],[1758 2022],[1757 2021],[1757 1922],[1756 1921],[1756 1822],[1755 1821],[1755 1722],[1754 1721],[1754 1690],[1746 1690],[1745 1689],[1717 1689],[1716 1688],[1687 1688],[1686 1687],[1658 1687],[1657 1686],[1628 1686],[1627 1685],[1599 1685],[1598 1684],[1569 1684],[1568 1683],[1540 1683],[1539 1682],[1510 1682],[1509 1681],[1481 1681],[1480 1680] : repas : [1631,2045]
contour_details : [860 1680],[860 1683],[861 1684],[861 1688],[862 1689],[862 1693],[863 1694],[863 1698],[864 1699],[864 1703],[865 1704],[874 1704],[880 1710],[880 1719],[865 1734],[865 1735],[864 1736],[864 1739],[863 1740],[863 1743],[862 1744],[862 1747],[861 1748],[861 1751],[860 1752],[860 1754],[885 1754],[886 1753],[922 1753],[923 1752],[959 1752],[960 1751],[996 1751],[997 1750],[1033 1750],[1034 1749],[1044 1749],[1044 1680] : placard : [970,1734]
contour_details : [1320 1605],[1320 1679],[1319 1680],[1060 1680],[1060 1764],[1059 1765],[860 1765],[860 2194],[1444 2194],[1444 1610],[1425 1610],[1425 1683],[1424 1684],[1423 1683],[1422 1683],[1414 1675],[1413 1675],[1405 1667],[1404 1667],[1396 1659],[1395 1659],[1387 1651],[1386 1651],[1378 1643],[1377 1643],[1369 1635],[1368 1635],[1360 1627],[1359 1627],[1351 1619],[1350 1619],[1342 1611],[1341 1611],[1335 1605] : sejour : [1193,2034]
contour_details : [865 1535],[865 1542],[864 1543],[864 1568],[863 1569],[863 1594],[862 1595],[862 1620],[861 1621],[861 1646],[860 1647],[860 1664],[1309 1664],[1309 1535] : hall : [1068,1604]
contour_details : [1460 1425],[1460 1669],[1477 1669],[1478 1670],[1537 1670],[1538 1671],[1597 1671],[1598 1672],[1657 1672],[1658 1673],[1717 1673],[1718 1674],[1759 1674],[1759 1425] : cuisine : [1619,1573]
contour_details : [865 1095],[865 1519],[1189 1519],[1189 1095] : chambre : [1022,1273]
contour_details : [1200 1090],[1200 1529],[1309 1529],[1309 1200],[1310 1199],[1564 1199],[1564 1090] : degt : [1255,1448]
