contour_details : [1743 1728],[1742 1729],[1661 1729],[1660 1730],[1579 1730],[1578 1731],[1497 1731],[1496 1732],[1471 1732],[1471 1887],[1778 1887],[1778 1844],[1779 1843],[1798 1843],[1798 1728] : hall : [1564,1798]
contour_details : [682 1564],[682 1933],[1459 1933],[1459 1764],[1460 1763],[1460 1579],[1461 1578],[1461 1564] : sejour : [997,1706]
contour_details : [1473 1310],[1473 1713],[1505 1713],[1506 1714],[1616 1714],[1617 1715],[1727 1715],[1728 1716],[1838 1716],[1839 1717],[1916 1717],[1916 1310] : cuisine : [1690,1511]
contour_details : [686 1116],[686 1547],[775 1547],[776 1546],[904 1546],[905 1545],[1033 1545],[1034 1544],[1161 1544],[1162 1543],[1290 1543],[1291 1542],[1418 1542],[1419 1541],[1457 1541],[1457 1288],[1458 1287],[1581 1287],[1581 1116] : repas : [1219,1322]
