contour_details : [1254 2170],[1253 2171],[1248 2171],[1247 2172],[1242 2172],[1241 2173],[1237 2173],[1236 2174],[1231 2174],[1230 2175],[1225 2175],[1224 2176],[1219 2176],[1218 2177],[1214 2177],[1213 2178],[1208 2178],[1207 2179],[1202 2179],[1201 2180],[1196 2180],[1195 2181],[1191 2181],[1190 2182],[1185 2182],[1184 2183],[1179 2183],[1178 2184],[1173 2184],[1172 2185],[1168 2185],[1167 2186],[1162 2186],[1161 2187],[1156 2187],[1155 2188],[1150 2188],[1149 2189],[1145 2189],[1144 2190],[1139 2190],[1138 2191],[1133 2191],[1132 2192],[1127 2192],[1126 2193],[1122 2193],[1121 2194],[1116 2194],[1115 2195],[1110 2195],[1109 2196],[1104 2196],[1103 2197],[1098 2197],[1097 2198],[1093 2198],[1092 2199],[1087 2199],[1086 2200],[1081 2200],[1080 2201],[1075 2201],[1074 2202],[1070 2202],[1069 2203],[1064 2203],[1063 2204],[1058 2204],[1057 2205],[1052 2205],[1051 2206],[1047 2206],[1046 2207],[1041 2207],[1040 2208],[1035 2208],[1034 2209],[1029 2209],[1028 2210],[1024 2210],[1023 2211],[1018 2211],[1017 2212],[1012 2212],[1011 2213],[1006 2213],[1005 2214],[1001 2214],[1000 2215],[995 2215],[994 2216],[989 2216],[988 2217],[983 2217],[982 2218],[977 2218],[976 2219],[972 2219],[971 2220],[966 2220],[965 2221],[960 2221],[959 2222],[954 2222],[953 2223],[949 2223],[948 2224],[943 2224],[942 2225],[937 2225],[936 2226],[931 2226],[930 2227],[926 2227],[925 2228],[920 2228],[919 2229],[914 2229],[913 2230],[908 2230],[907 2231],[903 2231],[902 2232],[897 2232],[896 2233],[891 2233],[890 2234],[885 2234],[884 2235],[880 2235],[879 2236],[874 2236],[873 2237],[872 2237],[872 2536],[1251 2536],[1251 2518],[1252 2517],[1252 2456],[1253 2455],[1253 2395],[1254 2394],[1254 2334],[1255 2333],[1255 2273],[1256 2272],[1256 2212],[1257 2211],[1257 2170] : repas : [1089,2314]
contour_details : [1288 2102],[1288 2534],[1739 2534],[1739 2198],[1514 2198],[1513 2197],[1513 2104],[1480 2104],[1479 2103],[1367 2103],[1366 2102] : cuisine : [1491,2295]
contour_details : [379 1745],[379 2206],[524 2206],[525 2207],[873 2207],[874 2206],[878 2206],[879 2205],[883 2205],[884 2204],[888 2204],[889 2203],[894 2203],[895 2202],[899 2202],[900 2201],[904 2201],[905 2200],[909 2200],[910 2199],[915 2199],[916 2198],[920 2198],[921 2197],[925 2197],[926 2196],[930 2196],[931 2195],[935 2195],[936 2194],[941 2194],[942 2193],[946 2193],[947 2192],[951 2192],[952 2191],[956 2191],[957 2190],[962 2190],[963 2189],[967 2189],[968 2188],[972 2188],[973 2187],[977 2187],[978 2186],[982 2186],[983 2185],[988 2185],[989 2184],[993 2184],[994 2183],[998 2183],[999 2182],[1003 2182],[1004 2181],[1009 2181],[1010 2180],[1014 2180],[1015 2179],[1019 2179],[1020 2178],[1024 2178],[1025 2177],[1030 2177],[1031 2176],[1035 2176],[1036 2175],[1040 2175],[1041 2174],[1045 2174],[1046 2173],[1050 2173],[1051 2172],[1056 2172],[1057 2171],[1061 2171],[1062 2170],[1066 2170],[1067 2169],[1071 2169],[1072 2168],[1077 2168],[1078 2167],[1082 2167],[1083 2166],[1087 2166],[1088 2165],[1092 2165],[1093 2164],[1098 2164],[1099 2163],[1103 2163],[1104 2162],[1108 2162],[1109 2161],[1113 2161],[1114 2160],[1118 2160],[1119 2159],[1124 2159],[1125 2158],[1129 2158],[1130 2157],[1134 2157],[1135 2156],[1139 2156],[1140 2155],[1145 2155],[1146 2154],[1150 2154],[1151 2153],[1155 2153],[1156 2152],[1160 2152],[1161 2151],[1166 2151],[1167 2150],[1171 2150],[1172 2149],[1176 2149],[1177 2148],[1181 2148],[1182 2147],[1186 2147],[1187 2146],[1192 2146],[1193 2145],[1197 2145],[1198 2144],[1202 2144],[1203 2143],[1207 2143],[1208 2142],[1213 2142],[1214 2141],[1218 2141],[1219 2140],[1223 2140],[1224 2139],[1228 2139],[1229 2138],[1234 2138],[1235 2137],[1239 2137],[1240 2136],[1244 2136],[1245 2135],[1249 2135],[1250 2134],[1254 2134],[1255 2133],[1256 2133],[1256 2040],[1255 2039],[1255 1979],[1254 1978],[1254 1918],[1253 1917],[1253 1883],[1254 1882],[1254 1831],[1255 1830],[1255 1780],[1256 1779],[1256 1745] : sejour : [925,2001]
contour_details : [1280 1486],[1280 1551],[1279 1552],[1279 1757],[1278 1758],[1278 2079],[1504 2079],[1504 2062],[1505 2061],[1505 2005],[1506 2004],[1506 1949],[1507 1948],[1507 1892],[1508 1891],[1508 1836],[1509 1835],[1509 1779],[1510 1778],[1510 1723],[1511 1722],[1511 1666],[1512 1665],[1512 1610],[1513 1609],[1513 1486] : hall : [1401,1817]
contour_details : [1525 1462],[1525 1560],[1573 1560],[1574 1561],[1739 1561],[1740 1562],[1855 1562],[1855 1462] : degt : [1620,1516]
