contour_details : [920 1635],[920 1734],[1374 1734],[1374 1635]
contour_details : [770 1625],[770 1724],[889 1724],[889 1625]
contour_details : [909 1310],[909 1409],[1259 1409],[1259 1310]
contour_details : [765 1305],[765 1359],[764 1360],[705 1360],[705 1454],[804 1454],[804 1405],[805 1404],[889 1404],[889 1305]
