contour_details : [606 1913],[606 2012],[871 2012],[872 2013],[872 2300],[971 2300],[971 1975],[918 1975],[917 1974],[917 1913]
contour_details : [926 1751],[926 1850],[1148 1850],[1148 1751]
contour_details : [1241 1645],[1241 1744],[1334 1744],[1334 1645]
