contour_details : [1470 1815],[1470 2198],[1844 2198],[1844 2113],[1843 2112],[1843 1986],[1842 1985],[1842 1859],[1841 1858],[1841 1818],[1804 1818],[1803 1817],[1680 1817],[1679 1816],[1556 1816],[1555 1815] : repas : [1663,2004]
contour_details : [1072 1605],[1072 2203],[1459 2203],[1459 1605] : salon : [1277,1749]
contour_details : [1470 1483],[1470 1802],[1842 1802],[1842 1700],[1843 1699],[1843 1483] : cuisine : [1658,1610]
contour_details : [1315 1415],[1316 1416],[1316 1417],[1317 1418],[1317 1419],[1318 1420],[1318 1421],[1319 1422],[1319 1423],[1321 1425],[1321 1426],[1322 1427],[1322 1428],[1323 1429],[1323 1430],[1324 1431],[1324 1432],[1325 1433],[1325 1434],[1327 1436],[1326 1437],[1284 1437],[1284 1477],[1283 1478],[1075 1478],[1075 1489],[1074 1490],[1074 1527],[1073 1528],[1073 1566],[1072 1567],[1072 1592],[1457 1592],[1457 1575],[1458 1574],[1458 1518],[1459 1517],[1459 1479],[1392 1479],[1392 1482],[1393 1483],[1393 1488],[1394 1489],[1394 1493],[1395 1494],[1395 1495],[1394 1496],[1385 1496],[1384 1495],[1384 1415] : hall : [1140,1536]
contour_details : [1074 1150],[1074 1244],[1181 1244],[1182 1245],[1182 1267],[1181 1268],[1181 1338],[1180 1339],[1180 1409],[1179 1410],[1179 1457],[1274 1457],[1274 1247],[1275 1246],[1379 1246],[1379 1150] : degt : [1316,1185]
