contour_details : [1491 1603],[1491 1706],[1490 1707],[1388 1707],[1387 1708],[1240 1708],[1239 1709],[1195 1709],[1195 1806],[1486 1806],[1487 1807],[1487 1813],[1488 1814],[1488 1816],[1487 1817],[1482 1817],[1481 1816],[1462 1816],[1461 1815],[1441 1815],[1440 1814],[1421 1814],[1420 1813],[1407 1813],[1407 1910],[1586 1910],[1586 1603] : degt : [1512,1789]
contour_details : [389 1461],[389 1606],[388 1607],[388 1911],[756 1911],[756 1461] : sejour : [646,1684]
contour_details : [1494 1416],[1494 1470],[1493 1471],[1493 1584],[1585 1584],[1585 1416] : wc : [1552,1541]
contour_details : [1228 1416],[1228 1606],[1229 1607],[1229 1698],[1482 1698],[1482 1416] : bains : [1367,1558]
contour_details : [389 1092],[389 1202],[388 1203],[388 1435],[756 1435],[756 1092] : repas : [656,1300]
contour_details : [769 1091],[769 1546],[1181 1546],[1181 1091] : cuisine : [940,1320]
