[
    {
        "annotations": [
            {
                "class": "Room", 
                "type": "UN", 
                "xn": "319;681;681;319", 
                "yn": "911;911;1303;1303", 
                "text": "bedroom", 
                "x": 520, 
                "y": 1077
            }, 
            {
                "class": "Room", 
                "type": "UN", 
                "xn": "690;839;839;690", 
                "yn": "914;914;1152;1152", 
                "text": "storage", 
                "x": 783, 
                "y": 1055
            }, 
            {
                "class": "Room", 
                "type": "UN", 
                "xn": "852;1126;1126;852", 
                "yn": "909;909;1151;1151", 
                "text": "balcony/ patio", 
                "x": 1034, 
                "y": 1006
            }, 
            {
                "class": "Room", 
                "type": "UN", 
                "xn": "40;223;223;40", 
                "yn": "36;36;370;370", 
                "text": "bath", 
                "x": 159, 
                "y": 265
            }, 
            {
                "class": "Room", 
                "type": "UN", 
                "xn": "225;559;559;225", 
                "yn": "31;31;118;118", 
                "text": "w", 
                "x": 282, 
                "y": 73
            }, 
            {
                "class": "Room", 
                "type": "UN", 
                "xn": "227;225;402;498;564;568;494;507;564;562;483;498;1124;1127;1033;1033;1186;1184;571;571;398", 
                "yn": "119;274;276;377;377;649;677;737;756;779;781;894;911;381;383;368;372;31;40;296;125", 
                "text": "dn", 
                "x": 939, 
                "y": 321
            }, 
            {
                "class": "Room", 
                "type": "UN", 
                "xn": "38;319;409;498;466;466;498;494;40", 
                "yn": "387;381;289;372;409;794;796;835;843", 
                "text": "bedroom", 
                "x": 254, 
                "y": 546
            }
        ], 
        "class": "image", 
        "filename": "117.png"
    }
]