[
    {
        "annotations": [
            {
                "class": "Window",
                "xn": "1818;1850;1850;1818",
                "yn": "1553;1553;1760;1760"
            },
            {
                "class": "Window",
                "xn": "448;480;480;448",
                "yn": "1597;1597;1773;1773"
            },
            {
                "class": "Window",
                "xn": "1818;1850;1850;1818",
                "yn": "1032;1032;1320;1320"
            },
            {
                "class": "Window",
                "xn": "1451;1725;1725;1451",
                "yn": "428;428;458;458"
            },
            {
                "class": "Window",
                "xn": "1818;1850;1850;1818",
                "yn": "1452;1452;1760;1760"
            },
            {
                "class": "Window",
                "xn": "1818;1850;1850;1818",
                "yn": "1032;1032;1239;1239"
            },
            {
                "class": "Window",
                "xn": "1818;1850;1850;1818",
                "yn": "593;593;800;800"
            },
            {
                "class": "Window",
                "xn": "1818;1850;1850;1818",
                "yn": "957;957;1239;1239"
            },
            {
                "class": "Window",
                "xn": "588;792;792;588",
                "yn": "99;99;130;130"
            },
            {
                "class": "Window",
                "xn": "1081;1355;1355;1081",
                "yn": "428;428;458;458"
            },
            {
                "class": "Window",
                "xn": "1561;1657;1657;1561",
                "yn": "2649;2649;2680;2680"
            },
            {
                "class": "Window",
                "xn": "1819;1850;1850;1819",
                "yn": "1862;1862;1952;1952"
            },
            {
                "class": "Window",
                "xn": "1383;1478;1478;1383",
                "yn": "2649;2649;2680;2680"
            },
            {
                "class": "Window",
                "xn": "1819;1850;1850;1819",
                "yn": "1882;1882;1952;1952"
            },
            {
                "class": "Window",
                "xn": "449;479;479;449",
                "yn": "895;895;1101;1101"
            },
            {
                "class": "Window",
                "xn": "449;480;480;449",
                "yn": "724;724;794;794"
            },
            {
                "class": "Window",
                "xn": "1818;1850;1850;1818",
                "yn": "1882;1882;2074;2074"
            },
            {
                "class": "Window",
                "xn": "986;1314;1314;986",
                "yn": "2663;2663;2680;2680"
            },
            {
                "class": "Window",
                "xn": "449;479;479;449",
                "yn": "1306;1306;1513;1513"
            },
            {
                "class": "Window",
                "xn": "985;1313;1313;985",
                "yn": "2648;2648;2680;2680"
            },
            {
                "class": "Window",
                "xn": "986;1313;1313;986",
                "yn": "2663;2663;2680;2680"
            },
            {
                "class": "Wall",
                "xn": "299;329;329;299",
                "yn": "1773;1773;2515;2515"
            },
            {
                "class": "Wall",
                "xn": "1819;1850;1850;1819",
                "yn": "1239;1239;1554;1554"
            },
            {
                "class": "Wall",
                "xn": "1818;1850;1850;1818",
                "yn": "429;429;594;594"
            },
            {
                "class": "Wall",
                "xn": "1820;1850;1850;1820",
                "yn": "1952;1952;2611;2611"
            },
            {
                "class": "Wall",
                "xn": "1696;1728;1728;1696",
                "yn": "2581;2581;2680;2680"
            },
            {
                "class": "Wall",
                "xn": "1819;1850;1850;1819",
                "yn": "800;800;1033;1033"
            },
            {
                "class": "Wall",
                "xn": "1314;1344;1344;1314",
                "yn": "2581;2581;2680;2680"
            },
            {
                "class": "Wall",
                "xn": "956;986;986;956",
                "yn": "100;100;458;458"
            },
            {
                "class": "Wall",
                "xn": "1819;1850;1850;1819",
                "yn": "1760;1760;1883;1883"
            },
            {
                "class": "Wall",
                "xn": "1190;1345;1345;1190",
                "yn": "2581;2581;2611;2611"
            },
            {
                "class": "Wall",
                "xn": "1696;1851;1851;1696",
                "yn": "2581;2581;2611;2611"
            },
            {
                "class": "Wall",
                "xn": "958;989;989;958",
                "yn": "2307;2307;2515;2515"
            },
            {
                "class": "Wall",
                "xn": "1478;1562;1562;1478",
                "yn": "2650;2650;2680;2680"
            },
            {
                "class": "Wall",
                "xn": "1313;1384;1384;1313",
                "yn": "2649;2649;2680;2680"
            },
            {
                "class": "Wall",
                "xn": "1657;1728;1728;1657",
                "yn": "2649;2649;2680;2680"
            },
            {
                "class": "Wall",
                "xn": "1186;1217;1217;1186",
                "yn": "2307;2307;2611;2611"
            },
            {
                "class": "Wall",
                "xn": "450;479;479;450",
                "yn": "100;100;512;512"
            },
            {
                "class": "Wall",
                "xn": "792;987;987;792",
                "yn": "100;100;130;130"
            },
            {
                "class": "Wall",
                "xn": "955;1082;1082;955",
                "yn": "428;428;458;458"
            },
            {
                "class": "Wall",
                "xn": "450;480;480;450",
                "yn": "677;677;725;725"
            },
            {
                "class": "Wall",
                "xn": "450;479;479;450",
                "yn": "1101;1101;1307;1307"
            },
            {
                "class": "Wall",
                "xn": "1355;1452;1452;1355",
                "yn": "429;429;458;458"
            },
            {
                "class": "Wall",
                "xn": "1725;1851;1851;1725",
                "yn": "429;429;459;459"
            },
            {
                "class": "Wall",
                "xn": "449;589;589;449",
                "yn": "100;100;130;130"
            },
            {
                "class": "Wall",
                "xn": "339;369;369;339",
                "yn": "2486;2486;2611;2611"
            },
            {
                "class": "Wall",
                "xn": "438;480;480;438",
                "yn": "1773;1773;1802;1802"
            },
            {
                "class": "Wall",
                "xn": "450;480;480;450",
                "yn": "794;794;896;896"
            },
            {
                "class": "Wall",
                "xn": "450;480;480;450",
                "yn": "1513;1513;1609;1609"
            },
            {
                "class": "Wall",
                "xn": "915;987;987;915",
                "yn": "2484;2484;2515;2515"
            },
            {
                "class": "Wall",
                "xn": "955;1038;1038;955",
                "yn": "946;946;968;968"
            },
            {
                "class": "Wall",
                "xn": "299;314;314;299",
                "yn": "1773;1773;2611;2611"
            },
            {
                "class": "Wall",
                "xn": "971;986;986;971",
                "yn": "2568;2568;2680;2680"
            },
            {
                "class": "Wall",
                "xn": "929;987;987;929",
                "yn": "2568;2568;2584;2584"
            },
            {
                "class": "Wall",
                "xn": "930;945;945;930",
                "yn": "2568;2568;2680;2680"
            },
            {
                "class": "Wall",
                "xn": "298;356;356;298",
                "yn": "2595;2595;2611;2611"
            },
            {
                "class": "Wall",
                "xn": "929;987;987;929",
                "yn": "2664;2664;2680;2680"
            },
            {
                "class": "Wall",
                "xn": "956;969;969;956",
                "yn": "1790;1790;2515;2515"
            },
            {
                "class": "Wall",
                "xn": "1145;1851;1851;1145",
                "yn": "1440;1440;1453;1453"
            },
            {
                "class": "Wall",
                "xn": "1207;1851;1851;1207",
                "yn": "2074;2074;2087;2087"
            },
            {
                "class": "Wall",
                "xn": "1145;1158;1158;1145",
                "yn": "1441;1441;1514;1514"
            },
            {
                "class": "Wall",
                "xn": "449;852;852;449",
                "yn": "470;470;483;483"
            },
            {
                "class": "Wall",
                "xn": "1522;1640;1640;1522",
                "yn": "1259;1259;1273;1273"
            },
            {
                "class": "Wall",
                "xn": "956;970;970;956",
                "yn": "1092;1092;1665;1665"
            },
            {
                "class": "Wall",
                "xn": "956;969;969;956",
                "yn": "100;100;968;968"
            },
            {
                "class": "Wall",
                "xn": "1627;1640;1640;1627",
                "yn": "1259;1259;1332;1332"
            },
            {
                "class": "Wall",
                "xn": "449;970;970;449",
                "yn": "1585;1585;1598;1598"
            },
            {
                "class": "Wall",
                "xn": "887;970;970;887",
                "yn": "1356;1356;1369;1369"
            },
            {
                "class": "Wall",
                "xn": "831;844;844;831",
                "yn": "1224;1224;1243;1243"
            },
            {
                "class": "Wall",
                "xn": "449;510;510;449",
                "yn": "1162;1162;1176;1176"
            },
            {
                "class": "Wall",
                "xn": "677;720;720;677",
                "yn": "1163;1163;1176;1176"
            },
            {
                "class": "Wall",
                "xn": "887;987;987;887",
                "yn": "345;345;359;359"
            },
            {
                "class": "Wall",
                "xn": "1145;1221;1221;1145",
                "yn": "1501;1501;1514;1514"
            },
            {
                "class": "Wall",
                "xn": "887;900;900;887",
                "yn": "1561;1561;1596;1596"
            },
            {
                "class": "Wall",
                "xn": "1728;1851;1851;1728",
                "yn": "1320;1320;1333;1333"
            },
            {
                "class": "Wall",
                "xn": "1745;1851;1851;1745",
                "yn": "945;945;958;958"
            },
            {
                "class": "Wall",
                "xn": "955;993;993;955",
                "yn": "2308;2308;2336;2336"
            },
            {
                "class": "Wall",
                "xn": "949;970;970;949",
                "yn": "1652;1652;1665;1665"
            },
            {
                "class": "Wall",
                "xn": "948;970;970;948",
                "yn": "1231;1231;1244;1244"
            },
            {
                "class": "Wall",
                "xn": "947;970;970;947",
                "yn": "1790;1790;1803;1803"
            },
            {
                "class": "Wall",
                "xn": "449;845;845;449",
                "yn": "805;805;821;821"
            },
            {
                "class": "Wall",
                "xn": "1180;1221;1221;1180",
                "yn": "2306;2306;2324;2324"
            },
            {
                "class": "Wall",
                "xn": "761;782;782;761",
                "yn": "1652;1652;1666;1666"
            },
            {
                "class": "Wall",
                "xn": "298;344;344;298",
                "yn": "1773;1773;1803;1803"
            },
            {
                "class": "Wall",
                "xn": "298;370;370;298",
                "yn": "2485;2485;2516;2516"
            },
            {
                "class": "Wall",
                "xn": "1490;1851;1851;1490",
                "yn": "1851;1851;1863;1863"
            },
            {
                "class": "Wall",
                "xn": "1208;1220;1220;1208",
                "yn": "2211;2211;2611;2611"
            },
            {
                "class": "Wall",
                "xn": "888;900;900;888",
                "yn": "100;100;153;153"
            },
            {
                "class": "Wall",
                "xn": "449;739;739;449",
                "yn": "697;697;709;709"
            },
            {
                "class": "Wall",
                "xn": "449;852;852;449",
                "yn": "1232;1232;1243;1243"
            },
            {
                "class": "Wall",
                "xn": "984;991;991;984",
                "yn": "2527;2527;2568;2568"
            },
            {
                "class": "Wall",
                "xn": "1208;1220;1220;1208",
                "yn": "1441;1441;1746;1746"
            },
            {
                "class": "Wall",
                "xn": "1523;1535;1535;1523",
                "yn": "1259;1259;1453;1453"
            },
            {
                "class": "Wall",
                "xn": "1277;1288;1288;1277",
                "yn": "1851;1851;2087;2087"
            },
            {
                "class": "Wall",
                "xn": "1491;1503;1503;1491",
                "yn": "1953;1953;2087;2087"
            },
            {
                "class": "Wall",
                "xn": "832;844;844;832",
                "yn": "470;470;708;708"
            },
            {
                "class": "Wall",
                "xn": "762;774;774;762",
                "yn": "1585;1585;1685;1685"
            },
            {
                "class": "Wall",
                "xn": "707;719;719;707",
                "yn": "1163;1163;1243;1243"
            },
            {
                "class": "Wall",
                "xn": "832;844;844;832",
                "yn": "810;810;1126;1126"
            },
            {
                "class": "Wall",
                "xn": "1207;1403;1403;1207",
                "yn": "1851;1851;1863;1863"
            },
            {
                "class": "Wall",
                "xn": "1208;1220;1220;1208",
                "yn": "1844;1844;1884;1884"
            },
            {
                "class": "Wall",
                "xn": "438;851;851;438",
                "yn": "1790;1790;1802;1802"
            },
            {
                "class": "Text",
                "height": 47,
                "text": "alfresco",
                "width": 309,
                "x": 1271,
                "y": 222
            },
            {
                "class": "Text",
                "height": 45,
                "text": "bed 4",
                "width": 172,
                "x": 605,
                "y": 252
            },
            {
                "class": "Text",
                "height": 45,
                "text": "family",
                "width": 222,
                "x": 1069,
                "y": 659
            },
            {
                "class": "Text",
                "height": 47,
                "text": "wc",
                "width": 100,
                "x": 564,
                "y": 733
            },
            {
                "class": "Text",
                "height": 46,
                "text": "bed 3",
                "width": 173,
                "x": 565,
                "y": 904
            },
            {
                "class": "Text",
                "height": 46,
                "text": "meals",
                "width": 205,
                "x": 1181,
                "y": 1139
            },
            {
                "class": "Text",
                "height": 45,
                "text": "bed 2",
                "width": 172,
                "x": 574,
                "y": 1363
            },
            {
                "class": "Text",
                "height": 93,
                "text": "wic",
                "width": 128,
                "x": 1553,
                "y": 1335
            },
            {
                "class": "Text",
                "height": 45,
                "text": "bed",
                "width": 162,
                "x": 1437,
                "y": 1581
            },
            {
                "class": "Text",
                "height": 47,
                "text": "garage",
                "width": 255,
                "x": 500,
                "y": 2062
            },
            {
                "class": "Text",
                "height": 58,
                "text": "entry",
                "width": 203,
                "x": 989,
                "y": 2141
            },
            {
                "class": "Text",
                "height": 47,
                "text": "living",
                "width": 191,
                "x": 1441,
                "y": 2328
            },
            {
                "class": "door",
                "height": 166.74608037117275,
                "width": 69.05645752745545,
                "x": 830.3617941715976,
                "y": 154.1138015551748
            },
            {
                "class": "door",
                "height": 108.6464463558184,
                "width": 93.0536693325297,
                "x": 854.0817866304616,
                "y": 375.2326341733359
            },
            {
                "class": "door",
                "height": 98.58156028368921,
                "width": 85.10638297872458,
                "x": 739.0070921985917,
                "y": 611.3475177305049
            },
            {
                "class": "door",
                "height": 86.00000000000125,
                "width": 94.00000000000125,
                "x": 623.0000000000088,
                "y": 716.00000000001
            },
            {
                "class": "door",
                "height": 71.63120567375995,
                "width": 165.24822695035687,
                "x": 512.0567375886596,
                "y": 1104.9645390071075
            },
            {
                "class": "door",
                "height": 96.45390070922122,
                "width": 104.96453900709366,
                "x": 737.5886524822798,
                "y": 1126.2411347517889
            },
            {
                "class": "door",
                "height": 105.67375886524974,
                "width": 95.74468085106525,
                "x": 851.7730496454025,
                "y": 1231.9148936170393
            },
            {
                "class": "door",
                "height": 168.50259041295953,
                "width": 68.40702177958951,
                "x": 830.4411246919292,
                "y": 1391.781097530326
            },
            {
                "class": "Wall",
                "xn": "887.277186691;887.024184927;899.674273132;899.674273132;899.674273132;899.674273132",
                "yn": "1370.00455259;1390.24469372;1391.00369901;1370.00455259;1370.00455259;1370.00455259"
            },
            {
                "class": "door",
                "height": 95.74468085106537,
                "width": 105.67375886524985,
                "x": 668.0851063829889,
                "y": 1685.815602836905
            },
            {
                "class": "door",
                "height": 68.79432624113588,
                "width": 167.3758865248252,
                "x": 780.8510638297992,
                "y": 1652.4822695035712
            },
            {
                "class": "door",
                "height": 105.67375886524974,
                "width": 95.74468085106525,
                "x": 850.354609929091,
                "y": 1790.780141843999
            },
            {
                "class": "door",
                "height": 120.05144406693125,
                "width": 94.36879682873194,
                "x": 344.02801881866833,
                "y": 1773.8944720337586
            },
            {
                "class": "Wall",
                "xn": "761.144005279;761.144005279;774.139515394;773.837294229;773.837294229;773.837294229",
                "yn": "1782.50043404;1789.30041026;1789.30041026;1782.19821288;1782.19821288;1782.19821288"
            },
            {
                "class": "door",
                "height": 124.63848431784663,
                "width": 186.1155745557037,
                "x": 996.2657226217079,
                "y": 2210.6487927996477
            },
            {
                "class": "door",
                "height": 167.58823229224004,
                "width": 67.37215368532247,
                "x": 1151.22167609795,
                "y": 1883.8938474258332
            },
            {
                "class": "door",
                "height": 97.58060459735589,
                "width": 103.61651828379013,
                "x": 1208.188722901282,
                "y": 1746.3910266083476
            },
            {
                "class": "Text",
                "height": 291.53498400000615,
                "text": "passage",
                "width": 56.06442000000118,
                "x": 877.4081730000182,
                "y": 706.4116920000147
            },
            {
                "class": "Text",
                "height": 39.24509400000079,
                "text": "bath",
                "width": 162.5868180000034,
                "x": 591.4796310000123,
                "y": 591.4796310000123
            },
            {
                "class": "Text",
                "height": 55.25131373098861,
                "text": "l'dry",
                "width": 177.47391683287236,
                "x": 503.9589525159867,
                "y": 1677.630798740926
            },
            {
                "class": "Text",
                "height": 49.87223676556005,
                "text": "porch",
                "width": 201.8638154796488,
                "x": 978.4457879719448,
                "y": 2525.672561913018
            },
            {
                "class": "Text",
                "height": 53.754377940417044,
                "text": "ens",
                "width": 120.05144406693194,
                "x": 1594.1159413663734,
                "y": 1923.212188534928
            },
            {
                "class": "Text",
                "height": 53.897722948258206,
                "text": "wir",
                "width": 121.26987663358136,
                "x": 1339.8637064168602,
                "y": 1928.5278992423696
            },
            {
                "class": "Text",
                "height": 269.31000000000586,
                "text": "kitchen",
                "width": 47.94000000000119,
                "x": 1648.290000000036,
                "y": 971.4900000000212
            },
            {
                "class": "Text",
                "height": 48.68480255685654,
                "text": "dining",
                "width": 213.73815756668705,
                "x": 1513.9786160973679,
                "y": 653.0888147870999
            },
            {
                "class": "window",
                "height": 163.8297872340463,
                "width": 30.496453900709923,
                "x": 446.099290780152,
                "y": 512.0567375886641
            },
            {
                "class": "room",
                "height": 345.98760241385537,
                "width": 476.1788136314401,
                "x": 479.745696130552,
                "y": 126.62432871847284
            },
            {
                "class": "room",
                "height": 217.57983244582653,
                "width": 354.90480866163523,
                "x": 479.745696130552,
                "y": 479.7456961305521
            },
            {
                "class": "room",
                "height": 105.22303372380145,
                "width": 233.63080369183018,
                "x": 481.529137380108,
                "y": 706.2427348241583
            },
            {
                "class": "room",
                "height": 413.7583698969818,
                "width": 349.5544849129672,
                "x": 481.529137380108,
                "y": 816.8160922966276
            },
            {
                "class": "room",
                "height": 338.85383741563146,
                "width": 483.312578629664,
                "x": 477.96225488099606,
                "y": 1244.841992190057
            },
            {
                "class": "room",
                "height": 189.04477245293128,
                "width": 287.1340411785088,
                "x": 477.96225488099606,
                "y": 1599.7468008516921
            },
            {
                "class": "room",
                "height": 677.7076748312629,
                "width": 633.1216435923641,
                "x": 324.5863074191839,
                "y": 1801.2756620515152
            },
            {
                "class": "Room",
                "xn": "1819.11007455;1699.61951083;1701.40295208;1346.49814341;1348.28158466;1221.65725595;1219.8738147;1205.6062847;1209.1731672;968.408598509;968.408598509;775.796943557;775.796943557;955.924509762;955.924509762;970.192039758;970.192039758;954.141068512;955.924509762;847.134593539;843.56771104;724.07714732;720.510264821;847.134593539;843.56771104;959.491392261;957.707951012;1050.44689599;1046.88001349;971.975481008;968.408598509;1813.7597508;1822.67695705;1719.23736457;1726.37112957;1817.3266333;1815.54319205;1537.32635712;1535.54291587;1624.71497835;1630.06530209;1647.89971459;1637.19906709;1526.62570962;1524.84226837;1139.61895847;1139.61895847;1205.6062847;1205.6062847;1282.29425843;1282.29425843;1207.38972595;1207.38972595;1820.8935158",
                "yn": "2578.85604686;2580.63948811;2648.41025559;2648.41025559;2578.85604686;2580.63948811;2206.1168257;2209.6837082;2297.07232943;2305.98953568;1787.00813206;1785.22469081;1597.9633596;1601.5302421;1674.65133333;1663.95068584;1084.33227973;1084.33227973;1228.79102094;1228.79102094;804.33200355;807.898886049;706.242734824;709.809617323;476.178813631;476.178813631;968.408598509;968.408598509;934.523214767;936.306656017;449.427194888;461.911283635;1314.39620092;1319.74652467;1339.36437842;1332.23061342;1435.67020589;1437.45364714;1268.02672843;1271.59361093;1332.23061342;1332.23061342;1253.75919844;1255.54263969;1432.10332339;1435.67020589;1519.49194462;1521.27538587;1874.39675328;1869.04642953;2070.57529073;2068.79184948;2083.05937948;2084.84282073"
            },
            {
                "class": "Room",
                "xn": "1219.8738147;1219.8738147;1401.78482215;1405.35170465;1289.42802343;1285.86114093;1490.95688463;1492.74032588;1501.65753213;1505.22441463;1817.3266333;1817.3266333;1483.82311963;1483.82311963;1819.11007455;1819.11007455",
                "yn": "1449.93773589;1849.42857579;1845.86169329;1869.04642953;1863.69610579;2074.14217323;2072.35873198;1945.73440327;1951.08472701;2077.70905573;2074.14217323;1861.91266454;1863.69610579;1845.86169329;1849.42857579;1453.50461839"
            }
        ],
        "class": "image",
        "filename": "13.png"
    }
]
