[
    {
        "annotations": [
            {
                "class": "Window",
                "xn": "1875;2043;2043;1875",
                "yn": "2016;2016;2027;2027"
            },
            {
                "class": "Window",
                "xn": "1134;1161;1161;1134",
                "yn": "893;893;978;978"
            },
            {
                "class": "Window",
                "xn": "1004;1081;1081;1004",
                "yn": "2238;2238;2264;2264"
            },
            {
                "class": "Window",
                "xn": "1863;2043;2043;1863",
                "yn": "2016;2016;2027;2027"
            },
            {
                "class": "Window",
                "xn": "1598;1764;1764;1598",
                "yn": "513;513;539;539"
            },
            {
                "class": "Window",
                "xn": "1134;1161;1161;1134",
                "yn": "1082;1082;1306;1306"
            },
            {
                "class": "Window",
                "xn": "1134;1161;1161;1134",
                "yn": "893;893;972;972"
            },
            {
                "class": "Window",
                "xn": "2100;2232;2232;2100",
                "yn": "513;513;539;539"
            },
            {
                "class": "Window",
                "xn": "2408;2434;2434;2408",
                "yn": "1427;1427;1506;1506"
            },
            {
                "class": "Window",
                "xn": "1888;2021;2021;1888",
                "yn": "513;513;539;539"
            },
            {
                "class": "Window",
                "xn": "1676;1790;1790;1676",
                "yn": "1517;1517;1529;1529"
            },
            {
                "class": "Window",
                "xn": "2406;2434;2434;2406",
                "yn": "1059;1059;1307;1307"
            },
            {
                "class": "Window",
                "xn": "733;981;981;733",
                "yn": "513;513;539;539"
            },
            {
                "class": "Window",
                "xn": "2278;2355;2355;2278",
                "yn": "2238;2238;2264;2264"
            },
            {
                "class": "Window",
                "xn": "2408;2434;2434;2408",
                "yn": "986;986;1228;1228"
            },
            {
                "class": "Window",
                "xn": "848;925;925;848",
                "yn": "2238;2238;2264;2264"
            },
            {
                "class": "Window",
                "xn": "324;457;457;324",
                "yn": "513;513;539;539"
            },
            {
                "class": "Window",
                "xn": "1135;1161;1161;1135",
                "yn": "1494;1494;1662;1662"
            },
            {
                "class": "Window",
                "xn": "2408;2434;2434;2408",
                "yn": "1059;1059;1228;1228"
            },
            {
                "class": "Window",
                "xn": "1135;1161;1161;1135",
                "yn": "1447;1447;1662;1662"
            },
            {
                "class": "Window",
                "xn": "1873;2021;2021;1873",
                "yn": "513;513;539;539"
            },
            {
                "class": "Window",
                "xn": "1134;1161;1161;1134",
                "yn": "887;887;972;972"
            },
            {
                "class": "Window",
                "xn": "1540;1620;1620;1540",
                "yn": "1517;1517;1529;1529"
            },
            {
                "class": "Window",
                "xn": "2408;2434;2434;2408",
                "yn": "1427;1427;1524;1524"
            },
            {
                "class": "Window",
                "xn": "1676;1753;1753;1676",
                "yn": "1517;1517;1529;1529"
            },
            {
                "class": "Window",
                "xn": "2122;2199;2199;2122",
                "yn": "2238;2238;2264;2264"
            },
            {
                "class": "Wall",
                "xn": "1135;1161;1161;1135",
                "yn": "514;514;894;894"
            },
            {
                "class": "Wall",
                "xn": "770;794;794;770",
                "yn": "2017;2017;2264;2264"
            },
            {
                "class": "Wall",
                "xn": "925;1005;1005;925",
                "yn": "2239;2239;2264;2264"
            },
            {
                "class": "Wall",
                "xn": "457;734;734;457",
                "yn": "514;514;539;539"
            },
            {
                "class": "Wall",
                "xn": "1136;1161;1161;1136",
                "yn": "1662;1662;2264;2264"
            },
            {
                "class": "Wall",
                "xn": "45;69;69;45",
                "yn": "1505;1505;2108;2108"
            },
            {
                "class": "Wall",
                "xn": "580;605;605;580",
                "yn": "2017;2017;2108;2108"
            },
            {
                "class": "Wall",
                "xn": "1081;1162;1162;1081",
                "yn": "2238;2238;2264;2264"
            },
            {
                "class": "Wall",
                "xn": "1135;1161;1161;1135",
                "yn": "1306;1306;1495;1495"
            },
            {
                "class": "Wall",
                "xn": "769;849;849;769",
                "yn": "2238;2238;2264;2264"
            },
            {
                "class": "Wall",
                "xn": "1135;1161;1161;1135",
                "yn": "972;972;1083;1083"
            },
            {
                "class": "Wall",
                "xn": "981;1049;1049;981",
                "yn": "514;514;539;539"
            },
            {
                "class": "Wall",
                "xn": "44;103;103;44",
                "yn": "2083;2083;2108;2108"
            },
            {
                "class": "Wall",
                "xn": "212;237;237;212",
                "yn": "1328;1328;1428;1428"
            },
            {
                "class": "Wall",
                "xn": "44;103;103;44",
                "yn": "1505;1505;1530;1530"
            },
            {
                "class": "Wall",
                "xn": "546;605;605;546",
                "yn": "2083;2083;2108;2108"
            },
            {
                "class": "Wall",
                "xn": "515;591;591;515",
                "yn": "1247;1247;1260;1260"
            },
            {
                "class": "Wall",
                "xn": "756;795;795;756",
                "yn": "2017;2017;2029;2029"
            },
            {
                "class": "Wall",
                "xn": "516;529;529;516",
                "yn": "978;978;1132;1132"
            },
            {
                "class": "Wall",
                "xn": "578;590;590;578",
                "yn": "978;978;1265;1265"
            },
            {
                "class": "Wall",
                "xn": "738;749;749;738",
                "yn": "1153;1153;1448;1448"
            },
            {
                "class": "Wall",
                "xn": "511;591;591;511",
                "yn": "1407;1407;1418;1418"
            },
            {
                "class": "Wall",
                "xn": "737;861;861;737",
                "yn": "1401;1401;1412;1412"
            },
            {
                "class": "Wall",
                "xn": "1024;1162;1162;1024",
                "yn": "1403;1403;1414;1414"
            },
            {
                "class": "Wall",
                "xn": "1043;1162;1162;1043",
                "yn": "876;876;888;888"
            },
            {
                "class": "Wall",
                "xn": "515;591;591;515",
                "yn": "1056;1056;1069;1069"
            },
            {
                "class": "Wall",
                "xn": "515;591;591;515",
                "yn": "1120;1120;1132;1132"
            },
            {
                "class": "Wall",
                "xn": "758;795;795;758",
                "yn": "2030;2030;2042;2042"
            },
            {
                "class": "Wall",
                "xn": "2407;2434;2434;2407",
                "yn": "514;514;1060;1060"
            },
            {
                "class": "Wall",
                "xn": "2042;2123;2123;2042",
                "yn": "2238;2238;2264;2264"
            },
            {
                "class": "Wall",
                "xn": "1486;1511;1511;1486",
                "yn": "1172;1172;1518;1518"
            },
            {
                "class": "Wall",
                "xn": "1486;1510;1510;1486",
                "yn": "514;514;915;915"
            },
            {
                "class": "Wall",
                "xn": "2409;2434;2434;2409",
                "yn": "1506;1506;2264;2264"
            },
            {
                "class": "Wall",
                "xn": "2409;2434;2434;2409",
                "yn": "1228;1228;1428;1428"
            },
            {
                "class": "Wall",
                "xn": "2021;2101;2101;2021",
                "yn": "514;514;539;539"
            },
            {
                "class": "Wall",
                "xn": "1485;1599;1599;1485",
                "yn": "514;514;540;540"
            },
            {
                "class": "Wall",
                "xn": "2232;2435;2435;2232",
                "yn": "514;514;539;539"
            },
            {
                "class": "Wall",
                "xn": "2199;2279;2279;2199",
                "yn": "2239;2239;2264;2264"
            },
            {
                "class": "Wall",
                "xn": "2043;2068;2068;2043",
                "yn": "2017;2017;2264;2264"
            },
            {
                "class": "Wall",
                "xn": "2355;2435;2435;2355",
                "yn": "2238;2238;2264;2264"
            },
            {
                "class": "Wall",
                "xn": "1764;1889;1889;1764",
                "yn": "514;514;539;539"
            },
            {
                "class": "Wall",
                "xn": "1851;1864;1864;1851",
                "yn": "1006;1006;1140;1140"
            },
            {
                "class": "Wall",
                "xn": "1788;1802;1802;1788",
                "yn": "1006;1006;1215;1215"
            },
            {
                "class": "Wall",
                "xn": "1499;1541;1541;1499",
                "yn": "1517;1517;1529;1529"
            },
            {
                "class": "Wall",
                "xn": "1485;1865;1865;1485",
                "yn": "1198;1198;1209;1209"
            },
            {
                "class": "Wall",
                "xn": "2291;2435;2435;2291",
                "yn": "1637;1637;1648;1648"
            },
            {
                "class": "Wall",
                "xn": "2011;2087;2087;2011",
                "yn": "1117;1117;1129;1129"
            },
            {
                "class": "Wall",
                "xn": "1485;1612;1612;1485",
                "yn": "845;845;856;856"
            },
            {
                "class": "Wall",
                "xn": "2011;2022;2022;2011",
                "yn": "1638;1638;1740;1740"
            },
            {
                "class": "Wall",
                "xn": "1753;1865;1865;1753",
                "yn": "1517;1517;1529;1529"
            },
            {
                "class": "Wall",
                "xn": "1620;1677;1677;1620",
                "yn": "1518;1518;1529;1529"
            },
            {
                "class": "Wall",
                "xn": "1596;1607;1607;1596",
                "yn": "845;845;919;919"
            },
            {
                "class": "Wall",
                "xn": "1788;1865;1865;1788",
                "yn": "1120;1120;1133;1133"
            },
            {
                "class": "Wall",
                "xn": "1753;1764;1764;1753",
                "yn": "845;845;919;919"
            },
            {
                "class": "Wall",
                "xn": "1789;1865;1865;1789",
                "yn": "1056;1056;1069;1069"
            },
            {
                "class": "Wall",
                "xn": "2113;2180;2180;2113",
                "yn": "1767;1767;1778;1778"
            },
            {
                "class": "Wall",
                "xn": "2011;2093;2093;2011",
                "yn": "978;978;990;990"
            },
            {
                "class": "Wall",
                "xn": "1789;1865;1865;1789",
                "yn": "1300;1300;1311;1311"
            },
            {
                "class": "Wall",
                "xn": "2075;2086;2086;2075",
                "yn": "1295;1295;1317;1317"
            },
            {
                "class": "Wall",
                "xn": "1853;1876;1876;1853",
                "yn": "2016;2016;2027;2027"
            },
            {
                "class": "Wall",
                "xn": "1852;1863;1863;1852",
                "yn": "1189;1189;1209;1209"
            },
            {
                "class": "Wall",
                "xn": "2076;2087;2087;2076",
                "yn": "978;978;1142;1142"
            },
            {
                "class": "Wall",
                "xn": "2113;2435;2435;2113",
                "yn": "1810;1810;1823;1823"
            },
            {
                "class": "Wall",
                "xn": "2011;2029;2029;2011",
                "yn": "1637;1637;1649;1649"
            },
            {
                "class": "Wall",
                "xn": "1125;1162;1162;1125",
                "yn": "516;516;540;540"
            },
            {
                "class": "Wall",
                "xn": "579;590;590;579",
                "yn": "1400;1400;1418;1418"
            },
            {
                "class": "Wall",
                "xn": "737;1162;1162;737",
                "yn": "1438;1438;1448;1448"
            },
            {
                "class": "Wall",
                "xn": "913;1162;1162;913",
                "yn": "978;978;988;988"
            },
            {
                "class": "Wall",
                "xn": "580;590;590;580",
                "yn": "1520;1520;2108;2108"
            },
            {
                "class": "Wall",
                "xn": "516;526;526;516",
                "yn": "1247;1247;1418;1418"
            },
            {
                "class": "Wall",
                "xn": "574;605;605;574",
                "yn": "1091;1091;1096;1096"
            },
            {
                "class": "Wall",
                "xn": "850;860;860;850",
                "yn": "1401;1401;1448;1448"
            },
            {
                "class": "Wall",
                "xn": "1025;1035;1035;1025",
                "yn": "1401;1401;1448;1448"
            },
            {
                "class": "Wall",
                "xn": "2168;2435;2435;2168",
                "yn": "978;978;987;987"
            },
            {
                "class": "Wall",
                "xn": "2327;2435;2435;2327",
                "yn": "1524;1524;1529;1529"
            },
            {
                "class": "Wall",
                "xn": "2011;2435;2435;2011",
                "yn": "1307;1307;1317;1317"
            },
            {
                "class": "Wall",
                "xn": "1785;1865;1865;1785",
                "yn": "1006;1006;1016;1016"
            },
            {
                "class": "Wall",
                "xn": "2012;2022;2022;2012",
                "yn": "1112;1112;1317;1317"
            },
            {
                "class": "Wall",
                "xn": "1853;2023;2023;1853",
                "yn": "1728;1728;1738;1738"
            },
            {
                "class": "Wall",
                "xn": "1854;1864;1864;1854",
                "yn": "1300;1300;2027;2027"
            },
            {
                "class": "Wall",
                "xn": "1790;1800;1800;1790",
                "yn": "1492;1492;1529;1529"
            },
            {
                "class": "Wall",
                "xn": "1595;1764;1764;1595",
                "yn": "909;909;919;919"
            },
            {
                "class": "Wall",
                "xn": "2114;2123;2123;2114",
                "yn": "1745;1745;1823;1823"
            },
            {
                "class": "Wall",
                "xn": "2169;2179;2179;2169",
                "yn": "1767;1767;1823;1823"
            },
            {
                "class": "Wall",
                "xn": "1790;1800;1800;1790",
                "yn": "1295;1295;1337;1337"
            },
            {
                "class": "Wall",
                "xn": "545;591;591;545",
                "yn": "1520;1520;1530;1530"
            },
            {
                "class": "Wall",
                "xn": "2319;2329;2329;2319",
                "yn": "1307;1307;1402;1402"
            },
            {
                "class": "Wall",
                "xn": "2114;2124;2124;2114",
                "yn": "1307;1307;1668;1668"
            },
            {
                "class": "Wall",
                "xn": "2106;2210;2210;2106",
                "yn": "1638;1638;1648;1648"
            },
            {
                "class": "Text",
                "height": 33,
                "text": "familymeals",
                "width": 301,
                "x": 644,
                "y": 718
            },
            {
                "class": "Text",
                "height": 31,
                "text": "ldry",
                "width": 118,
                "x": 304,
                "y": 1233
            },
            {
                "class": "Text",
                "height": 30,
                "text": "pdr",
                "width": 94,
                "x": 268,
                "y": 1435
            },
            {
                "class": "Text",
                "height": 32,
                "text": "garage",
                "width": 170,
                "x": 241,
                "y": 1757
            },
            {
                "class": "Text",
                "height": 30,
                "text": "entry",
                "width": 133,
                "x": 620,
                "y": 1832
            },
            {
                "class": "Text",
                "height": 30,
                "text": "retreat",
                "width": 184,
                "x": 1893,
                "y": 1852
            },
            {
                "class": "Text",
                "height": 32,
                "text": "lounge",
                "width": 168,
                "x": 900,
                "y": 1951
            },
            {
                "class": "Text",
                "height": 30,
                "text": "bed 1",
                "width": 109,
                "x": 2200,
                "y": 2011
            },
            {
                "class": "Text",
                "height": 31,
                "text": "porch",
                "width": 142,
                "x": 609,
                "y": 2137
            },
            {
                "class": "Wall",
                "xn": "320.07;210.09;212.91;234.06;234.06;428.64;430.05;420.18;421.59;235.47;235.47;321.48;321.48;235.47;235.47;325.71",
                "yn": "510.42;514.65;1197.09;1191.45;1184.4;1185.81;1122.36;1119.54;1173.12;1173.12;992.64;989.82;978.54;975.72;538.62;538.62"
            },
            {
                "class": "Wall",
                "xn": "392.19858156;392.907801418;588.65248227;589.361702128",
                "yn": "977.304964539;986.524822695;987.234042553;976.595744681"
            },
            {
                "class": "Wall",
                "xn": "238.908346402;428.840481791;428.243210925;433.618648719;435.410461317;428.840481791;429.437752657;419.881418801;418.686877069;238.908346402",
                "yn": "1342.06763591;1343.26217764;1408.9619729;1408.9619729;1417.9210359;1417.9210359;1447.18730833;1447.7845792;1353.41578237;1352.22124063"
            },
            {
                "class": "Wall",
                "xn": "180.141843972;234.75177305;236.170212766;420.567375887;419.858156028;426.95035461;426.95035461;467.375886525;469.503546099;183.687943262;183.687943262;183.687943262",
                "yn": "1504.96453901;1505.67375887;1519.85815603;1519.14893617;1516.31205674;1514.89361702;1518.43971631;1519.14893617;1529.07801418;1529.07801418;1529.07801418;1529.07801418"
            },
            {
                "class": "Wall",
                "xn": "546.75318143;546.75318143;602.585383029;604.094361451",
                "yn": "2195.56360344;2240.32996328;2239.82697047;2194.55761783"
            },
            {
                "class": "Wall",
                "xn": "558.825008802;559.32800161;591.016548463;591.016548463",
                "yn": "2207.63543081;2228.76112872;2227.7551431;2208.64141643"
            },
            {
                "class": "Wall",
                "xn": "736.884462552;737.387455359;811.830390825;811.830390825;736.884462552;736.381469745;747.447311503;748.453297118;800.764549067;801.770534681;747.447311503;747.447311503",
                "yn": "1651.32538605;1634.2236306;1637.24158745;1739.85212011;1739.34912731;1721.74437906;1721.74437906;1728.28328555;1729.79226397;1646.29545798;1646.29545798;1651.82837885"
            },
            {
                "class": "Wall",
                "xn": "1507.09219858;1485.81560284;1485.10638298;1509.92907801;1508.5106383;1714.89361702;1714.18439716;1712.76595745;1711.34751773;1702.12765957;1701.41843972;1509.92907801",
                "yn": "993.617021277;993.617021277;1039.0070922;1036.87943262;1014.89361702;1013.47517731;1005.67375887;1005.67375887;995.744680851;995.035460993;1004.96453901;1004.96453901"
            },
            {
                "class": "Wall",
                "xn": "1853.57637827;1851.89207443;1847.68131482;1846.8391629;1851.89207443;1852.73422635;1862.8400494;1861.99789748",
                "yn": "540.661533325;844.67837683;845.520528751;853.942047961;853.09989604;916.26129012;916.26129012;541.503685246"
            },
            {
                "class": "window",
                "height": 25.531914893618364,
                "width": 73.0496453900746,
                "x": 1049.6453900709757,
                "y": 511.34751773052267
            },
            {
                "class": "window",
                "height": 131.73846760811898,
                "width": 23.29779973777022,
                "x": 211.79817943427477,
                "y": 1195.3889247270467
            },
            {
                "class": "window",
                "height": 76.34075229887753,
                "width": 26.75493655334489,
                "x": 208.68850511609008,
                "y": 1428.3568794612388
            },
            {
                "class": "Text",
                "height": 186.12000000001046,
                "text": "kitchen",
                "width": 42.30000000000234,
                "x": 336.9900000000189,
                "y": 645.7800000000361
            },
            {
                "class": "Text",
                "height": 36.6600000000019,
                "text": "wtp",
                "width": 95.88000000000534,
                "x": 315.8400000000177,
                "y": 1039.1700000000583
            },
            {
                "class": "Text",
                "height": 43.93506572204274,
                "text": "theatre",
                "width": 188.8020391839134,
                "x": 854.952630266778,
                "y": 1161.3106561123734
            },
            {
                "class": "Text",
                "height": 34.5282287637292,
                "text": "library",
                "width": 181.90481495037818,
                "x": 870.7850863828295,
                "y": 1557.138902052081
            },
            {
                "class": "Text",
                "height": 43.00000000000239,
                "text": "bed 3",
                "width": 125.00000000000705,
                "x": 1595.0000000000907,
                "y": 654.0000000000372
            },
            {
                "class": "window",
                "height": 75.85339998259155,
                "width": 26.877188970209772,
                "x": 1482.4262894235612,
                "y": 916.2135084511455
            },
            {
                "class": "window",
                "height": 131.9968613870294,
                "width": 26.27991810420508,
                "x": 1483.6208311555706,
                "y": 1038.6540359821004
            },
            {
                "class": "Text",
                "height": 37.62806455829343,
                "text": "wc",
                "width": 69.2834204565404,
                "x": 1546.3342720860596,
                "y": 940.7016139573365
            },
            {
                "class": "Text",
                "height": 30.682561239376128,
                "text": "bath",
                "width": 109.65243197022915,
                "x": 1614.606911121265,
                "y": 1070.871686534945
            },
            {
                "class": "Text",
                "height": 35.15992691972133,
                "text": "bed 4",
                "width": 132.26829650752325,
                "x": 1555.4081956391005,
                "y": 1329.3800940123206
            },
            {
                "class": "Text",
                "height": 34.43559205241195,
                "text": "wir",
                "width": 83.12039460927053,
                "x": 2227.6265755284444,
                "y": 1713.4675631596724
            },
            {
                "class": "Text",
                "height": 45.12000000000262,
                "text": "ensuite",
                "width": 174.8400000000106,
                "x": 2195.3700000001304,
                "y": 1460.7600000000868
            },
            {
                "class": "Text",
                "height": 38.07000000000221,
                "text": "bed 2",
                "width": 124.0800000000072,
                "x": 2191.1400000001304,
                "y": 1108.260000000066
            },
            {
                "class": "Text",
                "height": 38.07000000000221,
                "text": "leisure",
                "width": 187.5300000000109,
                "x": 1961.310000000117,
                "y": 706.4100000000421
            },
            {
                "class": "Wall",
                "xn": "1747.5177305;1768.08510638;1768.08510638;1747.5177305",
                "yn": "843.971631206;845.390070922;856.737588653;856.737588653"
            },
            {
                "class": "Wall",
                "xn": "1700.99474036;1702.19643216;1713.01165835;1712.41081245",
                "yn": "920.495917428;927.405645268;926.504376419;920.195494478"
            },
            {
                "class": "Stairs",
                "xn": "1021.0;1021.0;1045.0;1046.0;1080.0;1076.0;1104.0;1099.0;1134.0;1134.0",
                "yn": "540.0;629.0;629.0;654.0;679.0;697.0;678.0;695.0;721.0;542.0"
            },
            {
                "class": "door",
                "height": 57.00000000000341,
                "width": 43.00000000000267,
                "x": 485.00000000003007,
                "y": 1133.0000000000703
            },
            {
                "class": "door",
                "height": 131.00000000000819,
                "width": 45.00000000000273,
                "x": 578.0000000000358,
                "y": 1267.0000000000784
            },
            {
                "class": "door",
                "height": 86.00000000000523,
                "width": 74.0000000000046,
                "x": 437.00000000002706,
                "y": 1331.0000000000825
            },
            {
                "class": "door",
                "height": 68.00000000000409,
                "width": 76.00000000000466,
                "x": 351.00000000002177,
                "y": 1448.0000000000898
            },
            {
                "class": "door",
                "height": 87.00000000000546,
                "width": 78.00000000000483,
                "x": 471.00000000002916,
                "y": 1520.0000000000941
            },
            {
                "class": "door",
                "height": 97.87234042553814,
                "width": 79.43262411348012,
                "x": 101.41843971631836,
                "y": 1505.6737588653418
            },
            {
                "class": "door",
                "height": 89.00000000000568,
                "width": 153.00000000000966,
                "x": 605.000000000038,
                "y": 1941.0000000001219
            },
            {
                "class": "door",
                "height": 69.50354609929514,
                "width": 39.007092198583905,
                "x": 706.3829787234488,
                "y": 1653.1914893618061
            },
            {
                "class": "door",
                "height": 155.31914893618023,
                "width": 62.41134751773461,
                "x": 1736.1702127660683,
                "y": 1338.297872340511
            },
            {
                "class": "door",
                "height": 83.00000000000523,
                "width": 86.00000000000546,
                "x": 1712.0000000001096,
                "y": 1216.0000000000778
            },
            {
                "class": "door",
                "height": 77.46089230924497,
                "width": 68.9100145867958,
                "x": 1716.211458176258,
                "y": 1004.9796287913726
            },
            {
                "class": "door",
                "height": 64.84569792212608,
                "width": 75.79367289599145,
                "x": 1635.4590307112849,
                "y": 928.0514170153634
            },
            {
                "class": "door",
                "height": 55.5820267903938,
                "width": 135.58645929171826,
                "x": 1613.563080763554,
                "y": 797.5178692500447
            },
            {
                "class": "door",
                "height": 84.60000000000548,
                "width": 81.7800000000052,
                "x": 1766.7300000001146,
                "y": 765.6300000000497
            },
            {
                "class": "door",
                "height": 47.160507579728346,
                "width": 33.68607684266294,
                "x": 1851.8920744253958,
                "y": 1141.1158530452074
            },
            {
                "class": "door",
                "height": 114.532661265054,
                "width": 38.73898836906233,
                "x": 1983.267774111782,
                "y": 994.5814187796241
            },
            {
                "class": "door",
                "height": 86.74164786985716,
                "width": 73.26721713279221,
                "x": 2094.4318276925715,
                "y": 978.5805322793599
            },
            {
                "class": "door",
                "height": 146.00000000000978,
                "width": 59.00000000000364,
                "x": 2079.0000000001387,
                "y": 1144.0000000000762
            },
            {
                "class": "door",
                "height": 86.00000000000568,
                "width": 75.000000000005,
                "x": 2029.0000000001355,
                "y": 1637.0000000001094
            },
            {
                "class": "door",
                "height": 74.46808510638812,
                "width": 82.26950354610517,
                "x": 2115.6028368795746,
                "y": 1668.7943262412468
            },
            {
                "class": "room",
                "height": 550.4070651909592,
                "width": 510.57497494687664,
                "x": 72.42198226196831,
                "y": 1528.1038257275313
            },
            {
                "class": "room",
                "height": 164.36194555907696,
                "width": 187.47534415332223,
                "x": 238.83845214053383,
                "y": 1350.8497400636645
            },
            {
                "class": "room",
                "height": 184.06612792926512,
                "width": 285.302498290361,
                "x": 1504.740595821742,
                "y": 1012.363703610958
            },
            {
                "class": "room",
                "height": 498.5124298084263,
                "width": 279.1669606927185,
                "x": 2127.4976619824224,
                "y": 1316.0728146942454
            },
            {
                "class": "Room",
                "xn": "2408.19850707;2070.7439392;2064.60840161;1857.53400769;1863.66954528;2026.26129162;2020.12575402;2113.69270239;2113.69270239;2409.73239147",
                "yn": "2234.86956994;2239.47122314;2010.92244763;2017.05798522;1736.35714013;1740.95879333;1650.45961377;1651.99349817;1826.8563197;1823.7885509"
            },
            {
                "class": "Room",
                "xn": "1509.34224902;1786.97532531;1786.97532531;1851.39847009;1851.39847009;1506.27448022",
                "yn": "1211.76867553;1208.70090674;1311.4711615;1309.9372771;1517.01167102;1513.94390222"
            },
            {
                "class": "Room",
                "xn": "1507.80836462;1510.87613342;1704.14556775;1704.14556775;1593.70589099;1595.23977539",
                "yn": "857.44137927;1001.62651282;1003.16039721;915.728986448;917.262870848;855.907494871"
            },
            {
                "class": "Room",
                "xn": "1507.80836462;1504.74059582;1618.24804138;1610.57861938;1754.76375293;1754.76375293;1857.53400769;1852.93235449",
                "yn": "544.528961791;848.238072874;842.102535276;904.991795652;906.525680052;842.102535276;846.704188475;541.461192992"
            },
            {
                "class": "Room",
                "xn": "1862.13566088;2267.08114233;2259.41172033;2316.16544311;2314.63155871;2009.38856323;2012.45633203;2072.2778236;2076.8794768;2004.78691003;2012.45633203;2118.29435559;2115.22658679;2007.85467883;2007.85467883;1860.60177648;1868.27119848;1800.78028491;1796.17863171;1865.20342968;1865.20342968;1716.41664294;1717.95052734;1767.03482812;1763.96705932;1849.86458569;1849.86458569;1865.20342968",
                "yn": "541.461192992;541.461192992;888.119067259;888.119067259;980.152131223;975.550478025;992.423206419;989.35543762;1116.66784277;1116.66784277;1313.0050459;1320.67446789;1642.79019177;1632.05300097;1728.68771814;1728.68771814;1299.2000863;1297.6662019;1207.16702234;1208.70090674;1003.16039721;1003.16039721;920.330639646;918.796755247;848.238072874;845.170304075;918.796755247;921.864524046"
            },
            {
                "class": "Stairs",
                "xn": "2273.21667993;2268.61502673;2320.76709631;2316.16544311;2409.73239147;2408.19850707",
                "yn": "541.461192992;888.119067259;888.119067259;974.016593626;975.550478025;541.461192992"
            },
            {
                "class": "Room",
                "xn": "2091.55781037;2407.62765031;2407.62765031;2086.97708805;2084.22865466;2075.98335449;2073.2349211;2021.93083114;2021.93083114;2076.89949895;2075.98335449;2087.89323251",
                "yn": "986.687587283;985.77144282;1306.42200507;1304.58971615;1292.67983812;1290.84754919;1304.58971615;1305.50586061;1129.6061236;1131.43841253;1146.09672395;1143.34829056"
            },
            {
                "class": "Room",
                "xn": "736.264511717;1135.07445556;1136.60833996;791.484350096;794.552118895;590.545493773;592.079378172;431.021516234;427.953747436;592.079378172;592.079378172;576.740534178;575.206649779;526.122348998;526.122348998;592.079378172;593.613262572;239.285966308;236.218197509;1036.905854;1039.9736228;1128.93891797;1133.54057116;914.195102049;912.661217649;1133.54057116;1136.60833996;754.67112451;753.137240111;739.332280516",
                "yn": "1446.45298864;1443.38521985;2233.33568554;2236.40345434;2012.45633203;2012.45633203;1515.47778662;1521.61332422;1412.70753186;1420.37695385;1398.90257226;1398.90257226;1403.50422546;1406.57199426;1259.31909192;1257.78520752;967.881056028;978.618246824;535.325655394;539.927308593;891.186836058;889.652951658;978.618246824;975.550478025;990.889322019;987.82155322;1435.71579785;1437.24968225;1158.08272155;1153.48106836"
            },
            {
                "class": "Room",
                "xn": "233.137511431;517.273853488;520.916627104;575.558231346;577.379618154;519.095240296;517.273853488;433.490060318;429.847286701;233.137511431;234.958898239;433.490060318;428.025899893;415.276192237;413.454805429;233.137511431",
                "yn": "990.834423583;989.013036775;1142.00952865;1138.36675504;1244.0071899;1244.0071899;1404.28922901;1400.6464554;1340.54069073;1340.54069073;1189.36558566;1183.90142524;1116.51011334;1114.68872653;1167.50894396;1167.50894396"
            }
        ],
        "class": "image",
        "filename": "16.png"
    }
]
