[
    {
        "annotations": [
            {
                "class": "Window",
                "xn": "691;808;808;691",
                "yn": "276;276;323;323"
            },
            {
                "class": "Window",
                "xn": "1411;1527;1527;1411",
                "yn": "276;276;324;324"
            },
            {
                "class": "Window",
                "xn": "290;523;523;290",
                "yn": "1436;1436;1483;1483"
            },
            {
                "class": "Window",
                "xn": "1213;1446;1446;1213",
                "yn": "1437;1437;1483;1483"
            },
            {
                "class": "Window",
                "xn": "1178;1295;1295;1178",
                "yn": "276;276;323;323"
            },
            {
                "class": "Wall",
                "xn": "66;112;112;66",
                "yn": "277;277;1483;1483"
            },
            {
                "class": "Wall",
                "xn": "808;1179;1179;808",
                "yn": "277;277;323;323"
            },
            {
                "class": "Wall",
                "xn": "458;692;692;458",
                "yn": "277;277;323;323"
            },
            {
                "class": "Wall",
                "xn": "1295;1412;1412;1295",
                "yn": "277;277;324;324"
            },
            {
                "class": "Wall",
                "xn": "65;226;226;65",
                "yn": "277;277;324;324"
            },
            {
                "class": "Wall",
                "xn": "1527;1672;1672;1527",
                "yn": "277;277;324;324"
            },
            {
                "class": "Wall",
                "xn": "523;787;787;523",
                "yn": "1437;1437;1483;1483"
            },
            {
                "class": "Wall",
                "xn": "1626;1671;1671;1626",
                "yn": "277;277;1483;1483"
            },
            {
                "class": "Wall",
                "xn": "65;291;291;65",
                "yn": "1437;1437;1483;1483"
            },
            {
                "class": "Wall",
                "xn": "949;1214;1214;949",
                "yn": "1438;1438;1483;1483"
            },
            {
                "class": "Wall",
                "xn": "1446;1672;1672;1446",
                "yn": "1437;1437;1483;1483"
            },
            {
                "class": "Wall",
                "xn": "791;1035;1035;791",
                "yn": "808;808;831;831"
            },
            {
                "class": "Wall",
                "xn": "573;603;603;573",
                "yn": "1414;1414;1483;1483"
            },
            {
                "class": "Wall",
                "xn": "65;131;131;65",
                "yn": "843;843;848;848"
            },
            {
                "class": "Wall",
                "xn": "65;225;225;65",
                "yn": "1134;1134;1139;1139"
            },
            {
                "class": "Wall",
                "xn": "65;131;131;65",
                "yn": "1019;1019;1024;1024"
            },
            {
                "class": "Wall",
                "xn": "65;615;615;65",
                "yn": "925;925;942;942"
            },
            {
                "class": "Wall",
                "xn": "996;1013;1013;996",
                "yn": "277;277;702;702"
            },
            {
                "class": "Wall",
                "xn": "597;614;614;597",
                "yn": "277;277;711;711"
            },
            {
                "class": "Wall",
                "xn": "1374;1391;1391;1374",
                "yn": "277;277;702;702"
            },
            {
                "class": "Wall",
                "xn": "597;614;614;597",
                "yn": "1387;1387;1483;1483"
            },
            {
                "class": "Wall",
                "xn": "1529;1672;1672;1529",
                "yn": "685;685;703;703"
            },
            {
                "class": "Wall",
                "xn": "1019;1034;1034;1019",
                "yn": "1387;1387;1483;1483"
            },
            {
                "class": "Wall",
                "xn": "1031;1036;1036;1031",
                "yn": "686;686;1281;1281"
            },
            {
                "class": "Wall",
                "xn": "1016;1034;1034;1016",
                "yn": "686;686;1276;1276"
            },
            {
                "class": "Wall",
                "xn": "597;614;614;597",
                "yn": "818;818;1276;1276"
            },
            {
                "class": "Wall",
                "xn": "724;1184;1184;724",
                "yn": "686;686;702;702"
            },
            {
                "class": "Wall",
                "xn": "872;1014;1014;872",
                "yn": "550;550;566;566"
            },
            {
                "class": "Wall",
                "xn": "1313;1392;1392;1313",
                "yn": "512;512;517;517"
            },
            {
                "class": "Wall",
                "xn": "1314;1392;1392;1314",
                "yn": "586;586;591;591"
            },
            {
                "class": "Wall",
                "xn": "1314;1392;1392;1314",
                "yn": "496;496;501;501"
            },
            {
                "class": "Wall",
                "xn": "1293;1411;1411;1293",
                "yn": "686;686;702;702"
            },
            {
                "class": "Wall",
                "xn": "873;1035;1035;873",
                "yn": "845;845;851;851"
            },
            {
                "class": "Text",
                "height": 30,
                "text": "bathroom",
                "width": 186,
                "x": 692,
                "y": 467
            },
            {
                "class": "Text",
                "height": 30,
                "text": "ensuite",
                "width": 150,
                "x": 1134,
                "y": 489
            },
            {
                "class": "Text",
                "height": 36,
                "text": "bedroom",
                "width": 251,
                "x": 1117,
                "y": 1042
            },
            {
                "class": "Text",
                "height": 35,
                "text": "bedroom",
                "width": 260,
                "x": 226,
                "y": 1244
            },
            {
                "class": "Text",
                "height": 29,
                "text": "landing",
                "width": 158,
                "x": 738,
                "y": 1301
            },
            {
                "class": "window",
                "height": 49.252514493306535,
                "width": 230.06996496188418,
                "x": 227.37119704444268,
                "y": 273.92494362030783
            },
            {
                "class": "Wall",
                "xn": "1574.75091577;1576.0922709;1628.40512074;1625.72241049",
                "yn": "875.904896081;1259.53246159;1264.89788209;875.904896081"
            },
            {
                "class": "window",
                "height": 45.2043626171444,
                "width": 163.2754590052084,
                "x": 786.6908479341855,
                "y": 1436.419224058217
            },
            {
                "class": "Text",
                "height": 32.00097746826134,
                "text": "bedroom 2",
                "width": 269.3415603578658,
                "x": 248.00757537902493,
                "y": 565.3506019392826
            },
            {
                "class": "Text",
                "height": 197.3393610542779,
                "text": "dressing",
                "width": 53.33496244710204,
                "x": 1445.3774823164679,
                "y": 410.6792108426864
            },
            {
                "class": "door",
                "height": 104.69458039643416,
                "width": 120.94029114760508,
                "x": 490.9814804798293,
                "y": 713.9087335653401
            },
            {
                "class": "door",
                "height": 117.33013320290036,
                "width": 100.18188296555343,
                "x": 625.4598639200767,
                "y": 584.8455870421496
            },
            {
                "class": "door",
                "height": 90.25394861761572,
                "width": 98.37680399320107,
                "x": 709.3960361344593,
                "y": 714.8112730515162
            },
            {
                "class": "door",
                "height": 118.2326726890766,
                "width": 106.49965936878652,
                "x": 1186.8394243216467,
                "y": 582.1379685836214
            },
            {
                "class": "door",
                "height": 2.7076184585284864,
                "width": 1.8050789723522485,
                "x": 1291.534004718081,
                "y": 579.4303501250929
            },
            {
                "class": "door",
                "height": 103.6960260713031,
                "width": 120.33859815682104,
                "x": 1019.0374907747826,
                "y": 1280.837951658505
            },
            {
                "class": "door",
                "height": 104.97622392403537,
                "width": 115.85790567225865,
                "x": 494.79647008097186,
                "y": 1278.9176548794073
            },
            {
                "class": "room",
                "height": 495.6539920765923,
                "width": 482.8132150797895,
                "x": 112.99883757186562,
                "y": 939.9448761659731
            },
            {
                "class": "room",
                "height": 598.3802080510156,
                "width": 487.94952587851066,
                "x": 112.99883757186562,
                "y": 323.58758031943336
            },
            {
                "class": "room",
                "height": 362.1099113098421,
                "width": 374.950688306645,
                "x": 611.2209850478185,
                "y": 321.01942492007277
            },
            {
                "class": "room",
                "height": 356.973600511121,
                "width": 369.8143775079237,
                "x": 1011.8532273480695,
                "y": 323.58758031943336
            },
            {
                "class": "Room",
                "xn": "613.789140447;616.357295847;1024.69400434;1022.12584895;883.44545738;870.604680383;780.719241406;788.423707604",
                "yn": "698.538268626;1435.59886824;1440.73517904;1201.8967269;1212.1693485;965.62643016;963.05827476;693.401957827"
            },
            {
                "class": "Room",
                "xn": "1040.10293674;1034.96662594;1620.506057;1620.506057;1581.98372601;1571.71110441;1633.34683399;1623.0742124;1540.89323962;1528.05246262;1628.21052319;1630.77867859;1389.37207105;1391.94022645;1415.05362505;1417.62178045",
                "yn": "703.674579425;1430.46255744;1438.16702364;1271.23692268;1263.53245649;865.468369585;865.468369585;698.538268626;706.242734824;677.993025431;675.424870032;321.01942492;328.723891118;685.697491629;685.697491629;708.810890224"
            },
            {
                "class": "Stairs",
                "xn": "792.042624902;791.392877056;881.707827722;888.205306187;1015.5558841;1014.90613626",
                "yn": "831.67724354;959.677569303;958.37807361;1202.6832639;1198.13502897;832.326991386"
            },
            {
                "class": "room",
                "height": 101.1710986845253,
                "width": 203.4300586452282,
                "x": 807.193066923847,
                "y": 702.7583844107886
            }
        ],
        "class": "image",
        "filename": "19.png"
    }
]
