[
    {
        "annotations": [
            {
                "class": "Window",
                "xn": "1375;1437;1437;1375",
                "yn": "297;297;503;503"
            },
            {
                "class": "Window",
                "xn": "963;1169;1169;963",
                "yn": "750;750;812;812"
            },
            {
                "class": "Window",
                "xn": "2469;2532;2532;2469",
                "yn": "907;907;994;994"
            },
            {
                "class": "Window",
                "xn": "1557;1756;1756;1557",
                "yn": "13;13;76;76"
            },
            {
                "class": "Window",
                "xn": "2068;2273;2273;2068",
                "yn": "2017;2017;2081;2081"
            },
            {
                "class": "Window",
                "xn": "2126;2315;2315;2126",
                "yn": "13;13;76;76"
            },
            {
                "class": "Window",
                "xn": "896;1077;1077;896",
                "yn": "2018;2018;2081;2081"
            },
            {
                "class": "Wall",
                "xn": "1637;2069;2069;1637",
                "yn": "2017;2017;2081;2081"
            },
            {
                "class": "Wall",
                "xn": "2470;2532;2532;2470",
                "yn": "994;994;2081;2081"
            },
            {
                "class": "Wall",
                "xn": "1077;1534;1534;1077",
                "yn": "2019;2019;2081;2081"
            },
            {
                "class": "Wall",
                "xn": "2470;2532;2532;2470",
                "yn": "14;14;908;908"
            },
            {
                "class": "Wall",
                "xn": "1375;1558;1558;1375",
                "yn": "14;14;77;77"
            },
            {
                "class": "Wall",
                "xn": "2315;2533;2533;2315",
                "yn": "14;14;77;77"
            },
            {
                "class": "Wall",
                "xn": "2273;2533;2533;2273",
                "yn": "2018;2018;2081;2081"
            },
            {
                "class": "Wall",
                "xn": "671;897;897;671",
                "yn": "2018;2018;2081;2081"
            },
            {
                "class": "Wall",
                "xn": "1756;2127;2127;1756",
                "yn": "14;14;76;76"
            },
            {
                "class": "Wall",
                "xn": "1374;1437;1437;1374",
                "yn": "503;503;812;812"
            },
            {
                "class": "Wall",
                "xn": "1376;1437;1437;1376",
                "yn": "14;14;298;298"
            },
            {
                "class": "Wall",
                "xn": "672;733;733;672",
                "yn": "751;751;2081;2081"
            },
            {
                "class": "Wall",
                "xn": "1169;1438;1438;1169",
                "yn": "750;750;812;812"
            },
            {
                "class": "Wall",
                "xn": "671;964;964;671",
                "yn": "751;751;813;813"
            },
            {
                "class": "Wall",
                "xn": "1904;1924;1924;1904",
                "yn": "1612;1612;2081;2081"
            },
            {
                "class": "Wall",
                "xn": "1819;2533;2533;1819",
                "yn": "1196;1196;1215;1215"
            },
            {
                "class": "Wall",
                "xn": "2218;2533;2533;2218",
                "yn": "789;789;811;811"
            },
            {
                "class": "Wall",
                "xn": "1169;1654;1654;1169",
                "yn": "789;789;811;811"
            },
            {
                "class": "Wall",
                "xn": "1417;1437;1437;1417",
                "yn": "503;503;1400;1400"
            },
            {
                "class": "Wall",
                "xn": "1743;1925;1925;1743",
                "yn": "1612;1612;1632;1632"
            },
            {
                "class": "Wall",
                "xn": "2058;2079;2079;2058",
                "yn": "1025;1025;1215;1215"
            },
            {
                "class": "Wall",
                "xn": "1820;1840;1840;1820",
                "yn": "1191;1191;1442;1442"
            },
            {
                "class": "Wall",
                "xn": "1819;2080;2080;1819",
                "yn": "1025;1025;1045;1045"
            },
            {
                "class": "Wall",
                "xn": "1820;1840;1840;1820",
                "yn": "790;790;1053;1053"
            },
            {
                "class": "Wall",
                "xn": "1813;2062;2062;1813",
                "yn": "790;790;810;810"
            },
            {
                "class": "Text",
                "height": 38,
                "text": "ensuite",
                "width": 188,
                "x": 2066,
                "y": 897
            },
            {
                "class": "Text",
                "height": 39,
                "text": "ac",
                "width": 67,
                "x": 1913,
                "y": 1104
            },
            {
                "class": "Text",
                "height": 51,
                "text": "landing",
                "width": 186,
                "x": 1545,
                "y": 1489
            },
            {
                "class": "Text",
                "height": 38,
                "text": "bth",
                "width": 106,
                "x": 1598,
                "y": 1813
            },
            {
                "class": "Wall",
                "xn": "733.928511303;1246.57204432;1287.14095701;1305.58137187;1294.51712295;1283.45287404;1253.94821027;732.084469817",
                "yn": "1501.04976935;1499.20572786;1541.61868203;1519.49018421;1504.73785232;1513.95805975;1482.60935449;1484.45339598"
            },
            {
                "class": "Wall",
                "xn": "1406.47790977;1420.79600908;1437.31689291;1420.79600908;1420.79600908;1411.98487104",
                "yn": "1386.65284918;1404.27512526;1391.0584182;1374.53753437;1382.24728016;1389.95702594"
            },
            {
                "class": "Wall",
                "xn": "1581.59008893;1458.42201121;1421.0983513;1413.63361931;1399.63724684;1412.23398207;1412.23398207;1434.16163227;1433.69508652;1466.81983469;1582.98972618",
                "yn": "1610.98247112;1610.51592537;1651.10540553;1643.1741278;1656.23740877;1671.63341848;2016.8772727;2017.8103642;1664.1686865;1632.44357557;1631.97702982"
            },
            {
                "class": "window",
                "height": 63.80946208363116,
                "width": 103.27923244463977,
                "x": 1534.7162375372297,
                "y": 2019.5365834716224
            },
            {
                "class": "Door",
                "xn": "1298.27713463;1414.7493656;1282.74750383;1178.69897749;1181.80490365",
                "yn": "1531.22159658;1644.5879014;1740.87161234;1644.5879014;1644.5879014"
            },
            {
                "class": "door",
                "height": 166.16704952755674,
                "width": 156.84927104937606,
                "x": 1653.905679877084,
                "y": 644.4796780741689
            },
            {
                "class": "door",
                "height": 138.21371409301446,
                "width": 144.4255664118018,
                "x": 1697.388646108594,
                "y": 1054.461931114122
            },
            {
                "class": "door",
                "height": 164.61408644786002,
                "width": 167.72001260725347,
                "x": 1816.966803245247,
                "y": 1441.1497379586233
            },
            {
                "class": "door",
                "height": 165.59940289508575,
                "width": 157.78811030569477,
                "x": 2063.7435021170595,
                "y": 643.6505093658051
            },
            {
                "class": "door",
                "height": 165.10204942010046,
                "width": 156.75419298874704,
                "x": 1584.237642750178,
                "y": 1611.1362912512056
            },
            {
                "class": "Text",
                "height": 46.58889239090422,
                "text": "canopy over door",
                "width": 431.72373615570905,
                "x": 1711.3653138258674,
                "y": 2228.5020193648998
            },
            {
                "class": "Text",
                "height": 200.2075841009255,
                "text": "bedroom 3",
                "width": 410.8155621811196,
                "x": 884.0334882378526,
                "y": 1076.4407768543263
            },
            {
                "class": "Text",
                "height": 174.20659915275314,
                "text": "bedroom 4",
                "width": 392.6148727173992,
                "x": 884.0334882378526,
                "y": 1723.8653020638126
            },
            {
                "class": "Text",
                "height": 201.45037069826844,
                "text": "bedroom 2",
                "width": 389.76267374230156,
                "x": 2010.1243510979384,
                "y": 1591.8958641047943
            },
            {
                "class": "Text",
                "height": 197.9714993953827,
                "text": "bedroom 1",
                "width": 454.6012208338416,
                "x": 1686.4238837384455,
                "y": 337.2847767476891
            },
            {
                "class": "Stairs",
                "xn": "1453.10469072;1596.9399266;1595.09588512;1608.00417552;1611.69225849;1443.88448329;1449.41660775",
                "yn": "1360.90261644;1353.52645049;971.809862957;971.809862957;824.286544102;820.59846113;1364.59069941"
            },
            {
                "class": "room",
                "height": 711.3790456228816,
                "width": 1022.1258489455122,
                "x": 1440.7351790412872,
                "y": 74.47650658145692
            },
            {
                "class": "room",
                "height": 141.24854696483203,
                "width": 213.15689814692837,
                "x": 1849.0718875396199,
                "y": 1047.807402939118
            },
            {
                "class": "Room",
                "xn": "1843.93557674;1836.23111054;2082.77402888;2085.34218428;2467.99733879;2467.99733879",
                "yn": "811.537106198;1024.69400434;1024.69400434;1189.0559499;1191.6241053;814.105261597"
            },
            {
                "class": "Room",
                "xn": "1849.07188754;1841.36742134;1928.68470492;1928.68470492;2465.42918339;2465.42918339",
                "yn": "1207.0330377;1599.9608138;1605.0971246;2010.8656777;2018.5701439;1212.1693485"
            },
            {
                "class": "Room",
                "xn": "1905.57130633;1433.03071284;1427.89440204;1466.41673303;1908.13946172",
                "yn": "2010.8656777;2016.0019885;1674.43732038;1635.91498939;1635.91498939"
            },
            {
                "class": "Room",
                "xn": "1623.0742124;1620.506057;1445.87148984;1304.62294288;1422.75809125;1466.41673303;1813.11771195;1807.98140115",
                "yn": "819.241572396;1394.50838185;1386.80391565;1515.21168562;1641.05130019;1605.0971246;1605.0971246;814.105261597"
            },
            {
                "class": "Door",
                "xn": "1307.19109827;1199.3285715;1327.73634147;1409.91731425",
                "yn": "1497.23459783;1399.64469265;1294.35032128;1407.34915885"
            },
            {
                "class": "Room",
                "xn": "729.356133418;731.924288818;1258.39614569;1286.64585508;1422.75809125;1420.18993585",
                "yn": "816.673416997;1479.25751003;1476.68935463;1512.64353022;1366.25867246;814.105261597"
            },
            {
                "class": "Room",
                "xn": "731.924288818;734.492444217;1415.05362505;1415.05362505;1242.98721329",
                "yn": "1507.50721942;2005.7293669;2008.2975223;1684.70994198;1499.80275323"
            }
        ],
        "class": "image",
        "filename": "21.png"
    }
]
