[
    {
        "annotations": [
            {
                "class": "Window",
                "xn": "917;978;978;917",
                "yn": "2250;2250;2272;2272"
            },
            {
                "class": "Window",
                "xn": "2018;2039;2039;2018",
                "yn": "1255;1255;1444;1444"
            },
            {
                "class": "Window",
                "xn": "1658;1846;1846;1658",
                "yn": "2906;2906;2927;2927"
            },
            {
                "class": "Window",
                "xn": "1845;2040;2040;1845",
                "yn": "361;361;391;391"
            },
            {
                "class": "Window",
                "xn": "1845;2040;2040;1845",
                "yn": "596;596;610;610"
            },
            {
                "class": "Window",
                "xn": "2018;2039;2039;2018",
                "yn": "1255;1255;1472;1472"
            },
            {
                "class": "Window",
                "xn": "2021;2039;2039;2021",
                "yn": "408;408;576;576"
            },
            {
                "class": "Window",
                "xn": "2021;2039;2039;2021",
                "yn": "408;408;576;576"
            },
            {
                "class": "Window",
                "xn": "2018;2039;2039;2018",
                "yn": "408;408;576;576"
            },
            {
                "class": "Wall",
                "xn": "1092;1148;1148;1092",
                "yn": "2231;2231;2269;2269"
            },
            {
                "class": "Wall",
                "xn": "1309;1353;1353;1309",
                "yn": "2115;2115;2149;2149"
            },
            {
                "class": "Wall",
                "xn": "1938;2040;2040;1938",
                "yn": "1472;1472;1507;1507"
            },
            {
                "class": "Wall",
                "xn": "1061;1093;1093;1061",
                "yn": "1253;1253;1346;1346"
            },
            {
                "class": "Wall",
                "xn": "1076;1331;1331;1076",
                "yn": "1886;1886;1914;1914"
            },
            {
                "class": "Wall",
                "xn": "915;944;944;915",
                "yn": "894;894;1219;1219"
            },
            {
                "class": "Wall",
                "xn": "704;729;729;704",
                "yn": "1439;1439;1663;1663"
            },
            {
                "class": "Wall",
                "xn": "704;729;729;704",
                "yn": "1060;1060;1219;1219"
            },
            {
                "class": "Wall",
                "xn": "1254;1277;1277;1254",
                "yn": "1123;1123;1271;1271"
            },
            {
                "class": "Wall",
                "xn": "2017;2040;2040;2017",
                "yn": "2227;2227;2504;2504"
            },
            {
                "class": "Wall",
                "xn": "799;820;820;799",
                "yn": "2613;2613;3123;3123"
            },
            {
                "class": "Wall",
                "xn": "429;449;449;429",
                "yn": "1666;1666;2293;2293"
            },
            {
                "class": "Wall",
                "xn": "1024;1045;1045;1024",
                "yn": "2613;2613;2985;2985"
            },
            {
                "class": "Wall",
                "xn": "1317;1659;1659;1317",
                "yn": "2907;2907;2927;2927"
            },
            {
                "class": "Wall",
                "xn": "1846;2040;2040;1846",
                "yn": "576;576;597;597"
            },
            {
                "class": "Wall",
                "xn": "1846;2040;2040;1846",
                "yn": "2907;2907;2927;2927"
            },
            {
                "class": "Wall",
                "xn": "429;450;450;429",
                "yn": "1423;1423;1649;1649"
            },
            {
                "class": "Wall",
                "xn": "798;1046;1046;798",
                "yn": "2613;2613;2634;2634"
            },
            {
                "class": "Wall",
                "xn": "2019;2039;2039;2019",
                "yn": "576;576;1256;1256"
            },
            {
                "class": "Wall",
                "xn": "703;1077;1077;703",
                "yn": "1512;1512;1534;1534"
            },
            {
                "class": "Wall",
                "xn": "2019;2040;2040;2019",
                "yn": "2820;2820;2927;2927"
            },
            {
                "class": "Wall",
                "xn": "428;580;580;428",
                "yn": "2251;2251;2273;2273"
            },
            {
                "class": "Wall",
                "xn": "1101;1207;1207;1101",
                "yn": "1762;1762;1784;1784"
            },
            {
                "class": "Wall",
                "xn": "876;897;897;876",
                "yn": "2022;2022;2272;2272"
            },
            {
                "class": "Wall",
                "xn": "978;1130;1130;978",
                "yn": "2250;2250;2272;2272"
            },
            {
                "class": "Wall",
                "xn": "1271;1353;1353;1271",
                "yn": "2231;2231;2252;2252"
            },
            {
                "class": "Wall",
                "xn": "765;918;918;765",
                "yn": "2251;2251;2273;2273"
            },
            {
                "class": "Wall",
                "xn": "1320;1341;1341;1320",
                "yn": "3179;3179;3245;3245"
            },
            {
                "class": "Wall",
                "xn": "1846;2040;2040;1846",
                "yn": "610;610;629;629"
            },
            {
                "class": "Wall",
                "xn": "1846;2040;2040;1846",
                "yn": "391;391;409;409"
            },
            {
                "class": "Wall",
                "xn": "1846;2040;2040;1846",
                "yn": "343;343;362;362"
            },
            {
                "class": "Wall",
                "xn": "1060;1331;1331;1060",
                "yn": "1252;1252;1271;1271"
            },
            {
                "class": "Wall",
                "xn": "1058;1076;1076;1058",
                "yn": "1439;1439;1663;1663"
            },
            {
                "class": "Wall",
                "xn": "1055;1278;1278;1055",
                "yn": "1122;1122;1142;1142"
            },
            {
                "class": "Wall",
                "xn": "1288;1353;1353;1288",
                "yn": "2254;2254;2273;2273"
            },
            {
                "class": "Wall",
                "xn": "867;1331;1331;867",
                "yn": "1647;1647;1663;1663"
            },
            {
                "class": "Wall",
                "xn": "878;894;894;878",
                "yn": "1761;1761;1929;1929"
            },
            {
                "class": "Wall",
                "xn": "1901;2040;2040;1901",
                "yn": "2115;2115;2132;2132"
            },
            {
                "class": "Wall",
                "xn": "1460;1818;1818;1460",
                "yn": "2368;2368;2385;2385"
            },
            {
                "class": "Wall",
                "xn": "1925;2040;2040;1925",
                "yn": "2368;2368;2385;2385"
            },
            {
                "class": "Wall",
                "xn": "630;776;776;630",
                "yn": "1859;1859;1875;1875"
            },
            {
                "class": "Wall",
                "xn": "1096;1113;1113;1096",
                "yn": "1647;1647;1784;1784"
            },
            {
                "class": "Wall",
                "xn": "703;945;945;703",
                "yn": "1124;1124;1141;1141"
            },
            {
                "class": "Wall",
                "xn": "428;539;539;428",
                "yn": "1858;1858;1875;1875"
            },
            {
                "class": "Wall",
                "xn": "1847;1864;1864;1847",
                "yn": "343;343;409;409"
            },
            {
                "class": "Wall",
                "xn": "1666;1684;1684;1666",
                "yn": "1975;1975;2385;2385"
            },
            {
                "class": "Wall",
                "xn": "1782;1815;1815;1782",
                "yn": "2114;2114;2132;2132"
            },
            {
                "class": "Wall",
                "xn": "2022;2039;2039;2022",
                "yn": "343;343;409;409"
            },
            {
                "class": "Wall",
                "xn": "1091;1109;1109;1091",
                "yn": "2039;2039;2272;2272"
            },
            {
                "class": "Wall",
                "xn": "1315;1330;1330;1315",
                "yn": "1190;1190;1727;1727"
            },
            {
                "class": "Wall",
                "xn": "428;945;945;428",
                "yn": "894;894;909;909"
            },
            {
                "class": "Wall",
                "xn": "595;610;610;595",
                "yn": "1140;1140;1219;1219"
            },
            {
                "class": "Wall",
                "xn": "1783;1798;1798;1783",
                "yn": "1975;1975;2135;2135"
            },
            {
                "class": "Wall",
                "xn": "1088;1103;1103;1088",
                "yn": "599;599;935;935"
            },
            {
                "class": "Wall",
                "xn": "638;653;653;638",
                "yn": "1644;1644;1875;1875"
            },
            {
                "class": "Wall",
                "xn": "877;1092;1092;877",
                "yn": "1762;1762;1777;1777"
            },
            {
                "class": "Wall",
                "xn": "1486;2040;2040;1486",
                "yn": "1975;1975;1990;1990"
            },
            {
                "class": "Wall",
                "xn": "1315;1330;1330;1315",
                "yn": "1826;1826;1914;1914"
            },
            {
                "class": "Wall",
                "xn": "996;1109;1109;996",
                "yn": "2039;2039;2055;2055"
            },
            {
                "class": "Wall",
                "xn": "1666;1799;1799;1666",
                "yn": "2226;2226;2243;2243"
            },
            {
                "class": "Wall",
                "xn": "1060;1148;1148;1060",
                "yn": "1439;1439;1455;1455"
            },
            {
                "class": "Wall",
                "xn": "877;984;984;877",
                "yn": "1899;1899;1914;1914"
            },
            {
                "class": "Wall",
                "xn": "1194;1206;1206;1194",
                "yn": "1762;1762;1901;1901"
            },
            {
                "class": "Wall",
                "xn": "877;911;911;877",
                "yn": "2041;2041;2055;2055"
            },
            {
                "class": "Wall",
                "xn": "1809;1818;1818;1809",
                "yn": "1602;1602;1617;1617"
            },
            {
                "class": "Wall",
                "xn": "1164;1181;1181;1164",
                "yn": "1065;1065;1142;1142"
            },
            {
                "class": "Wall",
                "xn": "1487;1499;1499;1487",
                "yn": "2359;2359;2385;2385"
            },
            {
                "class": "Wall",
                "xn": "1317;1363;1363;1317",
                "yn": "2368;2368;2383;2383"
            },
            {
                "class": "Wall",
                "xn": "1061;1074;1074;1061",
                "yn": "1097;1097;1150;1150"
            },
            {
                "class": "Wall",
                "xn": "867;895;895;867",
                "yn": "1858;1858;1876;1876"
            },
            {
                "class": "Wall",
                "xn": "1125;1163;1163;1125",
                "yn": "1062;1062;1142;1142"
            },
            {
                "class": "Wall",
                "xn": "1060;1102;1102;1060",
                "yn": "1299;1299;1304;1304"
            },
            {
                "class": "Wall",
                "xn": "857;945;945;857",
                "yn": "1204;1204;1209;1209"
            },
            {
                "class": "Wall",
                "xn": "703;1148;1148;703",
                "yn": "1447;1447;1453;1453"
            },
            {
                "class": "Wall",
                "xn": "703;791;791;703",
                "yn": "1204;1204;1209;1209"
            },
            {
                "class": "Wall",
                "xn": "1241;1331;1331;1241",
                "yn": "1207;1207;1213;1213"
            },
            {
                "class": "Wall",
                "xn": "429;436;436;429",
                "yn": "1423;1423;2293;2293"
            },
            {
                "class": "Wall",
                "xn": "1084;1207;1207;1084",
                "yn": "1778;1778;1784;1784"
            },
            {
                "class": "Wall",
                "xn": "584;611;611;584",
                "yn": "1170;1170;1175;1175"
            },
            {
                "class": "Wall",
                "xn": "584;611;611;584",
                "yn": "1154;1154;1159;1159"
            },
            {
                "class": "Wall",
                "xn": "621;654;654;621",
                "yn": "1691;1691;1696;1696"
            },
            {
                "class": "Wall",
                "xn": "616;654;654;616",
                "yn": "1722;1722;1727;1727"
            },
            {
                "class": "Wall",
                "xn": "1193;1331;1331;1193",
                "yn": "1842;1842;1847;1847"
            },
            {
                "class": "Text",
                "height": 50,
                "text": "dress",
                "width": 143,
                "x": 1080,
                "y": 1369
            },
            {
                "class": "Text",
                "height": 46,
                "text": "eat",
                "width": 84,
                "x": 1589,
                "y": 1356
            },
            {
                "class": "Text",
                "height": 50,
                "text": "nook",
                "width": 133,
                "x": 1681,
                "y": 1813
            },
            {
                "class": "Text",
                "height": 47,
                "text": "dn",
                "width": 85,
                "x": 1223,
                "y": 2956
            },
            {
                "class": "Wall",
                "xn": "450.939503833;702.390538421;702.987809287;449.744962101;449.744962101",
                "yn": "1643.68942324;1644.28669411;1662.20482009;1661.60754922;1661.60754922"
            },
            {
                "class": "Wall",
                "xn": "1023.12499347;1020.73591;1107.34018557;1106.74291471;1067.32303755;1064.33668322;1044.62674464;1046.41855724",
                "yn": "3090.27946071;3243.18080241;3244.972615;3201.37184178;3201.37184178;3117.15664968;3115.36483708;3090.87673157"
            },
            {
                "class": "Wall",
                "xn": "1252.57443317;1253.84522225;1317.38467608;1319.50265788",
                "yn": "3200.27049125;3245.59530165;3245.17170529;3201.11768397"
            },
            {
                "class": "Wall",
                "xn": "821.387254162;869.674563654;870.177556461;994.41677984;994.919772647;1020.06941301;1021.57839143;821.387254162;820.884261355",
                "yn": "3123.58533273;3124.08832554;3112.01649816;3113.02248378;3123.08233992;3122.07635431;3101.95664202;3102.45963483;3102.45963483"
            },
            {
                "class": "Wall",
                "xn": "1311.3;1309.89;1314.12;1319.76;1336.68;1338.09;1349.37;1350.78;1349.37",
                "yn": "2185.5;2272.92;2277.15;2907.42;2908.83;2387.13;2387.13;2185.5;2185.5"
            },
            {
                "class": "window",
                "height": 20.567375886525042,
                "width": 180.85106382979006,
                "x": 580.8510638297964,
                "y": 2251.0638297872697
            },
            {
                "class": "window",
                "height": 9.263671131731826,
                "width": 133.0600035285122,
                "x": 433.7082393492642,
                "y": 2493.611838278003
            },
            {
                "class": "window",
                "height": 10.105823052798314,
                "width": 132.2178516074456,
                "x": 635.824700405232,
                "y": 2493.611838278003
            },
            {
                "class": "window",
                "height": 106.86907878334296,
                "width": 13.061776295741879,
                "x": 799.1432224576647,
                "y": 2503.111311947633
            },
            {
                "class": "Wall",
                "xn": "493.501025745;493.501025745;447.182670086;449.70912585",
                "yn": "2271.28373112;2289.81107338;2293.17968106;2273.81018688"
            },
            {
                "class": "Wall",
                "xn": "366.681756451;367.184749258;432.070821387;432.070821387",
                "yn": "2459.63482722;2504.90417987;2504.90417987;2459.63482722"
            },
            {
                "class": "Wall",
                "xn": "632.991154706;633.892423555;567.799374654;568.099797603",
                "yn": "2459.56268798;2504.02528452;2503.42443862;2459.56268798"
            },
            {
                "class": "Wall",
                "xn": "769.115242787;864.006084429;864.006084429;769.828707762",
                "yn": "2458.24357052;2459.67050047;2505.33225886;2503.90532891"
            },
            {
                "class": "Wall",
                "xn": "805.291484332;798.752577838;798.249585031;863.638649967;863.638649967;863.638649967;863.638649967",
                "yn": "2273.52748856;2274.03048136;2292.64121523;2293.64720085;2274.53347417;2274.53347417;2274.53347417"
            },
            {
                "class": "Wall",
                "xn": "1500.71472334;1501.55687526;1518.39991368;1519.2420656;1465.34434266;1468.71295034;1485.55598876;1486.39814068;1466.18649458;1467.87079842;1487.2402926;1488.92459645",
                "yn": "2260.33575614;1990.00498948;1990.8471414;1880.52523974;1877.99878398;1931.89650693;1931.05435501;2099.48473922;2098.6425873;2151.69815832;2149.17170256;2259.49360422"
            },
            {
                "class": "Wall",
                "xn": "547.490290607;547.490290607;428.616251974;428.616251974;448.707638785;447.033356551;594.370193167;596.044475401;596.044475401;447.033356551;447.033356551;447.033356551",
                "yn": "359.970680369;299.696519935;303.045084403;1237.29457113;1238.96885336;1222.22603102;1217.20318432;1207.15749091;1207.15749091;1202.13464421;364.993527071;364.993527071"
            },
            {
                "class": "Wall",
                "xn": "989.500800455;989.500800455;1083.26060557;1086.60917004;1275.80306252;1275.80306252;1123.4433792;1125.11766143;1270.78021581;1270.78021581;1108.37483909;1110.04912132;1277.47734475;1279.15162698;1105.02627462;1106.70055685",
                "yn": "296.347955466;359.970680369;364.993527071;631.204402321;629.530120086;612.787297744;609.438733275;599.39303987;594.370193167;575.95308859;574.278806355;406.850582928;405.176300694;346.576422494;348.250704729;298.0222377"
            },
            {
                "class": "Wall",
                "xn": "1107.09219858;1261.70212766;1260.28368794;1108.5106383",
                "yn": "356.737588652;360.283687943;395.035460993;392.907801418"
            },
            {
                "class": "window",
                "height": 16.624078921853425,
                "width": 436.9757888030041,
                "x": 547.407170212459,
                "y": 347.918223150218
            },
            {
                "class": "window",
                "height": 29.821500000000583,
                "width": 578.5371000000116,
                "x": 1270.395900000026,
                "y": 590.465700000012
            },
            {
                "class": "Wall",
                "xn": "2037.0;2040.0;2020.0;2020.0;2020.0;2020.0",
                "yn": "1509.0;2167.0;2167.0;1510.0;1510.0;1509.0"
            },
            {
                "class": "window",
                "height": 56.8381872139239,
                "width": 19.113726673708925,
                "x": 2019.516120919516,
                "y": 2168.9049846587677
            },
            {
                "class": "window",
                "height": 313.4826310978083,
                "width": 13.061776295741993,
                "x": 2018.6381547964927,
                "y": 2504.298746156355
            },
            {
                "class": "window",
                "height": 14.893617021276896,
                "width": 146.09929078014534,
                "x": 1106.3829787234306,
                "y": 3231.2056737589423
            },
            {
                "class": "window",
                "height": 11.945417320092929,
                "width": 193.51576058550268,
                "x": 1655.0375696988508,
                "y": 3201.3718417848577
            },
            {
                "class": "Text",
                "height": 90.9084570300023,
                "text": "grand sleep",
                "width": 335.96603685000866,
                "x": 588.9286998900152,
                "y": 581.023616670015
            },
            {
                "class": "Text",
                "height": 83.00337381000219,
                "text": "view",
                "width": 181.8169140600046,
                "x": 1490.1081869700386,
                "y": 304.34570397000783
            },
            {
                "class": "Text",
                "height": 67.1932073700018,
                "text": "relax",
                "width": 169.9592892300043,
                "x": 1549.39631112004,
                "y": 877.4642374200226
            },
            {
                "class": "Text",
                "height": 63.24066576000166,
                "text": "dress",
                "width": 162.05420601000412,
                "x": 604.7388663300156,
                "y": 984.1828608900254
            },
            {
                "class": "Text",
                "height": 69.58350000000178,
                "text": "splash",
                "width": 210.73860000000548,
                "x": 735.597000000019,
                "y": 1296.2412000000334
            },
            {
                "class": "Text",
                "height": 43.73820000000114,
                "text": "splash",
                "width": 200.7981000000052,
                "x": 735.597000000019,
                "y": 1695.8493000000437
            },
            {
                "class": "Text",
                "height": 51.000000000001364,
                "text": "dess",
                "width": 143.0000000000037,
                "x": 470.00000000001234,
                "y": 1703.0000000000446
            },
            {
                "class": "Text",
                "height": 28.16759720336063,
                "text": "hw",
                "width": 50.80227352748989,
                "x": 905.3870529651664,
                "y": 1809.768120315927
            },
            {
                "class": "Text",
                "height": 47.94000000000142,
                "text": "None",
                "width": 166.38000000000443,
                "x": 1123.77000000003,
                "y": 2310.9900000000616
            },
            {
                "class": "Text",
                "height": 80.37000000000216,
                "text": "sleep",
                "width": 187.5300000000052,
                "x": 1600.3500000000427,
                "y": 2588.7600000000693
            },
            {
                "class": "Text",
                "height": 48.000000000001364,
                "text": "splash",
                "width": 203.00000000000546,
                "x": 1813.0000000000496,
                "y": 2225.000000000061
            },
            {
                "class": "Text",
                "height": 59.000000000001364,
                "text": "dress",
                "width": 144.00000000000387,
                "x": 1755.000000000048,
                "y": 2144.0000000000587
            },
            {
                "class": "Text",
                "height": 54.73987486932492,
                "text": "d",
                "width": 40.423292211194166,
                "x": 1611.878776921361,
                "y": 2087.6946123239572
            },
            {
                "class": "Text",
                "height": 46.31835565866004,
                "text": "w",
                "width": 62.319242158924226,
                "x": 1600.9308019474959,
                "y": 2012.7430913490348
            },
            {
                "class": "Text",
                "height": 60.63493831679102,
                "text": "greet",
                "width": 144.85013042344508,
                "x": 1312.0726930216722,
                "y": 1994.215749085571
            },
            {
                "class": "Stairs",
                "xn": "1364.53900709;1366.66666667;1719.85815603;1723.40425532;1539.71631206;1564.53900709;1586.5248227;1552.4822695;1576.59574468;1606.38297872;1951.77304965;1951.77304965",
                "yn": "2934.75177305;3041.84397163;3041.84397163;3065.95744681;3063.12056738;3106.38297872;3097.16312057;3136.87943262;3128.36879433;3178.0141844;3178.72340426;2930.4964539"
            },
            {
                "class": "door",
                "height": 105.67375886525133,
                "width": 114.18439716312378,
                "x": 1024.1134751773338,
                "y": 2985.1063829788077
            },
            {
                "class": "door",
                "height": 105.67375886525133,
                "width": 97.16312056737866,
                "x": 1363.1205673759257,
                "y": 2368.0851063830464
            },
            {
                "class": "door",
                "height": 100.00000000000273,
                "width": 105.00000000000296,
                "x": 1488.0000000000437,
                "y": 2260.0000000000664
            },
            {
                "class": "door",
                "height": 147.0000000000041,
                "width": 122.00000000000364,
                "x": 1148.000000000034,
                "y": 2102.0000000000628
            },
            {
                "class": "door",
                "height": 107.00000000000296,
                "width": 88.00000000000261,
                "x": 907.000000000027,
                "y": 2038.0000000000607
            },
            {
                "class": "door",
                "height": 106.11114205438457,
                "width": 96.00531900158614,
                "x": 982.791291884657,
                "y": 1901.5790377682567
            },
            {
                "class": "door",
                "height": 94.32101515945305,
                "width": 110.32190165971724,
                "x": 783.2012865918861,
                "y": 1928.527899242386
            },
            {
                "class": "Text",
                "height": 69.05645752745636,
                "text": "sleep",
                "width": 170.114688055442,
                "x": 583.611281299115,
                "y": 2018.6381547965063
            },
            {
                "class": "door",
                "height": 113.00000000000341,
                "width": 93.00000000000284,
                "x": 539.0000000000163,
                "y": 1763.0000000000532
            },
            {
                "class": "door",
                "height": 108.00000000000341,
                "width": 94.00000000000284,
                "x": 775.0000000000234,
                "y": 1764.0000000000532
            },
            {
                "class": "door",
                "height": 96.00531900158603,
                "width": 105.26899013331808,
                "x": 879.2066055934724,
                "y": 1663.2500441064253
            },
            {
                "class": "door",
                "height": 96.84747092265252,
                "width": 103.58468629118488,
                "x": 1315.4413007059425,
                "y": 1728.0957420285492
            },
            {
                "class": "door",
                "height": 99.14696375677045,
                "width": 103.92513068480775,
                "x": 1061.947599756253,
                "y": 1150.3436879249402
            },
            {
                "class": "door",
                "height": 95.03546099291077,
                "width": 109.2198581560317,
                "x": 1049.6453900709546,
                "y": 967.3758865248527
            },
            {
                "class": "door",
                "height": 102.74253437011862,
                "width": 84.21519210665474,
                "x": 1815.6795418194727,
                "y": 2027.9018259282423
            },
            {
                "class": "door",
                "height": 93.47886323838657,
                "width": 90.11025555412039,
                "x": 1795.4678957138756,
                "y": 2134.012967982627
            },
            {
                "class": "door",
                "height": 86.7416478698542,
                "width": 84.21519210665451,
                "x": 1790.4149841874764,
                "y": 2284.7581618535387
            },
            {
                "class": "room",
                "height": 378.1399312340459,
                "width": 439.13024272340846,
                "x": 448.2787894468128,
                "y": 1872.4025627234223
            },
            {
                "class": "room",
                "height": 204.31754348936352,
                "width": 189.06996561702306,
                "x": 445.2292738723447,
                "y": 1655.8869569361862
            },
            {
                "class": "room",
                "height": 123.27145916930863,
                "width": 220.861364345011,
                "x": 1795.1406241530535,
                "y": 1990.3204345044585
            },
            {
                "class": "room",
                "height": 369.814377507925,
                "width": 161.79379015971722,
                "x": 1504.9390640253068,
                "y": 1995.4567453031798
            },
            {
                "class": "room",
                "height": 469.97243808298845,
                "width": 200.31612115012604,
                "x": 824.37788319475,
                "y": 2637.4955951433276
            },
            {
                "class": "Room",
                "xn": "1343.14527387;1831.09479974;1833.66295514;1687.27809738;1684.70994198;1797.70877955;1792.57246875;2023.7064547;2021.1382993;1926.11654952;1920.98023872;2016.0019885;2010.8656777;1338.00896307",
                "yn": "2388.38452141;2390.9526768;2372.97558901;2367.83927821;2236.86335284;2244.56781904;2139.27344767;2134.13713687;2367.83927821;2367.83927821;2380.68005521;2388.38452141;2904.58375668;2907.15191208"
            },
            {
                "class": "Room",
                "xn": "1355.98605086;1494.66644243;1486.96197623;1515.21168562;1517.77984102;2018.5701439;2026.2746101;1101.73866633;1104.30682173;1189.0559499;1183.91963911;1289.21401048;1284.07769968;1338.00896307;1338.00896307;891.149923578;891.149923578;1114.57944332;1104.30682173;1322.60003067;1307.19109827;1355.98605086",
                "yn": "2360.13481201;2365.27112281;1882.45790773;1882.45790773;1972.34334671;1972.34334671;624.061762045;634.334383642;891.149923578;888.581768179;1109.44313252;1112.01128792;1189.0559499;1183.91963911;1923.54839412;1918.41208332;2041.68354249;2039.11538709;2229.15888664;2226.59073125;2121.29635987;2116.16004907"
            },
            {
                "class": "room",
                "height": 202.8842765494869,
                "width": 182.33903335460195,
                "x": 906.5588559742889,
                "y": 2049.388008689752
            },
            {
                "class": "room",
                "height": 102.72621597442367,
                "width": 297.90602632582863,
                "x": 896.2862343768466,
                "y": 1779.73169175689
            },
            {
                "class": "room",
                "height": 118.13514837058733,
                "width": 184.9071887539626,
                "x": 1078.6252677314485,
                "y": 1137.692841916742
            },
            {
                "class": "room",
                "height": 238.83845214053508,
                "width": 107.86252677314496,
                "x": 1682.1417865811875,
                "y": 1987.7522791050978
            },
            {
                "class": "Room",
                "xn": "873.172835783;649.743316038;644.60700524;734.492444217;731.924288818;1058.08002454;1060.64817994;868.036524984;870.604680383;1099.17051093;1094.03420013;878.309146581",
                "yn": "1854.20819834;1856.77635374;1669.30100958;1666.73285419;1522.91615182;1525.48430722;1641.05130019;1641.05130019;1664.16469879;1664.16469879;1756.61829316;1748.91382696"
            },
            {
                "class": "Room",
                "xn": "454.563505687;701.106424025;706.242734824;721.65166722;1168.51070671;1150.53361891;1076.05711233;1081.19342313;1320.03187527;1320.03187527;1096.60235553;1101.73866633;1052.94371374;1058.08002454;1124.85206492;1127.42022032;1060.64817994;1055.51186914;1083.76157853;1081.19342313;449.427194888;454.563505687;947.649342364;939.944876166;903.990700575;911.695166773;731.924288818;729.356133418;703.674579425;701.106424025;713.947201022;716.515356422;921.96778837;911.695166773;451.995350287;446.859039489;585.539431054;590.675741853;598.380208051;611.220985048;441.72272869",
                "yn": "1643.61945559;1646.18761099;1440.73517904;1443.30333444;1438.16702364;1458.71226684;1448.43964524;1641.05130019;1643.61945559;1263.53245649;1263.53245649;1350.84974006;1338.00896307;1083.76157853;1096.60235553;934.808565367;932.240409968;893.718078977;888.581768179;372.382532907;359.54175591;880.877301981;896.286234377;1214.7375039;1212.1693485;1142.82915272;1137.69284192;1214.7375039;1219.8738147;1058.08002454;1058.08002454;1124.85206492;1117.14759872;909.127011374;916.831477572;1191.6241053;1196.7604161;1142.82915272;1142.82915272;1207.0330377;1214.7375039"
            }
        ],
        "class": "image",
        "filename": "30.png"
    }
]
