[
    {
        "annotations": [
            {
                "class": "Door",
                "xn": "487;619;619;487",
                "yn": "2274;2274;2293;2293"
            },
            {
                "class": "Door",
                "xn": "1829;1975;1975;1829",
                "yn": "2907;2907;2927;2927"
            },
            {
                "class": "Door",
                "xn": "1829;1975;1975;1829",
                "yn": "2907;2907;2927;2927"
            },
            {
                "class": "Door",
                "xn": "440;591;591;440",
                "yn": "3166;3166;3184;3184"
            },
            {
                "class": "Door",
                "xn": "440;591;591;440",
                "yn": "3166;3166;3184;3184"
            },
            {
                "class": "Door",
                "xn": "2406;2539;2539;2406",
                "yn": "2376;2376;2397;2397"
            },
            {
                "class": "Door",
                "xn": "2406;2539;2539;2406",
                "yn": "2376;2376;2397;2397"
            },
            {
                "class": "Door",
                "xn": "623;755;755;623",
                "yn": "3405;3405;3417;3417"
            },
            {
                "class": "Door",
                "xn": "2394;2548;2548;2394",
                "yn": "3277;3277;3299;3299"
            },
            {
                "class": "Door",
                "xn": "2394;2548;2548;2394",
                "yn": "3277;3277;3299;3299"
            },
            {
                "class": "Door",
                "xn": "1595;1728;1728;1595",
                "yn": "3741;3741;3759;3759"
            },
            {
                "class": "Door",
                "xn": "1595;1728;1728;1595",
                "yn": "3741;3741;3759;3759"
            },
            {
                "class": "Door",
                "xn": "2178;2196;2196;2178",
                "yn": "3387;3387;3569;3569"
            },
            {
                "class": "Door",
                "xn": "2991;3020;3020;2991",
                "yn": "2268;2268;2414;2414"
            },
            {
                "class": "Door",
                "xn": "908;917;917;908",
                "yn": "2330;2330;2473;2473"
            },
            {
                "class": "Door",
                "xn": "908;917;917;908",
                "yn": "2330;2330;2473;2473"
            },
            {
                "class": "Door",
                "xn": "2818;2838;2838;2818",
                "yn": "3234;3234;3376;3376"
            },
            {
                "class": "Door",
                "xn": "2818;2838;2838;2818",
                "yn": "3234;3234;3376;3376"
            },
            {
                "class": "Door",
                "xn": "1754;1772;1772;1754",
                "yn": "3563;3563;3697;3697"
            },
            {
                "class": "Door",
                "xn": "1754;1772;1772;1754",
                "yn": "3563;3563;3697;3697"
            },
            {
                "class": "Door",
                "xn": "2073;2102;2102;2073",
                "yn": "3587;3587;3731;3731"
            },
            {
                "class": "Door",
                "xn": "1112;1139;1139;1112",
                "yn": "2027;2027;2161;2161"
            },
            {
                "class": "Door",
                "xn": "1112;1139;1139;1112",
                "yn": "2027;2027;2161;2161"
            },
            {
                "class": "Door",
                "xn": "2818;2838;2838;2818",
                "yn": "2269;2269;2411;2411"
            },
            {
                "class": "Door",
                "xn": "891;910;910;891",
                "yn": "3237;3237;3357;3357"
            },
            {
                "class": "Door",
                "xn": "891;910;910;891",
                "yn": "3237;3237;3357;3357"
            },
            {
                "class": "Door",
                "xn": "2991;3022;3022;2991",
                "yn": "3232;3232;3376;3376"
            },
            {
                "class": "Door",
                "xn": "3088;3133;3133;3088",
                "yn": "4327;4327;4462;4462"
            },
            {
                "class": "Window",
                "xn": "1065;1254;1254;1065",
                "yn": "148;148;179;179"
            },
            {
                "class": "Window",
                "xn": "2179;2368;2368;2179",
                "yn": "148;148;179;179"
            },
            {
                "class": "Window",
                "xn": "1187;1511;1511;1187",
                "yn": "4035;4035;4097;4097"
            },
            {
                "class": "Window",
                "xn": "2836;2961;2961;2836",
                "yn": "2646;2646;2665;2665"
            },
            {
                "class": "Window",
                "xn": "728;886;886;728",
                "yn": "2277;2277;2290;2290"
            },
            {
                "class": "Window",
                "xn": "1253;2181;2181;1253",
                "yn": "117;117;149;149"
            },
            {
                "class": "Window",
                "xn": "2353;2396;2396;2353",
                "yn": "2396;2396;2587;2587"
            },
            {
                "class": "Window",
                "xn": "2377;2395;2395;2377",
                "yn": "3070;3070;3278;3278"
            },
            {
                "class": "Window",
                "xn": "523;788;788;523",
                "yn": "4084;4084;4127;4127"
            },
            {
                "class": "Window",
                "xn": "2353;2396;2396;2353",
                "yn": "2396;2396;2610;2610"
            },
            {
                "class": "Window",
                "xn": "1253;2180;2180;1253",
                "yn": "117;117;149;149"
            },
            {
                "class": "Window",
                "xn": "2321;2364;2364;2321",
                "yn": "210;210;654;654"
            },
            {
                "class": "Window",
                "xn": "3088;3134;3134;3088",
                "yn": "3676;3676;3944;3944"
            },
            {
                "class": "Window",
                "xn": "1805;2071;2071;1805",
                "yn": "4461;4461;4503;4503"
            },
            {
                "class": "Window",
                "xn": "2353;2396;2396;2353",
                "yn": "2396;2396;2618;2618"
            },
            {
                "class": "Window",
                "xn": "2335;2364;2364;2335",
                "yn": "210;210;654;654"
            },
            {
                "class": "Window",
                "xn": "1066;1096;1096;1066",
                "yn": "210;210;655;655"
            },
            {
                "class": "Window",
                "xn": "1628;1639;1639;1628",
                "yn": "3394;3394;3505;3505"
            },
            {
                "class": "Wall",
                "xn": "1082;1188;1188;1082",
                "yn": "4036;4036;4119;4119"
            },
            {
                "class": "Wall",
                "xn": "243;325;325;243",
                "yn": "914;914;4127;4127"
            },
            {
                "class": "Wall",
                "xn": "1531;1613;1613;1531",
                "yn": "4036;4036;4503;4503"
            },
            {
                "class": "Wall",
                "xn": "2115;2365;2365;2115",
                "yn": "654;654;729;729"
            },
            {
                "class": "Wall",
                "xn": "767;842;842;767",
                "yn": "1917;1917;2072;2072"
            },
            {
                "class": "Wall",
                "xn": "1067;1321;1321;1067",
                "yn": "655;655;728;728"
            },
            {
                "class": "Wall",
                "xn": "2143;2275;2275;2143",
                "yn": "2679;2679;2753;2753"
            },
            {
                "class": "Wall",
                "xn": "1040;1187;1187;1040",
                "yn": "3630;3630;3704;3704"
            },
            {
                "class": "Wall",
                "xn": "656;729;729;656",
                "yn": "2187;2187;2293;2293"
            },
            {
                "class": "Wall",
                "xn": "1512;1582;1582;1512",
                "yn": "3653;3653;3759;3759"
            },
            {
                "class": "Wall",
                "xn": "1589;1656;1656;1589",
                "yn": "2640;2640;2753;2753"
            },
            {
                "class": "Wall",
                "xn": "2222;2335;2335;2222",
                "yn": "2958;2958;3023;3023"
            },
            {
                "class": "Wall",
                "xn": "1238;1302;1302;1238",
                "yn": "2548;2548;3104;3104"
            },
            {
                "class": "Wall",
                "xn": "2211;2396;2396;2211",
                "yn": "2618;2618;2679;2679"
            },
            {
                "class": "Wall",
                "xn": "1086;1224;1224;1086",
                "yn": "1372;1372;1431;1431"
            },
            {
                "class": "Wall",
                "xn": "1086;1224;1224;1086",
                "yn": "1578;1578;1638;1638"
            },
            {
                "class": "Wall",
                "xn": "2596;2653;2653;2596",
                "yn": "2703;2703;2944;2944"
            },
            {
                "class": "Wall",
                "xn": "1183;1238;1238;1183",
                "yn": "2362;2362;2492;2492"
            },
            {
                "class": "Wall",
                "xn": "978;1062;1062;978",
                "yn": "3407;3407;3460;3460"
            },
            {
                "class": "Wall",
                "xn": "1046;1098;1098;1046",
                "yn": "3167;3167;3366;3366"
            },
            {
                "class": "Wall",
                "xn": "3088;3134;3134;3088",
                "yn": "1321;1321;3677;3677"
            },
            {
                "class": "Wall",
                "xn": "1110;1156;1156;1110",
                "yn": "2161;2161;2322;2322"
            },
            {
                "class": "Wall",
                "xn": "3089;3134;3134;3089",
                "yn": "3944;3944;4328;4328"
            },
            {
                "class": "Wall",
                "xn": "2380;3135;3135;2380",
                "yn": "4107;4107;4151;4151"
            },
            {
                "class": "Wall",
                "xn": "1068;1112;1112;1068",
                "yn": "655;655;2011;2011"
            },
            {
                "class": "Wall",
                "xn": "2071;3133;3133;2071",
                "yn": "4462;4462;4504;4504"
            },
            {
                "class": "Wall",
                "xn": "1569;1806;1806;1569",
                "yn": "4461;4461;4503;4503"
            },
            {
                "class": "Wall",
                "xn": "788;1173;1173;788",
                "yn": "4083;4083;4127;4127"
            },
            {
                "class": "Wall",
                "xn": "2381;2423;2423;2381",
                "yn": "4107;4107;4504;4504"
            },
            {
                "class": "Wall",
                "xn": "242;524;524;242",
                "yn": "4085;4085;4127;4127"
            },
            {
                "class": "Wall",
                "xn": "3013;3135;3135;3013",
                "yn": "1321;1321;1364;1364"
            },
            {
                "class": "Wall",
                "xn": "890;981;981;890",
                "yn": "2476;2476;2519;2519"
            },
            {
                "class": "Wall",
                "xn": "2322;2364;2364;2322",
                "yn": "654;654;781;781"
            },
            {
                "class": "Wall",
                "xn": "1645;1773;1773;1645",
                "yn": "3505;3505;3548;3548"
            },
            {
                "class": "Wall",
                "xn": "2355;2395;2395;2355",
                "yn": "3366;3366;3759;3759"
            },
            {
                "class": "Wall",
                "xn": "2355;2395;2395;2355",
                "yn": "1321;1321;2654;2654"
            },
            {
                "class": "Wall",
                "xn": "766;806;806;766",
                "yn": "1917;1917;2193;2193"
            },
            {
                "class": "Wall",
                "xn": "2251;2378;2378;2251",
                "yn": "1910;1910;1947;1947"
            },
            {
                "class": "Wall",
                "xn": "1545;1581;1581;1545",
                "yn": "2908;2908;3198;3198"
            },
            {
                "class": "Wall",
                "xn": "2223;2259;2259;2223",
                "yn": "2908;2908;3210;3210"
            },
            {
                "class": "Wall",
                "xn": "2550;2653;2653;2550",
                "yn": "2908;2908;2942;2942"
            },
            {
                "class": "Wall",
                "xn": "242;382;382;242",
                "yn": "2492;2492;2528;2528"
            },
            {
                "class": "Wall",
                "xn": "2550;2653;2653;2550",
                "yn": "2702;2702;2737;2737"
            },
            {
                "class": "Wall",
                "xn": "766;886;886;766",
                "yn": "1924;1924;1958;1958"
            },
            {
                "class": "Wall",
                "xn": "242;386;386;242",
                "yn": "2811;2811;2846;2846"
            },
            {
                "class": "Wall",
                "xn": "889;1241;1241;889",
                "yn": "3167;3167;3200;3200"
            },
            {
                "class": "Wall",
                "xn": "1066;1254;1254;1066",
                "yn": "118;118;149;149"
            },
            {
                "class": "Wall",
                "xn": "2180;2368;2368;2180",
                "yn": "118;118;149;149"
            },
            {
                "class": "Wall",
                "xn": "1066;1254;1254;1066",
                "yn": "179;179;211;211"
            },
            {
                "class": "Wall",
                "xn": "2181;2211;2211;2181",
                "yn": "118;118;211;211"
            },
            {
                "class": "Wall",
                "xn": "2180;2368;2368;2180",
                "yn": "179;179;211;211"
            },
            {
                "class": "Wall",
                "xn": "1069;1099;1099;1069",
                "yn": "3594;3594;3704;3704"
            },
            {
                "class": "Wall",
                "xn": "655;775;775;655",
                "yn": "2187;2187;2218;2218"
            },
            {
                "class": "Wall",
                "xn": "945;1301;1301;945",
                "yn": "2733;2733;2765;2765"
            },
            {
                "class": "Wall",
                "xn": "2982;3135;3135;2982",
                "yn": "3376;3376;3406;3406"
            },
            {
                "class": "Wall",
                "xn": "1886;1914;1914;1886",
                "yn": "3424;3424;3759;3759"
            },
            {
                "class": "Wall",
                "xn": "1223;1251;1251;1223",
                "yn": "118;118;211;211"
            },
            {
                "class": "Wall",
                "xn": "2258;2396;2396;2258",
                "yn": "2587;2587;2615;2615"
            },
            {
                "class": "Wall",
                "xn": "2550;2849;2849;2550",
                "yn": "2241;2241;2270;2270"
            },
            {
                "class": "Wall",
                "xn": "2548;2849;2849;2548",
                "yn": "3376;3376;3405;3405"
            },
            {
                "class": "Wall",
                "xn": "2336;2364;2364;2336",
                "yn": "118;118;211;211"
            },
            {
                "class": "Wall",
                "xn": "2058;2396;2396;2058",
                "yn": "3731;3731;3759;3759"
            },
            {
                "class": "Wall",
                "xn": "1073;1202;1202;1073",
                "yn": "2183;2183;2212;2212"
            },
            {
                "class": "Wall",
                "xn": "1067;1096;1096;1067",
                "yn": "118;118;211;211"
            },
            {
                "class": "Wall",
                "xn": "2982;3135;3135;2982",
                "yn": "2241;2241;2269;2269"
            },
            {
                "class": "Wall",
                "xn": "1239;1263;1263;1239",
                "yn": "2476;2476;3177;3177"
            },
            {
                "class": "Wall",
                "xn": "926;950;950;926",
                "yn": "2474;2474;2565;2565"
            },
            {
                "class": "Wall",
                "xn": "1043;1068;1068;1043",
                "yn": "3602;3602;3704;3704"
            },
            {
                "class": "Wall",
                "xn": "1562;2243;2243;1562",
                "yn": "3188;3188;3211;3211"
            },
            {
                "class": "Wall",
                "xn": "2595;3135;3135;2595",
                "yn": "2811;2811;2835;2835"
            },
            {
                "class": "Wall",
                "xn": "1883;1906;1906;1883",
                "yn": "3188;3188;3307;3307"
            },
            {
                "class": "Wall",
                "xn": "2222;2397;2397;2222",
                "yn": "2999;2999;3024;3024"
            },
            {
                "class": "Wall",
                "xn": "2548;2569;2569;2548",
                "yn": "2912;2912;3405;3405"
            },
            {
                "class": "Wall",
                "xn": "931;981;981;931",
                "yn": "2543;2543;2566;2566"
            },
            {
                "class": "Wall",
                "xn": "1047;1067;1067;1047",
                "yn": "3167;3167;3455;3455"
            },
            {
                "class": "Wall",
                "xn": "1975;1995;1995;1975",
                "yn": "2908;2908;3211;3211"
            },
            {
                "class": "Wall",
                "xn": "1033;1224;1224;1033",
                "yn": "1926;1926;1946;1946"
            },
            {
                "class": "Wall",
                "xn": "2819;2838;2838;2819",
                "yn": "2411;2411;2528;2528"
            },
            {
                "class": "Wall",
                "xn": "1168;1187;1187;1168",
                "yn": "3653;3653;4096;4096"
            },
            {
                "class": "Wall",
                "xn": "242;488;488;242",
                "yn": "2275;2275;2294;2294"
            },
            {
                "class": "Wall",
                "xn": "1629;1893;1893;1629",
                "yn": "3505;3505;3525;3525"
            },
            {
                "class": "Wall",
                "xn": "2992;3135;3135;2992",
                "yn": "2414;2414;2434;2434"
            },
            {
                "class": "Wall",
                "xn": "2961;3135;3135;2961",
                "yn": "2645;2645;2665;2665"
            },
            {
                "class": "Wall",
                "xn": "242;878;878;242",
                "yn": "1917;1917;1936;1936"
            },
            {
                "class": "Wall",
                "xn": "1511;1530;1530;1511",
                "yn": "3653;3653;4097;4097"
            },
            {
                "class": "Wall",
                "xn": "2819;2838;2838;2819",
                "yn": "3118;3118;3235;3235"
            },
            {
                "class": "Wall",
                "xn": "894;1254;1254;894",
                "yn": "2473;2473;2493;2493"
            },
            {
                "class": "Wall",
                "xn": "2992;3135;3135;2992",
                "yn": "3213;3213;3233;3233"
            },
            {
                "class": "Wall",
                "xn": "1547;1830;1830;1547",
                "yn": "2908;2908;2927;2927"
            },
            {
                "class": "Wall",
                "xn": "2141;2257;2257;2141",
                "yn": "2908;2908;2928;2928"
            },
            {
                "class": "Wall",
                "xn": "2377;2396;2396;2377",
                "yn": "3006;3006;3071;3071"
            },
            {
                "class": "Wall",
                "xn": "619;707;707;619",
                "yn": "2274;2274;2293;2293"
            },
            {
                "class": "Wall",
                "xn": "2961;3135;3135;2961",
                "yn": "2981;2981;3001;3001"
            },
            {
                "class": "Wall",
                "xn": "1183;1203;1203;1183",
                "yn": "2322;2322;2492;2492"
            },
            {
                "class": "Wall",
                "xn": "2074;2396;2396;2074",
                "yn": "3569;3569;3588;3588"
            },
            {
                "class": "Wall",
                "xn": "1573;2256;2256;1573",
                "yn": "2734;2734;2753;2753"
            },
            {
                "class": "Wall",
                "xn": "770;789;789;770",
                "yn": "3066;3066;3175;3175"
            },
            {
                "class": "Wall",
                "xn": "980;965;904;919",
                "yn": "2742;2732;2826;2836"
            },
            {
                "class": "Wall",
                "xn": "1189;1208;1181;1162",
                "yn": "3212;3192;3166;3186"
            },
            {
                "class": "Wall",
                "xn": "844;881;844;806",
                "yn": "1989;1949;1914;1953"
            },
            {
                "class": "Wall",
                "xn": "301;335;243;209",
                "yn": "2806;2783;2641;2663"
            },
            {
                "class": "Wall",
                "xn": "818;812;771;778",
                "yn": "2915;2898;2912;2929"
            },
            {
                "class": "Wall",
                "xn": "970;954;920;937",
                "yn": "2743;2733;2804;2811"
            },
            {
                "class": "Wall",
                "xn": "857;848;822;831",
                "yn": "2893;2877;2892;2908"
            },
            {
                "class": "Wall",
                "xn": "1122;1155;1122;1090",
                "yn": "1639;1604;1573;1609"
            },
            {
                "class": "Wall",
                "xn": "1150;1175;1081;1057",
                "yn": "2302;2277;2189;2216"
            },
            {
                "class": "Wall",
                "xn": "2276;2315;2261;2222",
                "yn": "3024;2985;2930;2969"
            },
            {
                "class": "Wall",
                "xn": "1548;1586;1563;1525",
                "yn": "4128;4086;4066;4107"
            },
            {
                "class": "Wall",
                "xn": "1124;1156;1124;1091",
                "yn": "1436;1402;1371;1404"
            },
            {
                "class": "Wall",
                "xn": "1201;1219;1201;1182",
                "yn": "3204;3183;3166;3186"
            },
            {
                "class": "Wall",
                "xn": "1111;1129;1111;1092",
                "yn": "3204;3183;3166;3186"
            },
            {
                "class": "Wall",
                "xn": "1113;1139;1139;1113",
                "yn": "1918;1918;2028;2028"
            },
            {
                "class": "Wall",
                "xn": "2354;2407;2407;2354",
                "yn": "2377;2377;2397;2397"
            },
            {
                "class": "Wall",
                "xn": "1140;1163;1163;1140",
                "yn": "1918;1918;2023;2023"
            },
            {
                "class": "Wall",
                "xn": "2322;2359;2359;2322",
                "yn": "1291;1291;1363;1363"
            },
            {
                "class": "Wall",
                "xn": "1001;1024;1024;1001",
                "yn": "3407;3407;3470;3470"
            },
            {
                "class": "Wall",
                "xn": "2539;2570;2570;2539",
                "yn": "2377;2377;2397;2397"
            },
            {
                "class": "Wall",
                "xn": "1093;1112;1112;1093",
                "yn": "655;655;2023;2023"
            },
            {
                "class": "Wall",
                "xn": "2321;2483;2483;2321",
                "yn": "1304;1304;1363;1363"
            },
            {
                "class": "Wall",
                "xn": "242;390;390;242",
                "yn": "2829;2829;2846;2846"
            },
            {
                "class": "Wall",
                "xn": "242;332;332;242",
                "yn": "2776;2776;2781;2781"
            },
            {
                "class": "Wall",
                "xn": "242;334;334;242",
                "yn": "2557;2557;2564;2564"
            },
            {
                "class": "Wall",
                "xn": "242;390;390;242",
                "yn": "2495;2495;2509;2509"
            },
            {
                "class": "Wall",
                "xn": "242;338;338;242",
                "yn": "2784;2784;2792;2792"
            },
            {
                "class": "Wall",
                "xn": "242;340;340;242",
                "yn": "2546;2546;2556;2556"
            },
            {
                "class": "Wall",
                "xn": "242;350;350;242",
                "yn": "2794;2794;2810;2810"
            },
            {
                "class": "Wall",
                "xn": "242;351;351;242",
                "yn": "2529;2529;2545;2545"
            },
            {
                "class": "Wall",
                "xn": "242;624;624;242",
                "yn": "3406;3406;3423;3423"
            },
            {
                "class": "Wall",
                "xn": "242;441;441;242",
                "yn": "3166;3166;3184;3184"
            },
            {
                "class": "Wall",
                "xn": "1524;1529;1529;1524",
                "yn": "3647;3647;4107;4107"
            },
            {
                "class": "Wall",
                "xn": "766;878;878;766",
                "yn": "1959;1959;1964;1964"
            },
            {
                "class": "Wall",
                "xn": "766;854;854;766",
                "yn": "1976;1976;1982;1982"
            },
            {
                "class": "Wall",
                "xn": "766;869;869;766",
                "yn": "1959;1959;1975;1975"
            },
            {
                "class": "Wall",
                "xn": "2188;2329;2329;2188",
                "yn": "2664;2664;2678;2678"
            },
            {
                "class": "Wall",
                "xn": "1028;1117;1117;1028",
                "yn": "3615;3615;3627;3627"
            },
            {
                "class": "Wall",
                "xn": "1101;1113;1113;1101",
                "yn": "3608;3608;3704;3704"
            },
            {
                "class": "Wall",
                "xn": "655;737;737;655",
                "yn": "2246;2246;2251;2251"
            },
            {
                "class": "Wall",
                "xn": "655;744;744;655",
                "yn": "2236;2236;2244;2244"
            },
            {
                "class": "Wall",
                "xn": "655;755;755;655",
                "yn": "2219;2219;2235;2235"
            },
            {
                "class": "Wall",
                "xn": "1511;1596;1596;1511",
                "yn": "3742;3742;3760;3760"
            },
            {
                "class": "Wall",
                "xn": "1583;1656;1656;1583",
                "yn": "2704;2704;2709;2709"
            },
            {
                "class": "Wall",
                "xn": "1581;1656;1656;1581",
                "yn": "2711;2711;2717;2717"
            },
            {
                "class": "Wall",
                "xn": "1579;1656;1656;1579",
                "yn": "2719;2719;2727;2727"
            },
            {
                "class": "Wall",
                "xn": "2260;2265;2265;2260",
                "yn": "2928;2928;3023;3023"
            },
            {
                "class": "Wall",
                "xn": "2275;2282;2282;2275",
                "yn": "2949;2949;3023;3023"
            },
            {
                "class": "Wall",
                "xn": "2260;2274;2274;2260",
                "yn": "2935;2935;3023;3023"
            },
            {
                "class": "Wall",
                "xn": "2176;2310;2310;2176",
                "yn": "2681;2681;2686;2686"
            },
            {
                "class": "Wall",
                "xn": "2280;2286;2286;2280",
                "yn": "2577;2577;2705;2705"
            },
            {
                "class": "Wall",
                "xn": "2245;2396;2396;2245",
                "yn": "2610;2610;2617;2617"
            },
            {
                "class": "Wall",
                "xn": "2287;2301;2301;2287",
                "yn": "2566;2566;2695;2695"
            },
            {
                "class": "Wall",
                "xn": "2169;2301;2301;2169",
                "yn": "2682;2682;2698;2698"
            },
            {
                "class": "Wall",
                "xn": "1126;1133;1133;1126",
                "yn": "1372;1372;1435;1435"
            },
            {
                "class": "Wall",
                "xn": "2566;2653;2653;2566",
                "yn": "2892;2892;2907;2907"
            },
            {
                "class": "Wall",
                "xn": "2565;2653;2653;2565",
                "yn": "2738;2738;2755;2755"
            },
            {
                "class": "Wall",
                "xn": "1239;1248;1248;1239",
                "yn": "2450;2450;3182;3182"
            },
            {
                "class": "Wall",
                "xn": "990;1000;1000;990",
                "yn": "3407;3407;3472;3472"
            },
            {
                "class": "Wall",
                "xn": "1046;1108;1108;1046",
                "yn": "3284;3284;3299;3299"
            },
            {
                "class": "Wall",
                "xn": "1046;1109;1109;1046",
                "yn": "3202;3202;3209;3209"
            },
            {
                "class": "Wall",
                "xn": "740;1254;1254;740",
                "yn": "3167;3167;3176;3176"
            },
            {
                "class": "Wall",
                "xn": "1006;1178;1178;1006",
                "yn": "2240;2240;2245;2245"
            },
            {
                "class": "Wall",
                "xn": "1062;1197;1197;1062",
                "yn": "2205;2205;2212;2212"
            },
            {
                "class": "Wall",
                "xn": "1158;1164;1164;1158",
                "yn": "2165;2165;2322;2322"
            },
            {
                "class": "Wall",
                "xn": "1028;1184;1184;1028",
                "yn": "2228;2228;2238;2238"
            },
            {
                "class": "Wall",
                "xn": "898;1184;1184;898",
                "yn": "2293;2293;2303;2303"
            },
            {
                "class": "Wall",
                "xn": "886;1178;1178;886",
                "yn": "2278;2278;2290;2290"
            },
            {
                "class": "Wall",
                "xn": "1049;1192;1192;1049",
                "yn": "2213;2213;2227;2227"
            },
            {
                "class": "Wall",
                "xn": "1095;1109;1109;1095",
                "yn": "2165;2165;2322;2322"
            },
            {
                "class": "Wall",
                "xn": "899;1191;1191;899",
                "yn": "2304;2304;2320;2320"
            },
            {
                "class": "Wall",
                "xn": "2378;2395;2395;2378",
                "yn": "3278;3278;4504;4504"
            },
            {
                "class": "Wall",
                "xn": "1078;1205;1205;1078",
                "yn": "1994;1994;1999;1999"
            },
            {
                "class": "Wall",
                "xn": "1060;1066;1066;1060",
                "yn": "1909;1909;1979;1979"
            },
            {
                "class": "Wall",
                "xn": "1040;1215;1215;1040",
                "yn": "1917;1917;1925;1925"
            },
            {
                "class": "Wall",
                "xn": "1026;1210;1210;1026",
                "yn": "1947;1947;1957;1957"
            },
            {
                "class": "Wall",
                "xn": "916;924;924;916",
                "yn": "2474;2474;2534;2534"
            },
            {
                "class": "Wall",
                "xn": "1755;1772;1772;1755",
                "yn": "3505;3505;3564;3564"
            },
            {
                "class": "Wall",
                "xn": "1637;1654;1654;1637",
                "yn": "3378;3378;3526;3526"
            },
            {
                "class": "Wall",
                "xn": "2178;2396;2396;2178",
                "yn": "3366;3366;3383;3383"
            },
            {
                "class": "Wall",
                "xn": "2199;2354;2354;2199",
                "yn": "2657;2657;2663;2663"
            },
            {
                "class": "Wall",
                "xn": "2551;2569;2569;2551",
                "yn": "2241;2241;2735;2735"
            },
            {
                "class": "Wall",
                "xn": "776;784;784;776",
                "yn": "1917;1917;2200;2200"
            },
            {
                "class": "Wall",
                "xn": "850;856;856;850",
                "yn": "1909;1909;1979;1979"
            },
            {
                "class": "Wall",
                "xn": "858;868;868;858",
                "yn": "1904;1904;1971;1971"
            },
            {
                "class": "Wall",
                "xn": "892;910;910;892",
                "yn": "3167;3167;3238;3238"
            },
            {
                "class": "Wall",
                "xn": "1031;1126;1126;1031",
                "yn": "3629;3629;3635;3635"
            },
            {
                "class": "Wall",
                "xn": "1025;1110;1110;1025",
                "yn": "3607;3607;3614;3614"
            },
            {
                "class": "Wall",
                "xn": "1264;1269;1269;1264",
                "yn": "2531;2531;3121;3121"
            },
            {
                "class": "Wall",
                "xn": "1728;1925;1925;1728",
                "yn": "3741;3741;3759;3759"
            },
            {
                "class": "Wall",
                "xn": "1170;1176;1176;1170",
                "yn": "2180;2180;2248;2248"
            },
            {
                "class": "Wall",
                "xn": "1166;1171;1171;1166",
                "yn": "2178;2178;2255;2255"
            },
            {
                "class": "Wall",
                "xn": "1089;1094;1094;1089",
                "yn": "2174;2174;2322;2322"
            },
            {
                "class": "Wall",
                "xn": "2179;2196;2196;2179",
                "yn": "3188;3188;3388;3388"
            },
            {
                "class": "Wall",
                "xn": "1570;1588;1588;1570",
                "yn": "2908;2908;3272;3272"
            },
            {
                "class": "Wall",
                "xn": "2819;2837;2837;2819",
                "yn": "2647;2647;2999;2999"
            },
            {
                "class": "Wall",
                "xn": "2548;2839;2839;2548",
                "yn": "3214;3214;3232;3232"
            },
            {
                "class": "Wall",
                "xn": "755;1063;1063;755",
                "yn": "3418;3418;3425;3425"
            },
            {
                "class": "Wall",
                "xn": "755;1065;1065;755",
                "yn": "3399;3399;3417;3417"
            },
            {
                "class": "Wall",
                "xn": "1199;1204;1124;1118",
                "yn": "1998;1992;1917;1923"
            },
            {
                "class": "Wall",
                "xn": "1049;1059;1059;1049",
                "yn": "1904;1904;1971;1971"
            },
            {
                "class": "Wall",
                "xn": "2550;2839;2839;2550",
                "yn": "2414;2414;2432;2432"
            },
            {
                "class": "Wall",
                "xn": "1530;1538;1538;1530",
                "yn": "3641;3641;3759;3759"
            },
            {
                "class": "Wall",
                "xn": "2130;2265;2265;2130",
                "yn": "2725;2725;2733;2733"
            },
            {
                "class": "Wall",
                "xn": "887;878;778;787",
                "yn": "2870;2856;2918;2932"
            },
            {
                "class": "Wall",
                "xn": "591;607;607;591",
                "yn": "3167;3167;3423;3423"
            },
            {
                "class": "Wall",
                "xn": "2157;2287;2287;2157",
                "yn": "2699;2699;2706;2706"
            },
            {
                "class": "Wall",
                "xn": "900;908;908;900",
                "yn": "2269;2269;2331;2331"
            },
            {
                "class": "Wall",
                "xn": "909;917;917;909",
                "yn": "2259;2259;2331;2331"
            },
            {
                "class": "Wall",
                "xn": "1624;1639;1639;1624",
                "yn": "3337;3337;3395;3395"
            },
            {
                "class": "Wall",
                "xn": "740;911;911;740",
                "yn": "3183;3183;3188;3188"
            },
            {
                "class": "Wall",
                "xn": "1755;1772;1772;1755",
                "yn": "3697;3697;3759;3759"
            },
            {
                "class": "Wall",
                "xn": "892;910;910;892",
                "yn": "3357;3357;3424;3424"
            },
            {
                "class": "Wall",
                "xn": "1539;1544;1544;1539",
                "yn": "3647;3647;3759;3759"
            },
            {
                "class": "Text",
                "height": 45,
                "text": "patio",
                "width": 148,
                "x": 1633,
                "y": 390
            },
            {
                "class": "Text",
                "height": 44,
                "text": "balcony",
                "width": 239,
                "x": 564,
                "y": 820
            },
            {
                "class": "Text",
                "height": 44,
                "text": "balcony",
                "width": 239,
                "x": 2607,
                "y": 953
            },
            {
                "class": "Text",
                "height": 45,
                "text": "living",
                "width": 180,
                "x": 1656,
                "y": 1131
            },
            {
                "class": "Text",
                "height": 44,
                "text": "mastersuite",
                "width": 373,
                "x": 501,
                "y": 1311
            },
            {
                "class": "Text",
                "height": 46,
                "text": "dn",
                "width": 57,
                "x": 1850,
                "y": 1411
            },
            {
                "class": "Text",
                "height": 26,
                "text": "fireplace",
                "width": 213,
                "x": 844,
                "y": 1715
            },
            {
                "class": "Text",
                "height": 44,
                "text": "bedroom",
                "width": 254,
                "x": 2605,
                "y": 1721
            },
            {
                "class": "Text",
                "height": 45,
                "text": "dining",
                "width": 206,
                "x": 1644,
                "y": 1838
            },
            {
                "class": "Text",
                "height": 26,
                "text": "closet",
                "width": 147,
                "x": 428,
                "y": 2051
            },
            {
                "class": "Text",
                "height": 45,
                "text": "kitchen",
                "width": 245,
                "x": 1946,
                "y": 2392
            },
            {
                "class": "Text",
                "height": 26,
                "text": "closet",
                "width": 146,
                "x": 2659,
                "y": 2572
            },
            {
                "class": "Text",
                "height": 43,
                "text": "masterbath",
                "width": 366,
                "x": 544,
                "y": 2691
            },
            {
                "class": "Text",
                "height": 26,
                "text": "closet",
                "width": 146,
                "x": 967,
                "y": 2972
            },
            {
                "class": "Text",
                "height": 27,
                "text": "laundry",
                "width": 191,
                "x": 1613,
                "y": 2991
            },
            {
                "class": "Text",
                "height": 64,
                "text": "powderroom",
                "width": 150,
                "x": 2041,
                "y": 3000
            },
            {
                "class": "Text",
                "height": 25,
                "text": "closet",
                "width": 147,
                "x": 2665,
                "y": 3049
            },
            {
                "class": "Text",
                "height": 27,
                "text": "closet",
                "width": 146,
                "x": 2258,
                "y": 3198
            },
            {
                "class": "Text",
                "height": 27,
                "text": "clos",
                "width": 98,
                "x": 1694,
                "y": 3342
            },
            {
                "class": "Text",
                "height": 26,
                "text": "es",
                "width": 46,
                "x": 1794,
                "y": 3342
            },
            {
                "class": "Text",
                "height": 25,
                "text": "foyer",
                "width": 123,
                "x": 1310,
                "y": 3543
            },
            {
                "class": "Text",
                "height": 44,
                "text": "bath",
                "width": 142,
                "x": 1939,
                "y": 3628
            },
            {
                "class": "Text",
                "height": 44,
                "text": "bedroom",
                "width": 254,
                "x": 2617,
                "y": 3647
            },
            {
                "class": "Text",
                "height": 45,
                "text": "bedroom",
                "width": 254,
                "x": 1815,
                "y": 3989
            },
            {
                "class": "Text",
                "height": 147,
                "text": "closet",
                "width": 25,
                "x": 1786,
                "y": 3566
            },
            {
                "class": "Text",
                "height": 142,
                "text": "bath",
                "width": 44,
                "x": 2856,
                "y": 3146
            },
            {
                "class": "Text",
                "height": 143,
                "text": "bath",
                "width": 45,
                "x": 2855,
                "y": 2417
            },
            {
                "class": "room",
                "height": 149.1461451677328,
                "width": 270.5937205186009,
                "x": 916.1834631732153,
                "y": 2322.4185461832667
            },
            {
                "class": "room",
                "height": 219.45789931823538,
                "width": 294.0309719021016,
                "x": 291.90031268541986,
                "y": 3181.074210506071
            },
            {
                "class": "room",
                "height": 219.45789931823538,
                "width": 119.31691613418616,
                "x": 911.9221447398515,
                "y": 3185.3355289394344
            },
            {
                "class": "room",
                "height": 213.30029418202503,
                "width": 111.15649133429451,
                "x": 1766.486943366627,
                "y": 3523.9611982466895
            },
            {
                "class": "room",
                "height": 258.36373661484686,
                "width": 402.5667523998777,
                "x": 1571.212026157731,
                "y": 2929.1237581334376
            },
            {
                "class": "room",
                "height": 249.3510481282824,
                "width": 234.32990065067497,
                "x": 1991.8041555307377,
                "y": 2938.136446620002
            },
            {
                "class": "room",
                "height": 144.20301578503086,
                "width": 288.4060315700617,
                "x": 2087.939499387425,
                "y": 3593.0584766436837
            },
            {
                "class": "room",
                "height": 150.21147477607337,
                "width": 231.3256711551535,
                "x": 2577.628907157425,
                "y": 3235.5551666766282
            },
            {
                "class": "room",
                "height": 150.21147477607337,
                "width": 267.3764251014113,
                "x": 2568.6162186708607,
                "y": 2256.1763511366275
            },
            {
                "class": "Room",
                "xn": "1538.16550171;1535.16127221;1610.2670096;1619.27969809;2376.34553096;2370.33707197;2033.86336847;2069.91412241;2376.34553096;2370.33707197;2184.07484324;2178.06638425;1904.68150016;1913.69418865;1892.66458218;1877.6434347;1598.25009162;1583.22894414;1655.33045203;1883.65189369;1877.6434347;1907.68572966;1904.68150016",
                "yn": "3752.28263991;4037.68444198;4037.68444198;4461.28080085;4455.27234186;3761.29532839;3752.28263991;3578.03732917;3566.02041118;3388.77087095;3391.77510044;3202.50864223;3220.5340192;3313.66513356;3310.66090406;3199.50441273;3196.50018323;3241.56362567;3502.93159178;3508.94005077;3421.8173954;3418.8131659;3758.2910989"
            },
            {
                "class": "Room",
                "xn": "3092.87066557;2843.1579244;2839.59059953;2821.75397516;2811.05200054;2657.65703097;2646.95505634;2557.7719345;2572.04123399;2811.05200054;2821.75397516;2839.59059953;2843.1579244;2554.20460963;2554.20460963;2390.10766543;2400.80964005;3089.30334069;3089.30334069;2982.28359448;2992.9855691;3096.43799044;3096.43799044;2946.61034574;2939.47569599;3085.73601582",
                "yn": "2836.02327465;2832.45594978;2996.55289397;2996.55289397;2825.32130003;2821.75397516;2943.04302087;2946.61034574;3207.02506153;3214.15971128;3121.40926456;3121.40926456;3403.22792959;3399.66060471;3314.04480774;3321.17945749;4095.2889551;4098.85627997;3396.09327984;3410.36257933;3224.8616859;3203.45773665;3014.38951834;3000.12021885;2982.28359448;2982.28359448"
            },
            {
                "class": "Room",
                "xn": "2379.40569081;2375.83836594;3096.43799044;3100.00531531;2985.85091935;2982.28359448;3082.16869095;3078.60136607;2971.58161986;2957.31232036;3075.0340412;3078.60136607;2850.29257415;2832.45594978;2825.32130003;2814.61932541;2657.65703097;2654.08970609;2579.17588374;2575.60855887;2807.48467566;2821.75397516;2850.29257415;2846.72524928;2554.20460963;2550.63728475",
                "yn": "2365.13639132;1369.85275153;1359.15077691;2233.14537099;2236.71269586;2436.48288879;2432.91556392;2654.08970609;2643.38773147;2671.92633046;2664.79168071;2807.48467566;2811.05200054;2632.68575685;2646.95505634;2807.48467566;2800.35002592;2689.76295483;2704.03225432;2440.05021366;2432.91556392;2529.23333551;2529.23333551;2243.84734561;2240.28002073;2365.13639132"
            },
            {
                "class": "Room",
                "xn": "1498.27644699;1180.78453322;1187.91918297;1098.73606112;1052.36083776;1105.87071087;1116.57268549;1170.0825586;1255.69835557;1319.9102033;1294.93892918;1269.96765507;1170.0825586;1216.45778196;1105.87071087;1109.43803575;1227.15975658;1220.02510683;1116.57268549;1105.87071087;1227.15975658;1220.02510683;1116.57268549;1116.57268549;1216.45778196;1230.72708145;1123.70733524;1105.87071087;1323.47752817;1330.61217792;2118.99097502;2126.12562477;2329.46314258;2333.03046745;2347.29976695;2322.32849283;2325.8958177;2365.13639132;2354.43441669;2233.14537099;2254.54932023;2361.56906644;2358.00174157;2136.82759939;1662.37339118;1648.10409169;1594.59421858;1576.75759421;2258.1166451;2397.24231518;2415.07893955;2543.502635;2547.06995988;2593.44518324;2597.01250811;2568.47390912;2539.93531013;2404.37696493;2382.97301568;2258.1166451;1530.38237085;1544.65167035;1569.62294446;1612.43084295;1644.53676681;1765.82581252;1744.42186328;1587.45956883;1526.81504598;1512.54574648",
                "yn": "4023.94245762;4027.5097825;3624.40207176;3595.86347277;3449.60315294;3285.50620875;3189.18843716;3199.89041178;3178.48646254;2850.29257415;2693.3302797;2532.80066038;2258.1166451;2179.63549788;2136.82759939;2033.37517805;1947.75938108;1897.81683285;1904.9514826;1640.96944194;1648.10409169;1594.59421858;1544.65167035;1437.63192413;1405.52600027;1359.15077691;1359.15077691;727.734274251;724.166949377;681.359050892;702.763000134;731.301599125;731.301599125;795.513446853;966.745040794;956.043066173;1391.25670077;1384.12205103;1912.08613235;1908.51880747;2094.01970091;2083.31772629;2504.26206139;2736.13817819;2739.70550306;2636.25308172;2643.38773147;2746.84015281;2753.97480256;2646.95505634;2386.54034056;2386.54034056;2750.40747768;2753.97480256;2882.39849801;2910.937097;3285.50620875;3285.50620875;3010.82219347;2903.80244726;2903.80244726;3132.11123918;3256.96760976;3342.58340673;3510.2476758;3567.32487378;3749.25844234;3727.8544931;3642.23869613;3656.50799562"
            },
            {
                "class": "Room",
                "xn": "289.769653469;296.161631119;1080.24422286;1082.37488207;1159.07861387;1169.73190996;1054.67631226;977.972580457",
                "yn": "3419.70804277;4082.34305916;4078.08174073;4024.81526031;4029.07657875;3713.73901468;3703.08571859;3426.10002042"
            },
            {
                "class": "Room",
                "xn": "287.638994252;882.092915706;899.13818944;890.615552573;928.967418473;992.887194974;980.103239674;1240.04366411;1242.17432333;982.23389889;937.49005534;886.35423414;779.821273306;767.037318005;741.469407405;739.338748189;888.484893356;897.007530223;620.021832054;605.107217538;291.900312685;291.900312685;400.563932736;353.689429969;315.337564069;302.553608769;308.945586419;338.774815452;385.649318219;394.171955086;396.302614303;294.030971902",
                "yn": "2290.45865793;2290.45865793;2469.43403213;2503.5245796;2563.18303767;2571.70567454;2488.60996508;2495.00194273;2744.28907109;2750.68104874;2733.635775;2846.56071349;2908.34983077;3170.42091442;3174.68223286;3202.38080267;3191.72750659;3400.53210982;3398.40145061;3157.63695912;3161.89827756;2848.6913727;2846.56071349;2799.68621072;2748.55038952;2682.4999538;2593.0122667;2550.39908237;2518.43919412;2514.17787568;2495.00194273;2490.7406243"
            },
            {
                "class": "Room",
                "xn": "767.037318005;660.504357171;656.243038738;291.900312685;283.377675819;771.298636439",
                "yn": "2186.05635632;2181.79503788;2271.28272498;2269.15206577;1932.50790953;1934.63856875"
            },
            {
                "class": "Room",
                "xn": "283.50552289;1085.57494524;1085.57494524;1058.65986396;1026.36176641;1101.72399401;1116.07870403;1074.80891273;1035.33346017;994.063668867;933.056151283;904.346731243;888.197682471;733.884549759;818.218471125;807.45243861;814.62979362;857.693923679;884.609004966;866.665617441;836.16185865;288.888539147",
                "yn": "1010.21271764;1012.00705639;1914.55944888;1900.20473886;1955.82924019;2036.57448405;2156.79518047;2196.27063302;2228.56873056;2241.12910183;2244.71777934;2271.63286062;2296.75360316;2264.45550561;2160.38385797;2106.5536954;2025.80845153;1979.15564397;1963.0065952;1905.58775512;1918.14812639;1914.55944888"
            },
            {
                "class": "Room",
                "xn": "789.509051085;882.814666214;927.673135025;970.737265085;1247.06543296;1243.47675546;782.331696076",
                "yn": "2931.94952153;2872.7363427;2826.08353514;2765.07601755;2765.07601755;3161.62488185;3170.59657561"
            },
            {
                "class": "room",
                "height": 321.3122404042206,
                "width": 678.0447277821345,
                "x": 2418.696864775077,
                "y": 4149.228931204107
            }
        ],
        "class": "image",
        "filename": "38.png"
    }
]
