[
    {
        "annotations": [
            {
                "class": "Window",
                "xn": "0;26;26;0",
                "yn": "1330;1330;1480;1480"
            },
            {
                "class": "Window",
                "xn": "0;26;26;0",
                "yn": "990;990;1240;1240"
            },
            {
                "class": "Window",
                "xn": "0;26;26;0",
                "yn": "727;727;983;983"
            },
            {
                "class": "Window",
                "xn": "351;403;403;351",
                "yn": "0;0;36;36"
            },
            {
                "class": "Window",
                "xn": "351;403;403;351",
                "yn": "0;0;36;36"
            },
            {
                "class": "Window",
                "xn": "0;25;25;0",
                "yn": "364;364;423;423"
            },
            {
                "class": "Window",
                "xn": "96;344;344;96",
                "yn": "0;0;26;26"
            },
            {
                "class": "Window",
                "xn": "0;25;25;0",
                "yn": "364;364;439;439"
            },
            {
                "class": "Window",
                "xn": "0;26;26;0",
                "yn": "1063;1063;1240;1240"
            },
            {
                "class": "Window",
                "xn": "96;272;272;96",
                "yn": "0;0;26;26"
            },
            {
                "class": "Window",
                "xn": "0;26;26;0",
                "yn": "554;554;638;638"
            },
            {
                "class": "Window",
                "xn": "0;26;26;0",
                "yn": "727;727;905;905"
            },
            {
                "class": "Window",
                "xn": "0;25;25;0",
                "yn": "1535;1535;1595;1595"
            },
            {
                "class": "Window",
                "xn": "0;26;26;0",
                "yn": "1330;1330;1473;1473"
            },
            {
                "class": "Window",
                "xn": "0;26;26;0",
                "yn": "554;554;640;640"
            },
            {
                "class": "Window",
                "xn": "261;343;343;261",
                "yn": "2055;2055;2079;2079"
            },
            {
                "class": "Window",
                "xn": "0;26;26;0",
                "yn": "1320;1320;1473;1473"
            },
            {
                "class": "Window",
                "xn": "0;26;26;0",
                "yn": "1535;1535;1701;1701"
            },
            {
                "class": "Window",
                "xn": "84;165;165;84",
                "yn": "2055;2055;2079;2079"
            },
            {
                "class": "Window",
                "xn": "0;26;26;0",
                "yn": "348;348;423;423"
            },
            {
                "class": "Wall",
                "xn": "839;889;889;839",
                "yn": "1;1;48;48"
            },
            {
                "class": "Wall",
                "xn": "579;617;617;579",
                "yn": "2044;2044;2079;2079"
            },
            {
                "class": "Wall",
                "xn": "582;616;616;582",
                "yn": "1268;1268;1439;1439"
            },
            {
                "class": "Wall",
                "xn": "1;25;25;1",
                "yn": "1;1;365;365"
            },
            {
                "class": "Wall",
                "xn": "1;25;25;1",
                "yn": "1595;1595;2079;2079"
            },
            {
                "class": "Wall",
                "xn": "1218;1242;1242;1218",
                "yn": "1253;1253;1891;1891"
            },
            {
                "class": "Wall",
                "xn": "403;427;427;403",
                "yn": "1867;1867;2079;2079"
            },
            {
                "class": "Wall",
                "xn": "1099;1125;1125;1099",
                "yn": "1134;1134;1277;1277"
            },
            {
                "class": "Wall",
                "xn": "864;889;889;864",
                "yn": "713;713;794;794"
            },
            {
                "class": "Wall",
                "xn": "864;888;888;864",
                "yn": "343;343;447;447"
            },
            {
                "class": "Wall",
                "xn": "403;427;427;403",
                "yn": "1;1;367;367"
            },
            {
                "class": "Wall",
                "xn": "567;700;700;567",
                "yn": "1867;1867;1891;1891"
            },
            {
                "class": "Wall",
                "xn": "1;26;26;1",
                "yn": "905;905;1064;1064"
            },
            {
                "class": "Wall",
                "xn": "754;889;889;754",
                "yn": "343;343;367;367"
            },
            {
                "class": "Wall",
                "xn": "1;26;26;1",
                "yn": "423;423;555;555"
            },
            {
                "class": "Wall",
                "xn": "272;428;428;272",
                "yn": "1;1;26;26"
            },
            {
                "class": "Wall",
                "xn": "1064;1125;1125;1064",
                "yn": "770;770;795;795"
            },
            {
                "class": "Wall",
                "xn": "1;26;26;1",
                "yn": "1240;1240;1331;1331"
            },
            {
                "class": "Wall",
                "xn": "1100;1124;1124;1100",
                "yn": "770;770;868;868"
            },
            {
                "class": "Wall",
                "xn": "402;520;520;402",
                "yn": "342;342;367;367"
            },
            {
                "class": "Wall",
                "xn": "1;26;26;1",
                "yn": "638;638;728;728"
            },
            {
                "class": "Wall",
                "xn": "1;26;26;1",
                "yn": "1473;1473;1536;1536"
            },
            {
                "class": "Wall",
                "xn": "0;97;97;0",
                "yn": "1;1;26;26"
            },
            {
                "class": "Wall",
                "xn": "1170;1243;1243;1170",
                "yn": "1866;1866;1891;1891"
            },
            {
                "class": "Wall",
                "xn": "524;547;547;524",
                "yn": "1207;1207;1277;1277"
            },
            {
                "class": "Wall",
                "xn": "165;262;262;165",
                "yn": "2056;2056;2079;2079"
            },
            {
                "class": "Wall",
                "xn": "0;85;85;0",
                "yn": "2055;2055;2079;2079"
            },
            {
                "class": "Wall",
                "xn": "343;428;428;343",
                "yn": "2055;2055;2079;2079"
            },
            {
                "class": "Wall",
                "xn": "388;411;411;388",
                "yn": "956;956;991;991"
            },
            {
                "class": "Wall",
                "xn": "389;411;411;389",
                "yn": "763;763;790;790"
            },
            {
                "class": "Wall",
                "xn": "392;411;411;392",
                "yn": "1424;1424;1491;1491"
            },
            {
                "class": "Wall",
                "xn": "523;616;616;523",
                "yn": "1423;1423;1439;1439"
            },
            {
                "class": "Wall",
                "xn": "0;412;412;0",
                "yn": "1480;1480;1492;1492"
            },
            {
                "class": "Wall",
                "xn": "0;306;306;0",
                "yn": "640;640;651;651"
            },
            {
                "class": "Wall",
                "xn": "289;300;300;289",
                "yn": "1313;1313;1333;1333"
            },
            {
                "class": "Wall",
                "xn": "1207;1243;1243;1207",
                "yn": "1253;1253;1268;1268"
            },
            {
                "class": "Wall",
                "xn": "402;439;439;402",
                "yn": "1866;1866;1892;1892"
            },
            {
                "class": "Wall",
                "xn": "523;923;923;523",
                "yn": "1268;1268;1277;1277"
            },
            {
                "class": "Wall",
                "xn": "0;253;253;0",
                "yn": "341;341;349;349"
            },
            {
                "class": "Wall",
                "xn": "0;153;153;0",
                "yn": "1701;1701;1710;1710"
            },
            {
                "class": "Wall",
                "xn": "1205;1243;1243;1205",
                "yn": "1269;1269;1278;1278"
            },
            {
                "class": "Wall",
                "xn": "913;1125;1125;913",
                "yn": "1207;1207;1216;1216"
            },
            {
                "class": "Wall",
                "xn": "331;520;520;331",
                "yn": "340;340;350;350"
            },
            {
                "class": "Wall",
                "xn": "607;615;615;607",
                "yn": "1268;1268;1891;1891"
            },
            {
                "class": "Wall",
                "xn": "0;253;253;0",
                "yn": "983;983;991;991"
            },
            {
                "class": "Wall",
                "xn": "0;245;245;0",
                "yn": "439;439;448;448"
            },
            {
                "class": "Wall",
                "xn": "344;352;352;344",
                "yn": "1;1;36;36"
            },
            {
                "class": "Wall",
                "xn": "403;411;411;403",
                "yn": "1;1;790;790"
            },
            {
                "class": "Wall",
                "xn": "0;412;412;0",
                "yn": "1313;1313;1321;1321"
            },
            {
                "class": "Wall",
                "xn": "403;411;411;403",
                "yn": "1801;1801;2079;2079"
            },
            {
                "class": "Wall",
                "xn": "331;412;412;331",
                "yn": "982;982;992;992"
            },
            {
                "class": "Wall",
                "xn": "374;412;412;374",
                "yn": "1424;1424;1433;1433"
            },
            {
                "class": "Wall",
                "xn": "403;411;411;403",
                "yn": "1424;1424;1722;1722"
            },
            {
                "class": "Wall",
                "xn": "233;241;241;233",
                "yn": "1483;1483;1710;1710"
            },
            {
                "class": "Wall",
                "xn": "290;299;299;290",
                "yn": "1412;1412;1491;1491"
            },
            {
                "class": "Wall",
                "xn": "297;306;306;297",
                "yn": "499;499;651;651"
            },
            {
                "class": "Wall",
                "xn": "524;532;532;524",
                "yn": "1207;1207;1290;1290"
            },
            {
                "class": "Wall",
                "xn": "914;922;922;914",
                "yn": "1207;1207;1277;1277"
            },
            {
                "class": "Wall",
                "xn": "343;352;352;343",
                "yn": "243;243;349;349"
            },
            {
                "class": "Wall",
                "xn": "403;411;411;403",
                "yn": "1126;1126;1321;1321"
            },
            {
                "class": "Wall",
                "xn": "403;411;411;403",
                "yn": "956;956;1004;1004"
            },
            {
                "class": "Wall",
                "xn": "344;352;352;344",
                "yn": "983;983;1157;1157"
            },
            {
                "class": "Wall",
                "xn": "321;412;412;321",
                "yn": "1702;1702;1710;1710"
            },
            {
                "class": "Wall",
                "xn": "343;412;412;343",
                "yn": "1137;1137;1147;1147"
            },
            {
                "class": "Text",
                "height": 31,
                "text": "bedroom 3",
                "width": 230,
                "x": 132,
                "y": 71
            },
            {
                "class": "Text",
                "height": 31,
                "text": "dining",
                "width": 128,
                "x": 850,
                "y": 839
            },
            {
                "class": "Text",
                "height": 31,
                "text": "kitchen",
                "width": 151,
                "x": 612,
                "y": 1137
            },
            {
                "class": "Text",
                "height": 30,
                "text": "laundry",
                "width": 168,
                "x": 104,
                "y": 1344
            },
            {
                "class": "Text",
                "height": 22,
                "text": "robe",
                "width": 59,
                "x": 284,
                "y": 1503
            },
            {
                "class": "Text",
                "height": 31,
                "text": "doublegarage",
                "width": 317,
                "x": 805,
                "y": 1542
            },
            {
                "class": "Text",
                "height": 29,
                "text": "wir",
                "width": 84,
                "x": 263,
                "y": 1606
            },
            {
                "class": "Text",
                "height": 29,
                "text": "entry",
                "width": 113,
                "x": 466,
                "y": 1648
            },
            {
                "class": "Text",
                "height": 31,
                "text": "mastersuite",
                "width": 276,
                "x": 116,
                "y": 1754
            },
            {
                "class": "Text",
                "height": 58,
                "text": "robe",
                "width": 21,
                "x": 370,
                "y": 1563
            },
            {
                "class": "Text",
                "height": 59,
                "text": "robe",
                "width": 21,
                "x": 366,
                "y": 1190
            },
            {
                "class": "Text",
                "height": 69,
                "text": "entry",
                "width": 25,
                "x": 367,
                "y": 1017
            },
            {
                "class": "Text",
                "height": 62,
                "text": "linen",
                "width": 21,
                "x": 547,
                "y": 1307
            },
            {
                "class": "door",
                "height": 64.80000000000001,
                "width": 83.51999999999998,
                "x": 250.55999999999995,
                "y": 283.67999999999995
            },
            {
                "class": "door",
                "height": 69.12,
                "width": 76.32,
                "x": 143.99999999999997,
                "y": 361.43999999999994
            },
            {
                "class": "door",
                "height": 76.31999999999994,
                "width": 54.71999999999997,
                "x": 236.15999999999997,
                "y": 447.8399999999999
            },
            {
                "class": "door",
                "height": 66.2399999999999,
                "width": 86.39999999999998,
                "x": 246.23999999999995,
                "y": 983.5199999999999
            },
            {
                "class": "door",
                "height": 82.07999999999993,
                "width": 71.99999999999997,
                "x": 231.83999999999995,
                "y": 1331.9999999999998
            },
            {
                "class": "door",
                "height": 54.72000000000003,
                "width": 63.35999999999996,
                "x": 311.03999999999996,
                "y": 1379.5199999999998
            },
            {
                "class": "door",
                "height": 60.48000000000002,
                "width": 80.63999999999999,
                "x": 143.99999999999997,
                "y": 1651.6799999999996
            },
            {
                "class": "door",
                "height": 82.08000000000015,
                "width": 67.68,
                "x": 344.1599999999999,
                "y": 1723.6799999999996
            },
            {
                "class": "door",
                "height": 83.51999999999998,
                "width": 95.03999999999996,
                "x": 456.4799999999999,
                "y": 1808.6399999999996
            },
            {
                "class": "door",
                "height": 120.96000000000004,
                "width": 61.92000000000007,
                "x": 470.8799999999999,
                "y": 1288.7999999999997
            },
            {
                "class": "door",
                "height": 119.51999999999998,
                "width": 48.95999999999998,
                "x": 408.9599999999999,
                "y": 1009.4399999999998
            },
            {
                "class": "door",
                "height": 95.38559999999984,
                "width": 78.79679999999985,
                "x": 1125.9647999999997,
                "y": 1248.3071999999997
            },
            {
                "class": "window",
                "height": 261.27359999999993,
                "width": 31.103999999999928,
                "x": 858.4703999999998,
                "y": 445.8239999999999
            },
            {
                "class": "window",
                "height": 26.956800000000044,
                "width": 174.18239999999992,
                "x": 889.5743999999997,
                "y": 769.3055999999998
            },
            {
                "class": "window",
                "height": 261.2735999999999,
                "width": 22.809600000000046,
                "x": 1094.8607999999997,
                "y": 866.7647999999998
            },
            {
                "class": "Text",
                "height": 55.98719999999997,
                "text": "robe",
                "width": 16.588799999999992,
                "x": 364.9535999999999,
                "y": 122.34239999999997
            },
            {
                "class": "Text",
                "height": 35.25119999999998,
                "text": "outdoor room",
                "width": 337.9968,
                "x": 512.1791999999998,
                "y": 51.83999999999999
            },
            {
                "class": "Text",
                "height": 39.39840000000004,
                "text": "family",
                "width": 105.7536,
                "x": 584.7551999999998,
                "y": 659.4047999999998
            },
            {
                "class": "Text",
                "height": 35.25120000000004,
                "text": "childrens retreat",
                "width": 414.7199999999999,
                "x": 49.76639999999999,
                "y": 792.1151999999997
            },
            {
                "class": "Text",
                "height": 33.177599999999984,
                "text": "bedroom 2",
                "width": 240.53759999999994,
                "x": 64.28159999999998,
                "y": 1011.9167999999997
            },
            {
                "class": "Text",
                "height": 33.177599999999984,
                "text": "wc",
                "width": 68.42879999999997,
                "x": 105.75359999999998,
                "y": 360.8063999999999
            },
            {
                "class": "Text",
                "height": 41.47199999999998,
                "text": "bathroom",
                "width": 213.58079999999993,
                "x": 107.82719999999998,
                "y": 472.7807999999999
            },
            {
                "class": "Text",
                "height": 24.883199999999988,
                "text": "broom",
                "width": 93.31200000000001,
                "x": 304.8191999999999,
                "y": 1449.4463999999996
            },
            {
                "class": "Text",
                "height": 24.883200000000215,
                "text": "ensuite",
                "width": 170.03519999999997,
                "x": 72.57599999999998,
                "y": 1575.9359999999995
            },
            {
                "class": "Text",
                "height": 33.177599999999984,
                "text": "portico",
                "width": 174.18239999999997,
                "x": 441.6767999999999,
                "y": 1963.6991999999996
            },
            {
                "class": "door",
                "height": 29.030399999999986,
                "width": 232.2432,
                "x": 520.4735999999998,
                "y": 340.0703999999999
            },
            {
                "class": "door",
                "height": 194.91839999999996,
                "width": 14.515199999999993,
                "x": 340.0703999999999,
                "y": 41.47199999999999
            },
            {
                "class": "room",
                "height": 208.1432952861428,
                "width": 206.34895653367596,
                "x": 28.70942003946796,
                "y": 1489.3011645474005
            },
            {
                "class": "room",
                "height": 148.93011645474007,
                "width": 265.56213536507863,
                "x": 26.915081287001215,
                "y": 1327.810676825393
            },
            {
                "class": "room",
                "height": 337.3356854637485,
                "width": 446.7903493642201,
                "x": 432.43563934448616,
                "y": 3.588677504933495
            },
            {
                "class": "Room",
                "xn": "25.1207425345;349.896056731;340.924362969;26.915081287",
                "yn": "26.915081287;30.5037587919;333.747007959;331.952669206"
            },
            {
                "class": "room",
                "height": 93.30561512827086,
                "width": 186.61123025654175,
                "x": 26.915081287001215,
                "y": 346.3073792260823
            },
            {
                "class": "room",
                "height": 186.61123025654177,
                "width": 270.9451516224789,
                "x": 26.915081287001215,
                "y": 448.5846881166869
            },
            {
                "class": "room",
                "height": 321.18663669154785,
                "width": 317.5979591866143,
                "x": 25.120742534534465,
                "y": 994.0636688665782
            },
            {
                "class": "Room",
                "xn": "26.915081287;407.31489681;407.31489681;321.186636692;321.186636692;398.343203048;405.520558057;236.852715326;240.441392831;25.1207425345",
                "yn": "2063.48956534;2050.92919407;1706.4161536;1711.79916985;1701.03313734;1701.03313734;1491.0955033;1494.6841808;1706.4161536;1708.21049235"
            },
            {
                "class": "room",
                "height": 51.68512462426952,
                "width": 90.4489680924716,
                "x": 300.9898434001575,
                "y": 1430.4618315128698
            },
            {
                "class": "Room",
                "xn": "216.088133323;214.577027496;306.754482969;303.732271314;22.6665874115;24.1776932389;409.509679235;415.554102544;297.687848004;302.221165487;411.020785062;406.48746758;611.997860111;604.442330974;521.331510465;524.35372212;550.042521186;545.509203704;918.75234308;914.219025598;1098.57393654;1103.10725403;861.330321637;867.374744947;411.020785062;414.042996717;394.39862096;389.865303478;401.954150097;400.44304427",
                "yn": "352.087657792;436.709584128;441.242901611;657.331034934;649.775505797;985.240999487;983.72989366;1329.77312814;1325.23981066;1421.95058362;1427.99500693;1866.21569688;1866.21569688;1438.57274772;1437.06164189;1207.37355612;1205.86245029;1266.30668339;1269.32889504;1204.35134446;1207.37355612;794.84166523;788.797241921;373.243139376;364.176504412;787.286136093;779.730606956;757.064019544;760.086231199;349.065446137"
            },
            {
                "class": "Room",
                "xn": "616.531177593;616.531177593;701.153103929;702.664209757;1168.08480461;1168.08480461;1213.41797943;1219.46240274;1104.61835985;1101.5961482;923.285660562;923.285660562",
                "yn": "1278.39553001;1866.21569688;1869.23790854;1887.37117847;1885.86007264;1864.70459105;1861.6823794;1284.43995332;1270.84000087;1216.44019108;1217.95129691;1275.37331835"
            }
        ],
        "class": "image",
        "filename": "39.png"
    }
]
