[
    {
        "annotations": [
            {
                "class": "Room", 
                "type": "UN", 
                "xn": "907;1483;1483;907", 
                "yn": "1222;1222;1852;1852", 
                "text": "double gabage", 
                "x": 1233, 
                "y": 1525
            }, 
            {
                "class": "Room", 
                "type": "UN", 
                "xn": "387;717;717;387", 
                "yn": "1583;1583;1907;1907", 
                "text": "badroom 2", 
                "x": 576, 
                "y": 1865
            }, 
            {
                "class": "Room", 
                "type": "UN", 
                "xn": "24;318;318;24", 
                "yn": "1490;1490;1856;1856", 
                "text": "bedroom", 
                "x": 209, 
                "y": 1795
            }, 
            {
                "class": "Room", 
                "type": "UN", 
                "xn": "30;327;327;30", 
                "yn": "1276;1276;1468;1468", 
                "text": "bathroom", 
                "x": 234, 
                "y": 1387
            }, 
            {
                "class": "Room", 
                "type": "UN", 
                "xn": "23;302;302;23", 
                "yn": "809;809;962;962", 
                "text": "laundry", 
                "x": 192, 
                "y": 852
            }, 
            {
                "class": "Room", 
                "type": "UN", 
                "xn": "198;281;281;198", 
                "yn": "630;630;794;794", 
                "text": "wc", 
                "x": 242, 
                "y": 714
            }, 
            {
                "class": "Room", 
                "type": "UN", 
                "xn": "189;340;340;189", 
                "yn": "413;413;611;611", 
                "text": "wir", 
                "x": 244, 
                "y": 511
            }, 
            {
                "class": "Room", 
                "type": "UN", 
                "xn": "494;913;913;494", 
                "yn": "2;2;321;321", 
                "text": "outdoor room", 
                "x": 733, 
                "y": 245
            }, 
            {
                "class": "Room", 
                "type": "UN", 
                "xn": "609;711;711;609", 
                "yn": "1261;1261;1446;1446", 
                "text": "linen", 
                "x": 665, 
                "y": 1365
            }, 
            {
                "class": "Room", 
                "type": "UN", 
                "xn": "25;27;436;438;389;404", 
                "yn": "969;1261;1263;1144;1139;965", 
                "text": "bedroom 4", 
                "x": 244, 
                "y": 1225
            }, 
            {
                "class": "Room", 
                "type": "UN", 
                "xn": "185;21;21;466;462;345;345;183", 
                "yn": "784;803;29;21;613;615;406;398", 
                "text": "ensuite", 
                "x": 136, 
                "y": 661
            }, 
            {
                "class": "Room", 
                "type": "UN", 
                "xn": "931;1359;1357;905;903;726;730;330;328;432;434;732;732;711;713;622;622;468;466;536;539;462;465;327;318;293;287;454;460;539;534;917;917;936", 
                "yn": "27;27;1186;1176;1745;1742;1574;1585;1278;1276;1465;1463;1180;1188;1257;1254;1173;1182;809;818;798;792;905;897;800;797;625;627;693;684;346;343;418;420", 
                "text": "rumpus", 
                "x": 1151, 
                "y": 246
            }, 
            {
                "class": "Room", 
                "type": "UN", 
                "xn": "320;457;457;320", 
                "yn": "911;911;963;963", 
                "text": "broom liner", 
                "x": 389, 
                "y": 938
            }
        ], 
        "class": "image", 
        "filename": "49.png"
    }
]