[
    {
        "annotations": [
            {
                "class": "Door",
                "xn": "303;342;342;303",
                "yn": "1460;1460;1527;1527"
            },
            {
                "class": "Door",
                "xn": "599;605;605;599",
                "yn": "728;728;753;753"
            },
            {
                "class": "Window",
                "xn": "144;248;248;144",
                "yn": "524;524;539;539"
            },
            {
                "class": "Window",
                "xn": "144;265;265;144",
                "yn": "524;524;563;563"
            },
            {
                "class": "Window",
                "xn": "1614;1654;1654;1614",
                "yn": "449;449;638;638"
            },
            {
                "class": "Window",
                "xn": "5;44;44;5",
                "yn": "1985;1985;2148;2148"
            },
            {
                "class": "Window",
                "xn": "2735;2774;2774;2735",
                "yn": "2616;2616;2648;2648"
            },
            {
                "class": "Window",
                "xn": "1615;1654;1654;1615",
                "yn": "1302;1302;1614;1614"
            },
            {
                "class": "Window",
                "xn": "1615;1654;1654;1615",
                "yn": "1177;1177;1614;1614"
            },
            {
                "class": "Window",
                "xn": "127;357;357;127",
                "yn": "2616;2616;2655;2655"
            },
            {
                "class": "Window",
                "xn": "2667;2897;2897;2667",
                "yn": "14;14;46;46"
            },
            {
                "class": "Window",
                "xn": "500;541;541;500",
                "yn": "2655;2655;2778;2778"
            },
            {
                "class": "Window",
                "xn": "3880;3913;3913;3880",
                "yn": "1194;1194;1511;1511"
            },
            {
                "class": "Window",
                "xn": "3648;3829;3829;3648",
                "yn": "1782;1782;1810;1810"
            },
            {
                "class": "Window",
                "xn": "3186;3235;3235;3186",
                "yn": "14;14;273;273"
            },
            {
                "class": "Window",
                "xn": "1614;1654;1654;1614",
                "yn": "450;450;638;638"
            },
            {
                "class": "Window",
                "xn": "3880;3913;3913;3880",
                "yn": "1194;1194;1425;1425"
            },
            {
                "class": "Window",
                "xn": "3402;3540;3540;3402",
                "yn": "1778;1778;1810;1810"
            },
            {
                "class": "Window",
                "xn": "2667;3020;3020;2667",
                "yn": "14;14;47;47"
            },
            {
                "class": "Window",
                "xn": "503;853;853;503",
                "yn": "8;8;46;46"
            },
            {
                "class": "Window",
                "xn": "2871;3105;3105;2871",
                "yn": "2892;2892;2923;2923"
            },
            {
                "class": "Window",
                "xn": "3267;3849;3849;3267",
                "yn": "14;14;46;46"
            },
            {
                "class": "Window",
                "xn": "5;44;44;5",
                "yn": "1985;1985;2087;2087"
            },
            {
                "class": "Window",
                "xn": "3879;3913;3913;3879",
                "yn": "1065;1065;1425;1425"
            },
            {
                "class": "Window",
                "xn": "3880;3913;3913;3880",
                "yn": "77;77;419;419"
            },
            {
                "class": "Window",
                "xn": "500;541;541;500",
                "yn": "2655;2655;2745;2745"
            },
            {
                "class": "Wall",
                "xn": "484;572;572;484",
                "yn": "2861;2861;2930;2930"
            },
            {
                "class": "Wall",
                "xn": "871;958;958;871",
                "yn": "2861;2861;2930;2930"
            },
            {
                "class": "Wall",
                "xn": "1584;1655;1655;1584",
                "yn": "9;9;76;76"
            },
            {
                "class": "Wall",
                "xn": "1069;1125;1125;1069",
                "yn": "1779;1779;1992;1992"
            },
            {
                "class": "Wall",
                "xn": "6;44;44;6",
                "yn": "1700;1700;1986;1986"
            },
            {
                "class": "Wall",
                "xn": "1858;1896;1896;1858",
                "yn": "1779;1779;2655;2655"
            },
            {
                "class": "Wall",
                "xn": "6;44;44;6",
                "yn": "525;525;1276;1276"
            },
            {
                "class": "Wall",
                "xn": "1069;1733;1733;1069",
                "yn": "1779;1779;1817;1817"
            },
            {
                "class": "Wall",
                "xn": "265;303;303;265",
                "yn": "9;9;563;563"
            },
            {
                "class": "Wall",
                "xn": "1510;1655;1655;1510",
                "yn": "412;412;451;451"
            },
            {
                "class": "Wall",
                "xn": "1615;1654;1654;1615",
                "yn": "638;638;1303;1303"
            },
            {
                "class": "Wall",
                "xn": "830;1145;1145;830",
                "yn": "2745;2745;2784;2784"
            },
            {
                "class": "Wall",
                "xn": "1616;1654;1654;1616",
                "yn": "1614;1614;1817;1817"
            },
            {
                "class": "Wall",
                "xn": "501;541;541;501",
                "yn": "2523;2523;2784;2784"
            },
            {
                "class": "Wall",
                "xn": "6;44;44;6",
                "yn": "2087;2087;2655;2655"
            },
            {
                "class": "Wall",
                "xn": "501;613;613;501",
                "yn": "2745;2745;2785;2785"
            },
            {
                "class": "Wall",
                "xn": "1105;1145;1145;1105",
                "yn": "2619;2619;2784;2784"
            },
            {
                "class": "Wall",
                "xn": "970;1008;1008;970",
                "yn": "9;9;81;81"
            },
            {
                "class": "Wall",
                "xn": "969;1045;1045;969",
                "yn": "409;409;448;448"
            },
            {
                "class": "Wall",
                "xn": "357;541;541;357",
                "yn": "2617;2617;2656;2656"
            },
            {
                "class": "Wall",
                "xn": "5;145;145;5",
                "yn": "525;525;565;565"
            },
            {
                "class": "Wall",
                "xn": "5;128;128;5",
                "yn": "2616;2616;2655;2655"
            },
            {
                "class": "Wall",
                "xn": "264;504;504;264",
                "yn": "9;9;46;46"
            },
            {
                "class": "Wall",
                "xn": "853;1009;1009;853",
                "yn": "9;9;47;47"
            },
            {
                "class": "Wall",
                "xn": "1810;1897;1897;1810",
                "yn": "2618;2618;2655;2655"
            },
            {
                "class": "Wall",
                "xn": "508;541;541;508",
                "yn": "2148;2148;2260;2260"
            },
            {
                "class": "Wall",
                "xn": "590;620;620;590",
                "yn": "1442;1442;1635;1635"
            },
            {
                "class": "Wall",
                "xn": "589;621;621;589",
                "yn": "2060;2060;2178;2178"
            },
            {
                "class": "Wall",
                "xn": "969;1655;1655;969",
                "yn": "1148;1148;1178;1178"
            },
            {
                "class": "Wall",
                "xn": "1619;1647;1647;1619",
                "yn": "412;412;485;485"
            },
            {
                "class": "Wall",
                "xn": "884;906;906;884",
                "yn": "2148;2148;2564;2564"
            },
            {
                "class": "Wall",
                "xn": "5;541;541;5",
                "yn": "2148;2148;2166;2166"
            },
            {
                "class": "Wall",
                "xn": "283;761;761;283",
                "yn": "1242;1242;1260;1260"
            },
            {
                "class": "Wall",
                "xn": "929;948;948;929",
                "yn": "1409;1409;1679;1679"
            },
            {
                "class": "Wall",
                "xn": "1070;1088;1088;1070",
                "yn": "1409;1409;1992;1992"
            },
            {
                "class": "Wall",
                "xn": "285;303;303;285",
                "yn": "692;692;1260;1260"
            },
            {
                "class": "Wall",
                "xn": "1105;1124;1124;1105",
                "yn": "2141;2141;2784;2784"
            },
            {
                "class": "Wall",
                "xn": "884;1125;1125;884",
                "yn": "2546;2546;2565;2565"
            },
            {
                "class": "Wall",
                "xn": "304;621;621;304",
                "yn": "1442;1442;1461;1461"
            },
            {
                "class": "Wall",
                "xn": "884;998;998;884",
                "yn": "2148;2148;2166;2166"
            },
            {
                "class": "Wall",
                "xn": "5;157;157;5",
                "yn": "1241;1241;1261;1261"
            },
            {
                "class": "Wall",
                "xn": "929;1089;1089;929",
                "yn": "1409;1409;1428;1428"
            },
            {
                "class": "Wall",
                "xn": "884;998;998;884",
                "yn": "2413;2413;2431;2431"
            },
            {
                "class": "Wall",
                "xn": "1106;1124;1124;1106",
                "yn": "1779;1779;2029;2029"
            },
            {
                "class": "Wall",
                "xn": "244;304;304;244",
                "yn": "540;540;558;558"
            },
            {
                "class": "Wall",
                "xn": "5;128;128;5",
                "yn": "975;975;995;995"
            },
            {
                "class": "Wall",
                "xn": "5;304;304;5",
                "yn": "1040;1040;1059;1059"
            },
            {
                "class": "Wall",
                "xn": "743;761;761;743",
                "yn": "1148;1148;1260;1260"
            },
            {
                "class": "Wall",
                "xn": "596;613;613;596",
                "yn": "1148;1148;1260;1260"
            },
            {
                "class": "Wall",
                "xn": "109;126;126;109",
                "yn": "976;976;1059;1059"
            },
            {
                "class": "Wall",
                "xn": "485;502;502;485",
                "yn": "1376;1376;1548;1548"
            },
            {
                "class": "Wall",
                "xn": "3849;3920;3920;3849",
                "yn": "11;11;78;78"
            },
            {
                "class": "Wall",
                "xn": "2278;2312;2312;2278",
                "yn": "1555;1555;1825;1825"
            },
            {
                "class": "Wall",
                "xn": "2278;2312;2312;2278",
                "yn": "1167;1167;1453;1453"
            },
            {
                "class": "Wall",
                "xn": "2278;2313;2313;2278",
                "yn": "532;532;933;933"
            },
            {
                "class": "Wall",
                "xn": "3881;3913;3913;3881",
                "yn": "419;419;1195;1195"
            },
            {
                "class": "Wall",
                "xn": "2278;2310;2310;2278",
                "yn": "2059;2059;2648;2648"
            },
            {
                "class": "Wall",
                "xn": "2774;2806;2806;2774",
                "yn": "2617;2617;2923;2923"
            },
            {
                "class": "Wall",
                "xn": "3371;3403;3403;3371",
                "yn": "1779;1779;2777;2777"
            },
            {
                "class": "Wall",
                "xn": "3880;3913;3913;3880",
                "yn": "1425;1425;1810;1810"
            },
            {
                "class": "Wall",
                "xn": "3235;3267;3267;3235",
                "yn": "15;15;450;450"
            },
            {
                "class": "Wall",
                "xn": "2773;2872;2872;2773",
                "yn": "2890;2890;2923;2923"
            },
            {
                "class": "Wall",
                "xn": "2535;2568;2568;2535",
                "yn": "15;15;563;563"
            },
            {
                "class": "Wall",
                "xn": "3333;3649;3649;3333",
                "yn": "1779;1779;1810;1810"
            },
            {
                "class": "Wall",
                "xn": "2897;3268;3268;2897",
                "yn": "15;15;46;46"
            },
            {
                "class": "Wall",
                "xn": "3732;3914;3914;3732",
                "yn": "419;419;450;450"
            },
            {
                "class": "Wall",
                "xn": "3143;3423;3423;3143",
                "yn": "419;419;450;450"
            },
            {
                "class": "Wall",
                "xn": "3168;3199;3199;3168",
                "yn": "2746;2746;2923;2923"
            },
            {
                "class": "Wall",
                "xn": "3167;3404;3404;3167",
                "yn": "2746;2746;2777;2777"
            },
            {
                "class": "Wall",
                "xn": "2277;2410;2410;2277",
                "yn": "532;532;564;564"
            },
            {
                "class": "Wall",
                "xn": "2622;2807;2807;2622",
                "yn": "2617;2617;2648;2648"
            },
            {
                "class": "Wall",
                "xn": "2696;2793;2793;2696",
                "yn": "2074;2074;2105;2105"
            },
            {
                "class": "Wall",
                "xn": "2536;2668;2668;2536",
                "yn": "15;15;47;47"
            },
            {
                "class": "Wall",
                "xn": "2277;2394;2394;2277",
                "yn": "2616;2616;2648;2648"
            },
            {
                "class": "Wall",
                "xn": "2277;2482;2482;2277",
                "yn": "2075;2075;2106;2106"
            },
            {
                "class": "Wall",
                "xn": "3105;3200;3200;3105",
                "yn": "2893;2893;2923;2923"
            },
            {
                "class": "Wall",
                "xn": "3829;3914;3914;3829",
                "yn": "1783;1783;1810;1810"
            },
            {
                "class": "Wall",
                "xn": "2277;2578;2578;2277",
                "yn": "1655;1655;1679;1679"
            },
            {
                "class": "Wall",
                "xn": "3747;3914;3914;3747",
                "yn": "1511;1511;1532;1532"
            },
            {
                "class": "Wall",
                "xn": "2513;2580;2580;2513",
                "yn": "538;538;558;558"
            },
            {
                "class": "Wall",
                "xn": "3540;3560;3560;3540",
                "yn": "1511;1511;1810;1810"
            },
            {
                "class": "Wall",
                "xn": "2277;2702;2702;2277",
                "yn": "810;810;830;830"
            },
            {
                "class": "Wall",
                "xn": "3370;3914;3914;3370",
                "yn": "1048;1048;1066;1066"
            },
            {
                "class": "Wall",
                "xn": "2891;2909;2909;2891",
                "yn": "579;579;1123;1123"
            },
            {
                "class": "Wall",
                "xn": "2773;2910;2910;2773",
                "yn": "1242;1242;1260;1260"
            },
            {
                "class": "Wall",
                "xn": "2650;2669;2669;2650",
                "yn": "2247;2247;2331;2331"
            },
            {
                "class": "Wall",
                "xn": "2682;2701;2701;2682",
                "yn": "545;545;830;830"
            },
            {
                "class": "Wall",
                "xn": "2675;2793;2793;2675",
                "yn": "1659;1659;1678;1678"
            },
            {
                "class": "Wall",
                "xn": "2890;3039;3039;2890",
                "yn": "643;643;663;663"
            },
            {
                "class": "Wall",
                "xn": "2718;2736;2736;2718",
                "yn": "2247;2247;2648;2648"
            },
            {
                "class": "Wall",
                "xn": "2705;2793;2793;2705",
                "yn": "1459;1459;1479;1479"
            },
            {
                "class": "Wall",
                "xn": "2774;2792;2792;2774",
                "yn": "1242;1242;2105;2105"
            },
            {
                "class": "Wall",
                "xn": "3539;3647;3647;3539",
                "yn": "1511;1511;1530;1530"
            },
            {
                "class": "Wall",
                "xn": "3020;3038;3038;3020",
                "yn": "256;256;460;460"
            },
            {
                "class": "Wall",
                "xn": "2552;2793;2793;2552",
                "yn": "1525;1525;1544;1544"
            },
            {
                "class": "Wall",
                "xn": "3371;3389;3389;3371",
                "yn": "1189;1189;1439;1439"
            },
            {
                "class": "Wall",
                "xn": "3334;3352;3352;3334",
                "yn": "1421;1421;2004;2004"
            },
            {
                "class": "Wall",
                "xn": "3020;3038;3038;3020",
                "yn": "15;15;141;141"
            },
            {
                "class": "Wall",
                "xn": "3799;3817;3817;3799",
                "yn": "983;983;1066;1066"
            },
            {
                "class": "Wall",
                "xn": "3168;3268;3268;3168",
                "yn": "93;93;114;114"
            },
            {
                "class": "Wall",
                "xn": "2277;2445;2445;2277",
                "yn": "1282;1282;1303;1303"
            },
            {
                "class": "Wall",
                "xn": "2553;2571;2571;2553",
                "yn": "1283;1283;1677;1677"
            },
            {
                "class": "Wall",
                "xn": "3333;3426;3426;3333",
                "yn": "1510;1510;1530;1530"
            },
            {
                "class": "Wall",
                "xn": "3020;3038;3038;3020",
                "yn": "568;568;663;663"
            },
            {
                "class": "Wall",
                "xn": "2358;2376;2376;2358",
                "yn": "1584;1584;1679;1679"
            },
            {
                "class": "Wall",
                "xn": "2649;2737;2737;2649",
                "yn": "2312;2312;2332;2332"
            },
            {
                "class": "Wall",
                "xn": "3407;3426;3426;3407",
                "yn": "1422;1422;1529;1529"
            },
            {
                "class": "Wall",
                "xn": "2649;2737;2737;2649",
                "yn": "2247;2247;2266;2266"
            },
            {
                "class": "Wall",
                "xn": "2277;2377;2377;2277",
                "yn": "1583;1583;1603;1603"
            },
            {
                "class": "Wall",
                "xn": "3170;3187;3187;3170",
                "yn": "15;15;273;273"
            },
            {
                "class": "Wall",
                "xn": "3019;3268;3268;3019",
                "yn": "256;256;274;274"
            },
            {
                "class": "Wall",
                "xn": "3798;3914;3914;3798",
                "yn": "982;982;1001;1001"
            },
            {
                "class": "Wall",
                "xn": "2685;2793;2793;2685",
                "yn": "1282;1282;1301;1301"
            },
            {
                "class": "Wall",
                "xn": "2681;2910;2910;2681",
                "yn": "696;696;713;713"
            },
            {
                "class": "Wall",
                "xn": "2890;3039;3039;2890",
                "yn": "579;579;597;597"
            },
            {
                "class": "Wall",
                "xn": "2277;2381;2381;2277",
                "yn": "2138;2138;2157;2157"
            },
            {
                "class": "Wall",
                "xn": "3333;3426;3426;3333",
                "yn": "1420;1420;1437;1437"
            },
            {
                "class": "Wall",
                "xn": "1276;1279;1274;1271",
                "yn": "2419;2436;2308;2291"
            },
            {
                "class": "Wall",
                "xn": "1409;1406;1403;1406",
                "yn": "2289;2314;2446;2421"
            },
            {
                "class": "Wall",
                "xn": "2277;2486;2486;2277",
                "yn": "2082;2082;2098;2098"
            },
            {
                "class": "Wall",
                "xn": "2773;2801;2801;2773",
                "yn": "1987;1987;2003;2003"
            },
            {
                "class": "Wall",
                "xn": "3019;3049;3049;3019",
                "yn": "433;433;451;451"
            },
            {
                "class": "Wall",
                "xn": "8;45;45;8",
                "yn": "1506;1506;1598;1598"
            },
            {
                "class": "Wall",
                "xn": "1839;1897;1897;1839",
                "yn": "1779;1779;1818;1818"
            },
            {
                "class": "Wall",
                "xn": "970;996;996;970",
                "yn": "392;392;450;450"
            },
            {
                "class": "Wall",
                "xn": "1105;1171;1171;1105",
                "yn": "2618;2618;2656;2656"
            },
            {
                "class": "Wall",
                "xn": "502;507;507;502",
                "yn": "2617;2617;2930;2930"
            },
            {
                "class": "Wall",
                "xn": "1648;1654;1654;1648",
                "yn": "9;9;481;481"
            },
            {
                "class": "Wall",
                "xn": "1046;1125;1125;1046",
                "yn": "1987;1987;1992;1992"
            },
            {
                "class": "Wall",
                "xn": "5;165;165;5",
                "yn": "976;976;981;981"
            },
            {
                "class": "Wall",
                "xn": "248;304;304;248",
                "yn": "524;524;539;539"
            },
            {
                "class": "Wall",
                "xn": "1002;1017;1017;1002",
                "yn": "2737;2737;2784;2784"
            },
            {
                "class": "Wall",
                "xn": "501;1145;1145;501",
                "yn": "2778;2778;2784;2784"
            },
            {
                "class": "Wall",
                "xn": "857;1655;1655;857",
                "yn": "9;9;15;15"
            },
            {
                "class": "Wall",
                "xn": "997;1008;1008;997",
                "yn": "396;396;450;450"
            },
            {
                "class": "Wall",
                "xn": "508;648;648;508",
                "yn": "2172;2172;2177;2177"
            },
            {
                "class": "Wall",
                "xn": "884;971;971;884",
                "yn": "2315;2315;2320;2320"
            },
            {
                "class": "Wall",
                "xn": "858;1002;1002;858",
                "yn": "2148;2148;2153;2153"
            },
            {
                "class": "Wall",
                "xn": "246;304;304;246",
                "yn": "976;976;981;981"
            },
            {
                "class": "Wall",
                "xn": "305;312;312;305",
                "yn": "854;854;977;977"
            },
            {
                "class": "Wall",
                "xn": "742;793;793;742",
                "yn": "1173;1173;1178;1178"
            },
            {
                "class": "Wall",
                "xn": "719;793;793;719",
                "yn": "1148;1148;1153;1153"
            },
            {
                "class": "Wall",
                "xn": "546;614;614;546",
                "yn": "1196;1196;1201;1201"
            },
            {
                "class": "Wall",
                "xn": "2277;2423;2423;2277",
                "yn": "1416;1416;1421;1421"
            },
            {
                "class": "Wall",
                "xn": "2277;2377;2377;2277",
                "yn": "714;714;719;719"
            },
            {
                "class": "Wall",
                "xn": "3144;3914;3914;3144",
                "yn": "445;445;450;450"
            },
            {
                "class": "Wall",
                "xn": "3347;3404;3404;3347",
                "yn": "2654;2654;2659;2659"
            },
            {
                "class": "Wall",
                "xn": "3347;3404;3404;3347",
                "yn": "2091;2091;2096;2096"
            },
            {
                "class": "Wall",
                "xn": "3370;3914;3914;3370",
                "yn": "1803;1803;1809;1809"
            },
            {
                "class": "Wall",
                "xn": "3905;3910;3910;3905",
                "yn": "419;419;1810;1810"
            },
            {
                "class": "Wall",
                "xn": "3492;3639;3639;3492",
                "yn": "1524;1524;1529;1529"
            },
            {
                "class": "Wall",
                "xn": "3539;3701;3701;3539",
                "yn": "1516;1516;1525;1525"
            },
            {
                "class": "Wall",
                "xn": "3539;3623;3623;3539",
                "yn": "1623;1623;1628;1628"
            },
            {
                "class": "Wall",
                "xn": "3492;3647;3647;3492",
                "yn": "1512;1512;1517;1517"
            },
            {
                "class": "Wall",
                "xn": "2662;2793;2793;2662",
                "yn": "2076;2076;2081;2081"
            },
            {
                "class": "Wall",
                "xn": "2661;2793;2793;2661",
                "yn": "2100;2100;2105;2105"
            },
            {
                "class": "Wall",
                "xn": "3333;3474;3474;3333",
                "yn": "1512;1512;1517;1517"
            },
            {
                "class": "Wall",
                "xn": "3333;3474;3474;3333",
                "yn": "1524;1524;1529;1529"
            },
            {
                "class": "Text",
                "height": 29,
                "text": "wir 3",
                "width": 93,
                "x": 3067.6514355314544,
                "y": 64.32571776572757
            },
            {
                "class": "Text",
                "height": 28,
                "text": "alfresco",
                "width": 177,
                "x": 1259,
                "y": 185
            },
            {
                "class": "Text",
                "height": 29,
                "text": "balcony",
                "width": 164,
                "x": 3519,
                "y": 235
            },
            {
                "class": "Text",
                "height": 28,
                "text": "living",
                "width": 110,
                "x": 1251,
                "y": 800
            },
            {
                "class": "Text",
                "height": 28,
                "text": "bedroom",
                "width": 95,
                "x": 3672,
                "y": 1271
            },
            {
                "class": "Text",
                "height": 28,
                "text": "laundry",
                "width": 166,
                "x": 147,
                "y": 1346
            },
            {
                "class": "Text",
                "height": 28,
                "text": "toilet",
                "width": 94,
                "x": 3419,
                "y": 1738
            },
            {
                "class": "Text",
                "height": 28,
                "text": "lounge",
                "width": 143,
                "x": 248,
                "y": 1821
            },
            {
                "class": "Text",
                "height": 29,
                "text": "ensuite",
                "width": 139,
                "x": 2525,
                "y": 1884
            },
            {
                "class": "Text",
                "height": 29,
                "text": "pdr",
                "width": 67,
                "x": 1014,
                "y": 2314
            },
            {
                "class": "Text",
                "height": 29,
                "text": "masterbedroom",
                "width": 243,
                "x": 2978,
                "y": 2333
            },
            {
                "class": "Text",
                "height": 29,
                "text": "study",
                "width": 115,
                "x": 321,
                "y": 2370
            },
            {
                "class": "Text",
                "height": 28,
                "text": "wir",
                "width": 64,
                "x": 2476,
                "y": 2368
            },
            {
                "class": "Text",
                "height": 28,
                "text": "porch",
                "width": 117,
                "x": 664,
                "y": 2837
            },
            {
                "class": "Text",
                "height": 38.00000000000185,
                "text": "meals",
                "width": 122.00000000000591,
                "x": 599.000000000029,
                "y": 211.0000000000102
            },
            {
                "class": "Text",
                "height": 40.132545155510115,
                "text": "wip",
                "width": 73.18287646004782,
                "x": 158.16944267171627,
                "y": 755.4361441037195
            },
            {
                "class": "Text",
                "height": 44.854021056158444,
                "text": "kitch.",
                "width": 122.75837341685445,
                "x": 424.9328310583422,
                "y": 802.6509031102019
            },
            {
                "class": "Text",
                "height": 38.50849138826584,
                "text": "wil",
                "width": 75.34270054225925,
                "x": 162.4053767244255,
                "y": 1163.6261528193374
            },
            {
                "class": "Text",
                "height": 29.47531723732959,
                "text": "wm",
                "width": 51.37126718506016,
                "x": 229.9074744511709,
                "y": 1466.1864945768812
            },
            {
                "class": "Text",
                "height": 50.45797800000264,
                "text": "theater",
                "width": 159.78359700000806,
                "x": 1267.0558920000633,
                "y": 1412.8233840000705
            },
            {
                "class": "Text",
                "height": 30.317469158396307,
                "text": "ref",
                "width": 49.686963342927015,
                "x": 655.1941945897845,
                "y": 1179.854841414252
            },
            {
                "class": "Text",
                "height": 47.16050757972744,
                "text": "entry",
                "width": 121.26987663358489,
                "x": 668.6686253268496,
                "y": 2454.0306979879592
            },
            {
                "class": "Text",
                "height": 41.265444132261564,
                "text": "wc",
                "width": 64.0035460010588,
                "x": 1013.9509129641397,
                "y": 2462.452217198625
            },
            {
                "class": "Text",
                "height": 131.00000000000682,
                "text": "cloak",
                "width": 41.000000000002046,
                "x": 1056.0000000000532,
                "y": 2591.0000000001305
            },
            {
                "class": "Text",
                "height": 40.4255319148956,
                "text": "double garage",
                "width": 308.51063829788814,
                "x": 1356.7375886525508,
                "y": 2191.4893617022385
            },
            {
                "class": "Text",
                "height": 43.93506572204248,
                "text": "bed 3",
                "width": 100.9319077398277,
                "x": 2699.037956383855,
                "y": 249.3611838278089
            },
            {
                "class": "Text",
                "height": 40.18277362253832,
                "text": "wil",
                "width": 68.64557160516961,
                "x": 3100.7706978725423,
                "y": 277.93085088922356
            },
            {
                "class": "Text",
                "height": 35.1599269197211,
                "text": "bad 2",
                "width": 98.7826518220736,
                "x": 2449.4749087405667,
                "y": 997.8722116263689
            },
            {
                "class": "Text",
                "height": 46.87990255962802,
                "text": "ens 3",
                "width": 122.22260310188722,
                "x": 2441.1034975692046,
                "y": 616.1358622122547
            },
            {
                "class": "Text",
                "height": 38.50849138826584,
                "text": "activity",
                "width": 160.73109449015374,
                "x": 3571.2440057030967,
                "y": 684.7814338174246
            },
            {
                "class": "Text",
                "height": 43.791899895461256,
                "text": "ens 2",
                "width": 110.32190165971952,
                "x": 2430.450444198098,
                "y": 1443.4483927080873
            },
            {
                "class": "Text",
                "height": 37.896836447995156,
                "text": "wir 2",
                "width": 91.79455939625541,
                "x": 2604.775891858876,
                "y": 1479.6609253139495
            },
            {
                "class": "Text",
                "height": 40.42329221119485,
                "text": "wc",
                "width": 69.89860944852444,
                "x": 2605.618043779943,
                "y": 1585.7720673683364
            },
            {
                "class": "wall",
                "height": 84.21519210665633,
                "width": 19.112667712148777,
                "x": 2705.0397521350815,
                "y": 1460.9245382473855
            },
            {
                "class": "door",
                "height": 116.31205673759473,
                "width": 126.24113475177973,
                "x": 373.04964539009075,
                "y": 1260.9929078014854
            },
            {
                "class": "door",
                "height": 141.00000000000728,
                "width": 217.0000000000117,
                "x": 614.0000000000331,
                "y": 2636.0000000001423
            },
            {
                "class": "door",
                "height": 175.00000000000955,
                "width": 56.00000000000307,
                "x": 961.0000000000518,
                "y": 2563.0000000001382
            },
            {
                "class": "door",
                "height": 112.0567375886585,
                "width": 97.16312056738116,
                "x": 999.2907801418978,
                "y": 2148.226950354726
            },
            {
                "class": "wall",
                "height": 16.3120567375895,
                "width": 22.695035460994177,
                "x": 1098.5815602837472,
                "y": 2147.5177304965696
            },
            {
                "class": "door",
                "height": 108.01707151148003,
                "width": 70.3169955721794,
                "x": 1106.0100930057843,
                "y": 2028.1793662626178
            },
            {
                "class": "wall",
                "height": 82.91673407639746,
                "width": 19.527491720890794,
                "x": 2360.4231146313505,
                "y": 2073.218774859482
            },
            {
                "class": "Text",
                "height": 35.20949650420198,
                "text": "spa",
                "width": 61.365122478752255,
                "x": 2357.527287359923,
                "y": 1952.6180775616003
            },
            {
                "class": "door",
                "height": 145.39007092199404,
                "width": 109.21985815603443,
                "x": 1731.2056737589623,
                "y": 1778.723404255419
            },
            {
                "class": "door",
                "height": 108.10602674684287,
                "width": 126.62142359298741,
                "x": 2910.500930040693,
                "y": 460.49583768959053
            },
            {
                "class": "door",
                "height": 110.65841758463478,
                "width": 93.55666213973655,
                "x": 3048.136411649485,
                "y": 337.50817363313604
            },
            {
                "class": "door",
                "height": 117.90126894931939,
                "width": 112.0062055018534,
                "x": 2570.247663095161,
                "y": 542.3458371668688
            },
            {
                "class": "door",
                "height": 119.14893617021971,
                "width": 128.36879432624846,
                "x": 2780.141843971789,
                "y": 1119.8581560284324
            },
            {
                "class": "wall",
                "height": 17.2041199586522,
                "width": 10.373072328010949,
                "x": 2541.4027203626515,
                "y": 1281.706936919581
            },
            {
                "class": "door",
                "height": 112.84835742292012,
                "width": 97.68962284372174,
                "x": 2446.4513306983786,
                "y": 1284.2816796265154
            },
            {
                "class": "door",
                "height": 115.37481318612004,
                "width": 192.85278992424446,
                "x": 2798.4708337042052,
                "y": 1986.636381796034
            },
            {
                "class": "wall",
                "height": 9.613534385669254,
                "width": 17.424531074025708,
                "x": 3371.0459169248406,
                "y": 1066.801893859737
            },
            {
                "class": "door",
                "height": 109.89783934485718,
                "width": 126.62142359298787,
                "x": 3372.1913094623037,
                "y": 1075.087558808386
            },
            {
                "class": "window",
                "height": 37.89683644799567,
                "width": 468.23646811301296,
                "x": 1042.5840782804137,
                "y": 408.44368171728644
            },
            {
                "class": "window",
                "height": 316.4393422774927,
                "width": 40.182773622538775,
                "x": 972.7579781122922,
                "y": 77.0169827765326
            },
            {
                "class": "window",
                "height": 37.000000000002274,
                "width": 228.00000000001455,
                "x": 2394.000000000151,
                "y": 2617.000000000165
            },
            {
                "class": "window",
                "height": 38.508491388266066,
                "width": 639.5758134920768,
                "x": 1170.3232817564442,
                "y": 2618.5774144021157
            },
            {
                "class": "window",
                "height": 235.47000000001526,
                "width": 26.790000000001733,
                "x": 11.280000000000728,
                "y": 1273.230000000082
            },
            {
                "class": "window",
                "height": 105.75000000000682,
                "width": 26.790000000001726,
                "x": 14.10000000000091,
                "y": 1596.120000000103
            },
            {
                "class": "Stairs",
                "xn": "1064.843501;1068.19206547;942.620897895;942.620897895",
                "yn": "1608.98522714;1858.45328004;1856.77899781;1672.60795204"
            },
            {
                "class": "window",
                "height": 25.652633167347403,
                "width": 101.60454705498387,
                "x": 2411.347517730655,
                "y": 533.1723756350635
            },
            {
                "class": "window",
                "height": 231.7410960098091,
                "width": 28.071730702219156,
                "x": 2278.5883538077887,
                "y": 933.534363565288
            },
            {
                "class": "window",
                "height": 234.96038597757433,
                "width": 27.791013395196842,
                "x": 2279.7052503272184,
                "y": 1823.258909109135
            },
            {
                "class": "window",
                "height": 103.61651828379559,
                "width": 27.66460439615912,
                "x": 2279.5634022435,
                "y": 1451.1342487803395
            },
            {
                "class": "Stairs",
                "xn": "3211.98;3333.24;3333.24;3209.16",
                "yn": "1419.87;1422.69;1859.79;1864.02"
            },
            {
                "class": "room",
                "height": 802.1292753042444,
                "width": 730.0277674117278,
                "x": 1123.581831325046,
                "y": 1811.5503857994727
            },
            {
                "class": "room",
                "height": 375.52868694018935,
                "width": 198.27914670441987,
                "x": 904.2730781519756,
                "y": 2169.0536957665327
            },
            {
                "class": "Room",
                "xn": "45.0634424328;270.380654597;279.393343084;486.685178274;489.68940777;45.0634424328",
                "yn": "1054.48455293;1060.49301192;1258.77215862;1252.76369963;1538.16550171;1538.16550171"
            },
            {
                "class": "Room",
                "xn": "42.0592129373;39.0549834418;282.397572579;288.40603157;306.431408543;303.427179048;754.061603376;754.061603376;504.710555248;501.706325752;612.862817086;612.862817086;597.841669609;597.841669609;48.0676719283;42.0592129373;540.761309194;540.761309194;513.723243734;513.723243734;45.0634424328;45.0634424328;534.752850203;537.757079698;1114.56914284;1111.56491334;889.251930674;889.251930674;1120.57760183;1120.57760183;1063.49724141;1075.5141594;934.315373107;937.319602603;1081.52261839;1087.53107738;1628.29238657;1616.27546859;973.370356549;973.370356549;1619.27969809;1619.27969809;982.383045036;976.374586044;285.401802075;294.414490561",
                "yn": "561.790915663;1045.47186444;1039.46340545;696.981242961;696.981242961;1237.74255215;1240.74678165;1261.77638812;1261.77638812;1523.14435423;1523.14435423;1640.30930455;1640.30930455;1544.1739607;1547.17819019;2145.0198598;2154.03254829;2256.17635114;2250.16789215;2163.04523678;2169.05369577;2613.6796611;2610.67543161;2760.88690638;2754.87844739;2565.61198918;2562.60775968;2145.0198598;2151.02831879;1988.79992604;1988.79992604;1868.63074621;1856.61382823;1417.99632189;1417.99632189;1784.51232034;1781.50809084;1159.63258527;1168.64527376;1150.61989678;1147.61566729;444.625965337;438.617506346;45.0634424328;48.0676719283;561.790915663"
            },
            {
                "class": "Room",
                "xn": "2561.33925937;3017.95684322;3017.95684322;3039.36079246;3035.79346759;3178.48646254;3171.35181279;3242.69831027;3239.13098539;3032.22614271;3028.65881784;2900.23512238;2896.66779751;2689.76295483;2693.3302797;2564.90658425",
                "yn": "39.2405736116;35.6732487378;153.394969573;153.394969573;42.8078984854;39.2405736116;114.154395961;110.587071087;256.847390912;256.847390912;585.0412793;581.473954426;695.628350387;695.628350387;538.666055941;545.800705688"
            },
            {
                "class": "room",
                "height": 256.847390912101,
                "width": 381.70376149437243,
                "x": 2300.924543587572,
                "y": 556.5026803095523
            },
            {
                "class": "room",
                "height": 164.09694419384238,
                "width": 196.20286805785508,
                "x": 3039.3607924598623,
                "y": 267.54936553343856
            },
            {
                "class": "room",
                "height": 363.8671371254766,
                "width": 242.57809141698408,
                "x": 2311.6265182089096,
                "y": 1294.9389291818427
            },
            {
                "class": "Room",
                "xn": "3884.81678755;3392.52595496;3385.39130522;3424.63187883;3421.06455395;3346.1507316;3346.1507316;3553.05557428;3542.35359966;3645.806021;3652.94067075;3560.19022403;3560.19022403;3895.51876217;3895.51876217;3738.55646772;3738.55646772;3881.24946267",
                "yn": "1059.49548751;1059.49548751;1426.92994951;1419.79529976;1530.38237085;1526.81504598;1801.49906126;1797.93173638;1523.2477211;1523.2477211;1533.94969573;1533.94969573;1783.66243689;1780.09511202;1523.2477211;1530.38237085;1512.54574648;1508.97842161"
            },
            {
                "class": "Room",
                "xn": "3202.38080267;3198.11948424;3381.35617687;3379.22551766;2780.51027777;2782.64093699;2901.95785312;2906.21917155;3040.45070221;3036.18938377;3886.32241123;3896.97570731;3383.48683609;3385.61749531",
                "yn": "1421.14969753;1879.24142911;1877.1107699;1985.77438995;1990.03570838;1257.08893784;1252.82761941;654.112379521;651.981720305;443.17711707;441.046457853;1056.80697147;1050.41499382;1419.01903831"
            },
            {
                "class": "Room",
                "xn": "2563.18303767;2776.24895934;2776.24895934;2682.4999538;2682.4999538;2778.37961855;2778.37961855;2701.67588675;2699.54522754;2795.42489229;2791.16357385;3372.83354001;3377.09485844;3172.55157364;3170.42091442;2806.07818837;2803.94752915;2737.89709344;2737.89709344;2716.59050127;2720.8518197;2307.50393167;2301.11195402;2480.08732822;2477.956669;2298.9812948;2298.9812948;2565.31369689",
                "yn": "1538.33595444;1538.33595444;1661.91418901;1659.7835298;1674.69814431;1676.82880353;2083.78471391;2079.52339548;2098.69932843;2100.82998765;1994.29702681;1994.29702681;2757.07302639;2759.2036856;2895.56587547;2899.8271939;2627.10281417;2622.84149574;2247.8454736;2252.10679203;2631.3641326;2622.84149574;2102.96064687;2100.82998765;2075.26207705;2083.78471391;1668.30616666;1670.43682588"
            },
            {
                "class": "Room",
                "xn": "2305.37327245;2307.50393167;2567.4443561;2569.57501532;2780.51027777;2771.9876409;2697.41456832;2688.89193145;2784.7715962;2782.64093699;2910.48048999;2897.69653469;2701.67588675;2695.2839091",
                "yn": "828.826435289;1286.91816688;1284.78750766;1527.68265836;1529.81331758;1299.70212218;1295.44080374;1286.91816688;1291.17948531;1244.30498254;1248.56630098;713.770837588;705.248200722;833.087753723"
            }
        ],
        "class": "image",
        "filename": "54.png"
    }
]
