[
    {
        "annotations": [
            {
                "class": "Window",
                "xn": "0;24;24;0",
                "yn": "484;484;751;751"
            },
            {
                "class": "Window",
                "xn": "0;25;25;0",
                "yn": "942;942;1084;1084"
            },
            {
                "class": "Window",
                "xn": "639;874;874;639",
                "yn": "0;0;25;25"
            },
            {
                "class": "Window",
                "xn": "0;25;25;0",
                "yn": "942;942;1097;1097"
            },
            {
                "class": "Window",
                "xn": "0;25;25;0",
                "yn": "927;927;1084;1084"
            },
            {
                "class": "Window",
                "xn": "0;24;24;0",
                "yn": "1240;1240;1507;1507"
            },
            {
                "class": "Window",
                "xn": "0;25;25;0",
                "yn": "1240;1240;1586;1586"
            },
            {
                "class": "Wall",
                "xn": "154;202;202;154",
                "yn": "1949;1949;2031;2031"
            },
            {
                "class": "Wall",
                "xn": "591;639;639;591",
                "yn": "1879;1879;2031;2031"
            },
            {
                "class": "Wall",
                "xn": "0;49;49;0",
                "yn": "1;1;48;48"
            },
            {
                "class": "Wall",
                "xn": "931;1018;1018;931",
                "yn": "370;370;416;416"
            },
            {
                "class": "Wall",
                "xn": "682;738;738;682",
                "yn": "865;865;910;910"
            },
            {
                "class": "Wall",
                "xn": "345;388;388;345",
                "yn": "865;865;928;928"
            },
            {
                "class": "Wall",
                "xn": "372;414;414;372",
                "yn": "1879;1879;1973;1973"
            },
            {
                "class": "Wall",
                "xn": "1170;1194;1194;1170",
                "yn": "1147;1147;1784;1784"
            },
            {
                "class": "Wall",
                "xn": "0;181;181;0",
                "yn": "355;355;379;379"
            },
            {
                "class": "Wall",
                "xn": "993;1017;1017;993",
                "yn": "1;1;1170;1170"
            },
            {
                "class": "Wall",
                "xn": "496;640;640;496",
                "yn": "1;1;25;25"
            },
            {
                "class": "Wall",
                "xn": "874;1018;1018;874",
                "yn": "1;1;25;25"
            },
            {
                "class": "Wall",
                "xn": "615;639;639;615",
                "yn": "1762;1762;2031;2031"
            },
            {
                "class": "Wall",
                "xn": "496;521;521;496",
                "yn": "320;320;379;379"
            },
            {
                "class": "Wall",
                "xn": "319;415;415;319",
                "yn": "1948;1948;1973;1973"
            },
            {
                "class": "Wall",
                "xn": "0;96;96;0",
                "yn": "1948;1948;1973;1973"
            },
            {
                "class": "Wall",
                "xn": "1;24;24;1",
                "yn": "1507;1507;1973;1973"
            },
            {
                "class": "Wall",
                "xn": "1;25;25;1",
                "yn": "751;751;943;943"
            },
            {
                "class": "Wall",
                "xn": "1;25;25;1",
                "yn": "1084;1084;1241;1241"
            },
            {
                "class": "Wall",
                "xn": "1;24;24;1",
                "yn": "355;355;485;485"
            },
            {
                "class": "Wall",
                "xn": "992;1064;1064;992",
                "yn": "1146;1146;1170;1170"
            },
            {
                "class": "Wall",
                "xn": "614;675;675;614",
                "yn": "1761;1761;1785;1785"
            },
            {
                "class": "Wall",
                "xn": "1143;1195;1195;1143",
                "yn": "1147;1147;1171;1171"
            },
            {
                "class": "Wall",
                "xn": "1145;1195;1195;1145",
                "yn": "1759;1759;1784;1784"
            },
            {
                "class": "Wall",
                "xn": "372;388;388;372",
                "yn": "1586;1586;1650;1650"
            },
            {
                "class": "Wall",
                "xn": "931;1018;1018;931",
                "yn": "864;864;881;881"
            },
            {
                "class": "Wall",
                "xn": "682;808;808;682",
                "yn": "865;865;881;881"
            },
            {
                "class": "Wall",
                "xn": "373;388;388;373",
                "yn": "1836;1836;1973;1973"
            },
            {
                "class": "Wall",
                "xn": "372;389;389;372",
                "yn": "1363;1363;1379;1379"
            },
            {
                "class": "Wall",
                "xn": "728;808;808;728",
                "yn": "985;985;1001;1001"
            },
            {
                "class": "Wall",
                "xn": "499;521;521;499",
                "yn": "1;1;34;34"
            },
            {
                "class": "Wall",
                "xn": "729;737;737;729",
                "yn": "865;865;1057;1057"
            },
            {
                "class": "Wall",
                "xn": "0;389;389;0",
                "yn": "920;920;928;928"
            },
            {
                "class": "Wall",
                "xn": "752;1064;1064;752",
                "yn": "1161;1161;1170;1170"
            },
            {
                "class": "Wall",
                "xn": "0;389;389;0",
                "yn": "1586;1586;1594;1594"
            },
            {
                "class": "Wall",
                "xn": "0;389;389;0",
                "yn": "1097;1097;1107;1107"
            },
            {
                "class": "Wall",
                "xn": "615;623;623;615",
                "yn": "1162;1162;2031;2031"
            },
            {
                "class": "Wall",
                "xn": "380;388;388;380",
                "yn": "1363;1363;1650;1650"
            },
            {
                "class": "Wall",
                "xn": "753;761;761;753",
                "yn": "985;985;1170;1170"
            },
            {
                "class": "Wall",
                "xn": "511;762;762;511",
                "yn": "997;997;1006;1006"
            },
            {
                "class": "Wall",
                "xn": "511;808;808;511",
                "yn": "865;865;874;874"
            },
            {
                "class": "Wall",
                "xn": "259;267;267;259",
                "yn": "1024;1024;1107;1107"
            },
            {
                "class": "Wall",
                "xn": "380;388;388;380",
                "yn": "1040;1040;1162;1162"
            },
            {
                "class": "Wall",
                "xn": "514;706;706;514",
                "yn": "1162;1162;1170;1170"
            },
            {
                "class": "Wall",
                "xn": "512;521;521;512",
                "yn": "985;985;1062;1062"
            },
            {
                "class": "Wall",
                "xn": "567;575;575;567",
                "yn": "997;997;1081;1081"
            },
            {
                "class": "Wall",
                "xn": "512;521;521;512",
                "yn": "865;865;915;915"
            },
            {
                "class": "Wall",
                "xn": "258;289;289;258",
                "yn": "1039;1039;1049;1049"
            },
            {
                "class": "Wall",
                "xn": "357;389;389;357",
                "yn": "1040;1040;1049;1049"
            },
            {
                "class": "Text",
                "height": 31,
                "text": "kitchen",
                "width": 121,
                "x": 757,
                "y": 788
            },
            {
                "class": "Text",
                "height": 56.06442000000425,
                "text": "study",
                "width": 112.1288400000085,
                "x": 140.16105000001062,
                "y": 1732.3905780001312
            },
            {
                "class": "Text",
                "height": 58.867641000004596,
                "text": "entry",
                "width": 89.70307200000678,
                "x": 459.72824400003486,
                "y": 1653.9003900001253
            },
            {
                "class": "Text",
                "height": 58.86764100000437,
                "text": "double garage",
                "width": 252.28989000001923,
                "x": 787.7051010000597,
                "y": 1449.2652570001098
            },
            {
                "class": "Text",
                "height": 39.480000000002974,
                "text": "pwdr",
                "width": 108.57000000000824,
                "x": 583.7400000000443,
                "y": 1091.340000000083
            },
            {
                "class": "Text",
                "height": 25.380000000001928,
                "text": "broom",
                "width": 77.55000000000587,
                "x": 290.4600000000221,
                "y": 1068.7800000000811
            },
            {
                "class": "Text",
                "height": 47.94000000000369,
                "text": "living",
                "width": 118.44000000000904,
                "x": 164.97000000001253,
                "y": 1226.7000000000933
            },
            {
                "class": "Text",
                "height": 32.00177300053019,
                "text": "laundry",
                "width": 138.11291505491965,
                "x": 89.2681036330578,
                "y": 964.2639496212377
            },
            {
                "class": "Text",
                "height": 41.00000000000307,
                "text": "family",
                "width": 112.00000000000853,
                "x": 165.00000000001256,
                "y": 749.0000000000571
            },
            {
                "class": "Text",
                "height": 40.00000000000307,
                "text": "wil",
                "width": 76.00000000000568,
                "x": 589.0000000000449,
                "y": 933.000000000071
            },
            {
                "class": "Text",
                "height": 34.000000000002615,
                "text": "pantry",
                "width": 75.00000000000568,
                "x": 839.0000000000639,
                "y": 1013.0000000000772
            },
            {
                "class": "Text",
                "height": 42.94974797439579,
                "text": "dining",
                "width": 117.05911702825517,
                "x": 700.6703983273976,
                "y": 314.96481847890226
            },
            {
                "class": "Text",
                "height": 35.37038068479649,
                "text": "sliding door",
                "width": 101.90038244905662,
                "x": 314.1226665578357,
                "y": 382.336972164229
            },
            {
                "class": "Text",
                "height": 42.00000000000341,
                "text": "portico",
                "width": 136.00000000001057,
                "x": 443.0000000000342,
                "y": 1961.0000000001514
            },
            {
                "class": "window",
                "height": 26.123552591485463,
                "width": 313.48263109782533,
                "x": 180.48999972299035,
                "y": 353.8553941937574
            },
            {
                "class": "window",
                "height": 233.92453911466518,
                "width": 23.748684174077653,
                "x": 497.5349334469274,
                "y": 84.30782881797577
            },
            {
                "class": "window",
                "height": 22.69503546099463,
                "width": 58.15602836879887,
                "x": 95.74468085107131,
                "y": 1948.9361702129183
            },
            {
                "class": "window",
                "height": 21.27659574468248,
                "width": 113.47517730497339,
                "x": 204.96453900710821,
                "y": 1951.0638297873866
            },
            {
                "class": "window",
                "height": 21.27659574468248,
                "width": 46.80851063830153,
                "x": 414.893617021309,
                "y": 1879.432624113622
            },
            {
                "class": "window",
                "height": 20.567375886526406,
                "width": 46.09929078014545,
                "x": 543.9716312057162,
                "y": 1880.8510638299342
            },
            {
                "class": "door",
                "height": 82.5308882645254,
                "width": 90.1102555541247,
                "x": 175.1675995818499,
                "y": 944.052303515643
            },
            {
                "class": "door",
                "height": 79.16228058025922,
                "width": 67.37215368532691,
                "x": 289.7002608469056,
                "y": 969.3168611476406
            },
            {
                "class": "wall",
                "height": 14.40227620153098,
                "width": 8.471927177371185,
                "x": 257.97018255095367,
                "y": 928.0996222810172
            },
            {
                "class": "door",
                "height": 68.49263757656479,
                "width": 78.48114722314716,
                "x": 511.55438689996794,
                "y": 915.7322950991755
            },
            {
                "class": "door",
                "height": 68.84937006394284,
                "width": 76.6974847862574,
                "x": 566.4911899561711,
                "y": 1080.5427042677848
            },
            {
                "class": "wall",
                "height": 12.128904570849954,
                "width": 8.91831218444861,
                "x": 566.4911899561711,
                "y": 1150.1055393064835
            },
            {
                "class": "wall",
                "height": 54.223338081447196,
                "width": 44.59156092224271,
                "x": 520.8294315717945,
                "y": 1006.3423468931729
            },
            {
                "class": "wall",
                "height": 49.43129382702398,
                "width": 56.249403320406486,
                "x": 695.6602342466945,
                "y": 1006.9495458039443
            },
            {
                "class": "door",
                "height": 106.86907878335,
                "width": 86.68269723538401,
                "x": 1063.9410509986847,
                "y": 1144.686577190549
            },
            {
                "class": "door",
                "height": 108.00000000000887,
                "width": 80.0000000000066,
                "x": 465.0000000000382,
                "y": 1789.0000000001469
            },
            {
                "class": "Text",
                "height": 83.02065037464953,
                "text": "outdoor room",
                "width": 155.29042516121498,
                "x": 174.4030928733645,
                "y": 142.15046610911216
            },
            {
                "class": "Stairs",
                "xn": "613.475177305;614.184397163;556.737588653;556.028368794;543.971631206;542.553191489;511.347517731;512.056737589",
                "yn": "1502.12765957;1307.09219858;1337.58865248;1355.31914894;1329.78723404;1348.22695035;1363.12056738;1502.12765957"
            },
            {
                "class": "room",
                "height": 170.75495850004108,
                "width": 234.2214032522688,
                "x": 24.177693238943874,
                "y": 926.3078722170371
            },
            {
                "class": "room",
                "height": 55.91091561505755,
                "width": 116.35514871241742,
                "x": 268.9768372832506,
                "y": 1042.6630209294547
            },
            {
                "class": "room",
                "height": 163.19942936287111,
                "width": 178.31048763721105,
                "x": 571.198002770049,
                "y": 1000.3520577613028
            },
            {
                "class": "room",
                "height": 126.93288950445537,
                "width": 210.0437100133248,
                "x": 519.8204046372933,
                "y": 871.9080624294135
            },
            {
                "class": "room",
                "height": 597.5148045714345,
                "width": 549.0676582548319,
                "x": 622.6355471059694,
                "y": 1166.320189103401
            },
            {
                "class": "Room",
                "xn": "19.7377262771;17.9433875247;375.016799266;378.60547677;383.988493028;389.371509285;375.016799266;376.811138018;25.1207425345;23.3264037821;344.513040474;337.335685464;392.96018679;383.988493028;267.356474118;263.767796613;380.399815523;385.78283178;342.718701721;342.718701721;16.1490487722;25.1207425345;525.741254473;518.563899463;995.858007619;1001.24102388;938.43916754;938.43916754;999.446685124;1003.03536263;757.210953541;753.622276036;724.912855997;728.501533502;514.975221958;514.975221958;563.422368275;561.628029522;522.152576968;514.975221958;615.458192096;620.841208354;373.222460513;376.811138018",
                "yn": "1948.65188518;1591.57847344;1591.57847344;1641.81995851;1641.81995851;1367.28612938;1365.49179063;1579.01810217;1584.40111843;1108.90134902;1103.51833277;1164.52585035;1162.7315116;1042.51081518;1042.51081518;918.701441263;920.495780015;866.665617441;872.048633699;907.935408748;909.729747501;378.60547677;378.60547677;28.7094200395;25.1207425345;366.045105503;375.016799266;419.875268077;410.903574315;1159.14283409;1160.93717285;988.680652609;994.063668867;861.282601184;863.076939937;1060.45420271;1058.65986396;1160.93717285;1159.14283409;1518.01058459;1509.03889082;1884.05569009;1882.26135134;1950.44622393"
            }
        ],
        "class": "image",
        "filename": "58.png"
    }
]
