[
    {
        "annotations": [
            {
                "class": "Room", 
                "type": "UN", 
                "xn": "790;1619;1631;704;704;791", 
                "yn": "135;132;962;959;534;536", 
                "text": "tankless water heater", 
                "x": 879, 
                "y": 578
            }, 
            {
                "class": "Room", 
                "type": "UN", 
                "xn": "621;1058;1060;917;914;962;961;623;623;671;671;623", 
                "yn": "977;979;1405;1405;1428;1425;1501;1503;1426;1425;1405;1411", 
                "text": "bedroom 4", 
                "x": 837, 
                "y": 1196
            }, 
            {
                "class": "Room", 
                "type": "UN", 
                "xn": "621;624;1057;1057;1620;1620;1246;1254;1222;1224;1251;1246;1261;1255;1075;1075", 
                "yn": "1519;2143;2141;2353;2352;1525;1528;1620;1622;1507;1507;1348;1350;974;979;1521", 
                "text": "up", 
                "x": 1210, 
                "y": 1443
            }, 
            {
                "class": "Room", 
                "type": "UN", 
                "xn": "1273;1636;1636;1273", 
                "yn": "985;985;1187;1187", 
                "text": "bath 3", 
                "x": 1431, 
                "y": 1120
            }, 
            {
                "class": "Room", 
                "type": "UN", 
                "xn": "460;608;611;1036;1033;646;656;447", 
                "yn": "1420;1425;2175;2157;2361;2366;2331;2323", 
                "text": "porch", 
                "x": 828, 
                "y": 2266
            }
        ], 
        "class": "image", 
        "filename": "5.png"
    }
]