[
    {
        "annotations": [
            {
                "class": "Room", 
                "type": "UN", 
                "xn": "961;1527;1527;961", 
                "yn": "258;258;852;852", 
                "text": "doublegarage", 
                "x": 1304, 
                "y": 552
            }, 
            {
                "class": "Room", 
                "type": "UN", 
                "xn": "20;222;222;20", 
                "yn": "523;523;773;773", 
                "text": "pantry", 
                "x": 141, 
                "y": 649
            }, 
            {
                "class": "Room", 
                "type": "UN", 
                "xn": "222;376;376;222", 
                "yn": "599;599;768;768", 
                "text": "linen", 
                "x": 317, 
                "y": 679
            }, 
            {
                "class": "Room", 
                "type": "UN", 
                "xn": "771;953;953;771", 
                "yn": "796;796;955;955", 
                "text": "pwdr", 
                "x": 898, 
                "y": 856
            }, 
            {
                "class": "Room", 
                "type": "UN", 
                "xn": "660;953;953;660", 
                "yn": "584;584;783;783", 
                "text": "laundry", 
                "x": 817, 
                "y": 689
            }, 
            {
                "class": "Room", 
                "type": "UN", 
                "xn": "647;956;951;655;652;632;637;384;384;359;361;30;15;364;364;376;376;326;328;227;227;25;25;953;958;890;890;667;662;490;503;546;551;518;528;652;660;678;672;769;769;652", 
                "yn": "968;971;1295;1295;1232;1232;1305;1295;1237;1242;1295;1297;776;776;839;834;526;523;599;594;511;513;25;27;513;518;576;574;518;518;642;640;779;786;857;842;880;872;784;786;961;961", 
                "text": "sliding door", 
                "x": 503, 
                "y": 52
            }
        ], 
        "class": "image", 
        "filename": "62.png"
    }
]