[
    {
        "annotations": [
            {
                "class": "Room", 
                "type": "UN", 
                "xn": "959;1729;1729;959", 
                "yn": "2671;2671;3523;3523", 
                "text": "bedroom", 
                "x": 1336, 
                "y": 3009
            }, 
            {
                "class": "Room", 
                "type": "UN", 
                "xn": "234;900;900;234", 
                "yn": "698;698;1779;1779", 
                "text": "bedroom", 
                "x": 556, 
                "y": 1118
            }, 
            {
                "class": "Room", 
                "type": "UN", 
                "xn": "2808;2095;2084;2318;2315;2077;2060;2159;2145;2680;2680;2815;2818;2567;2567;2808", 
                "yn": "2138;2141;1709;1705;1677;1677;783;776;687;691;772;765;1677;1677;1709;1712", 
                "text": "master bedroom", 
                "x": 2463, 
                "y": 1123
            }, 
            {
                "class": "Room", 
                "type": "UN", 
                "xn": "999;1010;950;960;964;1131;1134;1765;1765;2081;2091;2347;2329;2028;2017;2052;2049;1943;1928;999", 
                "yn": "730;787;776;2453;2630;2623;2648;2652;3691;3691;3393;3396;2871;2861;1099;1092;780;780;705;702", 
                "text": "livingdining", 
                "x": 1530, 
                "y": 1096
            }
        ], 
        "class": "image", 
        "filename": "6.png"
    }
]