[
    {
        "annotations": [
            {
                "class": "Window",
                "xn": "1807;1863;1863;1807",
                "yn": "587;587;613;613"
            },
            {
                "class": "Window",
                "xn": "1921;2057;2057;1921",
                "yn": "587;587;613;613"
            },
            {
                "class": "Window",
                "xn": "1440;1465;1465;1440",
                "yn": "713;713;850;850"
            },
            {
                "class": "Window",
                "xn": "1532;1749;1749;1532",
                "yn": "2064;2064;2075;2075"
            },
            {
                "class": "Window",
                "xn": "1167;1193;1193;1167",
                "yn": "1647;1647;1728;1728"
            },
            {
                "class": "Window",
                "xn": "1921;2081;2081;1921",
                "yn": "587;587;613;613"
            },
            {
                "class": "Window",
                "xn": "850;1077;1077;850",
                "yn": "586;586;611;611"
            },
            {
                "class": "Window",
                "xn": "110;563;563;110",
                "yn": "2021;2021;2047;2047"
            },
            {
                "class": "Window",
                "xn": "1167;1193;1193;1167",
                "yn": "1123;1123;1352;1352"
            },
            {
                "class": "Window",
                "xn": "1440;1465;1465;1440",
                "yn": "713;713;943;943"
            },
            {
                "class": "Window",
                "xn": "2051;2337;2337;2051",
                "yn": "2159;2159;2185;2185"
            },
            {
                "class": "Window",
                "xn": "2398;2423;2423;2398",
                "yn": "713;713;851;851"
            },
            {
                "class": "Window",
                "xn": "1439;1465;1465;1439",
                "yn": "1070;1070;1318;1318"
            },
            {
                "class": "Window",
                "xn": "1909;1988;1988;1909",
                "yn": "2159;2159;2174;2174"
            },
            {
                "class": "Window",
                "xn": "832;1111;1111;832",
                "yn": "2158;2158;2184;2184"
            },
            {
                "class": "Window",
                "xn": "2398;2423;2423;2398",
                "yn": "1123;1123;1352;1352"
            },
            {
                "class": "Window",
                "xn": "2398;2423;2423;2398",
                "yn": "1648;1648;1728;1728"
            },
            {
                "class": "Window",
                "xn": "1453;1465;1465;1453",
                "yn": "1443;1443;1989;1989"
            },
            {
                "class": "Wall",
                "xn": "1988;2052;2052;1988",
                "yn": "2160;2160;2196;2196"
            },
            {
                "class": "Wall",
                "xn": "2057;2424;2424;2057",
                "yn": "588;588;613;613"
            },
            {
                "class": "Wall",
                "xn": "2399;2423;2423;2399",
                "yn": "851;851;1124;1124"
            },
            {
                "class": "Wall",
                "xn": "2398;2423;2423;2398",
                "yn": "1352;1352;1649;1649"
            },
            {
                "class": "Wall",
                "xn": "2399;2423;2423;2399",
                "yn": "1728;1728;2185;2185"
            },
            {
                "class": "Wall",
                "xn": "1440;1465;1465;1440",
                "yn": "1318;1318;1444;1444"
            },
            {
                "class": "Wall",
                "xn": "1440;1808;1808;1440",
                "yn": "588;588;613;613"
            },
            {
                "class": "Wall",
                "xn": "1441;1465;1465;1441",
                "yn": "850;850;1181;1181"
            },
            {
                "class": "Wall",
                "xn": "2337;2424;2424;2337",
                "yn": "2159;2159;2185;2185"
            },
            {
                "class": "Wall",
                "xn": "2399;2423;2423;2399",
                "yn": "588;588;714;714"
            },
            {
                "class": "Wall",
                "xn": "1441;1465;1465;1441",
                "yn": "588;588;714;714"
            },
            {
                "class": "Wall",
                "xn": "1863;1922;1922;1863",
                "yn": "588;588;613;613"
            },
            {
                "class": "Wall",
                "xn": "1806;1819;1819;1806",
                "yn": "2138;2138;2196;2196"
            },
            {
                "class": "Wall",
                "xn": "1805;1854;1854;1805",
                "yn": "2183;2183;2196;2196"
            },
            {
                "class": "Wall",
                "xn": "1877;1888;1888;1877",
                "yn": "1061;1061;1456;1456"
            },
            {
                "class": "Wall",
                "xn": "1979;2043;2043;1979",
                "yn": "1600;1600;1611;1611"
            },
            {
                "class": "Wall",
                "xn": "2124;2135;2135;2124",
                "yn": "1549;1549;1676;1676"
            },
            {
                "class": "Wall",
                "xn": "1876;2092;2092;1876",
                "yn": "900;900;911;911"
            },
            {
                "class": "Wall",
                "xn": "1440;1526;1526;1440",
                "yn": "943;943;955;955"
            },
            {
                "class": "Wall",
                "xn": "1876;1887;1887;1876",
                "yn": "588;588;822;822"
            },
            {
                "class": "Wall",
                "xn": "1440;1791;1791;1440",
                "yn": "1060;1060;1071;1071"
            },
            {
                "class": "Wall",
                "xn": "1758;1769;1769;1758",
                "yn": "1357;1357;1456;1456"
            },
            {
                "class": "Wall",
                "xn": "2184;2195;2195;2184",
                "yn": "944;944;1071;1071"
            },
            {
                "class": "Wall",
                "xn": "1825;1888;1888;1825",
                "yn": "1395;1395;1406;1406"
            },
            {
                "class": "Wall",
                "xn": "2338;2424;2424;2338",
                "yn": "943;943;955;955"
            },
            {
                "class": "Wall",
                "xn": "2018;2092;2092;2018",
                "yn": "957;957;968;968"
            },
            {
                "class": "Wall",
                "xn": "1454;1465;1465;1454",
                "yn": "1989;1989;2075;2075"
            },
            {
                "class": "Wall",
                "xn": "1771;1795;1795;1771",
                "yn": "806;806;818;818"
            },
            {
                "class": "Wall",
                "xn": "1876;1899;1899;1876",
                "yn": "957;957;968;968"
            },
            {
                "class": "Wall",
                "xn": "1865;1888;1888;1865",
                "yn": "806;806;818;818"
            },
            {
                "class": "Wall",
                "xn": "762;799;799;762",
                "yn": "1860;1860;2196;2196"
            },
            {
                "class": "Wall",
                "xn": "209;851;851;209",
                "yn": "587;587;613;613"
            },
            {
                "class": "Wall",
                "xn": "52;76;76;52",
                "yn": "1431;1431;2048;2048"
            },
            {
                "class": "Wall",
                "xn": "1168;1193;1193;1168",
                "yn": "1352;1352;1648;1648"
            },
            {
                "class": "Wall",
                "xn": "1168;1193;1193;1168",
                "yn": "1728;1728;2184;2184"
            },
            {
                "class": "Wall",
                "xn": "598;624;624;598",
                "yn": "1943;1943;2047;2047"
            },
            {
                "class": "Wall",
                "xn": "1077;1194;1194;1077",
                "yn": "587;587;611;611"
            },
            {
                "class": "Wall",
                "xn": "1168;1193;1193;1168",
                "yn": "1021;1021;1124;1124"
            },
            {
                "class": "Wall",
                "xn": "1111;1194;1194;1111",
                "yn": "2159;2159;2184;2184"
            },
            {
                "class": "Wall",
                "xn": "563;624;624;563",
                "yn": "2022;2022;2047;2047"
            },
            {
                "class": "Wall",
                "xn": "1168;1193;1193;1168",
                "yn": "587;587;668;668"
            },
            {
                "class": "Wall",
                "xn": "51;111;111;51",
                "yn": "2022;2022;2048;2048"
            },
            {
                "class": "Wall",
                "xn": "757;833;833;757",
                "yn": "2159;2159;2185;2185"
            },
            {
                "class": "Wall",
                "xn": "749;770;770;749",
                "yn": "1389;1389;1456;1456"
            },
            {
                "class": "Wall",
                "xn": "165;609;609;165",
                "yn": "1443;1443;1456;1456"
            },
            {
                "class": "Wall",
                "xn": "51;90;90;51",
                "yn": "1444;1444;1457;1457"
            },
            {
                "class": "Wall",
                "xn": "749;1194;1194;749",
                "yn": "1445;1445;1456;1456"
            },
            {
                "class": "Wall",
                "xn": "406;515;515;406",
                "yn": "1351;1351;1362;1362"
            },
            {
                "class": "Wall",
                "xn": "749;1194;1194;749",
                "yn": "1549;1549;1560;1560"
            },
            {
                "class": "Wall",
                "xn": "749;813;813;749",
                "yn": "1599;1599;1611;1611"
            },
            {
                "class": "Wall",
                "xn": "749;760;760;749",
                "yn": "1549;1549;1742;1742"
            },
            {
                "class": "Wall",
                "xn": "865;905;905;865",
                "yn": "1591;1591;1603;1603"
            },
            {
                "class": "Wall",
                "xn": "597;637;637;597",
                "yn": "644;644;656;656"
            },
            {
                "class": "Wall",
                "xn": "500;511;511;500",
                "yn": "1191;1191;1258;1258"
            },
            {
                "class": "Wall",
                "xn": "407;418;418;407",
                "yn": "1191;1191;1210;1210"
            },
            {
                "class": "Wall",
                "xn": "586;609;609;586",
                "yn": "1350;1350;1363;1363"
            },
            {
                "class": "Wall",
                "xn": "1820;1910;1910;1820",
                "yn": "2159;2159;2174;2174"
            },
            {
                "class": "Wall",
                "xn": "1876;1896;1896;1876",
                "yn": "1754;1754;1766;1766"
            },
            {
                "class": "Wall",
                "xn": "1978;2053;2053;1978",
                "yn": "2162;2162;2173;2173"
            },
            {
                "class": "Wall",
                "xn": "1841;1853;1853;1841",
                "yn": "2160;2160;2196;2196"
            },
            {
                "class": "Wall",
                "xn": "1870;1888;1888;1870",
                "yn": "1061;1061;1072;1072"
            },
            {
                "class": "Wall",
                "xn": "2080;2091;2091;2080",
                "yn": "1054;1054;1071;1071"
            },
            {
                "class": "Wall",
                "xn": "2081;2091;2091;2081",
                "yn": "588;588;976;976"
            },
            {
                "class": "Wall",
                "xn": "1980;2424;2424;1980",
                "yn": "1061;1061;1071;1071"
            },
            {
                "class": "Wall",
                "xn": "1979;2424;2424;1979",
                "yn": "1549;1549;1559;1559"
            },
            {
                "class": "Wall",
                "xn": "2212;2424;2424;2212",
                "yn": "1755;1755;1765;1765"
            },
            {
                "class": "Wall",
                "xn": "1454;1888;1888;1454",
                "yn": "1446;1446;1456;1456"
            },
            {
                "class": "Wall",
                "xn": "1772;1782;1782;1772",
                "yn": "588;588;974;974"
            },
            {
                "class": "Wall",
                "xn": "1821;1831;1831;1821",
                "yn": "2065;2065;2170;2170"
            },
            {
                "class": "Wall",
                "xn": "1981;1991;1991;1981",
                "yn": "1549;1549;1765;1765"
            },
            {
                "class": "Wall",
                "xn": "2032;2042;2042;2032",
                "yn": "1549;1549;1611;1611"
            },
            {
                "class": "Wall",
                "xn": "1877;1887;1887;1877",
                "yn": "895;895;968;968"
            },
            {
                "class": "Wall",
                "xn": "2030;2040;2040;2030",
                "yn": "900;900;968;968"
            },
            {
                "class": "Wall",
                "xn": "1669;1679;1679;1669",
                "yn": "944;944;1071;1071"
            },
            {
                "class": "Wall",
                "xn": "2184;2255;2255;2184",
                "yn": "944;944;954;954"
            },
            {
                "class": "Wall",
                "xn": "1826;1836;1836;1826",
                "yn": "1395;1395;1456;1456"
            },
            {
                "class": "Wall",
                "xn": "1454;1533;1533;1454",
                "yn": "2065;2065;2075;2075"
            },
            {
                "class": "Wall",
                "xn": "757;806;806;757",
                "yn": "2186;2186;2194;2194"
            },
            {
                "class": "Wall",
                "xn": "503;513;513;503",
                "yn": "587;587;674;674"
            },
            {
                "class": "Wall",
                "xn": "626;636;636;626",
                "yn": "587;587;655;655"
            },
            {
                "class": "Wall",
                "xn": "598;608;608;598",
                "yn": "587;587;691;691"
            },
            {
                "class": "Wall",
                "xn": "742;752;752;742",
                "yn": "587;587;863;863"
            },
            {
                "class": "Wall",
                "xn": "51;88;88;51",
                "yn": "1431;1431;1441;1441"
            },
            {
                "class": "Wall",
                "xn": "982;1194;1194;982",
                "yn": "1754;1754;1764;1764"
            },
            {
                "class": "Wall",
                "xn": "598;608;608;598",
                "yn": "1546;1546;2047;2047"
            },
            {
                "class": "Wall",
                "xn": "379;384;384;379",
                "yn": "1400;1400;1442;1442"
            },
            {
                "class": "Wall",
                "xn": "594;604;604;594",
                "yn": "1342;1342;1464;1464"
            },
            {
                "class": "Wall",
                "xn": "407;417;417;407",
                "yn": "1281;1281;1456;1456"
            },
            {
                "class": "Wall",
                "xn": "802;812;812;802",
                "yn": "1549;1549;1610;1610"
            },
            {
                "class": "Wall",
                "xn": "894;904;904;894",
                "yn": "1549;1549;1675;1675"
            },
            {
                "class": "Wall",
                "xn": "866;876;876;866",
                "yn": "1549;1549;1602;1602"
            },
            {
                "class": "Wall",
                "xn": "500;609;609;500",
                "yn": "1191;1191;1201;1201"
            },
            {
                "class": "Wall",
                "xn": "1877;1887;1887;1877",
                "yn": "1692;1692;2170;2170"
            },
            {
                "class": "Wall",
                "xn": "1455;1465;1465;1455",
                "yn": "1318;1318;1534;1534"
            },
            {
                "class": "Wall",
                "xn": "1749;1888;1888;1749",
                "yn": "2065;2065;2075;2075"
            },
            {
                "class": "Wall",
                "xn": "1973;2135;2135;1973",
                "yn": "1755;1755;1765;1765"
            },
            {
                "class": "Wall",
                "xn": "1603;1680;1680;1603",
                "yn": "944;944;954;954"
            },
            {
                "class": "Wall",
                "xn": "597;753;753;597",
                "yn": "853;853;863;863"
            },
            {
                "class": "Wall",
                "xn": "598;608;608;598",
                "yn": "1191;1191;1258;1258"
            },
            {
                "class": "Wall",
                "xn": "598;608;608;598",
                "yn": "775;775;863;863"
            },
            {
                "class": "Wall",
                "xn": "771;895;895;771",
                "yn": "1754;1754;1764;1764"
            },
            {
                "class": "Text",
                "height": 32,
                "text": "kitchen",
                "width": 186,
                "x": 285,
                "y": 716
            },
            {
                "class": "Text",
                "height": 33,
                "text": "lounge",
                "width": 174,
                "x": 877,
                "y": 779
            },
            {
                "class": "Text",
                "height": 32,
                "text": "bed",
                "width": 120,
                "x": 1568,
                "y": 764
            },
            {
                "class": "Text",
                "height": 40,
                "text": "bath",
                "width": 182,
                "x": 1899,
                "y": 762
            },
            {
                "class": "Text",
                "height": 31,
                "text": "bed",
                "width": 120,
                "x": 2180,
                "y": 762
            },
            {
                "class": "Text",
                "height": 32,
                "text": "family",
                "width": 155,
                "x": 882,
                "y": 1168
            },
            {
                "class": "Text",
                "height": 64,
                "text": "wc",
                "width": 81,
                "x": 780,
                "y": 1651
            },
            {
                "class": "Text",
                "height": 38,
                "text": "ens",
                "width": 92,
                "x": 1017,
                "y": 1673
            },
            {
                "class": "Text",
                "height": 63,
                "text": "wir",
                "width": 82,
                "x": 2010,
                "y": 1652
            },
            {
                "class": "Text",
                "height": 33,
                "text": "ens",
                "width": 92,
                "x": 2247,
                "y": 1678
            },
            {
                "class": "Text",
                "height": 32,
                "text": "garage",
                "width": 177,
                "x": 241,
                "y": 1718
            },
            {
                "class": "Text",
                "height": 32,
                "text": "family",
                "width": 154,
                "x": 1601,
                "y": 1715
            },
            {
                "class": "Text",
                "height": 31,
                "text": "retreat",
                "width": 191,
                "x": 1583,
                "y": 1773
            },
            {
                "class": "Text",
                "height": 52,
                "text": "entry",
                "width": 139,
                "x": 639,
                "y": 1804
            },
            {
                "class": "Text",
                "height": 33,
                "text": "porch",
                "width": 148,
                "x": 597,
                "y": 2084
            },
            {
                "class": "Text",
                "height": 49.86649230532089,
                "text": "wip",
                "width": 90.66634964603804,
                "x": 625.5978125576626,
                "y": 710.2197388939647
            },
            {
                "class": "Text",
                "height": 51.37759813275488,
                "text": "meals",
                "width": 166.22164101773643,
                "x": 392.88751513283154,
                "y": 977.685470349777
            },
            {
                "class": "Wall",
                "xn": "209.780799946;234.863286896;234.103211533;208.260649221",
                "yn": "588.298330282;588.298330282;692.428654893;690.908504169"
            },
            {
                "class": "window",
                "height": 56.24557679699899,
                "width": 25.082486950013106,
                "x": 208.26064922132076,
                "y": 692.4286548927855
            },
            {
                "class": "window",
                "height": 226.40542701494735,
                "width": 22.101482160982954,
                "x": 210.23361079959403,
                "y": 907.7779502218367
            },
            {
                "class": "Wall",
                "xn": "208.260649221;233.343136171;235.623362258;209.020724583",
                "yn": "749.434307052;749.434307052;909.81020846;907.529982373"
            },
            {
                "class": "Wall",
                "xn": "209.921281621;234.068668311;234.390633466;208.633420998",
                "yn": "1135.57110472;1135.24913956;1221.85776649;1221.53580133"
            },
            {
                "class": "Wall",
                "xn": "235.356528934;405.676096384;405.99806154;235.034563778",
                "yn": "1190.30518122;1190.62714637;1200.93003136;1199.64217074"
            },
            {
                "class": "window",
                "height": 172.53710720160575,
                "width": 22.042185501526745,
                "x": 210.54087530768652,
                "y": 1224.481408377917
            },
            {
                "class": "Wall",
                "xn": "209.952447848;232.996009197;235.556404903;210.592546774",
                "yn": "1397.97605518;1397.33595626;1443.42307896;1443.42307896"
            },
            {
                "class": "Wall",
                "xn": "167.065819782;168.986116561;211.872744627;209.952447848",
                "yn": "1430.62110043;1444.06317788;1442.1428811;1430.62110043"
            },
            {
                "class": "Text",
                "height": 49.298487987207864,
                "text": "l'dry",
                "width": 130.7481637921598,
                "x": 253.9943837601793,
                "y": 1288.1909252309515
            },
            {
                "class": "Text",
                "height": 37.509719120701675,
                "text": "p'dr",
                "width": 97.52526971382417,
                "x": 486.5546423085291,
                "y": 1387.8596074659586
            },
            {
                "class": "window",
                "height": 77.16285076258612,
                "width": 23.577537733012377,
                "x": 1170.3032365658894,
                "y": 669.8164128696711
            },
            {
                "class": "window",
                "height": 80.37796954436055,
                "width": 25.72095025419526,
                "x": 1170.3032365658894,
                "y": 939.8863905387225
            },
            {
                "class": "window",
                "height": 80.37796954436055,
                "width": 25.720950254195486,
                "x": 1169.2315303052978,
                "y": 803.7796954436053
            },
            {
                "class": "window",
                "height": 4.533317482301982,
                "width": 3.022211654867988,
                "x": 1441.5949593720152,
                "y": 989.7743169692557
            },
            {
                "class": "Wall",
                "xn": "1167.88609511;1194.05974021;1194.05974021;1168.7886346",
                "yn": "748.20523404;747.302694554;805.967761155;805.065221669"
            },
            {
                "class": "Wall",
                "xn": "1166.08101614;1192.25466124;1194.05974021;1166.08101614",
                "yn": "885.391235939;887.196314911;939.543605109;939.543605109"
            },
            {
                "class": "Stairs",
                "xn": "809.650502339;1167.60125074;1167.60125074;809.650502339",
                "yn": "1457.37090421;1455.24024499;1551.11990974;1548.98925053"
            },
            {
                "class": "Wall",
                "xn": "1758.68314946;1770.03242121;1767.76256686;1760.04506207",
                "yn": "1174.42264008;1173.06072747;1275.65814403;1276.1121149"
            },
            {
                "class": "Wall",
                "xn": "1770.94036295;1771.39433382;1877.16954647;1876.26160473",
                "yn": "1174.42264008;1183.95602834;1183.95602834;1173.06072747"
            },
            {
                "class": "Text",
                "height": 45.12697430880621,
                "text": "bed 2",
                "width": 127.25806755083386,
                "x": 1554.1729951952893,
                "y": 1218.4283063377704
            },
            {
                "class": "Text",
                "height": 32.49142150234047,
                "text": "wir",
                "width": 82.13109324202765,
                "x": 1774.392629822264,
                "y": 1303.2670180383263
            },
            {
                "class": "Text",
                "height": 48.35538647788758,
                "text": "kids activity",
                "width": 311.28780045140024,
                "x": 1990.1263747305554,
                "y": 1230.040143531262
            },
            {
                "class": "Stairs",
                "xn": "1991.23023218;1989.08681966;2399.55031746;2399.55031746",
                "yn": "1455.37710188;1549.68725282;1548.61554655;1455.37710188"
            },
            {
                "class": "Wall",
                "xn": "575.637808715;622.545647108;622.545647108;575.637808715",
                "yn": "2136.61136725;2136.61136725;2196.26295365;2194.90723577"
            },
            {
                "class": "Wall",
                "xn": "588.652700292;610.07304268;608.988468382;589.194987441",
                "yn": "2150.16854598;2149.62625883;2183.24806207;2182.43463135"
            },
            {
                "class": "Wall",
                "xn": "588.230339757;576.31762899",
                "yn": "2150.08331084;2150.40527599"
            },
            {
                "class": "Wall",
                "xn": "588.230339757",
                "yn": "2149.76134568"
            },
            {
                "class": "Wall",
                "xn": "588.874270069;588.874270069",
                "yn": "2150.08331084;2136.23880913"
            },
            {
                "class": "Wall",
                "xn": "609.480040044;622.680611434",
                "yn": "2150.40527599;2150.72724115"
            },
            {
                "class": "Wall",
                "xn": "609.158074888;610.123970355",
                "yn": "2137.2047046;2151.37117146"
            },
            {
                "class": "Wall",
                "xn": "589.196235225;575.029768367",
                "yn": "2182.60179158;2182.60179158"
            },
            {
                "class": "Wall",
                "xn": "588.230339757;588.230339757",
                "yn": "2182.60179158;2194.8364675"
            },
            {
                "class": "Wall",
                "xn": "607.548249109;622.036681122",
                "yn": "2182.27982642;2182.27982642"
            },
            {
                "class": "Wall",
                "xn": "608.514144576;608.514144576",
                "yn": "2183.24572189;2196.12432812"
            },
            {
                "class": "Text",
                "height": 36.43801286011035,
                "text": "wir",
                "width": 87.87991336850155,
                "x": 2249.5114409815205,
                "y": 973.1092846170657
            },
            {
                "class": "Text",
                "height": 38.35186590027456,
                "text": "master",
                "width": 189.62867028469145,
                "x": 2066.7394401814677,
                "y": 1928.2465910971425
            },
            {
                "class": "Text",
                "height": 45.54031753760637,
                "text": "guest",
                "width": 139.15097025379794,
                "x": 903.2162978291971,
                "y": 1937.9935129892576
            },
            {
                "class": "door",
                "height": 101.52000000000271,
                "width": 74.73000000000202,
                "x": 88.83000000000241,
                "y": 1431.150000000039
            },
            {
                "class": "door",
                "height": 76.14000000000215,
                "width": 87.42000000000246,
                "x": 521.7000000000141,
                "y": 1466.4000000000399
            },
            {
                "class": "door",
                "height": 90.24499986149067,
                "width": 74.80835514834098,
                "x": 651.9013805783997,
                "y": 1865.4591418737084
            },
            {
                "class": "door",
                "height": 80.14184397163353,
                "width": 86.52482269503787,
                "x": 773.0496453900931,
                "y": 1770.9219858156537
            },
            {
                "class": "door",
                "height": 85.00578441728544,
                "width": 78.4668779236481,
                "x": 1894.2709119260162,
                "y": 1755.4448971380236
            },
            {
                "class": "door",
                "height": 72.26977478656181,
                "width": 78.24248344660816,
                "x": 339.8471227566415,
                "y": 1209.4735036594009
            },
            {
                "class": "door",
                "height": 26.2799181042044,
                "width": 85.40973383866384,
                "x": 511.8611321659785,
                "y": 1249.4906516817118
            },
            {
                "class": "door",
                "height": 81.48483476686545,
                "width": 69.9160002011995,
                "x": 1794.6783360998515,
                "y": 736.8844625522092
            },
            {
                "class": "door",
                "height": 70.29897019520479,
                "width": 79.0112357322173,
                "x": 1876.441742902771,
                "y": 823.1588817729095
            },
            {
                "class": "door",
                "height": 37.853291643571765,
                "width": 119.86875687131055,
                "x": 1898.6730411696308,
                "y": 957.7483631722757
            },
            {
                "class": "door",
                "height": 80.4788491524597,
                "width": 86.51476283889428,
                "x": 1696.0917458880895,
                "y": 973.2910819375603
            },
            {
                "class": "door",
                "height": 85.05734402772123,
                "width": 80.00443250132184,
                "x": 1790.414984187478,
                "y": 1063.6378763070484
            },
            {
                "class": "door",
                "height": 78.96987073085108,
                "width": 82.49082038127108,
                "x": 2083.8992002415052,
                "y": 974.8000603591689
            },
            {
                "class": "room",
                "height": 565.3508761092371,
                "width": 522.5482861198943,
                "x": 74.90453248135003,
                "y": 1453.504618388102
            },
            {
                "class": "room",
                "height": 240.7645686900537,
                "width": 172.99380120692746,
                "x": 237.1976861909418,
                "y": 1202.0394022007126
            },
            {
                "class": "room",
                "height": 238.8066274332283,
                "width": 135.17356269805373,
                "x": 609.7829606156646,
                "y": 611.2848890900874
            },
            {
                "class": "room",
                "height": 187.74105930285236,
                "width": 259.8336260751479,
                "x": 905.6628700769601,
                "y": 1563.507541874155
            },
            {
                "class": "room",
                "height": 393.5052602987787,
                "width": 384.4936894522418,
                "x": 782.504735174289,
                "y": 1764.7659574468128
            },
            {
                "class": "room",
                "height": 235.80277048438268,
                "width": 124.66006337709393,
                "x": 611.2848890900875,
                "y": 611.2848890900875
            },
            {
                "class": "Room",
                "xn": "232.798913536;237.304698959;609.782960616;611.28488909;777.998949751;773.493164328;743.454594839;749.462308737;803.531733816;803.531733816;746.458451788;746.458451788;776.497021277;776.497021277;1168.5003531;1165.49649615;756.971951109;753.96809416;593.261747397;597.76753282",
                "yn": "612.786817565;1186.52349479;1189.52735174;1938.98966048;1940.49158895;1764.76595745;1740.73510186;1545.48440018;1546.98632866;1455.36869172;1455.36869172;1381.77419647;1381.77419647;1437.34555002;1440.34940697;612.786817565;615.790674513;865.110801268;862.106944319;612.786817565"
            },
            {
                "class": "room",
                "height": 237.3046989588055,
                "width": 126.16199185151686,
                "x": 614.2887460389331,
                "y": 609.7829606156647
            },
            {
                "class": "Room",
                "xn": "419.038044364;500.142181983;503.146038932;594.763675871;596.265604346;584.25017655;579.744391127;597.76753282;597.76753282;419.038044364;417.53611589;518.165323676;518.165323676;417.53611589",
                "yn": "1197.03699411;1194.03313717;1260.11799004;1252.60834767;1348.73177003;1344.22598461;1369.75876867;1363.75105478;1440.34940697;1440.34940697;1365.25298325;1365.25298325;1344.22598461;1345.72791308"
            },
            {
                "class": "Room",
                "xn": "815.623057166;813.714422866;759.000239624;759.000239624;779.995216915;891.968429131;891.968429131;862.066491778;863.975126077",
                "yn": "1561.2628567;1614.06840564;1611.52355991;1738.12963508;1753.39870948;1753.39870948;1605.16144558;1603.88902271;1560.62664526"
            },
            {
                "class": "room",
                "height": 389.66032340425636,
                "width": 510.37031489361834,
                "x": 1889.0054808510686,
                "y": 1768.2954893617066
            },
            {
                "class": "room",
                "height": 292.24524255319227,
                "width": 196.94788085106438,
                "x": 1884.7700425531962,
                "y": 609.9031148936185
            },
            {
                "class": "room",
                "height": 196.94788085106438,
                "width": 266.8326127659584,
                "x": 2136.778621276601,
                "y": 1558.6412936170252
            },
            {
                "class": "room",
                "height": 103.7682382978727,
                "width": 205.4187574468092,
                "x": 2198.19247659575,
                "y": 952.973617021279
            },
            {
                "class": "room",
                "height": 103.7682382978727,
                "width": 213.88963404255355,
                "x": 1456.9907744680888,
                "y": 952.973617021279
            },
            {
                "class": "room",
                "height": 264.71489361702197,
                "width": 103.76823829787259,
                "x": 1770.4132085106428,
                "y": 1183.805004255322
            },
            {
                "class": "room",
                "height": 192.71244255319198,
                "width": 86.82648510638319,
                "x": 1785.237242553196,
                "y": 609.9031148936185
            },
            {
                "class": "Room",
                "xn": "1463.4337062;1875.77544191;1877.04029386;1753.08480276;1758.14421056;1464.69855815",
                "yn": "1072.59445363;1071.32960168;1171.25290574;1169.98805379;1444.46092695;1445.7257789"
            },
            {
                "class": "Room",
                "xn": "1465.9634101;1463.4337062;1684.78279745;1680.9882416;1769.52787811;1770.79273006",
                "yn": "618.512603569;943.57955473;946.10925863;1062.47563803;1056.15137828;613.453195769"
            },
            {
                "class": "Room",
                "xn": "2090.80027342;2090.80027342;2185.66416967;2183.13446577;2398.15929728;2395.62959338",
                "yn": "614.718047719;1062.47563803;1057.41623023;941.04985083;942.31470278;618.512603569"
            },
            {
                "class": "Room",
                "xn": "1991.55715708;1993.05908556;2051.63429606;2044.12465369;2125.22879131;2122.22493436",
                "yn": "1757.25631507;1613.07118153;1611.56925306;1560.50368493;1559.00175645;1755.7543866"
            },
            {
                "class": "Room",
                "xn": "1465.88219104;1465.88219104;1872.90480761;1875.90866455;1892.42987777;1889.42602082;1982.54558624;1982.54558624;2398.57977365;2401.5836306;1981.04365776;1978.03980081;2081.67286555;2083.17479402;1871.40287913;1869.90095066;1778.28331372;1787.29488456;1890.9279493;1886.42216388",
                "yn": "1458.37254866;2062.14779538;2059.14393843;1689.66953373;1686.66567678;1757.25631507;1752.75052965;1443.35326392;1446.35712087;1073.87885921;1070.87500226;1058.85957447;1058.85957447;965.740009054;965.740009054;815.547161612;818.55101856;1051.3499321;1054.35378904;1456.87062019"
            }
        ],
        "class": "image",
        "filename": "7.png"
    }
]
