[
    {
        "annotations": [
            {
                "class": "wall",
                "height": 11.347517730496634,
                "width": 561.7021276595831,
                "x": 170.21276595744942,
                "y": 382.9787234042612
            },
            {
                "class": "wall",
                "height": 574.4680851063918,
                "width": 9.929078014184569,
                "x": 170.21276595744942,
                "y": 385.1063829787293
            },
            {
                "class": "wall",
                "height": 10.638297872340559,
                "width": 560.2836879432709,
                "x": 171.6312056737615,
                "y": 951.0638297872487
            },
            {
                "class": "wall",
                "height": 426.24113475177967,
                "width": 11.347517730496634,
                "x": 451.7730496453972,
                "y": 385.10638297872947
            },
            {
                "class": "wall",
                "height": 9.929078014184597,
                "width": 170.9219858156055,
                "x": 170.21276595744948,
                "y": 623.4042553191587
            },
            {
                "class": "wall",
                "height": 185.1063829787263,
                "width": 9.92907801418454,
                "x": 330.4964539007144,
                "y": 625.5319148936269
            },
            {
                "class": "wall",
                "height": 429.00000000000676,
                "width": 11.000000000000227,
                "x": 723.0000000000114,
                "y": 385.0000000000061
            },
            {
                "class": "wall",
                "height": 11.000000000000114,
                "width": 167.00000000000261,
                "x": 454.00000000000716,
                "y": 624.0000000000099
            },
            {
                "class": "wall",
                "height": 188.00000000000296,
                "width": 10.000000000000114,
                "x": 610.0000000000097,
                "y": 625.0000000000099
            },
            {
                "class": "wall",
                "height": 14.000000000000227,
                "width": 562.0000000000089,
                "x": 170.00000000000267,
                "y": 802.0000000000126
            },
            {
                "class": "wall",
                "height": 12.000000000000114,
                "width": 277.0000000000043,
                "x": 725.0000000000115,
                "y": 705.0000000000111
            },
            {
                "class": "wall",
                "height": 566.6666666666758,
                "width": 8.51063829787256,
                "x": 994.3262411347677,
                "y": 704.9645390071034
            },
            {
                "class": "wall",
                "height": 11.347517730496634,
                "width": 155.31914893617272,
                "x": 846.8085106383114,
                "y": 951.0638297872492
            },
            {
                "class": "wall",
                "height": 621.0000000000101,
                "width": 10.00000000000017,
                "x": 306.00000000000495,
                "y": 804.0000000000131
            },
            {
                "class": "wall",
                "height": 12.000000000000227,
                "width": 429.000000000007,
                "x": 305.00000000000495,
                "y": 1414.000000000023
            },
            {
                "class": "wall",
                "height": 186.00000000000296,
                "width": 12.00000000000017,
                "x": 462.0000000000075,
                "y": 953.0000000000155
            },
            {
                "class": "wall",
                "height": 8.000000000000227,
                "width": 167.00000000000273,
                "x": 306.00000000000495,
                "y": 1129.0000000000182
            },
            {
                "class": "wall",
                "height": 473.00000000000773,
                "width": 12.000000000000227,
                "x": 589.0000000000095,
                "y": 952.0000000000155
            },
            {
                "class": "wall",
                "height": 12.0,
                "width": 43.00000000000068,
                "x": 685.0000000000111,
                "y": 1047.000000000017
            },
            {
                "class": "wall",
                "height": 126.00000000000205,
                "width": 10.000000000000114,
                "x": 684.0000000000111,
                "y": 1047.000000000017
            },
            {
                "class": "wall",
                "height": 10.000000000000227,
                "width": 50.000000000000796,
                "x": 684.0000000000111,
                "y": 1165.0000000000189
            },
            {
                "class": "wall",
                "height": 259.0000000000043,
                "width": 9.000000000000227,
                "x": 725.0000000000117,
                "y": 1166.0000000000189
            },
            {
                "class": "wall",
                "height": 12.000000000000227,
                "width": 146.0000000000024,
                "x": 589.0000000000095,
                "y": 1260.0000000000205
            },
            {
                "class": "wall",
                "height": 314.000000000005,
                "width": 10.000000000000227,
                "x": 844.0000000000136,
                "y": 1067.0000000000173
            },
            {
                "class": "wall",
                "height": 11.0,
                "width": 153.0000000000025,
                "x": 844.0000000000136,
                "y": 1370.0000000000223
            },
            {
                "class": "wall",
                "height": 12.000000000000227,
                "width": 296.0000000000048,
                "x": 996.0000000000161,
                "y": 1261.0000000000205
            },
            {
                "class": "wall",
                "height": 282.60934167150685,
                "width": 10.686907878334296,
                "x": 1281.2415111914117,
                "y": 1261.0551296434471
            },
            {
                "class": "wall",
                "height": 11.87434208703803,
                "width": 290.92138113243357,
                "x": 1001.0070379373125,
                "y": 1531.790129227916
            },
            {
                "class": "wall",
                "height": 244.22405710929456,
                "width": 10.947974973864916,
                "x": 1001.3186341481071,
                "y": 1531.032192498956
            },
            {
                "class": "wall",
                "height": 360.44102221647586,
                "width": 9.263671131731883,
                "x": 459.8149489023267,
                "y": 1415.6573793128412
            },
            {
                "class": "wall",
                "height": 10.105823052798314,
                "width": 551.6095082985787,
                "x": 460.65710082339325,
                "y": 1765.9925784765187
            },
            {
                "class": "wall",
                "height": 166.38000000000284,
                "width": 8.460000000000264,
                "x": 1569.330000000026,
                "y": 548.4900000000091
            },
            {
                "class": "wall",
                "height": 8.46000000000015,
                "width": 363.7800000000061,
                "x": 1570.7400000000262,
                "y": 549.9000000000092
            },
            {
                "class": "wall",
                "height": 232.65000000000384,
                "width": 11.2800000000002,
                "x": 1739.940000000029,
                "y": 552.7200000000092
            },
            {
                "class": "wall",
                "height": 12.690000000000168,
                "width": 188.940000000003,
                "x": 1742.760000000029,
                "y": 683.8500000000114
            },
            {
                "class": "wall",
                "height": 8.46000000000015,
                "width": 91.65000000000146,
                "x": 1741.350000000029,
                "y": 779.730000000013
            },
            {
                "class": "wall",
                "height": 8.000000000000114,
                "width": 289.0000000000048,
                "x": 1291.0000000000216,
                "y": 705.0000000000117
            },
            {
                "class": "wall",
                "height": 251.0000000000041,
                "width": 11.000000000000227,
                "x": 1289.0000000000214,
                "y": 708.0000000000118
            },
            {
                "class": "wall",
                "height": 11.000000000000227,
                "width": 290.0000000000048,
                "x": 1291.0000000000216,
                "y": 950.0000000000158
            },
            {
                "class": "wall",
                "height": 727.0000000000123,
                "width": 11.0,
                "x": 1922.0000000000325,
                "y": 551.0000000000093
            },
            {
                "class": "wall",
                "height": 12.000000000000114,
                "width": 358.00000000000614,
                "x": 1574.0000000000268,
                "y": 875.000000000015
            },
            {
                "class": "wall",
                "height": 400.0000000000068,
                "width": 9.000000000000227,
                "x": 1573.0000000000268,
                "y": 877.000000000015
            },
            {
                "class": "wall",
                "height": 317.00000000000546,
                "width": 12.000000000000227,
                "x": 1569.0000000000268,
                "y": 960.0000000000164
            },
            {
                "class": "wall",
                "height": 12.000000000000227,
                "width": 359.00000000000614,
                "x": 1572.0000000000268,
                "y": 1267.0000000000216
            },
            {
                "class": "wall",
                "height": 10.94797497386503,
                "width": 730.9878674857524,
                "x": 698.986094485224,
                "y": 1958.8453684007604
            },
            {
                "class": "wall",
                "height": 373.9154529535415,
                "width": 11.790126894931518,
                "x": 1418.183835076045,
                "y": 1961.3718241639601
            },
            {
                "class": "wall",
                "height": 10.947974973864802,
                "width": 729.3035636436194,
                "x": 698.986094485224,
                "y": 2325.1814540647033
            },
            {
                "class": "wall",
                "height": 375.5997567956747,
                "width": 12.632278815998006,
                "x": 698.1439425641576,
                "y": 1958.8453684007604
            },
            {
                "class": "Text",
                "height": 42.74763151333741,
                "text": "bedroom",
                "width": 185.23973655779528,
                "x": 218.48789440150213,
                "y": 531.9705254993095
            },
            {
                "class": "Text",
                "height": 45.12249993074499,
                "text": "bedroom",
                "width": 179.30256551427624,
                "x": 496.34749923819504,
                "y": 533.1579597080133
            },
            {
                "class": "Text",
                "height": 148.42927608797697,
                "text": "ensuite",
                "width": 41.56019730463353,
                "x": 203.05124968835253,
                "y": 645.9642095348759
            },
            {
                "class": "Text",
                "height": 147.24184187927324,
                "text": "ensuite",
                "width": 39.18532888722592,
                "x": 482.09828873374926,
                "y": 651.9013805783949
            },
            {
                "class": "Text",
                "height": 37.99789467852213,
                "text": "wc",
                "width": 78.37065777445184,
                "x": 186.4271707664991,
                "y": 834.7662487187825
            },
            {
                "class": "Text",
                "height": 37.99789467852213,
                "text": "covered terrace",
                "width": 312.29519688910364,
                "x": 963.0091432587947,
                "y": 567.593551760424
            },
            {
                "class": "Text",
                "height": 92.61986827889768,
                "text": "kitchen/ dining area",
                "width": 233.9245391146519,
                "x": 1340.613221626608,
                "y": 764.7076304052574
            },
            {
                "class": "Text",
                "height": 39.18532888722598,
                "text": "bthrm",
                "width": 125.8680261226043,
                "x": 1777.5890104296125,
                "y": 568.7809859691278
            },
            {
                "class": "Text",
                "height": 41.85705585680944,
                "text": "bedroom",
                "width": 184.1710457699619,
                "x": 1659.213694163929,
                "y": 1074.8891944028683
            },
            {
                "class": "Text",
                "height": 100.45693405634279,
                "text": "covered terrace",
                "width": 169.10250566151058,
                "x": 1063.1692187629615,
                "y": 1071.5406299343235
            },
            {
                "class": "Text",
                "height": 154.36644713149622,
                "text": "kitchen",
                "width": 51.05967097426401,
                "x": 895.3253933626772,
                "y": 1093.6269062162144
            },
            {
                "class": "Text",
                "height": 43.531338091082034,
                "text": "bedroom",
                "width": 177.4739168328723,
                "x": 363.31924483710657,
                "y": 1247.3402645329234
            },
            {
                "class": "Text",
                "height": 95.43408735352568,
                "text": "dining area",
                "width": 120.54832086761144,
                "x": 1094.9805812141367,
                "y": 1352.8200452920835
            },
            {
                "class": "Text",
                "height": 46.879902559626544,
                "text": "lounge",
                "width": 155.7082477873314,
                "x": 637.9015312577769,
                "y": 1572.1510179817653
            },
            {
                "class": "Text",
                "height": 50.22846702817128,
                "text": "covered terrace",
                "width": 314.76506004320754,
                "x": 1336.0772229493596,
                "y": 1642.4708718212053
            },
            {
                "class": "Text",
                "height": 40.1827736225373,
                "text": "pool",
                "width": 90.41124065070858,
                "x": 1011.2664695005178,
                "y": 2096.2013573090203
            },
            {
                "class": "Room",
                "xn": "179.553591275;451.073656129;453.263334071;339.400081068;337.210403125;177.363913332",
                "yn": "394.142029627;396.331707569;799.232448966;794.853093081;615.299501807;617.489179749"
            },
            {
                "class": "room",
                "height": 166.41552362030689,
                "width": 148.89810008132721,
                "x": 179.55359127454162,
                "y": 632.8169253456406
            },
            {
                "class": "room",
                "height": 170.79487950505177,
                "width": 146.7084221389547,
                "x": 462.0220458405888,
                "y": 632.8169253456406
            },
            {
                "class": "room",
                "height": 137.94971036946492,
                "width": 135.76003242709243,
                "x": 175.1742353897967,
                "y": 812.3705166201822
            },
            {
                "class": "room",
                "height": 164.22584567793433,
                "width": 140.13938831183737,
                "x": 321.88265752875145,
                "y": 961.2686167015095
            },
            {
                "class": "room",
                "height": 383.19363991518026,
                "width": 337.21040312535865,
                "x": 1583.1371523352877,
                "y": 886.8195666608458
            },
            {
                "class": "Room",
                "xn": "1296.28934188;1296.28934188;1580.94747439;1580.94747439;1926.91658929;1922.5372334;1751.7423539;1749.55267596;1834.95011571;1834.95011571;1740.79396419;1740.79396419;1583.13715234;1576.56811851",
                "yn": "707.265975386;952.509904932;950.32022699;875.871176949;878.060854891;700.696941559;694.127907732;781.715025427;781.715025427;788.284059254;788.284059254;556.178197363;558.367875305;711.645331271"
            },
            {
                "class": "Room",
                "xn": "1298.47901983;1298.47901983;1572.18876262;1569.99908468;1920.34755546;1922.5372334;1751.7423539;1751.7423539;1832.76043777;1832.76043777;1742.98364213;1740.79396419;1583.13715234;1576.56811851",
                "yn": "711.645331271;948.130549047;943.751193163;875.871176949;873.681499007;700.696941559;702.886619502;772.956313657;781.715025427;792.663415139;790.473737196;558.367875305;558.367875305;713.835009213"
            },
            {
                "class": "Room",
                "xn": "317.503301644;737.92146658;737.92146658;994.113785837;998.493141722;847.405363698;847.405363698;994.113785837;1000.68281966;1278.77191835;1280.96159629;1005.06217555;1002.87249761;470.78075761;466.401401725;731.352432752;731.352432752;691.93822979;691.93822979;737.92146658;729.16275481;313.123945759",
                "yn": "814.560194563;814.560194563;713.835009213;716.024687156;948.130549047;952.509904932;963.458294644;959.078938759;1274.39256246;1272.20288452;1524.01584789;1532.77455966;1764.88042155;1762.69074361;1425.48034048;1423.29066254;1164.90866534;1164.90866534;1061.99380205;1061.99380205;950.32022699;952.509904932"
            },
            {
                "class": "Room",
                "xn": "315.313623702;477.349791437;477.349791437;591.213044441;589.023366498;315.313623702",
                "yn": "1134.25317415;1134.25317415;961.268616702;963.458294644;1405.773239;1412.34227283"
            },
            {
                "class": "room",
                "height": 122.62196477285772,
                "width": 168.60520156267944,
                "x": 1751.742353897967,
                "y": 558.367875304977
            }
        ],
        "class": "image",
        "filename": "72.png"
    }
]
