[
    {
        "annotations": [
            {
                "class": "Room", 
                "type": "UN", 
                "xn": "134;518;519;432;429;366;366;369;370;419;424;364;367;514;518;439;440;519;519;132", 
                "yn": "139;137;362;363;290;290;306;304;299;296;366;362;369;373;408;411;574;570;655;649", 
                "text": "bathroom", 
                "x": 435, 
                "y": 441
            }, 
            {
                "class": "Room", 
                "type": "UN", 
                "xn": "132;522;522;132", 
                "yn": "44;44;133;133", 
                "text": "patio", 
                "x": 326, 
                "y": 95
            }, 
            {
                "class": "Room", 
                "type": "UN", 
                "xn": "715;801;801;715", 
                "yn": "234;234;305;305", 
                "text": "clos", 
                "x": 761, 
                "y": 270
            }, 
            {
                "class": "Room", 
                "type": "UN", 
                "xn": "814;861;861;814", 
                "yn": "236;236;304;304", 
                "text": "clos.", 
                "x": 857, 
                "y": 268
            }, 
            {
                "class": "Room", 
                "type": "UN", 
                "xn": "965;1060;1060;965", 
                "yn": "128;128;231;231", 
                "text": "bath", 
                "x": 1006, 
                "y": 191
            }, 
            {
                "class": "Room", 
                "type": "UN", 
                "xn": "966;1063;1063;966", 
                "yn": "43;43;121;121", 
                "text": "closet", 
                "x": 1016, 
                "y": 88
            }, 
            {
                "class": "Room", 
                "type": "UN", 
                "xn": "675;951;951;675", 
                "yn": "44;44;234;234", 
                "text": "bedroom", 
                "x": 810, 
                "y": 139
            }, 
            {
                "class": "Room", 
                "type": "UN", 
                "xn": "673;977;977;673", 
                "yn": "312;312;651;651", 
                "text": "bedroom", 
                "x": 833, 
                "y": 502
            }, 
            {
                "class": "Room", 
                "type": "UN", 
                "xn": "422;588;588;422", 
                "yn": "658;658;706;706", 
                "text": "stoop", 
                "x": 504, 
                "y": 688
            }
        ], 
        "class": "image", 
        "filename": "90.png"
    }
]