[
    {
        "annotations": [
            {
                "class": "Room", 
                "type": "UN", 
                "xn": "1007;1238;1238;1007", 
                "yn": "2460;2460;2704;2704", 
                "text": "w", 
                "x": 1191, 
                "y": 2586
            }, 
            {
                "class": "Room", 
                "type": "UN", 
                "xn": "1648;2074;2074;1648", 
                "yn": "1844;1844;2215;2215", 
                "text": "study", 
                "x": 1874, 
                "y": 2035
            }, 
            {
                "class": "Room", 
                "type": "UN", 
                "xn": "1472;1475;1519;1555;1568;1541;1522;1524;1544;1574;1596;1632;1654;1659;1742;1725;1728;1739;1739;1728;1725;1725;1728;1725;1687;1673;1676;1703;1703;1736;2075;2083", 
                "yn": "382;905;905;883;935;966;982;1084;1122;1125;1144;1144;1158;1175;1103;1087;1056;1040;1018;1010;990;979;971;938;952;949;930;894;875;905;900;390", 
                "text": "grand sleep", 
                "x": 1776, 
                "y": 647
            }, 
            {
                "class": "Room", 
                "type": "UN", 
                "xn": "1747;1750;1809;1803;1909;1934;1967;1983;2020;2082;2078", 
                "yn": "909;1098;1097;1130;1173;1124;1136;1151;1180;1124;913", 
                "text": "dress", 
                "x": 1918, 
                "y": 1022
            }, 
            {
                "class": "Room", 
                "type": "UN", 
                "xn": "1606;1702;1774;1788;1903;1938;1987;2002;2030;2055;2067;2069;2076;2035;2024;2008;1985;1965;1944;1922;1893;1877;1856;1836;1862;1868;1707;1721;1694;1686;1653;1641;1624;1616;1606", 
                "yn": "1372;1251;1151;1149;1184;1138;1153;1192;1202;1235;1266;1284;1536;1604;1614;1626;1653;1653;1672;1686;1698;1713;1649;1651;1729;1838;1834;1680;1670;1540;1512;1491;1462;1415;1389", 
                "text": "splash", 
                "x": 1818, 
                "y": 1405
            }, 
            {
                "class": "Room", 
                "type": "UN", 
                "xn": "1417;1391;1395;1641;1647;1684;1676;1651;1637;1626;1610;1610;1602;1602", 
                "yn": "1403;1487;1739;1735;1668;1668;1553;1528;1503;1485;1463;1436;1409;1403", 
                "text": "dress", 
                "x": 1537, 
                "y": 1550
            }, 
            {
                "class": "Room", 
                "type": "UN", 
                "xn": "1003;579;577;693;704;697;642;584;581;637;651;741;792;857;890;885;885;998", 
                "yn": "2846;2846;2343;2341;2276;2264;2313;2236;2097;2102;2062;2014;2032;2037;2037;2164;2341;2341", 
                "text": "splash", 
                "x": 760, 
                "y": 2178
            }, 
            {
                "class": "Room", 
                "type": "UN", 
                "xn": "1316;1362;1397;1434;1446;1513;1599;1645;1641;1446;1432;1437;1256;1249;1214;1207;1235;1008;1003;1094;1084;910;894;584;579;1441;1439;1455;1446;1513;1518;1446;1460;1439;1471;1427;1397;1369;1353;1353;1321", 
                "yn": "1754;1782;1803;1854;1896;1889;1889;1889;2009;2011;2051;2211;2199;2134;2130;2167;2452;2456;2343;2336;1947;1942;2002;1780;632;646;917;931;954;994;1082;1114;1145;1145;1186;1295;1395;1541;1673;1733;1722", 
                "text": "relax", 
                "x": 999, 
                "y": 949
            }
        ], 
        "class": "image", 
        "filename": "95.png"
    }
]