contour_details : [1325 1905],[1325 2009],[1499 2009],[1500 2010],[1500 2014],[1549 2014],[1549 2010],[1550 2009],[1659 2009],[1659 1905] : cuisine : [1525,1939]
contour_details : [1285 1630],[1285 1889],[1286 1890],[1290 1890],[1291 1891],[1295 1891],[1296 1892],[1301 1892],[1302 1893],[1305 1893],[1306 1894],[1659 1894],[1659 1660],[1505 1660],[1504 1659],[1504 1630] : repas : [1405,1764]
contour_details : [1515 1555],[1515 1649],[1659 1649],[1659 1575],[1585 1575],[1584 1574],[1584 1555] : wc : [1570,1602]
contour_details : [1285 1390],[1285 1544],[1584 1544],[1584 1390] : hall : [1421,1457]
contour_details : [895 1125],[895 1134],[840 1189],[840 1234],[834 1240],[834 1241],[806 1269],[806 1270],[778 1298],[778 1299],[750 1327],[750 1328],[722 1356],[722 1357],[700 1379],[700 1380],[708 1388],[708 1389],[719 1400],[719 1401],[730 1412],[730 1413],[741 1424],[741 1425],[752 1436],[752 1437],[755 1440],[755 1442],[756 1443],[756 1446],[757 1447],[757 1450],[758 1451],[758 1454],[759 1455],[759 1458],[760 1459],[760 1460],[772 1472],[772 1473],[788 1489],[788 1490],[804 1506],[804 1507],[820 1523],[820 1524],[836 1540],[836 1541],[841 1546],[841 1547],[842 1548],[842 1549],[843 1550],[843 1551],[844 1552],[844 1553],[845 1554],[845 1585],[866 1606],[866 1607],[894 1635],[894 1636],[922 1664],[922 1665],[950 1693],[950 1694],[978 1722],[978 1723],[1007 1752],[1007 1753],[1035 1781],[1035 1782],[1063 1810],[1063 1811],[1091 1839],[1091 1840],[1119 1868],[1119 1869],[1125 1875],[1125 1889],[1274 1889],[1274 1385],[1259 1385],[1258 1386],[1236 1386],[1235 1387],[1213 1387],[1212 1388],[1190 1388],[1189 1389],[1167 1389],[1166 1390],[1160 1390] : sejour : [912,1432]
