[
    {
        "annotations": [
            {
                "class": "Room", 
                "type": "UN", 
                "xn": "258;936;936;258", 
                "yn": "129;129;720;720", 
                "text": "masterbedroom", 
                "x": 614, 
                "y": 544
            }, 
            {
                "class": "Room", 
                "type": "UN", 
                "xn": "255;1018;1006;1535;1535;1147;1144;1430;1433;1234;1231;1204;1213;270", 
                "yn": "742;739;546;552;696;699;964;964;1282;1285;1222;1219;1405;1396", 
                "text": "reception room", 
                "x": 795, 
                "y": 1073
            }, 
            {
                "class": "Room", 
                "type": "UN", 
                "xn": "1291;1291;1547;1544;1862;1856", 
                "yn": "144;534;534;702;699;141", 
                "text": "bedroom", 
                "x": 1647, 
                "y": 434
            }
        ], 
        "class": "image", 
        "filename": "108.png"
    }
]