[
    {
        "annotations": [
            {
                "class": "Door",
                "xn": "1464;1582;1582;1464",
                "yn": "2464;2464;2471;2471"
            },
            {
                "class": "wall",
                "height": 1585.748098723445,
                "width": 27.953892765958166,
                "x": 35.57768170212858,
                "y": 2.54126297872347
            },
            {
                "class": "wall",
                "height": 30.17582594248744,
                "width": 694.0439966772111,
                "x": 0.0,
                "y": -3.017582594248744
            },
            {
                "class": "wall",
                "height": 25.681553993606258,
                "width": 162.64984195950677,
                "x": 36.38220149094231,
                "y": 633.4783318422897
            },
            {
                "class": "wall",
                "height": 27.82168349307335,
                "width": 336.0003314163496,
                "x": 40.6624604898767,
                "y": 1463.8485776355612
            },
            {
                "class": "wall",
                "height": 126.16199185151982,
                "width": 23.43008420099654,
                "x": 63.08099592575993,
                "y": 1465.2814196469378
            },
            {
                "class": "wall",
                "height": 25.232398370304054,
                "width": 351.45126301494815,
                "x": 30.63934087822625,
                "y": 1503.1300172023937
            },
            {
                "class": "wall",
                "height": 57.67405341783774,
                "width": 28.837026708918813,
                "x": 355.055891353563,
                "y": 1467.083733816245
            },
            {
                "class": "wall",
                "height": 780.4020353101159,
                "width": 27.034712539611405,
                "x": 839.8784028972609,
                "y": 742.5534377546599
            },
            {
                "class": "wall",
                "height": 61.27868175645244,
                "width": 547.9035074694578,
                "x": 684.8793843368222,
                "y": 1467.0837338162455
            },
            {
                "class": "wall",
                "height": 94.28131060206852,
                "width": 22.6637765870355,
                "x": 1049.786131511494,
                "y": 1373.4248611743637
            },
            {
                "class": "wall",
                "height": 125.10404676043709,
                "width": 23.57032765051713,
                "x": 1050.6926825749754,
                "y": 1061.5712953367524
            },
            {
                "class": "wall",
                "height": 26.289980840961334,
                "width": 230.26397012428265,
                "x": 842.1859379742468,
                "y": 763.3159954513626
            },
            {
                "class": "wall",
                "height": 26.289980840961448,
                "width": 232.07707225124568,
                "x": 842.1859379742468,
                "y": 494.9768806608598
            },
            {
                "class": "wall",
                "height": 66.17822763414426,
                "width": 23.57032765051713,
                "x": 842.1859379742468,
                "y": 494.9768806608598
            },
            {
                "class": "wall",
                "height": 382.5645487891627,
                "width": 26.28998084096156,
                "x": 1048.8795804480123,
                "y": 495.8834317243412
            },
            {
                "class": "wall",
                "height": 25.383429777479932,
                "width": 42.60789998362702,
                "x": 1049.786131511494,
                "y": 581.0992316915955
            },
            {
                "class": "wall",
                "height": 30.677687988211538,
                "width": 1009.8072296119631,
                "x": 880.7052926615729,
                "y": 0.0
            },
            {
                "class": "wall",
                "height": 43.05878978858604,
                "width": 196.99396328278112,
                "x": 974.2051189667591,
                "y": 29.064683107295576
            },
            {
                "class": "wall",
                "height": 254.04685975265764,
                "width": 29.06468310729565,
                "x": 974.2051189667591,
                "y": 2.152939489429302
            },
            {
                "class": "wall",
                "height": 23.68233438372235,
                "width": 44.135259533300655,
                "x": 975.2815887114738,
                "y": 232.5174648583646
            },
            {
                "class": "wall",
                "height": 276.6527243916653,
                "width": 27.988213362581064,
                "x": 1338.051892680311,
                "y": 0.0
            },
            {
                "class": "wall",
                "height": 27.98821336258095,
                "width": 45.211729278015355,
                "x": 1319.751907020162,
                "y": 229.28805562422065
            },
            {
                "class": "wall",
                "height": 147.4763550259072,
                "width": 24.75880412843685,
                "x": 1336.9754229355965,
                "y": 458.5761112484413
            },
            {
                "class": "wall",
                "height": 22.605864639007677,
                "width": 616.817163721495,
                "x": 1272.3872382527175,
                "y": 581.2936621459115
            },
            {
                "class": "wall",
                "height": 192.68808430392252,
                "width": 23.682334383722264,
                "x": 1667.4516345629943,
                "y": 0.0
            },
            {
                "class": "wall",
                "height": 17.223515915434405,
                "width": 216.37041868764481,
                "x": 1672.8339832865677,
                "y": 105.4940349820358
            },
            {
                "class": "wall",
                "height": 1605.0163893695446,
                "width": 38.75291080972761,
                "x": 1853.6809003986289,
                "y": 0.0
            },
            {
                "class": "wall",
                "height": 28.121213989193905,
                "width": 63.91184997544087,
                "x": 1854.7218862872892,
                "y": 149.55372894253125
            },
            {
                "class": "wall",
                "height": 21.730028991649846,
                "width": 17.8953179931234,
                "x": 1838.1048052936746,
                "y": 172.5619949336899
            },
            {
                "class": "wall",
                "height": 23.008265991158652,
                "width": 42.181820983790885,
                "x": 1670.65575835802,
                "y": 170.00552093467226
            },
            {
                "class": "wall",
                "height": 60.71289360190622,
                "width": 349.0991382109614,
                "x": 1540.5896751483726,
                "y": 1466.2163804860375
            },
            {
                "class": "wall",
                "height": 141.1574776244322,
                "width": 69.8198276421922,
                "x": 1822.904630397237,
                "y": 1463.180735805942
            },
            {
                "class": "window",
                "height": 70.6242734824175,
                "width": 312.45890692221093,
                "x": 374.5226624067597,
                "y": 1461.7084481360964
            },
            {
                "class": "window",
                "height": 64.20388498401599,
                "width": 301.75825942487495,
                "x": 1236.9948506920405,
                "y": 1468.128836634498
            },
            {
                "class": "door",
                "height": 207.59256144831824,
                "width": 186.19126645364622,
                "x": 693.4019578273723,
                "y": 4.280258998934396
            },
            {
                "class": "door",
                "height": 181.91100745471192,
                "width": 211.8728204472526,
                "x": 654.8796268369626,
                "y": 562.8540583598731
            },
            {
                "class": "door",
                "height": 209.7326909477854,
                "width": 181.9110074547118,
                "x": 1089.325915228804,
                "y": 584.2553533545452
            },
            {
                "class": "door",
                "height": 184.05113695417907,
                "width": 299.61812992540774,
                "x": 1018.7016417463864,
                "y": 231.1339859424574
            },
            {
                "class": "door",
                "height": 181.91100745471186,
                "width": 207.5925614483183,
                "x": 1344.0013256654004,
                "y": 276.0767054312686
            },
            {
                "class": "door",
                "height": 190.47152545258064,
                "width": 203.31230244938388,
                "x": 1050.8035842383943,
                "y": 873.1728357826169
            },
            {
                "class": "door",
                "height": 192.61165495204773,
                "width": 205.45243194885097,
                "x": 1052.9437137378616,
                "y": 1187.771872204295
            },
            {
                "class": "door",
                "height": 139.10841746536786,
                "width": 128.40776996803174,
                "x": 1707.8233405748242,
                "y": 173.35048945684306
            },
            {
                "class": "Text",
                "height": 53.366522553192965,
                "text": "kitchen",
                "width": 223.63114212766573,
                "x": 276.99766468085863,
                "y": 304.9515574468169
            },
            {
                "class": "Text",
                "height": 18.023141693074308,
                "text": "hvac",
                "width": 93.72033680398624,
                "x": 913.7732838388664,
                "y": 659.6469859665189
            },
            {
                "class": "Text",
                "height": 50.464796740607994,
                "text": "foyer",
                "width": 156.80133272974626,
                "x": 758.7742652784275,
                "y": 207.26612947035431
            },
            {
                "class": "Text",
                "height": 61.27868175645244,
                "text": "living",
                "width": 178.42910276143544,
                "x": 326.2188646446446,
                "y": 1068.7723023993053
            },
            {
                "class": "Text",
                "height": 75.89111700238293,
                "text": "opt.laundry",
                "width": 135.08618826424163,
                "x": 1026.0479018722172,
                "y": 112.31885316352673
            },
            {
                "class": "Text",
                "height": 44.94271948881118,
                "text": "ba.",
                "width": 87.74530947815538,
                "x": 1613.657642598268,
                "y": 314.59903642167825
            },
            {
                "class": "Text",
                "height": 34.24207199147517,
                "text": "linen",
                "width": 89.88543897762247,
                "x": 1727.0845060700296,
                "y": 130.54789946749915
            },
            {
                "class": "Text",
                "height": 57.783496485614364,
                "text": "bdrm.",
                "width": 179.7708779552447,
                "x": 1406.0650811499497,
                "y": 986.5996992543788
            },
            {
                "class": "room",
                "height": 247.1564691351001,
                "width": 187.49801106800692,
                "x": 865.0476419728502,
                "y": 522.0115080870647
            },
            {
                "class": "room",
                "height": 210.9352624515078,
                "width": 338.77481545242165,
                "x": 1007.8018094905373,
                "y": 27.698569816864662
            },
            {
                "class": "room",
                "height": 860.7863235394864,
                "width": 786.21325095562,
                "x": 1073.852245207676,
                "y": 598.715239887613
            },
            {
                "class": "Room",
                "xn": "1367.88321711;1670.43682588;1670.43682588;1698.1353957;1689.61275883;1860.06549616;1862.19615538;1361.49123946",
                "yn": "23.4372513835;19.1759329501;187.498011068;187.498011068;119.316916134;121.447575351;590.192603021;579.539306937"
            },
            {
                "class": "Room",
                "xn": "975.84192124;1344.44596573;1346.57662494;1065.32960834;1069.59092677;843.741049806;843.741049806;57.5277988504;53.266480417;200.281966368;198.151307151;49.0051619837;57.5277988504;984.364558107",
                "yn": "253.548446785;251.417787568;592.323262238;592.323262238;500.70491592;502.835575137;1472.28551873;1468.02420029;654.112379521;660.504357171;630.675128138;634.936446571;29.8292290335;36.2212066836"
            }
        ],
        "class": "image",
        "filename": "118.png"
    }
]
