[
    {
        "annotations": [
            {
                "class": "Room", 
                "type": "UN", 
                "xn": "1365;1554;1554;1365", 
                "yn": "1668;1668;1789;1789", 
                "text": "bath 2", 
                "x": 1448, 
                "y": 1755
            }, 
            {
                "class": "Room", 
                "type": "UN", 
                "xn": "1215;1359;1359;1215", 
                "yn": "1330;1330;1466;1466", 
                "text": "pwdr", 
                "x": 1268, 
                "y": 1397
            }, 
            {
                "class": "Room", 
                "type": "UN", 
                "xn": "1182;1354;1354;1182", 
                "yn": "983;983;1316;1316", 
                "text": "utility", 
                "x": 1293, 
                "y": 1146
            }, 
            {
                "class": "Room", 
                "type": "UN", 
                "xn": "63;64;129;130;63;66;373;370;345;345;518;519;509;509;651;654;593;594;722;723;662;662;808;794;929;929;910;910;453;455;787;787;758;756;1126;1126;1254;1255;1132;1130;1197;1198;1254;1251;1108;1106;1130;1204;1204;1132;1132;1111;1112;1173;1171;1103;1108;1120;1127;1360;1359;1381;1377;1536;1536;1381;1378;1356;1357;1257;1257;1124", 
                "yn": "862;1318;1318;1338;1339;1473;1474;1333;1338;1317;1317;1341;1338;1468;1468;1338;1339;1318;1320;1339;1336;1480;1476;1321;1318;1512;1507;1485;1485;1788;1788;1808;1808;1976;1979;1896;1899;1811;1812;1790;1790;1688;1688;1482;1480;1413;1411;1422;1329;1329;1341;1339;1309;1308;1185;1183;953;952;971;973;953;952;997;1001;805;808;878;878;811;809;862;860", 
                "text": "breakfast", 
                "x": 503, 
                "y": 1072
            }, 
            {
                "class": "Room", 
                "type": "UN", 
                "xn": "378;502;502;378", 
                "yn": "1330;1330;1477;1477", 
                "text": "pantry", 
                "x": 426, 
                "y": 1424
            }, 
            {
                "class": "Room", 
                "type": "UN", 
                "xn": "1117;1207;1207;1117", 
                "yn": "1431;1431;1471;1471", 
                "text": "linen", 
                "x": 1162, 
                "y": 1458
            }, 
            {
                "class": "Room", 
                "type": "UN", 
                "xn": "1126;1243;1243;1126", 
                "yn": "808;808;848;848", 
                "text": "linen", 
                "x": 1187, 
                "y": 821
            }, 
            {
                "class": "Room", 
                "type": "UN", 
                "xn": "1536;1127;1129;1267;1267;1245;1245;1536;1537;1512;1512;1536", 
                "yn": "797;796;384;382;358;360;100;100;357;360;388;379", 
                "text": "sitting", 
                "x": 1391, 
                "y": 211
            }, 
            {
                "class": "Room", 
                "type": "UN", 
                "xn": "1545;1591;1591;1545", 
                "yn": "274;274;361;361", 
                "text": "linen", 
                "x": 1562, 
                "y": 317
            }, 
            {
                "class": "Room", 
                "type": "UN", 
                "xn": "1545;1542;1602;1601;1701;1698;1845;1845;1991;1997;1855;1855;1692;1692", 
                "yn": "99;261;264;361;360;458;456;358;360;96;96;74;74;101", 
                "text": "m.bath", 
                "x": 1775, 
                "y": 219
            }, 
            {
                "class": "Room", 
                "type": "UN", 
                "xn": "2005;2005;2155;2154;2122;2122;2194;2195;2164;2164;2315;2313", 
                "yn": "100;461;461;234;234;225;224;235;236;464;464;99", 
                "text": "lin", 
                "x": 2015, 
                "y": 252
            }, 
            {
                "class": "Room", 
                "type": "UN", 
                "xn": "1544;1543;2074;2073;2313;2317", 
                "yn": "474;1001;999;831;833;473", 
                "text": "garage", 
                "x": 1915, 
                "y": 701
            }, 
            {
                "class": "Room", 
                "type": "UN", 
                "xn": "1228;1139;1139;1252;1254;1228", 
                "yn": "2109;2111;1969;1964;2041;2045", 
                "text": "wic", 
                "x": 1209, 
                "y": 2030
            }, 
            {
                "class": "Room", 
                "type": "UN", 
                "xn": "1239;1240;1551;1553;1262;1264", 
                "yn": "2055;2104;2112;1801;1802;2056", 
                "text": "bedroom 2", 
                "x": 1412, 
                "y": 1950
            }, 
            {
                "class": "Room", 
                "type": "UN", 
                "xn": "2028;2315;2315;2028", 
                "yn": "1667;1667;2205;2205", 
                "text": "garage", 
                "x": 2179, 
                "y": 1949
            }, 
            {
                "class": "Room", 
                "type": "UN", 
                "xn": "255;378;378;330;328;255", 
                "yn": "1978;1979;2114;2110;2086;2086", 
                "text": "storage", 
                "x": 328, 
                "y": 2031
            }, 
            {
                "class": "Room", 
                "type": "UN", 
                "xn": "749;392;389;373;374;256;257;372;374;389;389;750", 
                "yn": "2109;2109;1954;1954;1966;1964;1799;1798;1838;1834;1800;1801", 
                "text": "shelves", 
                "x": 317, 
                "y": 1810
            }, 
            {
                "class": "Room", 
                "type": "UN", 
                "xn": "760;1132;1132;760", 
                "yn": "1992;1992;2150;2150", 
                "text": "porch", 
                "x": 949, 
                "y": 2072
            }
        ], 
        "class": "image", 
        "filename": "14.png"
    }
]