[
    {
        "annotations": [
            {
                "class": "Room", 
                "type": "UN", 
                "xn": "2455;3063;3063;2455", 
                "yn": "1662;1662;2042;2042", 
                "text": "ensuite", 
                "x": 2743, 
                "y": 1907
            }, 
            {
                "class": "Room", 
                "type": "UN", 
                "xn": "1806;2417;2417;1806", 
                "yn": "1662;1662;2045;2045", 
                "text": "bathroom", 
                "x": 2154, 
                "y": 1847
            }, 
            {
                "class": "Room", 
                "type": "UN", 
                "xn": "170;499;916;1021;1010;901;760", 
                "yn": "1448;955;1238;1238;1629;1629;1832", 
                "text": "bedroom 2", 
                "x": 595, 
                "y": 1435
            }, 
            {
                "class": "Room", 
                "type": "UN", 
                "xn": "517;825;1433;1611;1625;941", 
                "yn": "916;463;865;854;1205;1209", 
                "text": "bedroom 3", 
                "x": 1104, 
                "y": 983
            }, 
            {
                "class": "Room", 
                "type": "UN", 
                "xn": "793;908;1278;1278;1473;1470;1089", 
                "yn": "1839;1658;1658;1814;1814;2045;2049", 
                "text": "en-suite", 
                "x": 1104, 
                "y": 1871
            }, 
            {
                "class": "Room", 
                "type": "UN", 
                "xn": "1303;1469;1469;1303", 
                "yn": "1651;1651;1788;1788", 
                "text": "ac", 
                "x": 1371, 
                "y": 1714
            }, 
            {
                "class": "Room", 
                "type": "UN", 
                "xn": "1643;1640;2404;2411;1817;1810", 
                "yn": "1202;858;865;1415;1408;1213", 
                "text": "bedroom 4", 
                "x": 2041, 
                "y": 1130
            }, 
            {
                "class": "Room", 
                "type": "UN", 
                "xn": "2433;2433;2324;2328;2690;2690;2726;2730;3063;3063", 
                "yn": "865;1452;1448;1622;1633;1488;1488;1625;1629;865", 
                "text": "bedroom 1", 
                "x": 2765, 
                "y": 1139
            }, 
            {
                "class": "Room", 
                "type": "UN", 
                "xn": "1032;1220;1220;2303;2299;1785;1792;1484;1499;1024", 
                "yn": "1227;1227;1452;1437;1629;1629;2049;2049;1629;1625", 
                "text": "landing", 
                "x": 1740, 
                "y": 1549
            }
        ], 
        "class": "image", 
        "filename": "15.png"
    }
]