[
    {
        "annotations": [
            {
                "class": "Room", 
                "type": "UN", 
                "xn": "942;1119;1119;942", 
                "yn": "1140;1140;1556;1556", 
                "text": "laundry", 
                "x": 1060, 
                "y": 1323
            }, 
            {
                "class": "Room", 
                "type": "UN", 
                "xn": "398;400;760;760;739;739;408;423;724;724;760;762;737;734;1127;1127;875;880;919;916;1127;1122;911;906;1117;1124", 
                "yn": "84;801;803;824;824;1196;1201;1761;1761;1569;1576;1592;1592;1754;1751;1581;1587;1571;1566;1109;1114;824;826;796;793;92", 
                "text": "masterbedroom", 
                "x": 774, 
                "y": 449
            }, 
            {
                "class": "Room", 
                "type": "UN", 
                "xn": "398;400;719;716;516;513", 
                "yn": "906;1176;1176;819;821;903", 
                "text": "closet", 
                "x": 540, 
                "y": 1091
            }, 
            {
                "class": "Room", 
                "type": "UN", 
                "xn": "408;403;1147;1145;1343;1335;1153;1142", 
                "yn": "1774;2421;2426;2016;2013;1556;1558;1769", 
                "text": "bedroom 2", 
                "x": 772, 
                "y": 2104
            }, 
            {
                "class": "Room", 
                "type": "UN", 
                "xn": "1142;1684;1671;1481;1474;1353;1381;1317;1327;1135", 
                "yn": "184;187;644;644;1153;1150;1338;1343;1543;1530", 
                "text": "loft", 
                "x": 1410, 
                "y": 419
            }, 
            {
                "class": "Room", 
                "type": "UN", 
                "xn": "1553;1687;1682;1358;1348;1543", 
                "yn": "1435;1438;1828;1825;1551;1556", 
                "text": "closet", 
                "x": 1524, 
                "y": 1726
            }, 
            {
                "class": "Room", 
                "type": "UN", 
                "xn": "1355;1666;1659;1630;1628;1361;1355;1340;1335;1171;1165;1340;1340;1358", 
                "yn": "1838;1846;2175;2172;2349;2347;2175;2175;2347;2347;2033;2033;2044;2044", 
                "text": "bath", 
                "x": 1451, 
                "y": 2043
            }
        ], 
        "class": "image", 
        "filename": "18.png"
    }
]