[
    {
        "annotations": [
            {
                "class": "Room", 
                "type": "UN", 
                "xn": "203;199;763;761;980;978;1154;1152;1142;1142;1181;1179;1901;1901;1522;1530;928;910;913", 
                "yn": "1716;383;385;537;537;223;226;489;483;537;534;230;228;2182;2189;1418;1418;1475;1714", 
                "text": "pdr", 
                "x": 1019, 
                "y": 312
            }, 
            {
                "class": "Room", 
                "type": "UN", 
                "xn": "1104;1094;940;935;1323;1321;1512;1502;1415;1385", 
                "yn": "1433;1517;1520;2077;2085;2192;2194;1517;1517;1430", 
                "text": "office", 
                "x": 1221, 
                "y": 1785
            }, 
            {
                "class": "Room", 
                "type": "UN", 
                "xn": "212;917;917;212", 
                "yn": "1744;1744;2247;2247", 
                "text": "california terrace", 
                "x": 558, 
                "y": 1980
            }
        ], 
        "class": "image", 
        "filename": "1.png"
    }
]