[
    {
        "annotations": [
            {
                "class": "Room", 
                "type": "UN", 
                "xn": "1343;1528;1528;1343", 
                "yn": "1020;1020;1218;1218", 
                "text": "utility", 
                "x": 1424, 
                "y": 1116
            }, 
            {
                "class": "Room", 
                "type": "UN", 
                "xn": "1343;1528;1528;1343", 
                "yn": "1232;1232;1396;1396", 
                "text": "utility", 
                "x": 1422, 
                "y": 1320
            }, 
            {
                "class": "Room", 
                "type": "UN", 
                "xn": "999;1085;1085;999", 
                "yn": "1150;1150;1398;1398", 
                "text": "cl", 
                "x": 1021, 
                "y": 1311
            }, 
            {
                "class": "Room", 
                "type": "UN", 
                "xn": "612;629;830;828;1072;1074;1516;1529", 
                "yn": "105;992;997;1133;1133;997;999;97", 
                "text": "wc", 
                "x": 659, 
                "y": 154
            }, 
            {
                "class": "Room", 
                "type": "UN", 
                "xn": "609;817;815;977;981;605", 
                "yn": "1025;1025;1146;1146;1403;1403", 
                "text": "powder", 
                "x": 752, 
                "y": 1213
            }, 
            {
                "class": "Room", 
                "type": "UN", 
                "xn": "612;1356;1358;1522;1524;616", 
                "yn": "1423;1425;2119;2113;2366;2370", 
                "text": "work area", 
                "x": 975, 
                "y": 1896
            }
        ], 
        "class": "image", 
        "filename": "23.png"
    }
]