[
    {
        "annotations": [
            {
                "class": "Room", 
                "type": "UN", 
                "xn": "666;1076;1076;666", 
                "yn": "101;101;511;511", 
                "text": "bedroom 2", 
                "x": 870, 
                "y": 311
            }, 
            {
                "class": "Room", 
                "type": "UN", 
                "xn": "1345;1492;1492;1345", 
                "yn": "945;945;1130;1130", 
                "text": "pantry", 
                "x": 1415, 
                "y": 982
            }, 
            {
                "class": "Room", 
                "type": "UN", 
                "xn": "929;1071;1071;929", 
                "yn": "843;843;970;970", 
                "text": "f.a.u.", 
                "x": 995, 
                "y": 909
            }, 
            {
                "class": "Room", 
                "type": "UN", 
                "xn": "650;823;823;650", 
                "yn": "529;529;611;611", 
                "text": "closet", 
                "x": 733, 
                "y": 590
            }, 
            {
                "class": "Room", 
                "type": "UN", 
                "xn": "832;920;920;832", 
                "yn": "527;527;635;635", 
                "text": "closet", 
                "x": 901, 
                "y": 581
            }, 
            {
                "class": "Room", 
                "type": "UN", 
                "xn": "1349;1467;1467;1349", 
                "yn": "676;676;922;922", 
                "text": "d", 
                "x": 1414, 
                "y": 743
            }, 
            {
                "class": "Room", 
                "type": "UN", 
                "xn": "1004;1068;1068;1004", 
                "yn": "984;984;1060;1060", 
                "text": "pantry", 
                "x": 1042, 
                "y": 1023
            }, 
            {
                "class": "Room", 
                "type": "UN", 
                "xn": "1000;1001;1070;1074;1088;1089;1130;1131;1086;1089;1064;1067;932;932;1063;1067;1093;1088;1130;1130;1090;1088;1488;1490;1288;1291;1331;1330;1290;1290;1332;1333;1483;1487;655;650;675;671", 
                "yn": "982;1066;1066;1079;1073;993;995;968;966;819;818;834;832;535;533;698;698;683;684;660;658;97;102;658;663;683;686;969;971;996;995;1826;1829;2189;2189;1532;1529;984", 
                "text": "up", 
                "x": 1415, 
                "y": 1847
            }, 
            {
                "class": "Room", 
                "type": "UN", 
                "xn": "648;821;822;915;918;921;789;785;775;776;648", 
                "yn": "629;629;704;704;833;973;967;834;831;958;954", 
                "text": "bath", 
                "x": 726, 
                "y": 749
            }, 
            {
                "class": "Room", 
                "type": "UN", 
                "xn": "829;916;916;829", 
                "yn": "644;644;698;698", 
                "text": "linen", 
                "x": 872, 
                "y": 675
            }
        ], 
        "class": "image", 
        "filename": "24.png"
    }
]