[
    {
        "annotations": [
            {
                "class": "Room", 
                "type": "UN", 
                "xn": "960;1265;1265;960", 
                "yn": "1348;1348;1709;1709", 
                "text": "bedroom 4", 
                "x": 1127, 
                "y": 1565
            }, 
            {
                "class": "Room", 
                "type": "UN", 
                "xn": "1058;1260;1260;1058", 
                "yn": "1187;1187;1338;1338", 
                "text": "bath 3", 
                "x": 1125, 
                "y": 1289
            }, 
            {
                "class": "Room", 
                "type": "UN", 
                "xn": "681;1256;1256;681", 
                "yn": "271;271;534;534", 
                "text": "coveredpatio", 
                "x": 958, 
                "y": 404
            }, 
            {
                "class": "Room", 
                "type": "UN", 
                "xn": "240;243;805;805;401;406", 
                "yn": "1046;1573;1575;974;974;1046", 
                "text": "storage", 
                "x": 588, 
                "y": 1016
            }, 
            {
                "class": "Room", 
                "type": "UN", 
                "xn": "240;242;394;394;403;406;684;677;693;694;816;812;949;951;1049;1050;952;949;1167;1161;989;981;1266;1262;664;674;243;240;300;303;239;240;314;315;243", 
                "yn": "923;1038;1036;903;903;960;963;906;900;966;966;1527;1526;1329;1334;1243;1257;1174;1176;1070;1069;960;957;550;549;265;263;536;536;556;550;901;906;917;918", 
                "text": "diningroom", 
                "x": 455, 
                "y": 404
            }, 
            {
                "class": "Room", 
                "type": "UN", 
                "xn": "1487;1865;1865;1487", 
                "yn": "1280;1280;1603;1603", 
                "text": "bedroom 3", 
                "x": 1670, 
                "y": 1466
            }, 
            {
                "class": "Room", 
                "type": "UN", 
                "xn": "1877;2045;2045;1877", 
                "yn": "1480;1480;1605;1605", 
                "text": "walk-in closet", 
                "x": 1969, 
                "y": 1553
            }, 
            {
                "class": "Room", 
                "type": "UN", 
                "xn": "1876;2041;2041;1876", 
                "yn": "1220;1220;1469;1469", 
                "text": "laundry", 
                "x": 1932, 
                "y": 1336
            }, 
            {
                "class": "Room", 
                "type": "UN", 
                "xn": "1918;2047;2047;1918", 
                "yn": "718;718;1028;1028", 
                "text": "bath", 
                "x": 1982, 
                "y": 914
            }, 
            {
                "class": "Room", 
                "type": "UN", 
                "xn": "1816;1906;1906;1816", 
                "yn": "809;809;942;942", 
                "text": "walk-in closet", 
                "x": 1858, 
                "y": 877
            }, 
            {
                "class": "Room", 
                "type": "UN", 
                "xn": "1491;1657;1657;1491", 
                "yn": "268;268;646;646", 
                "text": "walk-in closet", 
                "x": 1572, 
                "y": 458
            }, 
            {
                "class": "Room", 
                "type": "UN", 
                "xn": "2059;2513;2513;2059", 
                "yn": "546;546;961;961", 
                "text": "masterbedroom", 
                "x": 2294, 
                "y": 756
            }, 
            {
                "class": "Room", 
                "type": "UN", 
                "xn": "1883;1867;1867;1490;1489;1866;1868;2063;2062;2385;2387;2279;2285;2413;2410;2283;2279;2195;2189;2093;2094;2065;2064;2047;2046;1885", 
                "yn": "1047;1045;951;954;1273;1273;1207;1205;1273;1277;1191;1187;1179;1175;1075;1073;1039;1034;972;975;1037;1042;1047;1048;1037;1037", 
                "text": "bonusroom", 
                "x": 1670, 
                "y": 1133
            }, 
            {
                "class": "Room", 
                "type": "UN", 
                "xn": "1668;1667;1921;1920;2049;2049;1815;1814;1925;1926", 
                "yn": "266;646;649;708;706;548;549;492;498;269", 
                "text": "vanity", 
                "x": 1685, 
                "y": 407
            }
        ], 
        "class": "image", 
        "filename": "29.png"
    }
]