[
    {
        "annotations": [
            {
                "class": "Window",
                "xn": "7403;7577;7577;7403",
                "yn": "4588;4588;4625;4625"
            },
            {
                "class": "Window",
                "xn": "5563;6187;6187;5563",
                "yn": "2616;2616;2651;2651"
            },
            {
                "class": "Window",
                "xn": "8208;8403;8403;8208",
                "yn": "1007;1007;1047;1047"
            },
            {
                "class": "Window",
                "xn": "8171;8346;8346;8171",
                "yn": "4588;4588;4625;4625"
            },
            {
                "class": "Window",
                "xn": "8680;8718;8718;8680",
                "yn": "2292;2292;2517;2517"
            },
            {
                "class": "Window",
                "xn": "8680;8717;8717;8680",
                "yn": "3010;3010;3636;3636"
            },
            {
                "class": "Window",
                "xn": "6529;6584;6584;6529",
                "yn": "1347;1347;1556;1556"
            },
            {
                "class": "Wall",
                "xn": "2303;2472;2472;2303",
                "yn": "5067;5067;5140;5140"
            },
            {
                "class": "Wall",
                "xn": "1625;1870;1870;1625",
                "yn": "5068;5068;5140;5140"
            },
            {
                "class": "Wall",
                "xn": "1067;1131;1131;1067",
                "yn": "3822;3822;3945;3945"
            },
            {
                "class": "Wall",
                "xn": "2533;2658;2658;2533",
                "yn": "3784;3784;3847;3847"
            },
            {
                "class": "Wall",
                "xn": "2015;2078;2078;2015",
                "yn": "2819;2819;2942;2942"
            },
            {
                "class": "Wall",
                "xn": "1007;2077;2077;1007",
                "yn": "2851;2851;2905;2905"
            },
            {
                "class": "Wall",
                "xn": "217;864;864;217",
                "yn": "2847;2847;2901;2901"
            },
            {
                "class": "Wall",
                "xn": "1623;1673;1673;1623",
                "yn": "3858;3858;5297;5297"
            },
            {
                "class": "Wall",
                "xn": "1872;1924;1924;1872",
                "yn": "4500;4500;4623;4623"
            },
            {
                "class": "Wall",
                "xn": "3376;3418;3418;3376",
                "yn": "686;686;4588;4588"
            },
            {
                "class": "Wall",
                "xn": "1949;1991;1991;1949",
                "yn": "2863;2863;3743;3743"
            },
            {
                "class": "Wall",
                "xn": "1393;1432;1432;1393",
                "yn": "686;686;2897;2897"
            },
            {
                "class": "Wall",
                "xn": "337;373;373;337",
                "yn": "2865;2865;5297;5297"
            },
            {
                "class": "Wall",
                "xn": "1392;3419;3419;1392",
                "yn": "686;686;722;722"
            },
            {
                "class": "Wall",
                "xn": "2666;3419;3419;2666",
                "yn": "3811;3811;3847;3847"
            },
            {
                "class": "Wall",
                "xn": "336;1132;1132;336",
                "yn": "3859;3859;3897;3897"
            },
            {
                "class": "Wall",
                "xn": "2380;2526;2526;2380",
                "yn": "3811;3811;3848;3848"
            },
            {
                "class": "Wall",
                "xn": "217;1430;1430;217",
                "yn": "1764;1764;1800;1800"
            },
            {
                "class": "Wall",
                "xn": "218;253;253;218",
                "yn": "1764;1764;2901;2901"
            },
            {
                "class": "Wall",
                "xn": "1629;1721;1721;1629",
                "yn": "4551;4551;4588;4588"
            },
            {
                "class": "Wall",
                "xn": "2235;3419;3419;2235",
                "yn": "4552;4552;4587;4587"
            },
            {
                "class": "Wall",
                "xn": "1825;1926;1926;1825",
                "yn": "4551;4551;4588;4588"
            },
            {
                "class": "Wall",
                "xn": "2847;2874;2874;2847",
                "yn": "3811;3811;4168;4168"
            },
            {
                "class": "Wall",
                "xn": "2417;2392;2317;2342",
                "yn": "3844;3817;3892;3918"
            },
            {
                "class": "Wall",
                "xn": "1990;1969;1783;1804",
                "yn": "3721;3703;3913;3930"
            },
            {
                "class": "Wall",
                "xn": "2181;2197;2131;2115",
                "yn": "4166;4143;4098;4121"
            },
            {
                "class": "Wall",
                "xn": "7123;7202;7202;7123",
                "yn": "2596;2596;2667;2667"
            },
            {
                "class": "Wall",
                "xn": "8040;8165;8165;8040",
                "yn": "2202;2202;2264;2264"
            },
            {
                "class": "Wall",
                "xn": "7115;7240;7240;7115",
                "yn": "2914;2914;2976;2976"
            },
            {
                "class": "Wall",
                "xn": "6530;6584;6584;6530",
                "yn": "2327;2327;2653;2653"
            },
            {
                "class": "Wall",
                "xn": "6529;6585;6585;6529",
                "yn": "1556;1556;2118;2118"
            },
            {
                "class": "Wall",
                "xn": "6530;6584;6584;6530",
                "yn": "809;809;1348;1348"
            },
            {
                "class": "Wall",
                "xn": "7552;7677;7677;7552",
                "yn": "2713;2713;2768;2768"
            },
            {
                "class": "Wall",
                "xn": "7124;7249;7249;7124",
                "yn": "3309;3309;3362;3362"
            },
            {
                "class": "Wall",
                "xn": "7597;7650;7650;7597",
                "yn": "2551;2551;2674;2674"
            },
            {
                "class": "Wall",
                "xn": "7552;7677;7677;7552",
                "yn": "2987;2987;3038;3038"
            },
            {
                "class": "Wall",
                "xn": "8105;8157;8157;8105",
                "yn": "1493;1493;1616;1616"
            },
            {
                "class": "Wall",
                "xn": "7124;7249;7249;7124",
                "yn": "3042;3042;3095;3095"
            },
            {
                "class": "Wall",
                "xn": "8040;8165;8165;8040",
                "yn": "1944;1944;1995;1995"
            },
            {
                "class": "Wall",
                "xn": "8372;8425;8425;8372",
                "yn": "1493;1493;1616;1616"
            },
            {
                "class": "Wall",
                "xn": "6187;6933;6933;6187",
                "yn": "2601;2601;2651;2651"
            },
            {
                "class": "Wall",
                "xn": "7672;8098;8098;7672",
                "yn": "2688;2688;2736;2736"
            },
            {
                "class": "Wall",
                "xn": "8291;8718;8718;8291",
                "yn": "2690;2690;2740;2740"
            },
            {
                "class": "Wall",
                "xn": "8403;8718;8718;8403",
                "yn": "1008;1008;1047;1047"
            },
            {
                "class": "Wall",
                "xn": "7634;8209;8209;7634",
                "yn": "1007;1007;1047;1047"
            },
            {
                "class": "Wall",
                "xn": "5209;5245;5245;5209",
                "yn": "2617;2617;3935;3935"
            },
            {
                "class": "Wall",
                "xn": "8681;8717;8717;8681",
                "yn": "3636;3636;4624;4624"
            },
            {
                "class": "Wall",
                "xn": "8346;8718;8718;8346",
                "yn": "4589;4589;4625;4625"
            },
            {
                "class": "Wall",
                "xn": "6943;6979;6979;6943",
                "yn": "3869;3869;4639;4639"
            },
            {
                "class": "Wall",
                "xn": "7577;8172;8172;7577",
                "yn": "4589;4589;4625;4625"
            },
            {
                "class": "Wall",
                "xn": "5208;7194;7194;5208",
                "yn": "3869;3869;3905;3905"
            },
            {
                "class": "Wall",
                "xn": "8681;8718;8718;8681",
                "yn": "2517;2517;3011;3011"
            },
            {
                "class": "Wall",
                "xn": "6956;7404;7404;6956",
                "yn": "4589;4589;4625;4625"
            },
            {
                "class": "Wall",
                "xn": "5208;5564;5564;5208",
                "yn": "2617;2617;2652;2652"
            },
            {
                "class": "Wall",
                "xn": "7070;7240;7240;7070",
                "yn": "2683;2683;2717;2717"
            },
            {
                "class": "Wall",
                "xn": "6538;7194;7194;6538",
                "yn": "2999;2999;3032;3032"
            },
            {
                "class": "Wall",
                "xn": "6539;6572;6572;6539",
                "yn": "2999;2999;3905;3905"
            },
            {
                "class": "Wall",
                "xn": "7164;7193;7193;7164",
                "yn": "3301;3301;3901;3901"
            },
            {
                "class": "Wall",
                "xn": "7817;8158;8158;7817",
                "yn": "1553;1553;1582;1582"
            },
            {
                "class": "Wall",
                "xn": "8089;8116;8116;8089",
                "yn": "2203;2203;2558;2558"
            },
            {
                "class": "Wall",
                "xn": "7613;8718;8718;7613",
                "yn": "3874;3874;3902;3902"
            },
            {
                "class": "Wall",
                "xn": "8372;8718;8718;8372",
                "yn": "1553;1553;1581;1581"
            },
            {
                "class": "Wall",
                "xn": "6529;7194;7194;6529",
                "yn": "2371;2371;2398;2398"
            },
            {
                "class": "Wall",
                "xn": "7649;8718;8718;7649",
                "yn": "2532;2532;2558;2558"
            },
            {
                "class": "Wall",
                "xn": "7818;7844;7844;7818",
                "yn": "1881;1881;2558;2558"
            },
            {
                "class": "Wall",
                "xn": "7610;7637;7637;7610",
                "yn": "2977;2977;3900;3900"
            },
            {
                "class": "Wall",
                "xn": "7817;8117;8117;7817",
                "yn": "1881;1881;1907;1907"
            },
            {
                "class": "Wall",
                "xn": "7167;7193;7193;7167",
                "yn": "2371;2371;2541;2541"
            },
            {
                "class": "Wall",
                "xn": "7818;7844;7844;7818",
                "yn": "809;809;1582;1582"
            },
            {
                "class": "Wall",
                "xn": "8089;8116;8116;8089",
                "yn": "1881;1881;2005;2005"
            },
            {
                "class": "Wall",
                "xn": "7612;7637;7637;7612",
                "yn": "2683;2683;2778;2778"
            },
            {
                "class": "Wall",
                "xn": "6524;7940;7940;6524",
                "yn": "809;809;830;830"
            },
            {
                "class": "Wall",
                "xn": "6528;6852;6852;6528",
                "yn": "1025;1025;1044;1044"
            },
            {
                "class": "Wall",
                "xn": "7637;7667;7608;7578",
                "yn": "3065;3031;2976;3010"
            },
            {
                "class": "Wall",
                "xn": "7887;7921;7890;7856",
                "yn": "2752;2717;2687;2722"
            },
            {
                "class": "Wall",
                "xn": "6678;6710;6676;6644",
                "yn": "2667;2621;2597;2643"
            },
            {
                "class": "Wall",
                "xn": "6830;6881;6881;6830",
                "yn": "3731;3731;3755;3755"
            },
            {
                "class": "Wall",
                "xn": "4339;4355;4355;4339",
                "yn": "5407;5407;5470;5470"
            },
            {
                "class": "Wall",
                "xn": "4664;4680;4680;4664",
                "yn": "5407;5407;5470;5470"
            },
            {
                "class": "Wall",
                "xn": "8105;8167;8167;8105",
                "yn": "1531;1531;1549;1549"
            },
            {
                "class": "Wall",
                "xn": "8117;8137;8137;8117",
                "yn": "1945;1945;2005;2005"
            },
            {
                "class": "Wall",
                "xn": "6678;6727;6727;6678",
                "yn": "2597;2597;2666;2666"
            },
            {
                "class": "Wall",
                "xn": "8292;8341;8341;8292",
                "yn": "2688;2688;2754;2754"
            },
            {
                "class": "Wall",
                "xn": "7167;7182;7182;7167",
                "yn": "2915;2915;3103;3103"
            },
            {
                "class": "Wall",
                "xn": "7175;7191;7191;7175",
                "yn": "2551;2551;2674;2674"
            },
            {
                "class": "Wall",
                "xn": "7842;7888;7888;7842",
                "yn": "2688;2688;2754;2754"
            },
            {
                "class": "Wall",
                "xn": "1008;1063;1063;1008",
                "yn": "2841;2841;2913;2913"
            },
            {
                "class": "Wall",
                "xn": "646;698;698;646",
                "yn": "2841;2841;2913;2913"
            },
            {
                "class": "Wall",
                "xn": "454;496;496;454",
                "yn": "3822;3822;3945;3945"
            },
            {
                "class": "Wall",
                "xn": "1586;1711;1711;1586",
                "yn": "4436;4436;4480;4480"
            },
            {
                "class": "Wall",
                "xn": "1586;1711;1711;1586",
                "yn": "3983;3983;4036;4036"
            },
            {
                "class": "Wall",
                "xn": "1028;1132;1132;1028",
                "yn": "3899;3899;3910;3910"
            },
            {
                "class": "Wall",
                "xn": "1207;1212;1212;1207",
                "yn": "2865;2865;3060;3060"
            },
            {
                "class": "Wall",
                "xn": "1593;1711;1711;1593",
                "yn": "4481;4481;4488;4488"
            },
            {
                "class": "Wall",
                "xn": "1619;1876;1876;1619",
                "yn": "3917;3917;3925;3925"
            },
            {
                "class": "Wall",
                "xn": "1625;2472;2472;1625",
                "yn": "5068;5068;5078;5078"
            },
            {
                "class": "Wall",
                "xn": "1625;2472;2472;1625",
                "yn": "5131;5131;5140;5140"
            },
            {
                "class": "Wall",
                "xn": "2369;3419;3419;2369",
                "yn": "3837;3837;3843;3843"
            },
            {
                "class": "Wall",
                "xn": "445;453;453;445",
                "yn": "3822;3822;3937;3937"
            },
            {
                "class": "Wall",
                "xn": "1867;1877;1814;1805",
                "yn": "3930;3921;3857;3867"
            },
            {
                "class": "Wall",
                "xn": "1859;1866;1866;1859",
                "yn": "3825;3825;3941;3941"
            },
            {
                "class": "Wall",
                "xn": "7184;7193;7193;7184",
                "yn": "2924;2924;3103;3103"
            },
            {
                "class": "Wall",
                "xn": "6529;6606;6606;6529",
                "yn": "2487;2487;2494;2494"
            },
            {
                "class": "Wall",
                "xn": "7152;7163;7163;7152",
                "yn": "3301;3301;3361;3361"
            },
            {
                "class": "Wall",
                "xn": "7597;7674;7674;7597",
                "yn": "2619;2619;2627;2627"
            },
            {
                "class": "Wall",
                "xn": "7639;7648;7648;7639",
                "yn": "2977;2977;3037;3037"
            },
            {
                "class": "Wall",
                "xn": "7817;8167;8167;7817",
                "yn": "1552;1552;1562;1562"
            },
            {
                "class": "Wall",
                "xn": "8363;8718;8718;8363",
                "yn": "1556;1556;1562;1562"
            },
            {
                "class": "Wall",
                "xn": "8518;8530;8530;8518",
                "yn": "2532;2532;2732;2732"
            },
            {
                "class": "Wall",
                "xn": "5156;5206;5206;5156",
                "yn": "2629;2629;2641;2641"
            },
            {
                "class": "Wall",
                "xn": "7597;8718;8718;7597",
                "yn": "2532;2532;2541;2541"
            },
            {
                "class": "Wall",
                "xn": "8354;8366;8366;8354",
                "yn": "2531;2531;2709;2709"
            },
            {
                "class": "Wall",
                "xn": "7135;7194;7194;7135",
                "yn": "2487;2487;2494;2494"
            },
            {
                "class": "Wall",
                "xn": "6539;6551;6551;6539",
                "yn": "762;762;1341;1341"
            },
            {
                "class": "Text",
                "height": 100,
                "text": "wic",
                "width": 275,
                "x": 8135,
                "y": 1172
            },
            {
                "class": "Text",
                "height": 100,
                "text": "ac",
                "width": 169,
                "x": 3624,
                "y": 2781
            },
            {
                "class": "Text",
                "height": 100,
                "text": "kitchen",
                "width": 519,
                "x": 1154,
                "y": 3360
            },
            {
                "class": "Text",
                "height": 97,
                "text": "hall",
                "width": 313,
                "x": 2047,
                "y": 3542
            },
            {
                "class": "Text",
                "height": 100,
                "text": "storage",
                "width": 610,
                "x": 2236,
                "y": 3973
            },
            {
                "class": "Text",
                "height": 82,
                "text": "up",
                "width": 138,
                "x": 2147,
                "y": 4329
            },
            {
                "class": "Text",
                "height": 100,
                "text": "porch",
                "width": 436,
                "x": 1856,
                "y": 4770
            },
            {
                "class": "Wall",
                "xn": "2192.61455561;2934.56751688;2936.0786227;2188.08123812",
                "yn": "4140.42996717;4138.91886134;4169.14097789;4164.60766041"
            },
            {
                "class": "door",
                "height": 236.50317305169074,
                "width": 257.80976521851017,
                "x": 2571.7056745350537,
                "y": 2940.309719021023
            },
            {
                "class": "door",
                "height": 210.93526245150815,
                "width": 238.63383226837323,
                "x": 2586.620289051827,
                "y": 3566.7235287255016
            },
            {
                "class": "door",
                "height": 121.44757535086819,
                "width": 129.97021221759587,
                "x": 2356.509093650182,
                "y": 3311.0444227236735
            },
            {
                "class": "door",
                "height": 255.5317817387895,
                "width": 323.84225804519883,
                "x": 2064.49439503814,
                "y": 2881.6900930740703
            },
            {
                "class": "Wall",
                "xn": "2384.20766347;2379.94634503;2431.08216623;2431.08216623;3377.09485844;3377.09485844;2590.88160749;2593.0122667;2633.49479182;2639.88676947;2514.17787568;2518.43919412;2578.09765219;2580.2283114;2431.08216623;2424.69018858;2386.33832268",
                "yn": "2874.2592833;2818.86214367;2818.86214367;2859.34466879;2855.08335035;2899.8271939;2889.17389782;2901.95785312;2899.8271939;2946.70169667;2950.9630151;2899.8271939;2899.8271939;2887.0432386;2893.43521625;2933.91774137;2948.83235589"
            },
            {
                "class": "Wall",
                "xn": "2614.31885887;2514.17787568;2512.04721647;2529.0924902;2509.91655725;2507.78589803;2497.13260195;2497.13260195;2458.78073605;2458.78073605;2488.60996508;2488.60996508;2520.56985333;2520.56985333;2569.57501532;2571.70567454;2526.96183098;2533.35380863;2629.23347339;2639.88676947",
                "yn": "3170.42091442;3164.02893677;3213.03409876;3210.90343954;3221.55673562;3183.20486972;3185.33552894;3276.95387526;3279.08453447;3306.78310429;3304.65244507;3332.35101489;3334.48167411;3321.69771881;3328.08969646;3276.95387526;3274.82321604;3223.68739484;3225.81805406;3174.68223286"
            },
            {
                "class": "Wall",
                "xn": "2637.75611025;2646.27874712;2654.80138399;2673.97731694;2673.97731694;3377.09485844;3379.22551766;2673.97731694;2673.97731694;2667.58533929;2663.32402085;2663.32402085;2654.80138399;2654.80138399;2537.61512707;2535.48446785;2539.74578628;2635.62545104;2642.01742869",
                "yn": "3217.29541719;3213.03409876;3187.46618816;3187.46618816;3357.91892549;3351.52694784;3389.87881374;3394.14013217;3543.28627734;3549.67825499;3517.71836674;3515.58770753;3509.19572988;3562.46221029;3570.98484716;3526.24100361;3515.58770753;3513.45704831;3230.07937249"
            },
            {
                "class": "Wall",
                "xn": "2496.34682692;2496.34682692;2446.48033462;2451.0136521;2488.79129778",
                "yn": "3270.03301057;3274.56632805;3279.09964553;3318.38839705;3309.32176208"
            },
            {
                "class": "Wall",
                "xn": "2569.81479933;2574.37525151;2575.13532687;2567.53457325",
                "yn": "3281.24533828;3282.00541364;3326.08978464;3325.32970928"
            },
            {
                "class": "door",
                "height": 270.5937205186001,
                "width": 357.9507484025587,
                "x": 1923.985272663752,
                "y": 4299.670299264067
            },
            {
                "class": "Wall",
                "xn": "2449.50254627;2452.52475793;2494.83572109;2496.34682692;2525.05783764;2525.05783764;2538.65779009;2540.16889592;2532.61336678;2531.10226095;2565.85769498;2564.34658916;2576.43543577;2574.92432995;2517.5023085;2515.99120268;2481.23576865;2482.74687447;2454.03586375",
                "yn": "3431.7213341;3471.01008562;3467.98787396;3546.56537699;3548.07648281;3517.85436627;3514.83215461;3511.80994296;3508.7877313;3467.98787396;3472.52119144;3464.96566231;3464.96566231;3421.14359331;3419.63248748;3409.05474669;3410.56585252;3424.16580497;3418.12138166"
            },
            {
                "class": "Window",
                "xn": "1845.0602153;1891.90449595;2159.3702274;2109.5037351",
                "yn": "3972.69722032;3895.63082312;4052.78582918;4126.83001472"
            },
            {
                "class": "window",
                "height": 54.39980978762287,
                "width": 111.82183123011396,
                "x": 1716.6162199649918,
                "y": 4536.339693956783
            },
            {
                "class": "window",
                "height": 42.613184333637946,
                "width": 321.7295417189673,
                "x": 839.4797313726699,
                "y": 5183.893874187071
            },
            {
                "class": "Wall",
                "xn": "841.610390589;372.865362919;372.865362919;677.549630905;677.549630905;807.519843122;845.871709023",
                "yn": "5183.89387419;5179.63255575;5296.81881267;5303.21079032;5277.64287972;5224.3763993;5224.3763993"
            },
            {
                "class": "Wall",
                "xn": "1165.17847665;1166.08101614;1227.4537012;1334.85590005;1335.75843954;1620.96091717;1620.96091717",
                "yn": "5184.1868086;5222.09346702;5232.02140136;5286.17377053;5300.61440231;5296.10170488;5183.28426911"
            },
            {
                "class": "Text",
                "height": 250.0,
                "text": "first floor",
                "width": 1410.0,
                "x": 1760.0,
                "y": 220.0
            },
            {
                "class": "Text",
                "height": 155.29042516120217,
                "text": "2 car garage",
                "width": 1039.251306848045,
                "x": 1893.3486452346563,
                "y": 1624.5767555325758
            },
            {
                "class": "Text",
                "height": 125.42688186097075,
                "text": "patio",
                "width": 364.33522826282024,
                "x": 615.1889919847622,
                "y": 2233.793038857292
            },
            {
                "class": "Text",
                "height": 84.11842587460114,
                "text": "cabinets",
                "width": 471.66403079687075,
                "x": 1484.0893707876062,
                "y": 2706.8107754648445
            },
            {
                "class": "Text",
                "height": 114.160720829816,
                "text": "ws",
                "width": 171.24108124472377,
                "x": 2763.8911358797527,
                "y": 2604.6669726171144
            },
            {
                "class": "Text",
                "height": 84.11842587460114,
                "text": "hw",
                "width": 195.27491720889566,
                "x": 3097.360609882636,
                "y": 2619.688120094722
            },
            {
                "class": "Text",
                "height": 114.84404288498172,
                "text": "lau",
                "width": 256.8879906637744,
                "x": 2840.8789555758594,
                "y": 3170.300025956464
            },
            {
                "class": "Text",
                "height": 114.84404288498172,
                "text": "pwdr",
                "width": 395.90972678770004,
                "x": 2845.412273058164,
                "y": 3613.0540333946205
            },
            {
                "class": "Text",
                "height": 108.24233231973813,
                "text": "foyer",
                "width": 409.3917915459406,
                "x": 1727.5904920734465,
                "y": 4147.503228488981
            },
            {
                "class": "Text",
                "height": 131.31487124924297,
                "text": "great room",
                "width": 898.0242808012798,
                "x": 563.3831572951425,
                "y": 4367.278459934526
            },
            {
                "class": "Stairs",
                "xn": "2403.38359642;2405.51425563;3377.09485844;3370.70288079",
                "yn": "4165.43876861;4546.8267684;4544.69610918;4159.04679096"
            },
            {
                "class": "window",
                "height": 627.8839645639923,
                "width": 36.05075394625783,
                "x": 8679.2190125616,
                "y": 3013.2421840080597
            },
            {
                "class": "Wall",
                "xn": "8712.26553701;8721.2782255;8685.22747155;8679.21901256",
                "yn": "1054.48455293;2295.23133458;2292.22710508;1045.47186444"
            },
            {
                "class": "door",
                "height": 223.719217751599,
                "width": 253.54844678514564,
                "x": 6939.557068732938,
                "y": 3089.4558641887506
            },
            {
                "class": "door",
                "height": 225.84987696828102,
                "width": 247.15646913509954,
                "x": 7610.714721987736,
                "y": 2765.5956632531024
            },
            {
                "class": "door",
                "height": 208.80460323482612,
                "width": 219.45789931823492,
                "x": 6962.99432011644,
                "y": 2718.7211604861004
            },
            {
                "class": "door",
                "height": 306.8319266718131,
                "width": 401.93188055255087,
                "x": 7202.475752401511,
                "y": 2307.519635672233
            },
            {
                "class": "door",
                "height": 225.31721216411074,
                "width": 201.28337619993817,
                "x": 8096.398490430379,
                "y": 1994.8083850262603
            },
            {
                "class": "door",
                "height": 241.7769323894347,
                "width": 208.53260418588798,
                "x": 8167.5269972805945,
                "y": 1316.1731756949857
            },
            {
                "class": "Stairs",
                "xn": "7650.77334632;7650.77334632;8273.157686;8270.62766836;7741.85398139;7744.38399903;8166.89694508;8161.8369098;8346.52819759;8346.52819759;8685.55056148;8677.96050855",
                "yn": "3898.75718475;4194.76924874;4202.35930166;4285.84988382;4285.84988382;4576.80191253;4584.39196545;4566.68184197;4574.27189489;4597.04205366;4584.39196545;3906.34723767"
            },
            {
                "class": "Text",
                "height": 101.66312612844649,
                "text": "down",
                "width": 360.05690503824826,
                "x": 7218.081955119705,
                "y": 4011.4575184849537
            },
            {
                "class": "Text",
                "height": 95.56863336854258,
                "text": "bath 2",
                "width": 437.6037422664849,
                "x": 6649.564911221771,
                "y": 3460.590513555657
            },
            {
                "class": "Text",
                "height": 100.5985614405713,
                "text": "bedroom 3",
                "width": 834.9680599567419,
                "x": 5492.6814546552,
                "y": 3138.675116945828
            },
            {
                "class": "Text",
                "height": 132.18609780294491,
                "text": "badroom 2",
                "width": 835.1757997549694,
                "x": 7756.920557436438,
                "y": 3175.470576766195
            },
            {
                "class": "Text",
                "height": 110.58707108715294,
                "text": "master bath",
                "width": 766.9748478625124,
                "x": 7694.719752741586,
                "y": 1694.4793150450873
            },
            {
                "class": "Text",
                "height": 331.76121326145926,
                "text": "master bedroom",
                "width": 713.464974755826,
                "x": 6849.263757655932,
                "y": 1441.199249006769
            },
            {
                "class": "Text",
                "height": 250.85376372194185,
                "text": "second floor",
                "width": 1720.1400940933154,
                "x": 6092.162833247159,
                "y": 238.90834640184937
            },
            {
                "class": "room",
                "height": 444.2002282037856,
                "width": 740.3337136729756,
                "x": 2629.46112097643,
                "y": 2894.960107948807
            },
            {
                "class": "room",
                "height": 408.4599799575035,
                "width": 699.487715677225,
                "x": 2680.518618471118,
                "y": 3395.323583396749
            },
            {
                "class": "room",
                "height": 311.45073471759633,
                "width": 132.74949348618884,
                "x": 2532.4518757365227,
                "y": 3206.410842666404
            },
            {
                "class": "room",
                "height": 474.83472670059746,
                "width": 725.016464424569,
                "x": 1664.4744183268274,
                "y": 4579.85752527351
            },
            {
                "class": "room",
                "height": 1286.6489368661369,
                "width": 1245.802938870386,
                "x": 352.2967327133469,
                "y": 3921.215807592035
            },
            {
                "class": "Room",
                "xn": "255.287487473;1388.76393186;1393.8696816;1000.7269509;1021.14994989;1945.29065455;1960.6079038;1832.96416006;367.613981962;377.825481461;878.188956909;878.188956909;260.393237223",
                "yn": "1812.54116106;1797.22391181;2874.53710895;2849.0083602;2905.17160745;2884.74860845;3706.77431811;3854.84106085;3849.7353111;2889.8543582;2900.0658577;2854.11410995;2849.0083602"
            },
            {
                "class": "room",
                "height": 2134.2033952779566,
                "width": 1950.39640429708,
                "x": 1429.609929851263,
                "y": 714.8049649256315
            },
            {
                "class": "Room",
                "xn": "1996.34815204;2557.98062448;2598.82662248;2517.13462649;2512.02887674;2624.35537123;2619.24962148;2415.0196315;2338.43338526;2088.25164753;2067.82864853;2113.78039628;2164.83789377;2297.58738726;2266.95288876;1664.47441833;1679.79166758;1843.17565956;1863.59865856;1991.24240229",
                "yn": "2900.0658577;2889.8543582;3165.56484467;3165.56484467;3574.02482463;3574.02482463;3778.25481461;3798.6778136;3900.79280859;3900.79280859;3992.69630408;4120.34004782;4161.18604582;4181.60904481;4503.27127903;4569.64602577;3951.85030609;3931.42730709;3880.3698096;3727.19731711"
            },
            {
                "class": "Room",
                "xn": "2084.91703105;2353.10137945;2422.31024355;2850.54009018;2857.02842119;2201.70698923;2123.84701711;2089.24258506",
                "yn": "3908.13804473;3910.30082173;3849.74306564;3847.58028864;4139.55518407;4148.20629208;4100.62519801;4001.13745586"
            },
            {
                "class": "room",
                "height": 519.6256534240224,
                "width": 824.2337950863803,
                "x": 7854.111887960798,
                "y": 1027.3058895279523
            },
            {
                "class": "room",
                "height": 627.1344093048547,
                "width": 238.90834640184949,
                "x": 7848.139179300752,
                "y": 1899.3213538947025
            },
            {
                "class": "room",
                "height": 854.0973383866112,
                "width": 597.2708660046228,
                "x": 6564.006817390812,
                "y": 3028.163290643441
            },
            {
                "class": "Room",
                "xn": "5250.01091218;5250.01091218;6558.03410873;6528.17056543;7167.25039206;7155.30497474;7137.38684876;7113.49601412;7161.2776834;7161.2776834;6581.92494337;6575.95223471;6922.36933699;6928.34204565",
                "yn": "2663.82806238;3858.36979439;3864.34250305;2998.29974734;3004.272456;2651.88264506;2645.9099364;2598.12826712;2592.15555846;2395.05617268;2401.02888134;2604.10097578;2604.10097578;2651.88264506"
            },
            {
                "class": "Room",
                "xn": "6790.96974647;6820.83328977;6581.92494337;6587.89765203;7191.1412267;7203.08664402;7818.275636;7824.24834466;8110.93836034;8122.88377766;8666.40026573;8666.40026573;7812.30292734;7824.24834466;7633.12166754;7686.87604548",
                "yn": "824.233795086;1051.19672417;1039.25130685;2401.02888134;2371.16533804;2556.3193065;2544.37388918;1881.40322791;1887.37593657;2514.51034588;2520.48305454;1594.71321223;1576.79508625;1039.25130685;1057.16943283;830.206503746"
            },
            {
                "class": "Room",
                "xn": "7651.03979352;7657.01250218;8093.02023436;8116.911069;7680.90333682;7639.0943762;8684.31839171;8690.29110037;8296.0923288;8296.0923288;8684.31839171;8672.37297439",
                "yn": "2556.3193065;2699.66431434;2699.66431434;2717.58244032;2735.5005663;3852.39708573;3876.28792037;2729.52785764;2723.55514898;2705.637023;2711.60973166;2556.3193065"
            },
            {
                "class": "Room",
                "xn": "7203.08664402;7627.14895888;7603.25812424;7627.14895888;6994.04184091;6988.06913225;7203.08664402",
                "yn": "2574.23743248;2550.34659784;3894.20604635;4593.01295958;4581.06754226;3906.15146367;3906.15146367"
            }
        ],
        "class": "image",
        "filename": "33.png"
    }
]
