[
    {
        "annotations": [
            {
                "class": "Door",
                "xn": "4368;4388;4388;4368",
                "yn": "946;946;955;955"
            },
            {
                "class": "wall",
                "height": 75.1057373880368,
                "width": 390.5498344177911,
                "x": 1141.607208298159,
                "y": 336.47370349840475
            },
            {
                "class": "wall",
                "height": 3379.758182461655,
                "width": 108.1522618387728,
                "x": 1141.607208298159,
                "y": 345.48639198496915
            },
            {
                "class": "wall",
                "height": 43.06413005920183,
                "width": 261.9734578601442,
                "x": 1250.6541104693192,
                "y": 409.10923556241715
            },
            {
                "class": "Wall",
                "xn": "1535.95397211;1537.74831086;1514.42190708;1510.83322958",
                "yn": "339.130024216;405.520558057;457.556381879;340.924362969"
            },
            {
                "class": "wall",
                "height": 78.23455702317688,
                "width": 144.68034517984802,
                "x": 1142.4388737905037,
                "y": 2257.0133848056294
            },
            {
                "class": "wall",
                "height": 110.38574484092123,
                "width": 242.20561489367174,
                "x": 1141.3671675299126,
                "y": 3612.7218044538363
            },
            {
                "class": "wall",
                "height": 71.77355009866972,
                "width": 563.4223682745574,
                "x": 1910.9707713770822,
                "y": 335.5413467112811
            },
            {
                "class": "wall",
                "height": 118.9108291259713,
                "width": 235.29164061096412,
                "x": 1728.0020487880486,
                "y": 3607.8051560347835
            },
            {
                "class": "wall",
                "height": 1022.1271269551562,
                "width": 35.420246973693565,
                "x": 1857.0329484779322,
                "y": 2707.118875846577
            },
            {
                "class": "wall",
                "height": 108.79075856205873,
                "width": 723.5850453197393,
                "x": 1867.1530190418446,
                "y": 2783.01940507592
            },
            {
                "class": "wall",
                "height": 936.1065271619004,
                "width": 106.2607409210807,
                "x": 1859.5629661189103,
                "y": 2788.079440357876
            },
            {
                "class": "Wall",
                "xn": "2476.1874784;2452.86107462;1936.09151391;1910.97077138",
                "yn": "407.31489681;455.762043127;452.173365622;401.931880553"
            },
            {
                "class": "Wall",
                "xn": "2858.91993431;4144.16889592;4146.69891356;4123.92875479;3177.70215707;3175.17213943;3137.22187481;3132.16183953;2881.69009307;2856.38991666;2846.2698461",
                "yn": "333.962328609;339.022363891;402.272804916;457.933193017;450.343140094;642.624480808;642.624480808;455.403175376;450.343140094;414.92289312;339.022363891"
            },
            {
                "class": "Wall",
                "xn": "4524.36962026;5203.32548624;5203.32548624;5143.24089633;5089.16476541;5089.16476541;5083.15630642;4548.40345622;4521.36539076",
                "yn": "336.473703498;339.477932994;1231.73409316;1231.73409316;1207.7002572;1171.64950325;453.638653824;456.642883319;405.570981895"
            },
            {
                "class": "Wall",
                "xn": "5201.7880434;5199.99370465;5140.78052582;5086.95036324;5085.15602449;5146.16354207",
                "yn": "1604.13884471;2745.33829127;2747.13263003;2722.01188749;1631.05392599;1602.34450595"
            },
            {
                "class": "Wall",
                "xn": "5197.77536387;5143.11834458;5085.24620651;5089.53303155;5203.13389517",
                "yn": "3122.95204336;3122.95204336;3154.03152492;3731.68119938;3728.4660806"
            },
            {
                "class": "wall",
                "height": 715.9949923968048,
                "width": 10.120070563912577,
                "x": 3137.221874812855,
                "y": 938.6365448028783
            },
            {
                "class": "wall",
                "height": 718.0431945962835,
                "width": 16.07559390887218,
                "x": 3158.3183499630554,
                "y": 939.8863905387173
            },
            {
                "class": "wall",
                "height": 563.717493071112,
                "width": 38.581425381292775,
                "x": 3133.6691059694517,
                "y": 937.7429780175343
            },
            {
                "class": "wall",
                "height": 39.65313164188433,
                "width": 2066.2496704203495,
                "x": 3135.812518490635,
                "y": 1131.72181118459
            },
            {
                "class": "wall",
                "height": 529.32993197769,
                "width": 39.475452554268486,
                "x": 3620.9756024778926,
                "y": 1130.4334140540498
            },
            {
                "class": "wall",
                "height": 453.96770437408645,
                "width": 41.26979130673544,
                "x": 3619.1812637254257,
                "y": 1955.8292401887527
            },
            {
                "class": "wall",
                "height": 78.43054687032145,
                "width": 1014.5370740322223,
                "x": 3625.5152795216336,
                "y": 2254.2457181114974
            },
            {
                "class": "wall",
                "height": 32.890229332715535,
                "width": 566.723951579097,
                "x": 4637.522335912879,
                "y": 2259.3057533934534
            },
            {
                "class": "wall",
                "height": 37.950264614671596,
                "width": 189.75132307335844,
                "x": 5009.434929136661,
                "y": 2294.726000367147
            },
            {
                "class": "wall",
                "height": 1012.0070563912445,
                "width": 35.88677504933503,
                "x": 3624.564279982826,
                "y": 2711.2458549772527
            },
            {
                "class": "wall",
                "height": 37.68111380180153,
                "width": 52.03582382153536,
                "x": 3606.620892458159,
                "y": 2784.8137438283893
            },
            {
                "class": "wall",
                "height": 59.30349024159386,
                "width": 2257.768592769256,
                "x": 2943.994694136272,
                "y": 3664.10850421277
            },
            {
                "class": "wall",
                "height": 105.89908971713203,
                "width": 1567.306527813555,
                "x": 2960.938548491013,
                "y": 3613.276941148547
            },
            {
                "class": "wall",
                "height": 237.2139609663759,
                "width": 122.84294407187326,
                "x": 2939.7587305475868,
                "y": 3490.4339970766737
            },
            {
                "class": "wall",
                "height": 108.79075856205918,
                "width": 298.54208163541716,
                "x": 4903.17418821558,
                "y": 3615.395208957721
            },
            {
                "class": "wall",
                "height": 106.26074092108092,
                "width": 235.29164061096435,
                "x": 2820.9696696905958,
                "y": 2785.549422716902
            },
            {
                "class": "wall",
                "height": 483.23336942681954,
                "width": 118.9108291259713,
                "x": 2939.880498816567,
                "y": 2783.019405075924
            },
            {
                "class": "wall",
                "height": 40.480282255649854,
                "width": 523.7136516824689,
                "x": 2815.9096344086397,
                "y": 2785.549422716902
            },
            {
                "class": "wall",
                "height": 58.53871107338364,
                "width": 39.450000940757946,
                "x": 3134.366203777019,
                "y": 2767.8629692306195
            },
            {
                "class": "wall",
                "height": 73.37051158836539,
                "width": 1351.0294202823131,
                "x": 1819.082683863264,
                "y": 2259.3057533934557
            },
            {
                "class": "wall",
                "height": 627.444374962572,
                "width": 37.950264614671596,
                "x": 2269.4258239573683,
                "y": 2264.365788675412
            },
            {
                "class": "wall",
                "height": 157.1550060531331,
                "width": 36.2665398584154,
                "x": 1857.1490619163526,
                "y": 2254.5698945314875
            },
            {
                "class": "wall",
                "height": 543.6846419974249,
                "width": 37.68111380180153,
                "x": 3136.5041393118763,
                "y": 1957.6235789412226
            },
            {
                "class": "window",
                "height": 97.42716253976175,
                "width": 389.7086501590468,
                "x": 1524.946891926705,
                "y": 321.93323274008213
            },
            {
                "class": "window",
                "height": 93.19119895107644,
                "width": 385.4726865703615,
                "x": 2469.566772203525,
                "y": 321.93323274008213
            },
            {
                "class": "window",
                "height": 72.01138100765002,
                "width": 372.76479580430623,
                "x": 4142.7723897342175,
                "y": 334.64112350613823
            },
            {
                "class": "window",
                "height": 376.9726285057395,
                "width": 83.49058215227797,
                "x": 5138.465828826558,
                "y": 1227.0585558743874
            },
            {
                "class": "window",
                "height": 374.44261086476126,
                "width": 80.96056451129971,
                "x": 5138.465828826558,
                "y": 2747.5991581022363
            },
            {
                "class": "window",
                "height": 225.31721216411142,
                "width": 114.16072082981646,
                "x": 2944.1449056110573,
                "y": 3262.593232136335
            },
            {
                "class": "window",
                "height": 102.14380284773051,
                "width": 234.32990065067588,
                "x": 2592.6500546350435,
                "y": 2799.941889826026
            },
            {
                "class": "door",
                "height": 406.6525045137887,
                "width": 338.87708709482376,
                "x": 1389.3960570887778,
                "y": 3325.2314171179587
            },
            {
                "class": "door",
                "height": 298.54208163541807,
                "width": 306.1321345583526,
                "x": 1588.8510785342596,
                "y": 2408.5767942111706
            },
            {
                "class": "door",
                "height": 260.8790384792087,
                "width": 268.514522532259,
                "x": 2906.5742628610387,
                "y": 2504.438769400405
            },
            {
                "class": "door",
                "height": 263.42419983022546,
                "width": 259.6064578037003,
                "x": 3340.524273209382,
                "y": 2785.6790986877477
            },
            {
                "class": "door",
                "height": 301.6016200954755,
                "width": 299.0564587444587,
                "x": 3621.7646024967244,
                "y": 2410.2677994127885
            },
            {
                "class": "door",
                "height": 305.2433771416636,
                "width": 305.2433771416636,
                "x": 3622.1206683592454,
                "y": 1656.17198686764
            },
            {
                "class": "door",
                "height": 302.55360876883117,
                "width": 304.6842679855131,
                "x": 3136.3303669557713,
                "y": 641.3284242212549
            },
            {
                "class": "Text",
                "height": 55.06752665290833,
                "text": "0m",
                "width": 88.9552353623908,
                "x": 2910.106985426783,
                "y": 3956.389991832046
            },
            {
                "class": "Text",
                "height": 72.01138100765002,
                "text": "1m",
                "width": 63.5394538302794,
                "x": 3299.815635585828,
                "y": 3952.1540282433602
            },
            {
                "class": "Text",
                "height": 55.06752665290833,
                "text": "2m",
                "width": 67.77541741896448,
                "x": 3668.344467801447,
                "y": 3964.8619190094164
            },
            {
                "class": "Text",
                "height": 67.77541741896448,
                "text": "3m",
                "width": 72.01138100765002,
                "x": 4041.109263605751,
                "y": 3956.389991832046
            },
            {
                "class": "Text",
                "height": 63.539453830278944,
                "text": "4m",
                "width": 84.71927177370526,
                "x": 4413.874059410055,
                "y": 3956.389991832046
            },
            {
                "class": "Text",
                "height": 59.30349024159386,
                "text": "5m",
                "width": 55.06752665290787,
                "x": 4807.818673157786,
                "y": 3952.1540282433602
            },
            {
                "class": "room",
                "height": 746.588582505783,
                "width": 549.4891967242561,
                "x": 3063.999542603735,
                "y": 2854.9547395021154
            },
            {
                "class": "room",
                "height": 1093.0056847884666,
                "width": 1415.5319524309648,
                "x": 3667.243117268408,
                "y": 1164.678188709022
            },
            {
                "class": "room",
                "height": 674.9160785852281,
                "width": 1887.3759365746205,
                "x": 3189.426424464706,
                "y": 441.9804408434237
            },
            {
                "class": "room",
                "height": 1260.2415272697622,
                "width": 1433.4500784111037,
                "x": 3667.243117268408,
                "y": 2335.3290860780903
            },
            {
                "class": "room",
                "height": 1612.631338212492,
                "width": 406.1441888831464,
                "x": 3189.426424464706,
                "y": 1158.7054800489757
            },
            {
                "class": "room",
                "height": 430.03502352333135,
                "width": 830.2065037464308,
                "x": 2317.4109600979514,
                "y": 2341.3017947381363
            },
            {
                "class": "room",
                "height": 441.9804408434238,
                "width": 394.1987715630537,
                "x": 1887.3759365746203,
                "y": 2341.3017947381363
            },
            {
                "class": "door",
                "height": 400.17148022309993,
                "width": 29.863543300231413,
                "x": 3141.644755184336,
                "y": 1534.9861256318904
            },
            {
                "class": "Room",
                "xn": "1260.24152727;3117.75392054;3135.67204652;1821.67614131;1857.51239327;1242.32340129",
                "yn": "465.871275484;453.925858164;2257.6838735;2257.6838735;3643.35228263;3595.57061335"
            }
        ],
        "class": "image",
        "filename": "42.png"
    }
]
