[
    {
        "annotations": [
            {
                "class": "Window",
                "xn": "690;705;705;690",
                "yn": "797;797;881;881"
            },
            {
                "class": "Window",
                "xn": "1223;1346;1346;1223",
                "yn": "2352;2352;2367;2367"
            },
            {
                "class": "Window",
                "xn": "690;705;705;690",
                "yn": "616;616;700;700"
            },
            {
                "class": "Window",
                "xn": "1368;1492;1492;1368",
                "yn": "2352;2352;2367;2367"
            },
            {
                "class": "Window",
                "xn": "607;622;622;607",
                "yn": "2012;2012;2117;2117"
            },
            {
                "class": "Window",
                "xn": "1259;1275;1275;1259",
                "yn": "1002;1002;1051;1051"
            },
            {
                "class": "Window",
                "xn": "705;954;954;705",
                "yn": "2366;2366;2409;2409"
            },
            {
                "class": "Wall",
                "xn": "566;623;623;566",
                "yn": "1270;1270;1423;1423"
            },
            {
                "class": "Wall",
                "xn": "566;623;623;566",
                "yn": "964;964;1117;1117"
            },
            {
                "class": "Wall",
                "xn": "690;824;824;690",
                "yn": "75;75;132;132"
            },
            {
                "class": "Wall",
                "xn": "1516;1651;1651;1516",
                "yn": "75;75;132;132"
            },
            {
                "class": "Wall",
                "xn": "954;1053;1053;954",
                "yn": "2367;2367;2409;2409"
            },
            {
                "class": "Wall",
                "xn": "607;650;650;607",
                "yn": "2325;2325;2409;2409"
            },
            {
                "class": "Wall",
                "xn": "607;706;706;607",
                "yn": "2366;2366;2409;2409"
            },
            {
                "class": "Wall",
                "xn": "1621;1650;1650;1621",
                "yn": "1512;1512;2367;2367"
            },
            {
                "class": "Wall",
                "xn": "1200;1651;1651;1200",
                "yn": "964;964;985;985"
            },
            {
                "class": "Wall",
                "xn": "1226;1248;1248;1226",
                "yn": "1512;1512;1617;1617"
            },
            {
                "class": "Wall",
                "xn": "1225;1651;1651;1225",
                "yn": "1512;1512;1527;1527"
            },
            {
                "class": "Wall",
                "xn": "1059;1073;1073;1059",
                "yn": "964;964;1291;1291"
            },
            {
                "class": "Wall",
                "xn": "608;622;622;608",
                "yn": "1662;1662;2013;2013"
            },
            {
                "class": "Wall",
                "xn": "607;1074;1074;607",
                "yn": "1505;1505;1520;1520"
            },
            {
                "class": "Wall",
                "xn": "1038;1052;1052;1038",
                "yn": "2144;2144;2409;2409"
            },
            {
                "class": "Wall",
                "xn": "1259;1494;1494;1259",
                "yn": "1353;1353;1367;1367"
            },
            {
                "class": "Wall",
                "xn": "1037;1224;1224;1037",
                "yn": "2353;2353;2367;2367"
            },
            {
                "class": "Wall",
                "xn": "774;789;789;774",
                "yn": "75;75;534;534"
            },
            {
                "class": "Wall",
                "xn": "916;1074;1074;916",
                "yn": "1408;1408;1424;1424"
            },
            {
                "class": "Wall",
                "xn": "691;705;705;691",
                "yn": "509;509;617;617"
            },
            {
                "class": "Wall",
                "xn": "962;976;976;962",
                "yn": "1408;1408;1520;1520"
            },
            {
                "class": "Wall",
                "xn": "1259;1651;1651;1259",
                "yn": "1193;1193;1208;1208"
            },
            {
                "class": "Wall",
                "xn": "691;705;705;691",
                "yn": "700;700;798;798"
            },
            {
                "class": "Wall",
                "xn": "565;1092;1092;565",
                "yn": "964;964;978;978"
            },
            {
                "class": "Wall",
                "xn": "607;696;696;607",
                "yn": "2144;2144;2159;2159"
            },
            {
                "class": "Wall",
                "xn": "565;668;668;565",
                "yn": "1407;1407;1423;1423"
            },
            {
                "class": "Wall",
                "xn": "1492;1651;1651;1492",
                "yn": "2353;2353;2367;2367"
            },
            {
                "class": "Wall",
                "xn": "607;622;622;607",
                "yn": "1256;1256;1537;1537"
            },
            {
                "class": "Wall",
                "xn": "1260;1276;1276;1260",
                "yn": "1051;1051;1083;1083"
            },
            {
                "class": "Wall",
                "xn": "691;705;705;691",
                "yn": "881;881;978;978"
            },
            {
                "class": "Wall",
                "xn": "690;790;790;690",
                "yn": "519;519;534;534"
            },
            {
                "class": "Wall",
                "xn": "1260;1275;1275;1260",
                "yn": "1179;1179;1232;1232"
            },
            {
                "class": "Wall",
                "xn": "1346;1369;1369;1346",
                "yn": "2353;2353;2367;2367"
            },
            {
                "class": "Wall",
                "xn": "964;1053;1053;964",
                "yn": "2144;2144;2159;2159"
            },
            {
                "class": "Wall",
                "xn": "1260;1275;1275;1260",
                "yn": "1328;1328;1367;1367"
            },
            {
                "class": "Wall",
                "xn": "1260;1275;1275;1260",
                "yn": "964;964;1003;1003"
            },
            {
                "class": "Wall",
                "xn": "608;622;622;608",
                "yn": "2117;2117;2159;2159"
            },
            {
                "class": "Wall",
                "xn": "399;441;441;399",
                "yn": "2012;2012;2075;2075"
            },
            {
                "class": "Wall",
                "xn": "399;441;441;399",
                "yn": "1714;1714;1777;1777"
            },
            {
                "class": "Wall",
                "xn": "691;705;705;691",
                "yn": "75;75;143;143"
            },
            {
                "class": "Wall",
                "xn": "690;838;838;690",
                "yn": "110;110;132;132"
            },
            {
                "class": "Wall",
                "xn": "1502;1651;1651;1502",
                "yn": "110;110;131;131"
            },
            {
                "class": "Wall",
                "xn": "1059;1073;1073;1059",
                "yn": "1495;1495;1520;1520"
            },
            {
                "class": "Wall",
                "xn": "1059;1071;1071;1059",
                "yn": "1394;1394;1431;1431"
            },
            {
                "class": "Wall",
                "xn": "610;622;622;610",
                "yn": "964;964;1131;1131"
            },
            {
                "class": "Text",
                "height": 36,
                "text": "bath 3",
                "width": 166,
                "x": 1348,
                "y": 1102
            },
            {
                "class": "Text",
                "height": 39,
                "text": "bedroom 4",
                "width": 289,
                "x": 693,
                "y": 1177
            },
            {
                "class": "Text",
                "height": 28,
                "text": "up",
                "width": 53,
                "x": 1184,
                "y": 1429
            },
            {
                "class": "Text",
                "height": 37,
                "text": "kitchen",
                "width": 220,
                "x": 1244,
                "y": 1678
            },
            {
                "class": "Text",
                "height": 85,
                "text": "livingroom",
                "width": 161,
                "x": 836,
                "y": 1797
            },
            {
                "class": "Text",
                "height": 85,
                "text": "diningroom",
                "width": 164,
                "x": 1208,
                "y": 2137
            },
            {
                "class": "Text",
                "height": 29,
                "text": "porch",
                "width": 136,
                "x": 760,
                "y": 2252
            },
            {
                "class": "Wall",
                "xn": "397.287618357;564.396385916;461.974883219;461.435822678;439.873401058;439.873401058;398.904799979",
                "yn": "1419.88546371;1422.58076641;1422.04170587;1465.16654911;1464.62748857;1485.65084965;1485.11178911"
            },
            {
                "class": "Wall",
                "xn": "398.1415322;399.421730052;398.1415322",
                "yn": "1485.02950917;1716.74532051;1714.82502373"
            },
            {
                "class": "Wall",
                "xn": "398.343203048;400.1375418;462.939398136;459.350720631;441.407333107;441.407333107;400.1375418",
                "yn": "1774.60102619;2363.144137;2368.52715326;2321.87434569;2325.4630232;2303.93095817;2303.93095817"
            },
            {
                "class": "Wall",
                "xn": "832.619310916;1503.5502983;1503.5502983",
                "yn": "129.955101159;132.977312814;132.977312814"
            },
            {
                "class": "door",
                "height": 366.4310313875085,
                "width": 92.05902758996513,
                "x": 612.8243111135919,
                "y": 144.4063177881807
            },
            {
                "class": "door",
                "height": 19.76195941516221,
                "width": 248.54464341376854,
                "x": 666.5860925806576,
                "y": 1406.899495287112
            },
            {
                "class": "door",
                "height": 89.35140913143687,
                "width": 107.40219885495935,
                "x": 1092.0727782731174,
                "y": 963.9121712361068
            },
            {
                "class": "door",
                "height": 97.4742645070221,
                "width": 80.32601426967562,
                "x": 1259.9451227018774,
                "y": 1082.1448439251799
            },
            {
                "class": "door",
                "height": 100.18188296555036,
                "width": 80.32601426967562,
                "x": 1193.1572007248444,
                "y": 1231.966398630418
            },
            {
                "class": "door",
                "height": 100.18188296555036,
                "width": 85.74125118673226,
                "x": 986.4756583905106,
                "y": 1291.5340047180428
            },
            {
                "class": "door",
                "height": 63.609143780390696,
                "width": 56.60135675373749,
                "x": 1059.7930226461704,
                "y": 1431.7447955993023
            },
            {
                "class": "door",
                "height": 125.60110593924605,
                "width": 104.0386843187747,
                "x": 605.9040475352473,
                "y": 1538.4787826206368
            },
            {
                "class": "Wall",
                "xn": "818.311307914;818.311307914;840.273937451;840.545081025;818.853595063",
                "yn": "2144.20338734;2144.20338734;2144.20338734;2158.84514036;2158.57399679"
            },
            {
                "class": "window",
                "height": 15.362374232785442,
                "width": 121.61879600954978,
                "x": 695.787532959898,
                "y": 2143.6913043999066
            },
            {
                "class": "window",
                "height": 14.722275306419306,
                "width": 120.97869708318365,
                "x": 842.3701870977239,
                "y": 2144.3314033262727
            },
            {
                "class": "Stairs",
                "xn": "1277.47386263;1281.76068767;1618.27645349;1618.27645349;1636.49545992;1635.42375366;1418.93908902;1386.78790121;1496.10193979;1497.17364605;1280.68898141",
                "yn": "1377.14254486;1511.10582743;1511.10582743;1511.10582743;1507.89070865;1212.09978073;1209.95636821;1349.27818208;1348.20647582;1372.85571982;1371.78401356"
            },
            {
                "class": "Text",
                "height": 27.49208756610119,
                "text": "coast",
                "width": 105.11680539979875,
                "x": 1284.0422074990786,
                "y": 1266.2532096621896
            },
            {
                "class": "Text",
                "height": 65.29009048933744,
                "text": "ref. space",
                "width": 97.29503680764014,
                "x": 1365.971108865158,
                "y": 1539.4379179103582
            },
            {
                "class": "Text",
                "height": 24.963858128276115,
                "text": "micro",
                "width": 81.93266257485493,
                "x": 1250.7533021192683,
                "y": 1559.280984627706
            },
            {
                "class": "Text",
                "height": 28.16435276010634,
                "text": "costs",
                "width": 96.65493788127424,
                "x": 978.7112584136964,
                "y": 1451.7443649982104
            },
            {
                "class": "Text",
                "height": 66.78792197703416,
                "text": "utility/ storage",
                "width": 143.5037783020058,
                "x": 455.7824405189492,
                "y": 296.03295146577295
            },
            {
                "class": "Text",
                "height": 73.9477319808127,
                "text": "tankless water heater",
                "width": 246.49243993604227,
                "x": 756.6246199775907,
                "y": 542.283367859293
            },
            {
                "class": "Text",
                "height": 98.57523466037242,
                "text": "2-car garage",
                "width": 209.31234892170005,
                "x": 1104.1706479814445,
                "y": 487.7553818909338
            },
            {
                "class": "Text",
                "height": 27.362713036378636,
                "text": "dw",
                "width": 48.64482317578381,
                "x": 1321.010979367382,
                "y": 1812.7797386600726
            },
            {
                "class": "Text",
                "height": 63.84633041821644,
                "text": "opt.cab",
                "width": 72.20715940155424,
                "x": 1447.1834894795716,
                "y": 2151.013274804195
            },
            {
                "class": "Text",
                "height": 57.8721380719403,
                "text": "first floor",
                "width": 417.9654416306811,
                "x": 827.3572331766301,
                "y": 2577.453556722533
            },
            {
                "class": "Wall",
                "xn": "1620.28789348;1620.28789348;1631.05392599;1634.6426035;1648.99731352;1648.99731352",
                "yn": "130.98672893;297.860232909;297.860232909;967.14858758;961.765571322;134.575406435"
            },
            {
                "class": "Wall",
                "xn": "1634.3520474;1635.42375366;1650.42764131;1650.42764131",
                "yn": "985.969759744;1192.80906804;1191.73736178;985.969759744"
            },
            {
                "class": "Room",
                "xn": "790.014377546;1619.07889543;1631.09432322;704.404454504;704.404454504;791.516306021",
                "yn": "135.173562698;132.169705749;962.736152105;959.732295156;534.686536895;536.188465369"
            },
            {
                "class": "Room",
                "xn": "621.798388411;1058.85957447;1060.36150294;917.678297872;914.674440923;962.736152105;961.234223631;623.300316885;623.300316885;671.362028067;671.362028067;623.300316885",
                "yn": "977.755436849;979.257365324;1405.80505206;1405.80505206;1428.33397918;1425.33012223;1501.92847442;1503.4304029;1426.8320507;1425.33012223;1405.80505206;1411.81276596"
            },
            {
                "class": "Room",
                "xn": "621.798388411;624.80224536;1057.35764599;1057.35764599;1620.5808239;1620.5808239;1246.60063377;1254.11027614;1222.56977818;1224.07170665;1251.10641919;1246.60063377;1261.61991852;1255.61220462;1075.38078769;1075.38078769",
                "yn": "1519.95161612;2143.251933;2141.75000453;2353.52191942;2352.01999095;1525.95933001;1528.96318696;1620.5808239;1622.08275238;1507.93618832;1507.93618832;1348.73177003;1350.23369851;974.7515799;979.257365324;1521.45354459"
            },
            {
                "class": "room",
                "height": 202.76034404708037,
                "width": 363.466690810322,
                "x": 1273.6353463105493,
                "y": 985.2650792213684
            },
            {
                "class": "Room",
                "xn": "460.181345623;608.545823173;611.060475335;1036.03669069;1033.52203853;646.265605602;656.324214249;447.608084814",
                "yn": "1420.77847146;1425.80777578;2175.17412002;2157.57155489;2361.25838;2366.28768432;2331.08255406;2323.53859757"
            }
        ],
        "class": "image",
        "filename": "5.png"
    }
]
