[
    {
        "annotations": [
            {
                "class": "Window",
                "xn": "17;28;28;17",
                "yn": "127;127;327;327"
            },
            {
                "class": "Window",
                "xn": "311;575;575;311",
                "yn": "1784;1784;1795;1795"
            },
            {
                "class": "Window",
                "xn": "1122;1134;1134;1122",
                "yn": "132;132;332;332"
            },
            {
                "class": "Window",
                "xn": "16;28;28;16",
                "yn": "1047;1047;1203;1203"
            },
            {
                "class": "Window",
                "xn": "1122;1135;1135;1122",
                "yn": "601;601;867;867"
            },
            {
                "class": "Window",
                "xn": "106;172;172;106",
                "yn": "1718;1718;1729;1729"
            },
            {
                "class": "Window",
                "xn": "404;562;562;404",
                "yn": "16;16;28;28"
            },
            {
                "class": "Window",
                "xn": "16;28;28;16",
                "yn": "666;666;866;866"
            },
            {
                "class": "Window",
                "xn": "368;562;562;368",
                "yn": "16;16;28;28"
            },
            {
                "class": "Wall",
                "xn": "17;135;135;17",
                "yn": "1203;1203;1224;1224"
            },
            {
                "class": "Wall",
                "xn": "17;405;405;17",
                "yn": "17;17;28;28"
            },
            {
                "class": "Wall",
                "xn": "687;698;698;687",
                "yn": "969;969;1795;1795"
            },
            {
                "class": "Wall",
                "xn": "698;709;709;698",
                "yn": "17;17;334;334"
            },
            {
                "class": "Wall",
                "xn": "358;369;369;358",
                "yn": "557;557;980;980"
            },
            {
                "class": "Wall",
                "xn": "541;551;551;541",
                "yn": "1088;1088;1224;1224"
            },
            {
                "class": "Wall",
                "xn": "364;375;375;364",
                "yn": "969;969;1111;1111"
            },
            {
                "class": "Wall",
                "xn": "357;369;369;357",
                "yn": "240;240;438;438"
            },
            {
                "class": "Wall",
                "xn": "686;1135;1135;686",
                "yn": "969;969;980;980"
            },
            {
                "class": "Wall",
                "xn": "697;1135;1135;697",
                "yn": "436;436;447;447"
            },
            {
                "class": "Wall",
                "xn": "188;201;201;188",
                "yn": "1719;1719;1795;1795"
            },
            {
                "class": "Wall",
                "xn": "562;1135;1135;562",
                "yn": "17;17;28;28"
            },
            {
                "class": "Wall",
                "xn": "17;28;28;17",
                "yn": "327;327;667;667"
            },
            {
                "class": "Wall",
                "xn": "344;563;563;344",
                "yn": "427;427;438;438"
            },
            {
                "class": "Wall",
                "xn": "357;586;586;357",
                "yn": "312;312;322;322"
            },
            {
                "class": "Wall",
                "xn": "81;93;93;81",
                "yn": "1705;1705;1729;1729"
            },
            {
                "class": "Wall",
                "xn": "475;570;570;475",
                "yn": "1140;1140;1152;1152"
            },
            {
                "class": "Wall",
                "xn": "1122;1135;1135;1122",
                "yn": "867;867;980;980"
            },
            {
                "class": "Wall",
                "xn": "17;552;552;17",
                "yn": "969;969;981;981"
            },
            {
                "class": "Wall",
                "xn": "18;28;28;18",
                "yn": "1181;1181;1729;1729"
            },
            {
                "class": "Wall",
                "xn": "1123;1134;1134;1123",
                "yn": "17;17;133;133"
            },
            {
                "class": "Wall",
                "xn": "1123;1135;1135;1123",
                "yn": "332;332;602;602"
            },
            {
                "class": "Wall",
                "xn": "188;312;312;188",
                "yn": "1785;1785;1795;1795"
            },
            {
                "class": "Wall",
                "xn": "476;486;486;476",
                "yn": "969;969;1224;1224"
            },
            {
                "class": "Wall",
                "xn": "358;369;369;358",
                "yn": "17;17;199;199"
            },
            {
                "class": "Wall",
                "xn": "17;243;243;17",
                "yn": "491;491;504;504"
            },
            {
                "class": "Wall",
                "xn": "541;551;551;541",
                "yn": "969;969;1010;1010"
            },
            {
                "class": "Wall",
                "xn": "363;552;552;363",
                "yn": "1212;1212;1224;1224"
            },
            {
                "class": "Wall",
                "xn": "182;256;256;182",
                "yn": "427;427;439;439"
            },
            {
                "class": "Wall",
                "xn": "668;699;699;668",
                "yn": "1140;1140;1153;1153"
            },
            {
                "class": "Wall",
                "xn": "182;256;256;182",
                "yn": "556;556;568;568"
            },
            {
                "class": "Wall",
                "xn": "575;699;699;575",
                "yn": "1785;1785;1795;1795"
            },
            {
                "class": "Wall",
                "xn": "82;93;93;82",
                "yn": "1203;1203;1237;1237"
            },
            {
                "class": "Wall",
                "xn": "17;28;28;17",
                "yn": "866;866;1048;1048"
            },
            {
                "class": "Wall",
                "xn": "18;28;28;18",
                "yn": "17;17;128;128"
            },
            {
                "class": "Wall",
                "xn": "17;107;107;17",
                "yn": "1718;1718;1729;1729"
            },
            {
                "class": "Wall",
                "xn": "364;375;375;364",
                "yn": "1190;1190;1224;1224"
            },
            {
                "class": "Wall",
                "xn": "344;370;370;344",
                "yn": "557;557;569;569"
            },
            {
                "class": "Wall",
                "xn": "172;201;201;172",
                "yn": "1719;1719;1730;1730"
            },
            {
                "class": "Wall",
                "xn": "552;562;562;552",
                "yn": "312;312;336;336"
            },
            {
                "class": "Wall",
                "xn": "698;709;709;698",
                "yn": "424;424;504;504"
            },
            {
                "class": "Wall",
                "xn": "674;775;775;674",
                "yn": "311;311;322;322"
            },
            {
                "class": "Wall",
                "xn": "552;562;562;552",
                "yn": "414;414;438;438"
            },
            {
                "class": "Wall",
                "xn": "17;39;39;17",
                "yn": "556;556;566;566"
            },
            {
                "class": "Wall",
                "xn": "17;39;39;17",
                "yn": "426;426;436;436"
            },
            {
                "class": "Wall",
                "xn": "765;774;774;765",
                "yn": "17;17;98;98"
            },
            {
                "class": "Wall",
                "xn": "227;235;235;227",
                "yn": "1311;1311;1631;1631"
            },
            {
                "class": "Wall",
                "xn": "763;774;774;763",
                "yn": "242;242;322;322"
            },
            {
                "class": "Text",
                "height": 29,
                "text": "bathroom",
                "width": 210,
                "x": 475,
                "y": 193
            },
            {
                "class": "Text",
                "height": 29,
                "text": "bedroom 3",
                "width": 229,
                "x": 110,
                "y": 263
            },
            {
                "class": "Text",
                "height": 29,
                "text": "bedroom 4",
                "width": 230,
                "x": 868,
                "y": 268
            },
            {
                "class": "Text",
                "height": 29,
                "text": "toilet",
                "width": 69,
                "x": 452,
                "y": 390
            },
            {
                "class": "Text",
                "height": 22,
                "text": "closet",
                "width": 58,
                "x": 92,
                "y": 454
            },
            {
                "class": "Text",
                "height": 22,
                "text": "closet",
                "width": 58,
                "x": 90,
                "y": 516
            },
            {
                "class": "Text",
                "height": 29,
                "text": "ensuite",
                "width": 157,
                "x": 188,
                "y": 1110
            },
            {
                "class": "Text",
                "height": 29,
                "text": "toilet",
                "width": 70,
                "x": 400,
                "y": 1174
            },
            {
                "class": "Text",
                "height": 29,
                "text": "masterbedroom",
                "width": 275,
                "x": 380,
                "y": 1290
            },
            {
                "class": "Text",
                "height": 29,
                "text": "wir",
                "width": 83,
                "x": 119,
                "y": 1460
            },
            {
                "class": "Text",
                "height": 58,
                "text": "closet",
                "width": 21,
                "x": 46,
                "y": 1435
            },
            {
                "class": "wall",
                "height": 41.26544413226287,
                "width": 11.790126894932257,
                "x": 356.23026261116735,
                "y": 198.74785337171514
            },
            {
                "class": "wall",
                "height": 136.879432624125,
                "width": 51.06382978723835,
                "x": 191.48936170214373,
                "y": 428.3687943262771
            },
            {
                "class": "wall",
                "height": 69.91600020120305,
                "width": 54.82621598511605,
                "x": 708.2138725416827,
                "y": 18.107741059304388
            },
            {
                "class": "wall",
                "height": 68.40702177959432,
                "width": 52.81424475630445,
                "x": 709.7228509632914,
                "y": 251.49640360144983
            },
            {
                "class": "wall",
                "height": 56.720465493092945,
                "width": 11.772172083472128,
                "x": 709.5409173947286,
                "y": 447.34253917194053
            },
            {
                "class": "wall",
                "height": 56.73758865248715,
                "width": 23.404255319150934,
                "x": 1097.8723404256257,
                "y": 447.51773049649216
            },
            {
                "class": "wall",
                "height": 106.9114850148369,
                "width": 67.49160785852825,
                "x": 483.7894014637867,
                "y": 1116.896519428742
            },
            {
                "class": "wall",
                "height": 67.90402897239142,
                "width": 27.66460439615952,
                "x": 198.17916603794285,
                "y": 1308.7872843419475
            },
            {
                "class": "wall",
                "height": 68.62261013670741,
                "width": 34.311305068353704,
                "x": 199.51388502709366,
                "y": 1562.6469678661329
            },
            {
                "class": "Text",
                "height": 71.63120567376507,
                "text": "linen",
                "width": 29.78723404255578,
                "x": 500.7092198582,
                "y": 1009.2198581561171
            },
            {
                "class": "Text",
                "height": 50.76000000000454,
                "text": "bedroom2",
                "width": 241.11000000002122,
                "x": 100.11000000000881,
                "y": 692.3100000000609
            },
            {
                "class": "Text",
                "height": 78.37065777445719,
                "text": "rumpus/ leisure",
                "width": 185.23973655780787,
                "x": 822.8919066318001,
                "y": 585.4050648910209
            },
            {
                "class": "door",
                "height": 67.68000000000598,
                "width": 90.24000000000797,
                "x": 252.39000000002233,
                "y": 365.1900000000323
            },
            {
                "class": "door",
                "height": 69.09000000000606,
                "width": 88.83000000000789,
                "x": 256.6200000000227,
                "y": 556.9500000000493
            },
            {
                "class": "door",
                "height": 73.3200000000065,
                "width": 91.65000000000805,
                "x": 586.5600000000519,
                "y": 249.57000000002208
            },
            {
                "class": "door",
                "height": 93.06000000000824,
                "width": 74.73000000000661,
                "x": 700.7700000000619,
                "y": 331.3500000000293
            },
            {
                "class": "door",
                "height": 74.73000000000661,
                "width": 64.86000000000575,
                "x": 496.3200000000439,
                "y": 332.76000000002944
            },
            {
                "class": "door",
                "height": 81.93296040056885,
                "width": 58.184276226490965,
                "x": 543.8448675863848,
                "y": 1008.1316431896084
            },
            {
                "class": "door",
                "height": 79.55809198316115,
                "width": 99.74447353112737,
                "x": 572.3432885952783,
                "y": 1139.936840355741
            },
            {
                "class": "door",
                "height": 85.00000000000773,
                "width": 58.00000000000517,
                "x": 367.00000000003257,
                "y": 1107.0000000000982
            },
            {
                "class": "Stairs",
                "xn": "538.135077562;538.977229483;474.13153156;478.342291166;426.971023981;416.023049007;419.391656691;408.443681717;367.178237585;367.178237585",
                "yn": "572.663306325;680.458752222;678.77444838;867.416478699;868.25863062;854.784199883;888.470276725;868.25863062;880.048757515;570.979002483"
            },
            {
                "class": "room",
                "height": 288.4220110715088,
                "width": 333.96232860911545,
                "x": 369.38257558280947,
                "y": 25.30017640978147
            },
            {
                "class": "room",
                "height": 392.15273435161276,
                "width": 331.43231096813724,
                "x": 27.830194050759616,
                "y": 32.89022933271591
            },
            {
                "class": "room",
                "height": 399.74278727454725,
                "width": 323.8422580452028,
                "x": 30.360211691737764,
                "y": 569.253969220083
            },
            {
                "class": "room",
                "height": 204.93142891923003,
                "width": 103.73072328010403,
                "x": 374.44261086476575,
                "y": 1004.4170034683243
            },
            {
                "class": "Room",
                "xn": "708.708633067;711.730844721;770.663971991;769.152866164;1125.77384144;1121.24052396;705.686421412",
                "yn": "426.131843336;314.310012106;318.843329589;22.6665874115;27.1999048938;432.176266646;439.731795783"
            },
            {
                "class": "door",
                "height": 154.1327943982672,
                "width": 16.622164101773933,
                "x": 760.0862311992981,
                "y": 92.17745547347353
            },
            {
                "class": "door",
                "height": 15.111058274339939,
                "width": 143.55505360622928,
                "x": 34.755434030981824,
                "y": 423.10963168151784
            },
            {
                "class": "door",
                "height": 10.577740792037957,
                "width": 148.08837108853123,
                "x": 31.73322237611384,
                "y": 557.5980503231432
            },
            {
                "class": "door",
                "height": 463.9094890222357,
                "width": 9.066634964603963,
                "x": 80.08860885400159,
                "y": 1234.5734610135717
            },
            {
                "class": "room",
                "height": 106.89677674270126,
                "width": 184.52419794871042,
                "x": 367.77581522191264,
                "y": 320.69033022810373
            },
            {
                "class": "Room",
                "xn": "689.06425731;200.977075049;199.465969221;86.1330321637;90.666349646;132.977312814;134.488418642;30.2221165487;27.1999048938;132.977312814;135.999524469;371.732033549;362.665398584;551.553627013;551.553627013;692.086468965",
                "yn": "1786.12708803;1787.63819385;1718.12732579;1718.12732579;1223.99572022;1228.5290377;1202.84023864;1204.35134446;1019.99643352;1024.529751;980.707682005;979.196576177;1223.99572022;1223.99572022;1151.4626405;1152.97374633"
            },
            {
                "class": "Room",
                "xn": "1127.28494727;686.042045655;689.06425731;548.531415359;547.020309531;368.709821894;364.176504412;488.087182261;486.576076434;543.998097876;540.975886221;246.310249872;241.776932389;563.642473633;560.620261978;699.641998102;698.130892275;723.819691341;720.797479686;1101.5961482;1103.10725403;1122.75162978",
                "yn": "970.129941213;967.107729558;1142.39600554;1140.88489971;973.152152867;968.618835385;887.019120704;865.86363912;689.06425731;692.086468965;563.642473633;559.109156151;436.709584128;436.709584128;320.354435416;320.354435416;501.687134708;500.176028881;445.776219093;448.798430748;504.709346363;500.176028881"
            }
        ],
        "class": "image",
        "filename": "60.png"
    }
]
