[
    {
        "annotations": [
            {
                "class": "Room", 
                "type": "UN", 
                "xn": "1894;2100;2100;1894", 
                "yn": "1384;1384;1776;1776", 
                "text": "cloaks", 
                "x": 1994, 
                "y": 1566
            }, 
            {
                "class": "Room", 
                "type": "UN", 
                "xn": "1073;1073;2097;2115;1915;1912", 
                "yn": "1109;181;189;774;774;1123", 
                "text": "livingarea", 
                "x": 1575, 
                "y": 525
            }, 
            {
                "class": "Room", 
                "type": "UN", 
                "xn": "1921;2093;2093;1916", 
                "yn": "799;797;996;1099", 
                "text": "store", 
                "x": 2006, 
                "y": 904
            }
        ], 
        "class": "image", 
        "filename": "63.png"
    }
]