[
    {
        "annotations": [
            {
                "class": "Room", 
                "type": "UN", 
                "xn": "879;1055;1055;879", 
                "yn": "654;654;776;776", 
                "text": "ath 2", 
                "x": 949, 
                "y": 683
            }, 
            {
                "class": "Room", 
                "type": "UN", 
                "xn": "795;872;872;795", 
                "yn": "731;731;775;775", 
                "text": "linen", 
                "x": 832, 
                "y": 757
            }, 
            {
                "class": "Room", 
                "type": "UN", 
                "xn": "797;794;880;879;1057;1056", 
                "yn": "263;488;488;655;647;263", 
                "text": "study/opt. bedroom 4", 
                "x": 927, 
                "y": 376
            }, 
            {
                "class": "Room", 
                "type": "UN", 
                "xn": "567;805;799;846;843;800;799;852;851;1057;1058;565", 
                "yn": "1081;1082;1029;1028;944;941;837;837;789;786;1631;1636", 
                "text": "storage/ opt. bedroom 5", 
                "x": 926, 
                "y": 881
            }, 
            {
                "class": "Room", 
                "type": "UN", 
                "xn": "105;105;332;332;271;272;503;505;562;567;794;792;484;481;468;467;482;481;492;491;558;559;792;787;796;795;876;872;795;794;492;492;481;478", 
                "yn": "358;773;778;860;860;1044;1042;1018;1020;1071;1072;945;944;787;787;775;773;764;763;804;801;853;857;562;561;725;726;496;497;259;262;372;374;358", 
                "text": "greatroom", 
                "x": 289, 
                "y": 557
            }, 
            {
                "class": "Room", 
                "type": "UN", 
                "xn": "484;555;555;484", 
                "yn": "806;806;853;853", 
                "text": "pantry", 
                "x": 519, 
                "y": 836
            }
        ], 
        "class": "image", 
        "filename": "85.png"
    }
]