[
    {
        "annotations": [
            {
                "class": "window",
                "height": 43.53133809108215,
                "width": 549.164572841344,
                "x": 741.7070297826691,
                "y": 597.7187576352435
            },
            {
                "class": "Text",
                "height": 58.59987819953369,
                "text": "view",
                "width": 154.03396555305983,
                "x": 932.5752044897216,
                "y": 381.73634941410506
            },
            {
                "class": "wall",
                "height": 17.000000000000455,
                "width": 185.0000000000049,
                "x": 558.0000000000149,
                "y": 369.00000000000983
            },
            {
                "class": "wall",
                "height": 61.00000000000165,
                "width": 12.000000000000227,
                "x": 728.0000000000194,
                "y": 370.00000000000983
            },
            {
                "class": "wall",
                "height": 15.000000000000398,
                "width": 185.0000000000049,
                "x": 557.0000000000149,
                "y": 418.00000000001114
            },
            {
                "class": "wall",
                "height": 62.00000000000165,
                "width": 15.000000000000341,
                "x": 557.0000000000149,
                "y": 369.00000000000983
            },
            {
                "class": "wall",
                "height": 62.713440930487195,
                "width": 14.33450078411147,
                "x": 1292.4941540340399,
                "y": 370.3079369228765
            },
            {
                "class": "wall",
                "height": 13.475177304964916,
                "width": 162.41134751773484,
                "x": 1295.0354609929427,
                "y": 370.2127659574568
            },
            {
                "class": "wall",
                "height": 13.475177304964916,
                "width": 163.829787234047,
                "x": 1293.6170212766306,
                "y": 418.439716312068
            },
            {
                "class": "wall",
                "height": 19.36949418453048,
                "width": 183.58911879250604,
                "x": 557.5045717460507,
                "y": 594.5592562729785
            },
            {
                "class": "wall",
                "height": 15.158734579197699,
                "width": 185.27342263463925,
                "x": 558.3467236671172,
                "y": 629.0874850367068
            },
            {
                "class": "wall",
                "height": 656.036346510836,
                "width": 20.21164610559697,
                "x": 556.6624198249841,
                "y": 594.5592562729785
            },
            {
                "class": "wall",
                "height": 696.4539007092385,
                "width": 20.567375886525383,
                "x": 557.4468085106535,
                "y": 1431.2056737589041
            },
            {
                "class": "wall",
                "height": 32.62411347517809,
                "width": 92.19858156028613,
                "x": 559.5744680851216,
                "y": 1507.0921985816012
            },
            {
                "class": "wall",
                "height": 46.09929078014329,
                "width": 64.53900709220034,
                "x": 579.4326241134909,
                "y": 2056.028368794382
            },
            {
                "class": "wall",
                "height": 266.6666666666738,
                "width": 18.43971631205727,
                "x": 558.8652482269655,
                "y": 2186.524822695095
            },
            {
                "class": "wall",
                "height": 265.24822695036164,
                "width": 19.858156028369308,
                "x": 556.7375886524974,
                "y": 2187.943262411407
            },
            {
                "class": "wall",
                "height": 31.20567375886594,
                "width": 114.18439716312366,
                "x": 577.3049645390228,
                "y": 2306.3829787234667
            },
            {
                "class": "wall",
                "height": 103.58468629118488,
                "width": 18.52734226346388,
                "x": 557.5045717460509,
                "y": 2760.573997256125
            },
            {
                "class": "wall",
                "height": 20.211646105597083,
                "width": 184.43127071357276,
                "x": 559.1888755881839,
                "y": 2843.947037441713
            },
            {
                "class": "wall",
                "height": 20.622705095317542,
                "width": 328.95729591067766,
                "x": 925.0037724460799,
                "y": 2842.4123535034246
            },
            {
                "class": "wall",
                "height": 423.5199436648177,
                "width": 16.095769830491804,
                "x": 995.4227654544819,
                "y": 2440.0181077411276
            },
            {
                "class": "wall",
                "height": 15.089784216086173,
                "width": 22.131683516926273,
                "x": 996.4287510688877,
                "y": 2450.077963885185
            },
            {
                "class": "wall",
                "height": 24.646647552940976,
                "width": 16.095769830491804,
                "x": 995.9257582616848,
                "y": 2324.83275489167
            },
            {
                "class": "wall",
                "height": 14.931771650115934,
                "width": 277.73095269215764,
                "x": 813.4829194983201,
                "y": 2324.57821049006
            },
            {
                "class": "wall",
                "height": 67.49160785852473,
                "width": 20.9044803101624,
                "x": 872.6127352327795,
                "y": 2270.8238325496422
            },
            {
                "class": "wall",
                "height": 77.64521258060358,
                "width": 12.542688186097507,
                "x": 879.7799856248351,
                "y": 2260.0729569615587
            },
            {
                "class": "wall",
                "height": 29.863543300232323,
                "width": 14.931771650116048,
                "x": 879.7799856248351,
                "y": 2138.8269711626167
            },
            {
                "class": "wall",
                "height": 13.73722991810655,
                "width": 208.44753223561952,
                "x": 881.5717982228491,
                "y": 2146.5914924206772
            },
            {
                "class": "wall",
                "height": 232.9356377418094,
                "width": 15.529042516120626,
                "x": 1075.6848296743572,
                "y": 2105.977073532362
            },
            {
                "class": "wall",
                "height": 326.9453246818666,
                "width": 19.616719480912025,
                "x": 1234.3443488758464,
                "y": 2534.580755495269
            },
            {
                "class": "wall",
                "height": 16.095769830491918,
                "width": 143.8559428600213,
                "x": 1108.5961470751286,
                "y": 2704.59232432984
            },
            {
                "class": "wall",
                "height": 16.598762637694563,
                "width": 23.64066193853489,
                "x": 994.9197726472797,
                "y": 2704.59232432984
            },
            {
                "class": "wall",
                "height": 17.101755444897663,
                "width": 143.8559428600213,
                "x": 1109.6021326895343,
                "y": 2448.568985463578
            },
            {
                "class": "wall",
                "height": 347.0650369699815,
                "width": 21.125697902520415,
                "x": 1232.8353704542385,
                "y": 2127.156581660944
            },
            {
                "class": "wall",
                "height": 64.53900709220034,
                "width": 21.98581560283742,
                "x": 1230.496453900745,
                "y": 3104.964539007183
            },
            {
                "class": "wall",
                "height": 43.26241134751899,
                "width": 82.26950354610153,
                "x": 1231.9148936170573,
                "y": 3126.241134751864
            },
            {
                "class": "wall",
                "height": 102.73058895279837,
                "width": 11.34814645408801,
                "x": 1248.2961099496997,
                "y": 2127.478824708531
            },
            {
                "class": "wall",
                "height": 19.112667712148777,
                "width": 63.90798266249658,
                "x": 1235.1561508975976,
                "y": 2193.775890835046
            },
            {
                "class": "wall",
                "height": 36.43352282628348,
                "width": 47.78166928037126,
                "x": 1234.558880031593,
                "y": 2193.775890835046
            },
            {
                "class": "wall",
                "height": 169.00558322016514,
                "width": 14.083798601680428,
                "x": 1428.4995724561575,
                "y": 2044.162768472473
            },
            {
                "class": "wall",
                "height": 19.616719480911797,
                "width": 24.143654745737877,
                "x": 1418.942709119303,
                "y": 2193.0486394045233
            },
            {
                "class": "wall",
                "height": 17.101755444897663,
                "width": 133.79608671596384,
                "x": 1436.0444645642006,
                "y": 2211.6593732710294
            },
            {
                "class": "wall",
                "height": 15.089784216086173,
                "width": 77.46089230924235,
                "x": 1446.6073135154609,
                "y": 2005.432322317852
            },
            {
                "class": "wall",
                "height": 41.24541019063554,
                "width": 84.50279161008257,
                "x": 1455.6611840451128,
                "y": 3126.603289573055
            },
            {
                "class": "wall",
                "height": 126.2511946079212,
                "width": 43.25738141944703,
                "x": 1496.4036014285455,
                "y": 3044.112469191784
            },
            {
                "class": "wall",
                "height": 150.39484935365863,
                "width": 23.13766913133213,
                "x": 1515.5173281022546,
                "y": 3018.9628288316403
            },
            {
                "class": "wall",
                "height": 12.071827372868938,
                "width": 215.28092148282963,
                "x": 1538.1520044263848,
                "y": 3032.040641818917
            },
            {
                "class": "wall",
                "height": 8.550877722448604,
                "width": 24.646647552940976,
                "x": 1539.6609828479934,
                "y": 3044.615461998989
            },
            {
                "class": "wall",
                "height": 7.041899300840214,
                "width": 69.4130073939964,
                "x": 1685.0259041296238,
                "y": 3045.6214476133946
            },
            {
                "class": "wall",
                "height": 358.63387153564827,
                "width": 19.616719480912025,
                "x": 1516.5233137166617,
                "y": 2560.233388662623
            },
            {
                "class": "wall",
                "height": 20.119712288115352,
                "width": 235.9036265781474,
                "x": 1517.5292993310675,
                "y": 2560.7363814698256
            },
            {
                "class": "wall",
                "height": 490.92097983000394,
                "width": 20.62270509531777,
                "x": 1732.3072280066942,
                "y": 2561.2393742770287
            },
            {
                "class": "wall",
                "height": 43.26241134751899,
                "width": 91.48936170213074,
                "x": 1690.7801418440254,
                "y": 2411.347517730573
            },
            {
                "class": "wall",
                "height": 18.107741059303407,
                "width": 169.50857602736824,
                "x": 1629.6966953373087,
                "y": 2211.15638046383
            },
            {
                "class": "wall",
                "height": 38.22745334741876,
                "width": 63.377093707561926,
                "x": 1690.0558322016536,
                "y": 2212.1623660782357
            },
            {
                "class": "wall",
                "height": 239.59267060063416,
                "width": 14.168098789477881,
                "x": 1642.7404542871361,
                "y": 1990.1118763934412
            },
            {
                "class": "wall",
                "height": 16.192112902260305,
                "width": 40.48028225565099,
                "x": 1615.9222672927674,
                "y": 2004.7859787111147
            },
            {
                "class": "wall",
                "height": 43.20682860459101,
                "width": 63.53945383028099,
                "x": 1912.5375602914628,
                "y": 2411.1104746797355
            },
            {
                "class": "wall",
                "height": 19.62028680578578,
                "width": 108.44667616288916,
                "x": 1982.3624323591262,
                "y": 2209.957759306242
            },
            {
                "class": "wall",
                "height": 15.089784216086173,
                "width": 273.1250943111604,
                "x": 1817.816005231185,
                "y": 1831.8998038328655
            },
            {
                "class": "wall",
                "height": 185.1013530506575,
                "width": 22.131683516926387,
                "x": 2067.8034304110133,
                "y": 1662.8942206126999
            },
            {
                "class": "wall",
                "height": 382.25335424297145,
                "width": 12.542688186097621,
                "x": 2077.9053428301527,
                "y": 1846.761517686356
            },
            {
                "class": "wall",
                "height": 17.918125980139394,
                "width": 14.931771650115934,
                "x": 1861.6932893364722,
                "y": 1718.3482814953577
            },
            {
                "class": "wall",
                "height": 20.119712288114897,
                "width": 182.08339620744005,
                "x": 1292.691514511385,
                "y": 594.5374981137966
            },
            {
                "class": "wall",
                "height": 17.60474825210065,
                "width": 183.59237462904866,
                "x": 1291.6855288969793,
                "y": 628.238016196389
            },
            {
                "class": "wall",
                "height": 51.808259141895974,
                "width": 76.95789950203948,
                "x": 1398.3200040239885,
                "y": 594.0345053065937
            },
            {
                "class": "wall",
                "height": 1.458679140888421,
                "width": 1.5190382777527702,
                "x": 1473.7588652482752,
                "y": 645.390070922007
            },
            {
                "class": "Wall",
                "xn": "579.0;902.0;904.0;896.0;894.0;880.0;879.0;835.974045571;863.638649967;792.716664152;782.656808008;770.081987828;749.459282732;743.926361853;738.393440974;731.85453448;740.90840501;758.513153262;759.016146069;633.267944268;578.944721091",
                "yn": "1778.0;2011.0;2026.0;2026.0;2048.0;2047.0;2040.0;2035.61189075;2038.62984759;2038.62984759;2034.60590514;2032.0909411;2032.59393391;2024.54604899;2023.03707057;2010.9652432;2006.94130074;1955.1330416;1955.1330416;1861.07338665;1885.7200342"
            },
            {
                "class": "Wall",
                "xn": "643.902139717;651.750254439;659.598369162;654.604114338;658.884904187;653.533916876;649.609859515;644.972337179",
                "yn": "2055.49259227;2052.28199989;2065.48110192;2067.26476436;2076.89654151;2081.89079634;2087.95524862;2094.3764334"
            },
            {
                "class": "Wall",
                "xn": "578.314177888;642.003843193;692.174475768;708.397315044;692.474898718;577.11248609;577.11248609;577.11248609",
                "yn": "2239.65308891;2306.34698371;2260.38227243;2267.59242322;2338.79266226;2338.79266226;2338.79266226;2338.79266226"
            },
            {
                "class": "Wall",
                "xn": "796.361154673;812.45781631;824.318514358;823.047725282;812.45781631;809.069045439",
                "yn": "2267.51130902;2338.25190095;2338.67549731;2269.62929082;2267.93490538;2261.15736364"
            },
            {
                "class": "wall",
                "height": 76.00700623669582,
                "width": 6.609304890147541,
                "x": 920.4959174278098,
                "y": 1949.4445196439485
            },
            {
                "class": "wall",
                "height": 13.819455679399425,
                "width": 143.00132398682683,
                "x": 902.4705404546804,
                "y": 2011.632070201245
            },
            {
                "class": "wall",
                "height": 17.12410812447297,
                "width": 121.6712945686237,
                "x": 921.6976092260185,
                "y": 2007.726571857067
            },
            {
                "class": "wall",
                "height": 75.40616033759147,
                "width": 6.008458991043199,
                "x": 1037.9612907027033,
                "y": 1950.345788492605
            },
            {
                "class": "wall",
                "height": 15.339496957250958,
                "width": 58.50412792997963,
                "x": 1044.1559905551874,
                "y": 2010.5442988619868
            },
            {
                "class": "wall",
                "height": 15.696229444628898,
                "width": 49.22908325815365,
                "x": 1041.6588631435418,
                "y": 1944.5487886970707
            },
            {
                "class": "wall",
                "height": 216.5366198384006,
                "width": 13.199102032983092,
                "x": 1061.9926149240837,
                "y": 1944.9055211844486
            },
            {
                "class": "wall",
                "height": 160.1728868326884,
                "width": 14.98276446987279,
                "x": 1075.5484494444447,
                "y": 1945.6189861592045
            },
            {
                "class": "Wall",
                "xn": "1091.24467889;1092.31487635;1095.52546874;1099.4495261;1104.08704843;1109.08130326;1114.43229057;1123.35060275;1134.05257737;1129.05832255;1122.99387027;1116.21595301;1109.08130326;1108.0111058;1091.24467889",
                "yn": "1962.02868058;1972.01719023;1987.71341967;2003.05291663;2014.82508871;2026.95399328;2038.36943288;2050.14160496;2063.69743948;2074.04268162;2081.53406385;2093.66296842;2104.72167553;2106.50533797;2105.07840802"
            },
            {
                "class": "Wall",
                "xn": "1068.77053218;1067.70033472;1090.53121391;1113.00536062;1145.82474946;1136.54970479;1130.84198499;1123.35060275;1115.85922052;1109.79476823;1108.72457077",
                "yn": "1846.09062218;1838.95597243;1803.63945618;1780.09511202;1814.3414308;1825.04340543;1832.53478766;1842.16656482;1853.22527193;1864.28397904;1867.13783894"
            },
            {
                "class": "Wall",
                "xn": "1244.76867936;1220.98651354;1217.95049237;1216.17948002;1213.64946238;1210.10743768;1208.5894271;1231.86558939;1231.86558939",
                "yn": "2126.73282901;2121.41979196;2133.56387664;2140.9009278;2149.75598954;2160.38206363;2166.45410597;2172.52614831;2172.52614831"
            },
            {
                "class": "Wall",
                "xn": "1498.52944875;1498.78245052;1447.67609417;1445.65208005;1441.35105007;1437.80902537;1433.76099714;1428.4479601;1428.4479601;1444.640073;1447.4230924;1451.47112063;1455.51914885;1455.77215062",
                "yn": "2004.78597871;1994.66590815;1995.17191168;2006.3039893;2015.66505457;2023.50810925;2031.85716747;2042.48324156;2044.76025744;2044.76025744;2037.67620804;2030.84516041;2021.99009867;2020.47208809"
            },
            {
                "class": "Wall",
                "xn": "1321.27659574;1312.76595745;1336.17021277;1356.02836879;1369.5035461;1387.94326241;1400.70921986;1416.31205674;1431.20567376;1445.39007092;1447.5177305;1500.0;1499.29078014;1525.53191489;1522.69503546;1454.60992908;1447.5177305;1432.62411348;1417.0212766;1416.31205674;1637.58865248;1639.71631206;1615.60283688;1616.31205674;1641.84397163;1641.13475177;1653.90070922;1656.73758865;1727.65957447;1726.95035461;1717.73049645;1717.0212766;1704.25531915;1704.25531915;1656.02836879;1656.73758865;1701.41843972;1704.25531915;1705.67375887;1717.0212766;1717.0212766;1690.78014184;1690.78014184;1677.30496454;1677.30496454;1641.13475177;1638.29787234;1391.4893617;1391.4893617;1391.4893617;1412.76595745;1600.0;1604.96453901;1611.34751773;1617.73049645;1632.62411348;1643.97163121;1665.95744681;1674.46808511;1674.46808511;1688.65248227;1689.36170213;1666.66666667;1648.22695035;1637.58865248;1626.24113475;1618.43971631;1616.31205674;1617.0212766;1598.58156028;1618.43971631;1614.89361702;1586.5248227;1418.43971631;1441.84397163;1471.63120567;1498.58156028;1638.29787234;1690.78014184;1664.53900709;1669.5035461;1695.03546099;1702.12765957;1724.82269504;1641.13475177;1609.92907801;1581.56028369;1556.73758865;1543.26241135;1530.4964539;1496.45390071;1497.87234043;1487.23404255;1487.94326241;1445.39007092;1456.02836879;1439.0070922;1473.75886525;1473.04964539;1460.28368794;1460.9929078;1473.04964539;1455.31914894;1438.29787234;1446.80851064;1466.66666667;1450.35460993;1433.33333333;1465.95744681;1444.68085106;1438.29787234;1465.95744681;1434.04255319;1401.41843972;1371.63120567;1363.12056738;1356.73758865;1352.4822695",
                "yn": "1719.85815603;1765.95744681;1775.17730496;1782.26950355;1792.19858156;1803.54609929;1814.18439716;1831.91489362;1853.90070922;1882.26950355;1892.90780142;1895.03546099;1885.81560284;1886.5248227;1870.92198582;1872.34042553;1850.35460993;1827.65957447;1812.05673759;1761.70212766;1760.9929078;1870.21276596;1870.92198582;1882.26950355;1885.81560284;1897.87234043;1898.58156028;1848.22695035;1847.5177305;1833.33333333;1834.04255319;1816.31205674;1815.60283688;1830.4964539;1831.20567376;1685.10638298;1687.23404255;1686.5248227;1694.32624113;1693.61702128;1670.92198582;1670.92198582;1666.66666667;1666.66666667;1670.92198582;1670.92198582;1736.87943262;1737.58865248;1737.58865248;1495.03546099;1402.83687943;1402.12765957;1448.93617021;1468.08510638;1483.68794326;1509.21985816;1523.40425532;1545.39007092;1551.77304965;1575.88652482;1577.30496454;1543.26241135;1526.24113475;1506.38297872;1487.23404255;1463.82978723;1436.17021277;1407.80141844;1380.14184397;1377.30496454;1350.35460993;1345.39007092;1382.9787234;1385.81560284;1307.09219858;1219.14893617;1159.57446809;1158.15602837;1236.17021277;1276.59574468;1280.85106383;1246.09929078;1265.24822695;1252.4822695;1139.71631206;1141.84397163;1132.62411348;1117.0212766;1104.25531915;1080.85106383;1078.72340426;1082.26950355;1081.56028369;1091.4893617;1112.05673759;1136.17021277;1143.26241135;1129.07801418;1111.34751773;1111.34751773;1120.56737589;1121.27659574;1135.46099291;1141.84397163;1160.28368794;1182.9787234;1221.9858156;1268.08510638;1184.39716312;1156.02836879;1143.26241135;1182.26950355;1265.24822695;1370.21276596;1502.83687943;1561.70212766;1639.0070922;1725.53191489"
            },
            {
                "class": "wall",
                "height": 5.562450132646973,
                "width": 1.2560371267268238,
                "x": 1471.7166447732782,
                "y": 1123.076625168977
            },
            {
                "class": "wall",
                "height": 4.12697913067359,
                "width": 1.0766032514800372,
                "x": 1470.1017398960582,
                "y": 1125.229831671937
            },
            {
                "class": "wall",
                "height": 4.306413005920376,
                "width": 1.6149048772201695,
                "x": 1469.3840043950713,
                "y": 1125.9475671729238
            },
            {
                "class": "wall",
                "height": 3.0503758791935525,
                "width": 1.2560371267268238,
                "x": 1467.5896656426046,
                "y": 1127.2036042996506
            },
            {
                "class": "wall",
                "height": 2.8709420039469933,
                "width": 1.0766032514800372,
                "x": 1465.2570252643977,
                "y": 1129.3568108026107
            },
            {
                "class": "wall",
                "height": 2.1532065029600744,
                "width": 1.2560371267268238,
                "x": 1461.668347759464,
                "y": 1131.1511495550776
            },
            {
                "class": "wall",
                "height": 1.9737726277135152,
                "width": 1.6149048772201695,
                "x": 1463.6421203871776,
                "y": 1129.715678553104
            },
            {
                "class": "wall",
                "height": 2.332640378206861,
                "width": 3.0503758791935525,
                "x": 1458.6179718802705,
                "y": 1131.8688850560643
            },
            {
                "class": "wall",
                "height": 2.870942003946766,
                "width": 1.4354710019736103,
                "x": 1466.692496266371,
                "y": 1126.485868798664
            },
            {
                "class": "Wall",
                "xn": "1440.06840702;1440.06840702;1455.66118405;1445.09833509;1485.84075248;1485.84075248;1531.61309793;1538.15200443;1548.21186057;1558.27171671;1570.34354409;1579.90040742;1553.24178864;1542.17594688;1531.11010513;1521.05024898;1476.28388914;1474.77491072",
                "yn": "645.842764448;925.506765253;935.566621397;955.183340878;976.309038781;987.877873346;986.871887732;973.291081938;962.728232986;952.668376842;944.620491927;938.584578241;881.243398219;885.770333484;893.8182184;900.357124893;900.8601177;628.238016196"
            },
            {
                "class": "wall",
                "height": 318.3944469594212,
                "width": 17.10175544489789,
                "x": 1455.6611840451262,
                "y": 328.45430310347876
            },
            {
                "class": "wall",
                "height": 318.3944469594212,
                "width": 6.035913686434469,
                "x": 1468.2360042251983,
                "y": 329.9632815250874
            },
            {
                "class": "wall",
                "height": 60.35913686434526,
                "width": 113.17338162064743,
                "x": 1456.164176852329,
                "y": 329.9632815250874
            },
            {
                "class": "wall",
                "height": 16.59876263769496,
                "width": 3.520949650420107,
                "x": 1568.8345656657737,
                "y": 373.2206629445348
            },
            {
                "class": "wall",
                "height": 62.116170064483356,
                "width": 94.3687968287345,
                "x": 1996.079234187533,
                "y": 328.49897630255634
            },
            {
                "class": "wall",
                "height": 16.72358424813018,
                "width": 96.75788029275304,
                "x": 1994.2874215895192,
                "y": 373.2942912529049
            },
            {
                "class": "wall",
                "height": 1902.8368794327027,
                "width": 10.6382978723409,
                "x": 2079.432624113561,
                "y": 328.36879432625466
            },
            {
                "class": "wall",
                "height": 14.184397163121162,
                "width": 362.4113475177455,
                "x": 1725.5319148936883,
                "y": 900.7092198581933
            },
            {
                "class": "wall",
                "height": 5.083156306422552,
                "width": 15.673065278136164,
                "x": 1860.858804509517,
                "y": 1826.547499441165
            },
            {
                "class": "Wall",
                "xn": "1812.78607716;1748.40299784;1748.40299784;1727.27729993;1719.73240783;1711.1815301;1697.60072431;1669.93611991;1682.00794729;1689.55283939;1692.06780343;1701.12167396;1711.68452291;1723.25335748;1730.79824959;1732.81022081;1729.28927116;1721.74437906;1724.7623359;1727.78029274;1730.29525678;1729.79226397;1727.78029274;1721.74437906;1719.73240783;1735.82817766;1734.31919924;1746.39102661;1747.90000503;1774.055631;1795.68432171;1796.69030733;1801.21724259;1804.73819224;1800.71424979;1800.71424979",
                "yn": "1089.4824204;1088.97942759;915.446909109;902.872088929;895.327196821;889.291283135;882.249383834;938.081585433;944.620491927;951.159398421;953.171369649;948.644434385;947.135455963;951.662391228;961.219254565;973.291081938;983.350938082;991.901815804;1002.46466476;1013.53050651;1028.62029073;1047.7340174;1063.32679443;1077.91358584;1085.45847794;1108.59614708;1110.1051255;1126.70388813;1124.69191691;1159.90141341;1158.8954278;1150.84754288;1150.84754288;1136.76374428;1135.75775866;1135.75775866"
            },
            {
                "class": "Wall",
                "xn": "2088.92912831;2014.98918565;2002.41436547;1984.80961722;1971.22881143;1950.60610633;1931.49237966;1902.31879684;1891.25295508;1886.72601982;1890.74996228;1888.73799105;1903.82777526;1936.52230773;1957.64800563;1979.77968915;1999.89940144;2014.48619285;2029.57597706;2023.54006338;2030.07896987;2037.62386198;2049.19269654;2063.27649515;2069.31240883;2088.92912831",
                "yn": "1106.08118304;1177.00316885;1163.92535587;1149.84155727;1139.78170112;1125.69790252;1115.63804638;1162.91937025;1160.40440622;1173.4822192;1175.99718324;1183.54207535;1193.09893869;1135.75775866;1147.82958604;1165.43433429;1184.54806096;1200.14083799;1214.72762939;1209.69770132;1218.24857905;1228.811428;1246.41617625;1271.0628238;1288.16457925;1289.17056486"
            },
            {
                "class": "Wall",
                "xn": "1841.95965998;1857.552437;1880.69010613;1900.30682561;1923.94748755;1944.06719984;1960.66596248;1976.76173231;1998.39042302;2021.52809215;2044.66576128;2062.77350234;2074.84532971;2088.92912831;2089.93511393;2066.7974448;2023.03707057;2012.97721443;1994.86947337;1975.25275389;1958.65399125;1938.53427896;1915.39660983;1875.15718525;1862.58236507",
                "yn": "1648.81042201;1642.77450832;1710.17554449;1703.636638;1693.07378904;1682.51094009;1669.93611991;1655.85232131;1639.25355867;1614.10391831;1583.92434988;1553.24178864;1525.57718425;1524.57119863;1663.39721342;1663.39721342;1636.73859464;1647.8044364;1663.39721342;1678.48699764;1690.55882501;1701.12167396;1713.19350133;1726.77430713;1730.29525678"
            },
            {
                "class": "window",
                "height": 170.61000000000723,
                "width": 15.510000000000673,
                "x": 556.9500000000238,
                "y": 428.64000000001835
            },
            {
                "class": "window",
                "height": 184.710000000008,
                "width": 14.100000000000705,
                "x": 562.590000000024,
                "y": 1249.2600000000534
            },
            {
                "class": "window",
                "height": 60.00000000000273,
                "width": 17.000000000000682,
                "x": 562.0000000000241,
                "y": 2126.000000000091
            },
            {
                "class": "window",
                "height": 159.00000000000682,
                "width": 18.000000000000796,
                "x": 562.0000000000241,
                "y": 2453.000000000105
            },
            {
                "class": "window",
                "height": 63.00000000000273,
                "width": 14.000000000000568,
                "x": 565.0000000000242,
                "y": 2696.0000000001155
            },
            {
                "class": "window",
                "height": 15.436644713150145,
                "width": 181.67743393168791,
                "x": 742.1463804399016,
                "y": 2843.904929845702
            },
            {
                "class": "window",
                "height": 12.632278815998234,
                "width": 59.792786395725216,
                "x": 1568.9290289469925,
                "y": 2211.490944720774
            },
            {
                "class": "window",
                "height": 14.249210504446182,
                "width": 182.864868140392,
                "x": 1800.1502603950262,
                "y": 2212.1899308152597
            },
            {
                "class": "window",
                "height": 21.150000000000944,
                "width": 424.4100000000187,
                "x": 1569.330000000069,
                "y": 368.0100000000162
            },
            {
                "class": "door",
                "height": 62.04000000000269,
                "width": 105.75000000000477,
                "x": 930.6000000000413,
                "y": 1892.220000000084
            },
            {
                "class": "door",
                "height": 97.41690000000438,
                "width": 109.3455000000049,
                "x": 1495.051200000067,
                "y": 984.109500000044
            },
            {
                "class": "door",
                "height": 103.38120000000481,
                "width": 103.38120000000458,
                "x": 880.7283000000394,
                "y": 2161.0647000000968
            },
            {
                "class": "door",
                "height": 101.39310000000432,
                "width": 103.38120000000458,
                "x": 789.2757000000354,
                "y": 2047.7430000000918
            },
            {
                "class": "door",
                "height": 91.45260000000417,
                "width": 107.35740000000476,
                "x": 906.5736000000406,
                "y": 2349.934200000105
            },
            {
                "class": "door",
                "height": 101.39310000000432,
                "width": 89.46450000000402,
                "x": 1021.8834000000458,
                "y": 2455.30350000011
            },
            {
                "class": "door",
                "height": 109.3455000000049,
                "width": 87.47640000000399,
                "x": 1021.8834000000458,
                "y": 2608.387200000117
            },
            {
                "class": "door",
                "height": 97.29000000000451,
                "width": 112.80000000000518,
                "x": 1422.690000000064,
                "y": 2921.5200000001314
            },
            {
                "class": "door",
                "height": 139.59000000000606,
                "width": 121.26000000000545,
                "x": 1298.6100000000583,
                "y": 2069.8800000000933
            },
            {
                "class": "door",
                "height": 111.39000000000487,
                "width": 88.83000000000402,
                "x": 1525.6200000000686,
                "y": 2003.6100000000902
            },
            {
                "class": "door",
                "height": 105.75000000000477,
                "width": 88.83000000000402,
                "x": 1524.2100000000685,
                "y": 1871.070000000084
            },
            {
                "class": "door",
                "height": 98.70000000000437,
                "width": 101.52000000000476,
                "x": 1644.0600000000738,
                "y": 1897.8600000000854
            },
            {
                "class": "door",
                "height": 123.0377983969579,
                "width": 74.65885825058149,
                "x": 1702.8192389792582,
                "y": 1693.8601759891885
            },
            {
                "class": "door",
                "height": 100.3415054887812,
                "width": 87.20154643667888,
                "x": 1729.6964279494675,
                "y": 1744.0309287335792
            },
            {
                "class": "door",
                "height": 93.17425509672557,
                "width": 105.7169432828232,
                "x": 1862.8878310685045,
                "y": 1735.669136609514
            },
            {
                "class": "Door",
                "xn": "1660.0;1735.0;1795.0;1724.0",
                "yn": "1164.0;1109.0;1195.0;1254.0"
            },
            {
                "class": "Door",
                "xn": "1800.0;1887.0;1935.0;1824.0",
                "yn": "1149.0;1176.0;1071.0;1044.0"
            },
            {
                "class": "Door",
                "xn": "1615.0;1663.0;1744.0;1679.0",
                "yn": "1345.0;1277.0;1331.0;1402.0"
            },
            {
                "class": "door",
                "height": 89.00000000000409,
                "width": 106.00000000000477,
                "x": 1582.000000000072,
                "y": 1578.0000000000719
            },
            {
                "class": "Door",
                "xn": "651.773049645;731.914893617;781.560283688;695.035460993",
                "yn": "2052.4822695;2009.92907801;2102.12765957;2148.93617021"
            },
            {
                "class": "Text",
                "height": 68.46140055939941,
                "text": "relax",
                "width": 139.28353906912287,
                "x": 930.1307524277023,
                "y": 915.9663247257575
            },
            {
                "class": "Text",
                "height": 51.93623490713048,
                "text": "eat",
                "width": 106.23320776458513,
                "x": 949.0166560302953,
                "y": 1300.7666106285888
            },
            {
                "class": "Text",
                "height": 44.85402105615822,
                "text": "cook",
                "width": 155.80870472139168,
                "x": 755.4361441037177,
                "y": 1770.5534627430882
            },
            {
                "class": "Text",
                "height": 47.21475900648238,
                "text": "splash",
                "width": 195.94124987690168,
                "x": 663.367364041077,
                "y": 2155.353748645919
            },
            {
                "class": "Text",
                "height": 68.46140055939941,
                "text": "greet",
                "width": 148.7264908704194,
                "x": 1194.5334028640034,
                "y": 1924.0014295141557
            },
            {
                "class": "Text",
                "height": 73.18287646004728,
                "text": "arrive",
                "width": 179.41608422463287,
                "x": 1279.5199690756717,
                "y": 2245.061790758236
            },
            {
                "class": "Text",
                "height": 47.21475900648238,
                "text": "w",
                "width": 75.54361441037167,
                "x": 1154.4008577084935,
                "y": 2563.761414051992
            },
            {
                "class": "Text",
                "height": 56.65771080777904,
                "text": "d",
                "width": 37.77180720518572,
                "x": 1178.0082372117347,
                "y": 2634.583552561715
            },
            {
                "class": "Text",
                "height": 73.18287646004728,
                "text": "dn",
                "width": 96.79025596328893,
                "x": 1262.9948034234028,
                "y": 2882.4610373457476
            },
            {
                "class": "Stairs",
                "xn": "1205.0;896.0;897.0;866.0;866.0;870.0;868.0;977.0;1003.0;1028.0;993.0;1018.0;1037.0;869.0;869.0;1206.0",
                "yn": "2869.0;2869.0;2976.0;2974.0;2994.0;2997.0;3099.0;3098.0;3059.0;3065.0;3027.0;3036.0;2996.0;2996.0;2979.0;2975.0"
            },
            {
                "class": "Text",
                "height": 65.6073000000033,
                "text": "sleep",
                "width": 176.94090000000813,
                "x": 707.7636000000329,
                "y": 2572.601400000119
            },
            {
                "class": "Text",
                "height": 67.59540000000311,
                "text": "grand sleep",
                "width": 304.1793000000141,
                "x": 1624.2777000000756,
                "y": 614.3229000000287
            },
            {
                "class": "Text",
                "height": 65.30888147871167,
                "text": "dress",
                "width": 147.24184187927722,
                "x": 1845.27276032578,
                "y": 990.3201300590093
            },
            {
                "class": "Text",
                "height": 59.371710435192426,
                "text": "splash",
                "width": 194.73921022743116,
                "x": 1721.7796026205797,
                "y": 1376.2362478877599
            },
            {
                "class": "Text",
                "height": 65.29700713662464,
                "text": "dress",
                "width": 149.01111885024602,
                "x": 1463.3226727541003,
                "y": 1518.5739864850902
            },
            {
                "class": "Text",
                "height": 60.27416043380731,
                "text": "study",
                "width": 177.4739168328772,
                "x": 1786.4591439686785,
                "y": 2005.7901166583663
            },
            {
                "class": "room",
                "height": 244.9554315503201,
                "width": 231.19389045198773,
                "x": 1007.3448083979463,
                "y": 2460.5635483818687
            },
            {
                "class": "room",
                "height": 134.8631027636593,
                "width": 231.19389045198773,
                "x": 1010.0971166176128,
                "y": 2716.528212810855
            },
            {
                "class": "room",
                "height": 118.34925344566022,
                "width": 187.15695893732334,
                "x": 888.9955549522859,
                "y": 2025.6988496745587
            },
            {
                "class": "room",
                "height": 371.56160965498043,
                "width": 426.6077740483106,
                "x": 1648.6326235802453,
                "y": 1844.0465071765682
            },
            {
                "class": "Room",
                "xn": "1472.48489752;1475.23720574;1519.27413726;1555.05414411;1568.81568521;1541.29260301;1522.02644548;1524.7787537;1544.04491123;1574.32030165;1596.33876741;1632.11877426;1654.13724002;1659.64185646;1742.21110305;1725.69725373;1728.44956195;1739.45879483;1739.45879483;1728.44956195;1725.69725373;1725.69725373;1728.44956195;1725.69725373;1687.16493866;1673.40339756;1676.15570578;1703.67878797;1703.67878797;1736.70648661;2075.24039763;2083.49732229",
                "yn": "382.570842534;905.50940427;905.50940427;883.490938513;935.784794687;966.060185103;982.574034421;1084.40943855;1122.94175362;1125.69406184;1144.96021938;1144.96021938;1158.72176048;1175.2356098;1103.67559609;1087.16174677;1056.88635635;1040.37250703;1018.35404128;1010.09711662;990.83095908;979.821726201;971.564801542;938.537102906;952.298644005;949.546335785;930.280178247;894.500171392;875.234013854;905.50940427;900.004787831;390.827767193"
            },
            {
                "class": "Room",
                "xn": "1747.03252241;1750.9365057;1809.49625506;1803.64028012;1909.04782896;1934.42372035;1967.60757831;1983.22351148;2020.31135273;2082.77508538;2078.87110209",
                "yn": "909.628106642;1098.97129622;1097.01930458;1130.20316254;1173.14697874;1124.34718761;1136.05913748;1151.67507064;1180.95494532;1124.34718761;913.532089932"
            },
            {
                "class": "Room",
                "xn": "1606.48912396;1702.13671457;1774.36040544;1788.02434696;1903.19185402;1938.32770364;1987.12749477;2002.74342793;2030.07131096;2055.44720235;2067.15915222;2069.11114386;2076.91911044;2035.9272859;2024.21533602;2008.59940286;1985.17550312;1965.65558667;1944.18367857;1922.71177048;1893.4318958;1877.81596264;1856.34405454;1836.82413809;1862.20002948;1868.05600441;1707.99268951;1721.65663103;1694.32874799;1686.52078141;1653.33692345;1641.62497357;1624.05704877;1616.24908219;1606.48912396",
                "yn": "1372.25012654;1251.22664454;1151.67507064;1149.723079;1184.85892861;1138.01112912;1153.62706229;1192.66689519;1202.42685341;1235.61071138;1266.8425777;1284.41050251;1536.21742474;1604.53713232;1614.29709054;1626.00904041;1653.33692345;1653.33692345;1672.8568399;1686.52078141;1698.23273128;1713.84866444;1649.43294015;1651.3849318;1729.46459761;1838.77612973;1834.87214644;1680.66480648;1670.90484825;1540.12140803;1512.79352499;1491.3216169;1462.04174222;1415.19394274;1389.81805135"
            },
            {
                "class": "Room",
                "xn": "1417.14593438;1391.77004299;1395.67402628;1641.62497357;1647.48094851;1684.56878977;1676.76082319;1651.3849318;1637.72099028;1626.00904041;1610.39310725;1610.39310725;1602.58514067;1602.58514067",
                "yn": "1403.48199287;1487.41763361;1739.22455583;1735.32057254;1668.95285661;1668.95285661;1553.78534954;1528.40945816;1503.03356677;1485.46564196;1463.99373387;1436.66585083;1409.3379678;1403.48199287"
            },
            {
                "class": "Room",
                "xn": "1877.81596264;1924.66376212;1944.18367857;1963.70359502;1987.12749477;2006.64741122;2016.40736944;2067.15915222;2074.9671188;1871.9599877",
                "yn": "1729.46459761;1709.94468115;1704.08870622;1688.47277306;1672.8568399;1649.43294015;1631.86501535;1661.14489003;1830.96816315;1840.72812138"
            },
            {
                "class": "Room",
                "xn": "1440.56983412;1460.08975057;1639.67298193;1649.43294015;1444.47381741",
                "yn": "2041.78326083;2014.4553778;2022.26334438;2225.27047548;2217.46250889"
            },
            {
                "class": "Room",
                "xn": "1416.79817949;1416.2117564;1429.11306433;1432.04517977;1444.94648769;1447.87860313;1451.39714166;1453.74283401;1644.33033746;1637.29326041",
                "yn": "1758.68283953;1816.15230211;1820.84368681;1827.88076386;1840.19564869;1853.68337971;1863.6525722;1870.10322616;1870.68964925;1761.61495496"
            },
            {
                "class": "Room",
                "xn": "1003.63409642;579.46541364;577.147551985;693.040634713;704.629942986;697.676358022;642.047678313;584.101136949;581.783275294;637.411955004;651.319124931;741.715729459;792.708685859;857.608812187;890.058875351;885.423152042;885.423152042;998.998373115",
                "yn": "2846.3341118;2846.3341118;2343.35813276;2341.0402711;2276.14014478;2264.5508365;2313.22593125;2236.73649665;2097.66479738;2102.30052069;2062.89687256;2014.22177781;2032.76467105;2037.40039436;2037.40039436;2164.88278536;2341.0402711;2341.0402711"
            },
            {
                "class": "Room",
                "xn": "1316.54541979;1362.90265288;1397.6705777;1434.75636417;1446.34567245;1513.56366043;1599.32454165;1645.68177474;1641.04605143;1446.34567245;1432.43850252;1437.07422583;1256.28101677;1249.32743181;1214.55950699;1207.60592203;1235.42026188;1008.26981973;1003.63409642;1094.03070095;1084.75925433;910.919630242;894.69459866;584.101136949;579.46541364;1441.70994914;1439.39208748;1455.61711906;1446.34567245;1513.56366043;1518.19938374;1446.34567245;1460.25284237;1439.39208748;1471.84215065;1427.80277921;1397.6705777;1369.85623784;1353.63120626;1353.63120626;1321.1811431",
                "yn": "1754.6212725;1782.43561236;1803.29636725;1854.28932365;1896.01083343;1889.05724847;1889.05724847;1889.05724847;2009.5860545;2011.90391616;2051.30756429;2211.24001845;2199.65071018;2134.75058385;2130.11486054;2167.20064701;2452.29763052;2456.93335383;2343.35813276;2336.4045478;1947.00378983;1942.36806652;2002.63246954;1780.1177507;632.776231695;646.683401622;917.873215205;931.780385133;954.959001678;994.362649806;1082.44139268;1114.89145584;1145.02365735;1145.02365735;1186.74516713;1295.6846649;1395.35271604;1541.37800028;1673.49611459;1733.76051761;1722.17120934"
            },
            {
                "class": "room",
                "height": 447.3472993299515,
                "width": 190.06465567386545,
                "x": 1541.3780002819574,
                "y": 2582.0978831790985
            }
        ],
        "class": "image",
        "filename": "95.png"
    }
]
