[
    {
        "annotations": [
            {
                "class": "Room", 
                "type": "UN", 
                "xn": "1153;1670;1670;1153", 
                "yn": "68;68;489;489", 
                "text": "masterbdrm", 
                "x": 1417, 
                "y": 273
            }, 
            {
                "class": "Room", 
                "type": "UN", 
                "xn": "511;758;758;511", 
                "yn": "71;71;478;478", 
                "text": "ba.2", 
                "x": 661, 
                "y": 284
            }, 
            {
                "class": "Room", 
                "type": "UN", 
                "xn": "371;500;500;371", 
                "yn": "55;55;335;335", 
                "text": "opt. laundry", 
                "x": 430, 
                "y": 247
            }, 
            {
                "class": "Room", 
                "type": "UN", 
                "xn": "765;762;900;908;1136;1120", 
                "yn": "63;377;371;484;470;77", 
                "text": "master ba.", 
                "x": 910, 
                "y": 221
            }, 
            {
                "class": "Room", 
                "type": "UN", 
                "xn": "22;357;357;498;492;1436;1433;1332;1332;1122;1109;911;919;1001;999;542;542;522;528;16", 
                "yn": "63;63;335;344;498;495;644;638;718;732;671;674;825;828;1095;1095;1012;1001;1087;1087", 
                "text": "foyer", 
                "x": 152, 
                "y": 230
            }, 
            {
                "class": "Room", 
                "type": "UN", 
                "xn": "927;1103;1103;927", 
                "yn": "682;682;811;811", 
                "text": "hvac", 
                "x": 1029, 
                "y": 753
            }, 
            {
                "class": "Room", 
                "type": "UN", 
                "xn": "1106;1115;1681;1677;1724;1740;1341;1336", 
                "yn": "728;1095;1088;1000;997;655;657;728", 
                "text": "bdrm.2", 
                "x": 1428, 
                "y": 873
            }, 
            {
                "class": "Room", 
                "type": "UN", 
                "xn": "762;899;899;762", 
                "yn": "429;429;483;483", 
                "text": "pantry", 
                "x": 826, 
                "y": 449
            }
        ], 
        "class": "image", 
        "filename": "99.png"
    }
]