contour_details : [1250 1465],[1250 1564],[1359 1564],[1359 1465]
contour_details : [1190 1330],[1190 1439],[1289 1439],[1289 1330]
contour_details : [1075 1210],[1075 1319],[1174 1319],[1174 1210]
contour_details : [1655 1060],[1655 1244],[1704 1244],[1705 1245],[1705 1289],[1939 1289],[1939 1190],[1755 1190],[1754 1189],[1754 1060]
contour_details : [1950 790],[1950 889],[2359 889],[2359 790]
