[
    {
        "annotations": [
            {
                "class": "Room", 
                "type": "single", 
                "xn": "562;562;561;561;562;563;563;564;564;565;565;566;566;567;567;568;568;569;569;570;570;571;571;572;572;682;682;683;683;684;796;797;896;896", 
                "yn": "1124;1205;1206;1275;1275;1276;1374;1375;1382;1383;1391;1392;1399;1400;1408;1409;1417;1418;1425;1426;1434;1435;1442;1443;1458;1458;1358;1357;1335;1334;1334;1333;1333;1124", 
                "text": "cellar", 
                "x": 713, 
                "y": 1230
            }, 
            {
                "class": "Door", 
                "xn": "797;897;897;797", 
                "yn": "1334;1334;1341;1341"
            }, 
            {
                "class": "Door", 
                "xn": "683;692;692;683", 
                "yn": "1358;1358;1565;1565"
            }, 
            {
                "class": "Door", 
                "xn": "1257;1268;1268;1257", 
                "yn": "1328;1328;1423;1423"
            }, 
            {
                "class": "Door", 
                "xn": "896;904;904;896", 
                "yn": "1340;1340;1441;1441"
            }, 
            {
                "class": "Window", 
                "xn": "570;873;873;570", 
                "yn": "2131;2131;2174;2174"
            }, 
            {
                "class": "Window", 
                "xn": "1034;1127;1127;1034", 
                "yn": "1080;1080;1123;1123"
            }, 
            {
                "class": "Window", 
                "xn": "1016;1298;1298;1016", 
                "yn": "2131;2131;2174;2174"
            }, 
            {
                "class": "Window", 
                "xn": "1282;1299;1299;1282", 
                "yn": "1328;1328;1423;1423"
            }, 
            {
                "class": "Window", 
                "xn": "519;561;561;519", 
                "yn": "1204;1204;1276;1276"
            }, 
            {
                "class": "Window", 
                "xn": "1375;1418;1418;1375", 
                "yn": "1730;1730;1872;1872"
            }, 
            {
                "class": "Window", 
                "xn": "541;571;562;520", 
                "yn": "1445;1447;1370;1370"
            }, 
            {
                "class": "Wall", 
                "xn": "519;1035;1035;519", 
                "yn": "1081;1081;1123;1123"
            }, 
            {
                "class": "Wall", 
                "xn": "529;571;571;529", 
                "yn": "1447;1447;2174;2174"
            }, 
            {
                "class": "Wall", 
                "xn": "1257;1418;1418;1257", 
                "yn": "1440;1440;1484;1484"
            }, 
            {
                "class": "Wall", 
                "xn": "873;1017;1017;873", 
                "yn": "2132;2132;2174;2174"
            }, 
            {
                "class": "Wall", 
                "xn": "1298;1418;1418;1298", 
                "yn": "2131;2131;2174;2174"
            }, 
            {
                "class": "Wall", 
                "xn": "1127;1418;1418;1127", 
                "yn": "1081;1081;1123;1123"
            }, 
            {
                "class": "Wall", 
                "xn": "1258;1299;1299;1258", 
                "yn": "1081;1081;1329;1329"
            }, 
            {
                "class": "Wall", 
                "xn": "1376;1418;1418;1376", 
                "yn": "1441;1441;1731;1731"
            }, 
            {
                "class": "Wall", 
                "xn": "1376;1418;1418;1376", 
                "yn": "1872;1872;2174;2174"
            }, 
            {
                "class": "Wall", 
                "xn": "520;561;561;520", 
                "yn": "1081;1081;1205;1205"
            }, 
            {
                "class": "Wall", 
                "xn": "520;562;562;520", 
                "yn": "1276;1276;1370;1370"
            }, 
            {
                "class": "Wall", 
                "xn": "897;921;921;897", 
                "yn": "1441;1441;1683;1683"
            }, 
            {
                "class": "Wall", 
                "xn": "520;540;540;520", 
                "yn": "1441;1441;2174;2174"
            }, 
            {
                "class": "Wall", 
                "xn": "519;592;592;519", 
                "yn": "2131;2131;2174;2174"
            }, 
            {
                "class": "Wall", 
                "xn": "897;904;904;897", 
                "yn": "1081;1081;1341;1341"
            }, 
            {
                "class": "Wall", 
                "xn": "520;526;526;520", 
                "yn": "2175;2175;2351;2351"
            }, 
            {
                "class": "Wall", 
                "xn": "519;775;775;519", 
                "yn": "1676;1676;1683;1683"
            }, 
            {
                "class": "Wall", 
                "xn": "519;781;781;519", 
                "yn": "1459;1459;1465;1465"
            }, 
            {
                "class": "Wall", 
                "xn": "1270;1280;1280;1270", 
                "yn": "1429;1429;1483;1483"
            }, 
            {
                "class": "Wall", 
                "xn": "1258;1268;1268;1258", 
                "yn": "1423;1423;1483;1483"
            }, 
            {
                "class": "Wall", 
                "xn": "1283;1299;1299;1283", 
                "yn": "1423;1423;1483;1483"
            }, 
            {
                "class": "Wall", 
                "xn": "519;692;692;519", 
                "yn": "1351;1351;1360;1360"
            }, 
            {
                "class": "Wall", 
                "xn": "556;561;561;556", 
                "yn": "1441;1441;2174;2174"
            }, 
            {
                "class": "Wall", 
                "xn": "684;798;798;684", 
                "yn": "1335;1335;1342;1342"
            }, 
            {
                "class": "Wall", 
                "xn": "660;775;775;660", 
                "yn": "1565;1565;1571;1571"
            }, 
            {
                "class": "Stair", 
                "xn": "560;561;771;772;772;771;661;661;660;660;715;716;771;772;772;771;561;560", 
                "yn": "1465;1464;1464;1465;1563;1564;1564;1569;1570;1575;1575;1576;1576;1577;1675;1676;1676;1675"
            }, 
            {
                "class": "Text", 
                "height": 25, 
                "width": 133, 
                "x": 647, 
                "y": 1218, 
                "text": "cellier"
            }, 
            {
                "class": "Text", 
                "height": 63, 
                "width": 174, 
                "x": 1353, 
                "y": 1218, 
                "text": "terrassecouverte"
            }, 
            {
                "class": "Text", 
                "height": 25, 
                "width": 127, 
                "x": 1013, 
                "y": 1285, 
                "text": "cuisine"
            }, 
            {
                "class": "Text", 
                "height": 25, 
                "width": 55, 
                "x": 657, 
                "y": 1386, 
                "text": "wc"
            }, 
            {
                "class": "Text", 
                "height": 25, 
                "width": 106, 
                "x": 1061, 
                "y": 1628, 
                "text": "repas"
            }, 
            {
                "class": "Text", 
                "height": 25, 
                "width": 131, 
                "x": 1029, 
                "y": 1929, 
                "text": "sejour"
            }, 
            {
                "class": "Text", 
                "height": 25, 
                "width": 216, 
                "x": 599, 
                "y": 2195, 
                "text": "balconbois"
            }, 
            {
                "class": "Text", 
                "height": 94, 
                "width": 25, 
                "x": 826, 
                "y": 1561, 
                "text": "degt"
            }
        ], 
        "class": "image", 
        "filename": "fp_23.png"
    }
]