[
    {
        "annotations": [
            {
                "class": "Room", 
                "type": "single", 
                "xn": "1434;1433;1203;1203;1204;1204;1203;1203;1295;1296;1531;1531;1530;1530;1531;1531", 
                "yn": "1007;1008;1008;1472;1473;1480;1481;1525;1525;1524;1524;1163;1162;1119;1118;1007", 
                "text": "bedroom 1", 
                "x": 1388, 
                "y": 1160
            }, 
            {
                "class": "Room", 
                "type": "single", 
                "xn": "607;607;606;606;607;607;1045;1045;1046;1046;1047;1047", 
                "yn": "412;546;547;687;688;781;781;681;680;676;675;412", 
                "text": "bedroom 2", 
                "x": 830, 
                "y": 569
            }, 
            {
                "class": "Room", 
                "type": "single", 
                "xn": "1676;1675;1427;1427;1861;1861;1862;1862;1815;1814", 
                "yn": "411;412;412;780;780;764;763;412;412;411", 
                "text": "bedroom 3", 
                "x": 1580, 
                "y": 581
            }, 
            {
                "class": "Room", 
                "type": "single", 
                "xn": "1157;1156;1055;1055;1203;1204;1300;1301;1315;1316;1316;1315;1301;1300;1300;1204;1203;1053;1053;1201;1202;1306;1307;1419;1419;1224;1223", 
                "yn": "411;412;412;675;675;676;676;677;677;678;683;684;684;683;682;682;683;683;781;781;780;780;781;781;412;412;411", 
                "text": "unknown room", 
                "x": 1237, 
                "y": 595
            }, 
            {
                "class": "Room", 
                "type": "single", 
                "xn": "2426;2425;2095;2095;2094;2094;2624;2625;2694;2695;2872;2872;2871;2871;2872;2872;2494;2493", 
                "yn": "393;394;394;672;673;764;764;763;763;764;764;723;722;439;438;394;394;393", 
                "text": "garage", 
                "x": 2417, 
                "y": 578
            }, 
            {
                "class": "Room", 
                "type": "single", 
                "xn": "1978;1978;1977;1888;1888;2074;2075;2086;2086;2087;2087;2045;2044", 
                "yn": "393;411;412;412;763;763;764;764;671;670;394;394;393", 
                "text": "cellar", 
                "x": 2002, 
                "y": 569
            }, 
            {
                "class": "Door", 
                "xn": "1202;1307;1307;1202", 
                "yn": "781;781;788;788"
            }, 
            {
                "class": "Door", 
                "xn": "1432;1532;1532;1432", 
                "yn": "1000;1000;1007;1007"
            }, 
            {
                "class": "Door", 
                "xn": "1598;1703;1703;1598", 
                "yn": "1118;1118;1161;1161"
            }, 
            {
                "class": "Door", 
                "xn": "1202;1301;1301;1202", 
                "yn": "677;677;682;682"
            }, 
            {
                "class": "Door", 
                "xn": "1976;2075;2075;1976", 
                "yn": "764;764;788;788"
            }, 
            {
                "class": "Door", 
                "xn": "1426;1526;1526;1426", 
                "yn": "781;781;788;788"
            }, 
            {
                "class": "Door", 
                "xn": "1786;1794;1794;1786", 
                "yn": "787;787;889;889"
            }, 
            {
                "class": "Door", 
                "xn": "1195;1203;1203;1195", 
                "yn": "805;805;899;899"
            }, 
            {
                "class": "Door", 
                "xn": "2087;2094;2094;2087", 
                "yn": "671;671;765;765"
            }, 
            {
                "class": "Door", 
                "xn": "1046;1053;1053;1046", 
                "yn": "681;681;782;782"
            }, 
            {
                "class": "Door", 
                "xn": "1195;1202;1202;1195", 
                "yn": "907;907;1001;1001"
            }, 
            {
                "class": "Window", 
                "xn": "1296;1437;1437;1296", 
                "yn": "1525;1525;1568;1568"
            }, 
            {
                "class": "Window", 
                "xn": "2424;2494;2494;2424", 
                "yn": "368;368;393;393"
            }, 
            {
                "class": "Window", 
                "xn": "2052;2193;2193;2052", 
                "yn": "1118;1118;1161;1161"
            }, 
            {
                "class": "Window", 
                "xn": "2625;2695;2695;2625", 
                "yn": "764;764;788;788"
            }, 
            {
                "class": "Window", 
                "xn": "712;853;853;712", 
                "yn": "1525;1525;1568;1568"
            }, 
            {
                "class": "Window", 
                "xn": "1976;2045;2045;1976", 
                "yn": "368;368;393;393"
            }, 
            {
                "class": "Window", 
                "xn": "2872;2897;2897;2872", 
                "yn": "439;439;723;723"
            }, 
            {
                "class": "Window", 
                "xn": "2411;2454;2454;2411", 
                "yn": "882;882;1024;1024"
            }, 
            {
                "class": "Window", 
                "xn": "1155;1224;1224;1155", 
                "yn": "368;368;411;411"
            }, 
            {
                "class": "Window", 
                "xn": "1674;1815;1815;1674", 
                "yn": "368;368;411;411"
            }, 
            {
                "class": "Window", 
                "xn": "563;606;606;563", 
                "yn": "545;545;688;688"
            }, 
            {
                "class": "Window", 
                "xn": "564;624;606;564", 
                "yn": "1084;1084;942;942"
            }, 
            {
                "class": "Wall", 
                "xn": "2411;2455;2455;2411", 
                "yn": "765;765;883;883"
            }, 
            {
                "class": "Wall", 
                "xn": "563;1156;1156;563", 
                "yn": "369;369;411;411"
            }, 
            {
                "class": "Wall", 
                "xn": "1532;1574;1574;1532", 
                "yn": "1119;1119;1568;1568"
            }, 
            {
                "class": "Wall", 
                "xn": "564;606;606;564", 
                "yn": "369;369;546;546"
            }, 
            {
                "class": "Wall", 
                "xn": "853;1297;1297;853", 
                "yn": "1526;1526;1568;1568"
            }, 
            {
                "class": "Wall", 
                "xn": "1815;1977;1977;1815", 
                "yn": "369;369;411;411"
            }, 
            {
                "class": "Wall", 
                "xn": "564;606;606;564", 
                "yn": "688;688;942;942"
            }, 
            {
                "class": "Wall", 
                "xn": "1224;1675;1675;1224", 
                "yn": "369;369;411;411"
            }, 
            {
                "class": "Wall", 
                "xn": "1941;2053;2053;1941", 
                "yn": "1119;1119;1161;1161"
            }, 
            {
                "class": "Wall", 
                "xn": "2193;2455;2455;2193", 
                "yn": "1119;1119;1161;1161"
            }, 
            {
                "class": "Wall", 
                "xn": "2412;2454;2454;2412", 
                "yn": "1024;1024;1161;1161"
            }, 
            {
                "class": "Wall", 
                "xn": "1437;1575;1575;1437", 
                "yn": "1525;1525;1568;1568"
            }, 
            {
                "class": "Wall", 
                "xn": "1703;1875;1875;1703", 
                "yn": "1119;1119;1161;1161"
            }, 
            {
                "class": "Wall", 
                "xn": "563;713;713;563", 
                "yn": "1525;1525;1568;1568"
            }, 
            {
                "class": "Wall", 
                "xn": "1863;1887;1887;1863", 
                "yn": "369;369;788;788"
            }, 
            {
                "class": "Wall", 
                "xn": "2494;2898;2898;2494", 
                "yn": "369;369;393;393"
            }, 
            {
                "class": "Wall", 
                "xn": "2045;2425;2425;2045", 
                "yn": "369;369;393;393"
            }, 
            {
                "class": "Wall", 
                "xn": "2873;2897;2897;2873", 
                "yn": "723;723;788;788"
            }, 
            {
                "class": "Wall", 
                "xn": "2873;2897;2897;2873", 
                "yn": "369;369;440;440"
            }, 
            {
                "class": "Wall", 
                "xn": "2075;2626;2626;2075", 
                "yn": "765;765;788;788"
            }, 
            {
                "class": "Wall", 
                "xn": "2695;2898;2898;2695", 
                "yn": "765;765;788;788"
            }, 
            {
                "class": "Wall", 
                "xn": "1862;1977;1977;1862", 
                "yn": "764;764;788;788"
            }, 
            {
                "class": "Wall", 
                "xn": "564;624;624;564", 
                "yn": "1084;1084;1568;1568"
            }, 
            {
                "class": "Wall", 
                "xn": "1531;1599;1599;1531", 
                "yn": "1119;1119;1162;1162"
            }, 
            {
                "class": "Wall", 
                "xn": "1048;1054;1054;1048", 
                "yn": "369;369;682;682"
            }, 
            {
                "class": "Wall", 
                "xn": "1143;1149;1149;1143", 
                "yn": "1473;1473;1568;1568"
            }, 
            {
                "class": "Wall", 
                "xn": "1196;1202;1202;1196", 
                "yn": "1001;1001;1568;1568"
            }, 
            {
                "class": "Wall", 
                "xn": "563;1203;1203;563", 
                "yn": "782;782;788;788"
            }, 
            {
                "class": "Wall", 
                "xn": "1420;1426;1426;1420", 
                "yn": "369;369;788;788"
            }, 
            {
                "class": "Wall", 
                "xn": "1532;1539;1539;1532", 
                "yn": "1001;1001;1568;1568"
            }, 
            {
                "class": "Wall", 
                "xn": "1786;1793;1793;1786", 
                "yn": "889;889;1161;1161"
            }, 
            {
                "class": "Wall", 
                "xn": "1526;1977;1977;1526", 
                "yn": "781;781;788;788"
            }, 
            {
                "class": "Wall", 
                "xn": "2088;2094;2094;2088", 
                "yn": "369;369;672;672"
            }, 
            {
                "class": "Wall", 
                "xn": "1047;1203;1203;1047", 
                "yn": "676;676;682;682"
            }, 
            {
                "class": "Wall", 
                "xn": "1142;1203;1203;1142", 
                "yn": "1473;1473;1480;1480"
            }, 
            {
                "class": "Wall", 
                "xn": "1195;1433;1433;1195", 
                "yn": "1001;1001;1007;1007"
            }, 
            {
                "class": "Wall", 
                "xn": "1307;1427;1427;1307", 
                "yn": "782;782;788;788"
            }, 
            {
                "class": "Wall", 
                "xn": "1709;1794;1794;1709", 
                "yn": "889;889;895;895"
            }, 
            {
                "class": "Wall", 
                "xn": "1308;1314;1314;1308", 
                "yn": "676;676;788;788"
            }, 
            {
                "class": "Wall", 
                "xn": "1875;1941;1941;1875", 
                "yn": "1161;1161;1119;1119"
            }, 
            {
                "class": "Text", 
                "height": 30, 
                "width": 233, 
                "x": 714, 
                "y": 554, 
                "text": "chambre 2"
            }, 
            {
                "class": "Text", 
                "height": 31, 
                "width": 233, 
                "x": 1464, 
                "y": 566, 
                "text": "chambre 3"
            }, 
            {
                "class": "Text", 
                "height": 31, 
                "width": 166, 
                "x": 1919, 
                "y": 554, 
                "text": "cellier"
            }, 
            {
                "class": "Text", 
                "height": 42, 
                "width": 170, 
                "x": 2332, 
                "y": 557, 
                "text": "garage"
            }, 
            {
                "class": "Text", 
                "height": 30, 
                "width": 98, 
                "x": 1400, 
                "y": 897, 
                "text": "hall"
            }, 
            {
                "class": "Text", 
                "height": 31, 
                "width": 160, 
                "x": 2043, 
                "y": 908, 
                "text": "cuisine"
            }, 
            {
                "class": "Text", 
                "height": 31, 
                "width": 162, 
                "x": 820, 
                "y": 1162, 
                "text": "sejour"
            }, 
            {
                "class": "Text", 
                "height": 30, 
                "width": 227, 
                "x": 1275, 
                "y": 1145, 
                "text": "chambre 1"
            }, 
            {
                "class": "Unknown", 
                "xn": "1187;1286;1286;1187", 
                "yn": "570;570;619;619"
            }
        ], 
        "class": "image", 
        "filename": "fp_3.png"
    }
]