[
    {
        "annotations": [
            {
                "class": "Room", 
                "type": "single", 
                "xn": "300;299;275;281;281;286;286;284;273;273;274;274;275;275;276;276;277;277;279;279;280;280;278;277;276;276;274;274;273;273;271;265;265;263;262;260;260;258;258;258;256;255;254;254;252;252;250;250;249;249;249;248;248;247;247;246;246;245;245;244;244;243;243;242;242;241;241;240;240;241;241;243;243;245;245;245;244;244;243;243;242;242;241;241;243;244;252;253;256;256;257;257;258;258;259;259;259;261;265;265;275;276;278;278;279;280;281;281;283;284;285;286;287;288;290;293;293;295;296;307;307;305;297;297;295;294;293;292;291;290;289;288;288;287;287;285;285;284;284;282;282;280;279;278;277;276;275;274;273;272;271;270;269;268;267;266;265;263;262;254;253;253;251;251;250;250;248;248;247;240;240;321;321;302;300;302;314;314;315;315;316;316;317;317;318;318;319;319;320;320;319;317;316;315;314;313;312;310;309;307;307;308;308;309;309;310;310;311;311;312;312;313;313;314;314;315;315;316;316;317;317;318;318;319;319;320;320;321;321;323;335;335", 
                "yn": "1323;1324;1324;1330;1331;1336;1337;1339;1339;1340;1341;1342;1343;1344;1345;1346;1347;1348;1350;1351;1352;1353;1355;1355;1354;1353;1351;1350;1349;1355;1357;1357;1362;1364;1364;1362;1361;1359;1358;1359;1361;1361;1360;1359;1357;1356;1354;1353;1352;1351;1355;1356;1361;1362;1367;1368;1373;1374;1379;1380;1385;1386;1391;1392;1397;1398;1403;1404;1406;1407;1408;1410;1411;1413;1414;1413;1412;1410;1409;1406;1405;1403;1402;1401;1399;1399;1407;1407;1410;1412;1413;1416;1417;1419;1420;1422;1412;1410;1410;1407;1397;1397;1399;1491;1492;1492;1493;1491;1489;1489;1490;1490;1491;1491;1493;1493;1485;1483;1483;1494;1495;1497;1497;1498;1500;1500;1499;1499;1498;1498;1497;1497;1498;1499;1500;1502;1503;1504;1505;1507;1513;1515;1514;1514;1513;1513;1512;1512;1511;1511;1510;1510;1509;1509;1508;1508;1507;1507;1508;1508;1507;1506;1504;1503;1502;1501;1499;1498;1498;1505;1587;1587;1472;1472;1470;1468;1468;1467;1466;1464;1463;1461;1460;1458;1457;1456;1455;1453;1452;1451;1452;1452;1453;1453;1454;1454;1455;1455;1456;1454;1451;1450;1444;1443;1436;1435;1429;1428;1421;1420;1414;1413;1407;1406;1399;1398;1392;1391;1385;1384;1377;1376;1370;1369;1363;1362;1355;1354;1351;1349;1349;1323", 
                "text": "closet", 
                "x": 288, 
                "y": 1455
            }, 
            {
                "class": "Room", 
                "type": "single", 
                "xn": "958;957;869;869;1014;1015;1155;1156;1315;1315;1055;1054", 
                "yn": "1890;1891;1891;2267;2267;2266;2266;2267;2267;1891;1891;1890", 
                "text": "bedroom 3", 
                "x": 1087, 
                "y": 2104
            }, 
            {
                "class": "Room", 
                "type": "single", 
                "xn": "763;762;427;427;712;713;861;861;860", 
                "yn": "1890;1891;1891;2266;2266;2267;2267;1891;1890", 
                "text": "bedroom 2", 
                "x": 591, 
                "y": 2098
            }, 
            {
                "class": "Room", 
                "type": "single", 
                "xn": "762;762;861;862;961;961;950;949;949;904;903", 
                "yn": "1454;1777;1777;1776;1776;1572;1572;1571;1455;1455;1454", 
                "text": "bathroom", 
                "x": 891, 
                "y": 1613
            }, 
            {
                "class": "Room", 
                "type": "single", 
                "xn": "426;426;425;425;426;427;427;753;753;754;754", 
                "yn": "1454;1589;1590;1729;1729;1730;1883;1883;1778;1777;1454", 
                "text": "bedroom 1", 
                "x": 588, 
                "y": 1667
            }, 
            {
                "class": "Room", 
                "type": "single", 
                "xn": "1324;1324;1323;1323;1421;1422;1675;1675", 
                "yn": "1283;1423;1424;1563;1563;1564;1564;1283", 
                "text": "office", 
                "x": 1509, 
                "y": 1466
            }, 
            {
                "class": "Room", 
                "type": "single", 
                "xn": "970;971;1065;1066;1066;1065;971;970", 
                "yn": "1574;1573;1573;1574;1782;1783;1783;1782", 
                "text": "toilet", 
                "x": 1026, 
                "y": 1726
            }, 
            {
                "class": "Room", 
                "type": "single", 
                "xn": "1702;1703;2027;2028;2028;2027;2011;2010;2010;2009;1703;1702", 
                "yn": "1259;1258;1258;1259;1339;1340;1340;1341;1390;1391;1391;1390", 
                "text": "cellar", 
                "x": 1841, 
                "y": 1300
            }, 
            {
                "class": "Room", 
                "type": "single", 
                "xn": "1307;1308;2027;2028;2028;2027;1325;1324;1324;1323;1308;1307", 
                "yn": "789;788;788;789;1255;1256;1256;1255;1216;1215;1215;1214", 
                "text": "garage", 
                "x": 1691, 
                "y": 922
            }, 
            {
                "class": "Door", 
                "xn": "862;962;962;862", 
                "yn": "1777;1777;1784;1784"
            }, 
            {
                "class": "Door", 
                "xn": "761;861;861;761", 
                "yn": "1883;1883;1890;1890"
            }, 
            {
                "class": "Door", 
                "xn": "1699;1799;1799;1699", 
                "yn": "1393;1393;1418;1418"
            }, 
            {
                "class": "Door", 
                "xn": "1321;1422;1422;1321", 
                "yn": "1564;1564;1571;1571"
            }, 
            {
                "class": "Door", 
                "xn": "1163;1273;1273;1163", 
                "yn": "1529;1529;1571;1571"
            }, 
            {
                "class": "Door", 
                "xn": "956;1055;1055;956", 
                "yn": "1883;1883;1890;1890"
            }, 
            {
                "class": "Door", 
                "xn": "1067;1074;1074;1067", 
                "yn": "1676;1676;1778;1778"
            }, 
            {
                "class": "Door", 
                "xn": "754;761;761;754", 
                "yn": "1783;1783;1884;1884"
            }, 
            {
                "class": "Door", 
                "xn": "1273;1322;1323;1281", 
                "yn": "1471;1471;1376;1376"
            }, 
            {
                "class": "Door", 
                "xn": "976;1060;1060;976", 
                "yn": "1782;1782;1805;1805"
            }, 
            {
                "class": "Window", 
                "xn": "1582;1794;1794;1582", 
                "yn": "2267;2267;2309;2309"
            }, 
            {
                "class": "Window", 
                "xn": "1280;1305;1305;1280", 
                "yn": "933;933;1217;1217"
            }, 
            {
                "class": "Window", 
                "xn": "382;425;425;382", 
                "yn": "1588;1588;1730;1730"
            }, 
            {
                "class": "Window", 
                "xn": "2012;2054;2054;2012", 
                "yn": "1913;1913;2055;2055"
            }, 
            {
                "class": "Window", 
                "xn": "572;713;713;572", 
                "yn": "2267;2267;2309;2309"
            }, 
            {
                "class": "Window", 
                "xn": "1015;1156;1156;1015", 
                "yn": "2267;2267;2309;2309"
            }, 
            {
                "class": "Window", 
                "xn": "2030;2054;2054;2030", 
                "yn": "1269;1269;1341;1341"
            }, 
            {
                "class": "Window", 
                "xn": "2012;2054;2054;2012", 
                "yn": "1541;1541;1683;1683"
            }, 
            {
                "class": "Window", 
                "xn": "1016;1061;1061;1016", 
                "yn": "1571;1571;1530;1529"
            }, 
            {
                "class": "Window", 
                "xn": "869;937;937;869", 
                "yn": "1453;1454;1411;1411"
            }, 
            {
                "class": "Wall", 
                "xn": "383;426;426;383", 
                "yn": "1730;1730;2309;2309"
            }, 
            {
                "class": "Wall", 
                "xn": "383;425;425;383", 
                "yn": "1411;1411;1589;1589"
            }, 
            {
                "class": "Wall", 
                "xn": "382;869;869;382", 
                "yn": "1411;1411;1453;1453"
            }, 
            {
                "class": "Wall", 
                "xn": "2013;2054;2054;2013", 
                "yn": "1683;1683;1914;1914"
            }, 
            {
                "class": "Wall", 
                "xn": "1061;1164;1164;1061", 
                "yn": "1530;1530;1571;1571"
            }, 
            {
                "class": "Wall", 
                "xn": "713;1016;1016;713", 
                "yn": "2268;2268;2309;2309"
            }, 
            {
                "class": "Wall", 
                "xn": "2012;2054;2054;2012", 
                "yn": "1341;1341;1542;1542"
            }, 
            {
                "class": "Wall", 
                "xn": "1281;1323;1323;1281", 
                "yn": "1217;1217;1376;1376"
            }, 
            {
                "class": "Wall", 
                "xn": "1794;2055;2055;1794", 
                "yn": "2268;2268;2309;2309"
            }, 
            {
                "class": "Wall", 
                "xn": "2013;2054;2054;2013", 
                "yn": "2055;2055;2309;2309"
            }, 
            {
                "class": "Wall", 
                "xn": "1156;1583;1583;1156", 
                "yn": "2268;2268;2309;2309"
            }, 
            {
                "class": "Wall", 
                "xn": "382;573;573;382", 
                "yn": "2267;2267;2309;2309"
            }, 
            {
                "class": "Wall", 
                "xn": "1799;2055;2055;1799", 
                "yn": "1394;1394;1418;1418"
            }, 
            {
                "class": "Wall", 
                "xn": "1280;1701;1701;1280", 
                "yn": "1258;1258;1282;1282"
            }, 
            {
                "class": "Wall", 
                "xn": "1676;1700;1700;1676", 
                "yn": "1258;1258;1418;1418"
            }, 
            {
                "class": "Wall", 
                "xn": "1281;1305;1305;1281", 
                "yn": "762;762;934;934"
            }, 
            {
                "class": "Wall", 
                "xn": "1280;2055;2055;1280", 
                "yn": "762;762;786;786"
            }, 
            {
                "class": "Wall", 
                "xn": "2031;2054;2054;2031", 
                "yn": "762;762;1270;1270"
            }, 
            {
                "class": "Wall", 
                "xn": "937;1004;1004;937", 
                "yn": "1411;1411;1454;1454"
            }, 
            {
                "class": "Wall", 
                "xn": "961;1016;1016;961", 
                "yn": "1529;1529;1571;1571"
            }, 
            {
                "class": "Wall", 
                "xn": "1273;1322;1322;1273", 
                "yn": "1471;1471;1571;1571"
            }, 
            {
                "class": "Wall", 
                "xn": "950;1003;1003;950", 
                "yn": "1411;1411;1571;1571"
            }, 
            {
                "class": "Wall", 
                "xn": "382;762;762;382", 
                "yn": "1884;1884;1890;1890"
            }, 
            {
                "class": "Wall", 
                "xn": "755;761;761;755", 
                "yn": "1411;1411;1784;1784"
            }, 
            {
                "class": "Wall", 
                "xn": "1068;1074;1074;1068", 
                "yn": "1530;1530;1677;1677"
            }, 
            {
                "class": "Wall", 
                "xn": "862;868;868;862", 
                "yn": "1884;1884;2309;2309"
            }, 
            {
                "class": "Wall", 
                "xn": "1316;1322;1322;1316", 
                "yn": "1754;1754;2309;2309"
            }, 
            {
                "class": "Wall", 
                "xn": "1676;1683;1683;1676", 
                "yn": "1258;1258;1571;1571"
            }, 
            {
                "class": "Wall", 
                "xn": "962;968;968;962", 
                "yn": "1411;1411;1784;1784"
            }, 
            {
                "class": "Wall", 
                "xn": "754;863;863;754", 
                "yn": "1778;1778;1784;1784"
            }, 
            {
                "class": "Wall", 
                "xn": "1067;1152;1152;1067", 
                "yn": "1671;1671;1677;1677"
            }, 
            {
                "class": "Wall", 
                "xn": "861;957;957;861", 
                "yn": "1884;1884;1890;1890"
            }, 
            {
                "class": "Wall", 
                "xn": "1055;1323;1323;1055", 
                "yn": "1884;1884;1890;1890"
            }, 
            {
                "class": "Wall", 
                "xn": "1422;1684;1684;1422", 
                "yn": "1565;1565;1571;1571"
            }, 
            {
                "class": "Wall", 
                "xn": "1145;1151;1151;1145", 
                "yn": "1671;1671;1784;1784"
            }, 
            {
                "class": "Wall", 
                "xn": "1067;1152;1152;1067", 
                "yn": "1778;1778;1784;1784"
            }, 
            {
                "class": "Text", 
                "height": 31, 
                "width": 170, 
                "x": 1606, 
                "y": 907, 
                "text": "garage"
            }, 
            {
                "class": "Text", 
                "height": 32, 
                "width": 166, 
                "x": 1758, 
                "y": 1284, 
                "text": "cellier"
            }, 
            {
                "class": "Text", 
                "height": 31, 
                "width": 125, 
                "x": 1084, 
                "y": 1445, 
                "text": "porche"
            }, 
            {
                "class": "Text", 
                "height": 30, 
                "width": 163, 
                "x": 1428, 
                "y": 1451, 
                "text": "bureau"
            }, 
            {
                "class": "Text", 
                "height": 31, 
                "width": 117, 
                "x": 833, 
                "y": 1598, 
                "text": "bains"
            }, 
            {
                "class": "Text", 
                "height": 30, 
                "width": 228, 
                "x": 474, 
                "y": 1652, 
                "text": "chambre 1"
            }, 
            {
                "class": "Text", 
                "height": 31, 
                "width": 161, 
                "x": 1793, 
                "y": 1639, 
                "text": "cuisine"
            }, 
            {
                "class": "Text", 
                "height": 30, 
                "width": 67, 
                "x": 993, 
                "y": 1711, 
                "text": "wc"
            }, 
            {
                "class": "Text", 
                "height": 30, 
                "width": 98, 
                "x": 1202, 
                "y": 1711, 
                "text": "hall"
            }, 
            {
                "class": "Text", 
                "height": 30, 
                "width": 285, 
                "x": 737, 
                "y": 1826, 
                "text": "degagement"
            }, 
            {
                "class": "Text", 
                "height": 31, 
                "width": 162, 
                "x": 1591, 
                "y": 2000, 
                "text": "sejour"
            }, 
            {
                "class": "Text", 
                "height": 30, 
                "width": 234, 
                "x": 474, 
                "y": 2083, 
                "text": "chambre 2"
            }, 
            {
                "class": "Text", 
                "height": 30, 
                "width": 234, 
                "x": 970, 
                "y": 2089, 
                "text": "chambre 3"
            }, 
            {
                "class": "Text", 
                "height": 60, 
                "width": 22, 
                "x": 277, 
                "y": 1425, 
                "text": "pl"
            }, 
            {
                "class": "Unknown", 
                "xn": "1708;2016;2016;1708", 
                "yn": "1235;1235;1258;1258"
            }
        ], 
        "class": "image", 
        "filename": "fp_4.png"
    }
]