[
    {
        "annotations": [
            {
                "class": "Room", 
                "type": "single", 
                "xn": "2394;2394;2393;2390;2390;2391;2391;2394;2395;2395;2574;2574;2575;2575;2546;2545;2545;2478;2477;2440;2439", 
                "yn": "1110;1240;1241;1241;1340;1341;1346;1346;1347;1362;1362;1263;1262;1112;1112;1111;1110;1110;1111;1111;1110", 
                "text": "cellar", 
                "x": 2474, 
                "y": 1187
            }, 
            {
                "class": "Room", 
                "type": "single", 
                "xn": "1798;1798;1799;1799;1871;1871", 
                "yn": "1093;1197;1198;1302;1302;1093", 
                "text": "closet", 
                "x": 1829, 
                "y": 1199
            }, 
            {
                "class": "Room", 
                "type": "single", 
                "xn": "1762;1762;1761;1761;1760;1760;1759;1759;1758;1758;1757;1757;1756;1756;1755;1755;1754;1754;1753;1753;1752;1752;1751;1751;1750;1750;1749;1749;1748;1748;1747;1747;1746;1746;1745;1745;1744;1744;1743;1743;1742;1742;1741;1741;1740;1740;1739;1739;1738;1738;1737;1737;1736;1736;1735;1735;1734;1734;1733;1733;1732;1732;1867;1867;1790;1789;1789", 
                "yn": "1070;1072;1073;1087;1088;1101;1102;1116;1117;1130;1131;1145;1146;1160;1161;1174;1175;1189;1190;1203;1204;1218;1219;1233;1234;1247;1248;1262;1263;1277;1278;1291;1292;1306;1307;1320;1321;1335;1336;1350;1351;1364;1365;1379;1380;1393;1394;1408;1409;1423;1424;1437;1438;1452;1453;1466;1467;1481;1482;1496;1497;1499;1499;1312;1312;1311;1070", 
                "text": "unknown room", 
                "x": 1794, 
                "y": 1352
            }, 
            {
                "class": "Room", 
                "type": "single", 
                "xn": "1539;1538;1538;1542;1543;1635;1636;1681;1681;1682;1682;1683;1683;1684;1684;1685;1685;1686;1686;1687;1687;1688;1688;1689;1689;1690;1690;1691;1691;1692;1692;1693;1693;1694;1694;1695;1695;1696;1696;1697;1697;1698;1698;1699;1699;1700;1700;1701;1701;1702;1702;1703;1703;1704;1704;1705;1705;1706;1706;1675;1675;1674;1648;1647;1647;1636;1635", 
                "yn": "1069;1070;1499;1499;1498;1498;1499;1499;1492;1491;1475;1474;1458;1457;1440;1439;1423;1422;1406;1405;1388;1387;1371;1370;1354;1353;1336;1335;1319;1318;1302;1301;1284;1283;1267;1266;1250;1249;1232;1231;1215;1214;1198;1197;1180;1179;1163;1162;1146;1145;1128;1127;1111;1110;1094;1093;1076;1075;1070;1070;1093;1094;1094;1093;1070;1070;1069", 
                "text": "office", 
                "x": 1652, 
                "y": 1223
            }, 
            {
                "class": "Room", 
                "type": "single", 
                "xn": "1628;1628;1627;1615;1615;1712;1712;1713;1713;1696;1695;1695", 
                "yn": "739;756;757;757;955;955;920;919;758;758;757;739", 
                "text": "toilet", 
                "x": 1656, 
                "y": 863
            }, 
            {
                "class": "Room", 
                "type": "single", 
                "xn": "765;766;1125;1126;1155;1156;1183;1184;1184;1183;766;765", 
                "yn": "1149;1148;1148;1149;1149;1150;1150;1151;1497;1498;1498;1497", 
                "text": "bedroom 2", 
                "x": 913, 
                "y": 1263
            }, 
            {
                "class": "Room", 
                "type": "single", 
                "xn": "1214;1215;1297;1298;1298;1299;1528;1529;1529;1528;1215;1214", 
                "yn": "1064;1063;1063;1064;1070;1071;1071;1072;1496;1497;1497;1496", 
                "text": "bedroom 3", 
                "x": 1362, 
                "y": 1210
            }, 
            {
                "class": "Room", 
                "type": "single", 
                "xn": "1279;1280;1605;1606;1606;1605;1280;1279", 
                "yn": "759;758;758;759;954;955;955;954", 
                "text": "bathroom", 
                "x": 1450, 
                "y": 815
            }, 
            {
                "class": "Room", 
                "type": "single", 
                "xn": "1010;1011;1027;1028;1061;1062;1095;1096;1130;1131;1164;1165;1197;1198;1198;1199;1268;1269;1269;1268;1193;1192;1192;1193;1391;1392;1392;1393;1486;1487;1487;1488;1710;1711;1711;1710;1710;1709;1709;1708;1708;1707;1707;1706;1706;1705;1705;1704;1185;1184;1184;1183;1156;1155;1126;1125;1098;1097;1097;1096;1086;1085;1085;1084;766;765;765;766;1096;1097;1097;1096;1020;1019;1019;1018;1011;1010", 
                "yn": "742;741;741;742;742;743;743;744;744;745;745;746;746;747;757;758;758;759;954;955;955;956;964;965;965;964;958;957;957;958;963;964;964;965;978;979;994;995;1010;1011;1026;1027;1042;1043;1057;1058;1060;1061;1061;1062;1148;1149;1149;1148;1148;1147;1147;1146;1062;1061;1061;1062;1137;1138;1138;1137;966;965;965;964;956;955;955;954;828;827;827;826", 
                "text": "dressing room", 
                "x": 1155, 
                "y": 876
            }, 
            {
                "class": "Room", 
                "type": "single", 
                "xn": "789;790;821;822;855;856;889;890;924;925;958;959;992;993;1008;1009;1009;1008;767;766;766;767;913;914;914;913;795;794;794;793;793;791;791;790;790;789", 
                "yn": "736;735;735;736;736;737;737;738;738;739;739;740;740;741;741;742;954;955;955;954;760;759;759;758;748;747;747;746;745;744;743;741;740;739;738;737", 
                "text": "bathroom", 
                "x": 828, 
                "y": 903
            }, 
            {
                "class": "Room", 
                "type": "single", 
                "xn": "1877;1878;1970;1971;1971;1972;2016;2017;2017;2016;1990;1989;1989;1990;2175;2176;2176;2177;2177;2178;2178;2179;2179;2180;2180;2181;2181;2182;2182;2183;2183;2184;2184;2185;2185;2186;2186;2187;2187;2188;2188;2189;2189;2190;2190;2191;2191;2192;2192;2193;2193;2194;2194;2195;2195;2196;2196;2197;2197;2198;2198;2199;2199;2200;2200;2201;2201;2202;2202;2203;2203;2204;2204;2205;2205;2206;2206;2207;2207;2208;2208;2209;2209;2210;2210;2211;2211;2212;2212;2213;2213;2214;2214;2215;2215;2216;2216;2217;2217;2218;2218;2219;2219;2220;2220;2221;2221;2222;2222;2223;2223;2224;2224;2225;2225;2226;2226;2227;2227;2228;2228;2229;2229;2230;2230;2231;2231;2232;2232;2233;2233;2234;2234;2235;2235;2236;2236;2237;2237;2238;2238;2239;2239;2240;2240;2241;2241;2242;2242;2243;2243;2244;2244;2245;2245;2246;2246;2247;2247;2248;2248;2249;2249;2250;2250;2251;2251;2252;2252;2253;2253;2254;2254;2255;2255;2256;2256;2257;2257;2258;2258;2259;2259;2260;2260;2261;2261;2262;2262;2263;2263;2264;2264;2265;2265;2266;2266;2267;2267;2268;2268;2269;2269;2270;2270;2271;2271;2272;2272;2273;2273;2274;2274;2275;2275;2276;2276;2277;2277;2278;2278;2279;2279;2280;2280;2281;2281;2282;2282;2283;2283;2284;2284;2285;2285;2286;2286;2287;2287;2288;2288;2289;2289;2290;2290;2291;2291;2292;2292;2293;2293;2294;2294;2295;2295;2296;2296;2297;2297;2298;2298;2299;2299;2300;2300;2301;2301;2302;2302;2303;2303;2304;2304;2305;2305;2306;2306;2307;2307;2308;2308;2309;2309;2310;2310;2311;2311;2312;2312;2313;2313;2314;2314;2315;2315;2316;2316;2317;2317;2318;2318;2319;2319;2320;2320;2321;2321;2322;2322;2323;2323;2324;2324;2325;2325;2326;2326;2327;2327;2328;2328;2329;2329;2330;2330;2331;2331;2332;2332;2333;2333;2334;2334;2335;2335;2336;2336;2337;2337;2338;2338;2339;2339;2340;2340;2341;2341;2342;2342;2343;2343;2344;2344;2345;2345;2346;2346;2347;2347;2348;2348;2349;2349;2350;2350;2351;2351;2352;2352;2353;2353;2354;2354;2355;2355;2356;2356;2357;2357;2358;2358;2359;2359;2360;2360;2361;2361;2362;2362;2363;2363;2364;2364;2365;2365;2366;2366;2367;2367;2368;2368;2369;2369;2370;2370;2371;2371;2372;2372;2373;2373;2374;2374;2375;2375;2376;2376;2377;2377;2378;2378;2379;2379;2380;2380;2381;2381;2382;2382;2383;2383;2384;2384;2385;2385;2386;2386;2387;2387;2388;2388;2389;2389;2388;1695;1694;1694;1695;1695;1696;1696;1697;1697;1698;1698;1699;1699;1700;1700;1701;1701;1702;1702;1703;1703;1704;1704;1705;1705;1706;1706;1707;1707;1708;1708;1709;1709;1710;1710;1711;1711;1712;1712;1713;1713;1714;1714;1715;1715;1716;1716;1717;1717;1718;1718;1719;1719;1720;1720;1721;1721;1722;1722;1723;1723;1724;1724;1725;1725;1726;1726;1727;1727;1728;1728;1729;1729;1730;1730;1731;1731;1732;1732;1733;1733;1734;1875;1876;1876;1875;1800;1799;1799;1800;1876;1877", 
                "yn": "1063;1062;1062;1063;1241;1242;1242;1243;1344;1345;1345;1346;1371;1372;1372;1373;1374;1375;1377;1378;1380;1381;1384;1385;1387;1388;1390;1391;1394;1395;1397;1398;1401;1402;1404;1405;1407;1408;1411;1412;1414;1415;1417;1418;1421;1422;1424;1425;1427;1428;1431;1432;1434;1435;1437;1438;1441;1442;1444;1445;1448;1449;1451;1452;1454;1455;1458;1459;1461;1462;1464;1465;1468;1469;1471;1472;1474;1475;1478;1479;1481;1482;1484;1485;1488;1489;1491;1492;1495;1496;1498;1499;1501;1502;1505;1506;1508;1509;1511;1512;1515;1516;1518;1519;1521;1522;1525;1526;1528;1529;1531;1532;1535;1536;1538;1539;1541;1542;1545;1546;1548;1549;1552;1553;1555;1556;1558;1559;1562;1563;1565;1566;1568;1569;1572;1573;1575;1576;1578;1579;1582;1583;1585;1586;1588;1589;1592;1593;1595;1596;1599;1600;1602;1603;1605;1606;1609;1610;1612;1613;1615;1616;1619;1620;1622;1623;1625;1626;1629;1630;1632;1633;1635;1636;1639;1640;1642;1643;1645;1646;1649;1650;1652;1653;1656;1657;1659;1660;1662;1663;1666;1667;1669;1670;1672;1673;1676;1677;1679;1680;1682;1683;1686;1687;1689;1690;1692;1693;1696;1697;1699;1700;1703;1704;1706;1707;1709;1710;1713;1714;1716;1717;1719;1720;1723;1724;1726;1727;1729;1730;1733;1734;1736;1737;1739;1740;1743;1744;1746;1747;1749;1750;1753;1754;1756;1757;1760;1761;1763;1764;1766;1767;1770;1771;1773;1774;1776;1777;1780;1781;1783;1784;1786;1787;1790;1791;1793;1794;1796;1797;1800;1801;1803;1804;1807;1808;1810;1811;1813;1814;1817;1818;1820;1821;1823;1824;1827;1828;1830;1831;1833;1834;1837;1838;1840;1841;1843;1844;1847;1848;1850;1851;1854;1855;1857;1858;1860;1861;1864;1865;1867;1868;1870;1871;1874;1875;1877;1878;1880;1881;1884;1885;1887;1888;1890;1891;1894;1895;1897;1898;1900;1901;1904;1905;1907;1908;1911;1912;1914;1915;1917;1918;1921;1922;1924;1925;1927;1928;1931;1932;1934;1935;1937;1938;1941;1942;1944;1945;1947;1948;1951;1952;1954;1955;1958;1959;1961;1962;1964;1965;1968;1969;1971;1972;1974;1975;1978;1979;1981;1982;1984;1985;1988;1989;1991;1992;1994;1995;1998;1999;2001;2002;2004;2005;2008;2009;2011;2012;2015;2016;2018;2019;2021;2022;2025;2026;2028;2029;2031;2032;2035;2036;2038;2039;2041;2042;2045;2046;2048;2049;2051;2052;2055;2056;2058;2059;2062;2063;2065;2066;2068;2069;2072;2073;2075;2076;2078;2079;2082;2083;2085;2086;2087;2088;2088;2087;2075;2074;2060;2059;2045;2044;2030;2029;2015;2014;2001;2000;1986;1985;1971;1970;1956;1955;1941;1940;1927;1926;1912;1911;1897;1896;1882;1881;1867;1866;1852;1851;1838;1837;1823;1822;1808;1807;1793;1792;1778;1777;1763;1762;1749;1748;1734;1733;1719;1718;1704;1703;1689;1688;1675;1674;1660;1659;1645;1644;1630;1629;1615;1614;1600;1599;1586;1585;1571;1570;1556;1555;1541;1540;1526;1525;1512;1511;1510;1509;1509;1508;1089;1088;1088;1087;1072;1071;1071;1070", 
                "text": "salon", 
                "x": 2047, 
                "y": 1801
            }, 
            {
                "class": "Room", 
                "type": "single", 
                "xn": "2018;2019;2437;2438;2438;2437;2369;2368;2368;2367;2019;2018", 
                "yn": "742;741;741;742;1083;1084;1084;1085;1344;1345;1345;1344", 
                "text": "garage", 
                "x": 2227, 
                "y": 916
            }, 
            {
                "class": "Room", 
                "type": "single", 
                "xn": "1782;1783;1964;1965;1965;1966;1970;1971;1971;1970;1764;1763;1763;1764;1764;1765;1765;1766;1766;1767;1767;1768;1768;1769;1769;1770;1769;1760;1759;1759;1760;1781;1782", 
                "yn": "716;715;715;716;740;741;741;742;1060;1061;1061;1060;1042;1041;1022;1021;1001;1000;981;980;960;959;940;939;920;919;918;918;917;742;741;741;740", 
                "text": "porch", 
                "x": 1861, 
                "y": 804
            }, 
            {
                "class": "Room", 
                "type": "single", 
                "xn": "2491;2492;2494;2495;2498;2499;2501;2502;2505;2506;2509;2510;2513;2514;2516;2517;2520;2521;2524;2525;2528;2529;2531;2532;2535;2536;2539;2540;2542;2543;2546;2547;2550;2551;2554;2555;2557;2558;2561;2562;2565;2566;2569;2570;2572;2573;2576;2577;2580;2581;2583;2584;2587;2588;2591;2592;2595;2596;2598;2599;2602;2603;2606;2607;2610;2611;2613;2614;2617;2618;2621;2622;2624;2625;2628;2629;2632;2633;2636;2637;2639;2640;2643;2644;2647;2648;2651;2652;2654;2655;2658;2659;2662;2663;2666;2667;2669;2670;2673;2674;2677;2678;2680;2681;2684;2685;2688;2689;2692;2693;2695;2696;2699;2700;2703;2704;2707;2708;2710;2711;2714;2715;2718;2719;2721;2722;2725;2726;2729;2730;2733;2734;2736;2737;2740;2741;2744;2745;2748;2749;2751;2752;2755;2756;2759;2760;2762;2763;2766;2767;2770;2771;2774;2775;2777;2778;2781;2782;2785;2786;2789;2790;2792;2793;2796;2797;2800;2801;2804;2805;2807;2808;2811;2812;2815;2816;2818;2819;2822;2823;2826;2827;2830;2831;2833;2834;2837;2838;2841;2842;2845;2846;2848;2849;2852;2853;2856;2857;2859;2860;2863;2864;2867;2868;2871;2872;2874;2875;2878;2879;2882;2883;2886;2887;2889;2890;2893;2894;2897;2898;2900;2901;2904;2905;2908;2909;2912;2913;2915;2916;2919;2920;2923;2924;2927;2928;2930;2931;2934;2935;2938;2939;2942;2943;2944;2945;2945;2946;2969;2970;2970;2969;2969;2968;2968;2967;2967;2966;2966;2965;2965;2964;2964;2963;2963;2962;2962;2961;2961;2960;2960;2959;2959;2958;2958;2957;2957;2956;2956;2955;2955;2954;2954;2953;2953;2952;2480;2479;2479;2480;2490;2491", 
                "yn": "596;595;595;596;596;597;597;598;598;599;599;600;600;601;601;602;602;603;603;604;604;605;605;606;606;607;607;608;608;609;609;610;610;611;611;612;612;613;613;614;614;615;615;616;616;617;617;618;618;619;619;620;620;621;621;622;622;623;623;624;624;625;625;626;626;627;627;628;628;629;629;630;630;631;631;632;632;633;633;634;634;635;635;636;636;637;637;638;638;639;639;640;640;641;641;642;642;643;643;644;644;645;645;646;646;647;647;648;648;649;649;650;650;651;651;652;652;653;653;654;654;655;655;656;656;657;657;658;658;659;659;660;660;661;661;662;662;663;663;664;664;665;665;666;666;667;667;668;668;669;669;670;670;671;671;672;672;673;673;674;674;675;675;676;676;677;677;678;678;679;679;680;680;681;681;682;682;683;683;684;684;685;685;686;686;687;687;688;688;689;689;690;690;691;691;692;692;693;693;694;694;695;695;696;696;697;697;698;698;699;699;700;700;701;701;702;702;703;703;704;704;705;705;706;706;707;707;708;708;709;709;710;710;711;711;712;712;713;713;714;714;715;715;716;716;717;740;741;741;742;758;759;776;777;794;795;812;813;830;831;849;850;867;868;885;886;903;904;921;922;939;940;958;959;976;977;994;995;1012;1013;1030;1031;1048;1049;1065;1066;1066;1065;742;741;741;740", 
                "text": "porch", 
                "x": 2719, 
                "y": 869
            }, 
            {
                "class": "Room", 
                "type": "single", 
                "xn": "1118;1119;1121;1122;1125;1126;1129;1130;1133;1134;1136;1137;1140;1141;1144;1145;1148;1149;1151;1152;1155;1156;1159;1160;1162;1163;1166;1167;1170;1171;1174;1175;1177;1178;1181;1182;1185;1186;1189;1190;1192;1193;1196;1197;1200;1201;1203;1204;1207;1208;1211;1212;1215;1216;1218;1219;1222;1223;1226;1227;1230;1231;1233;1234;1237;1238;1241;1242;1245;1246;1248;1249;1252;1253;1256;1257;1259;1260;1263;1264;1267;1268;1271;1272;1274;1275;1278;1279;1282;1283;1286;1287;1289;1290;1293;1294;1297;1298;1300;1301;1304;1305;1308;1309;1312;1313;1315;1316;1319;1320;1323;1324;1327;1328;1330;1331;1334;1335;1338;1339;1341;1342;1345;1346;1349;1350;1353;1354;1356;1357;1360;1361;1364;1365;1368;1369;1371;1372;1375;1376;1379;1380;1383;1384;1386;1387;1390;1391;1394;1395;1397;1398;1401;1402;1405;1406;1409;1410;1412;1413;1416;1417;1420;1421;1424;1425;1427;1428;1431;1432;1435;1436;1438;1439;1442;1443;1446;1447;1450;1451;1453;1454;1457;1458;1461;1462;1465;1466;1468;1469;1472;1473;1476;1477;1479;1480;1483;1484;1487;1488;1491;1492;1494;1495;1498;1499;1502;1503;1506;1507;1509;1510;1513;1514;1517;1518;1521;1522;1524;1525;1528;1529;1532;1533;1535;1536;1539;1540;1543;1544;1547;1548;1550;1551;1554;1555;1558;1559;1562;1563;1565;1566;1569;1570;1573;1574;1576;1577;1580;1581;1584;1585;1588;1589;1591;1592;1595;1596;1599;1600;1603;1604;1606;1607;1610;1611;1614;1615;1617;1618;1621;1622;1625;1626;1629;1630;1632;1633;1636;1637;1640;1641;1644;1645;1647;1648;1651;1652;1655;1656;1659;1660;1662;1663;1666;1667;1670;1671;1673;1674;1677;1678;1681;1682;1685;1686;1688;1689;1692;1693;1696;1697;1700;1701;1703;1704;1707;1708;1711;1712;1714;1715;1718;1719;1722;1723;1726;1727;1729;1730;1733;1734;1737;1738;1741;1742;1744;1745;1748;1749;1752;1753;1755;1756;1759;1760;1763;1764;1767;1768;1770;1771;1774;1775;1778;1779;1782;1783;1785;1786;1789;1790;1793;1794;1797;1798;1800;1801;1804;1805;1808;1809;1811;1812;1815;1816;1819;1820;1823;1824;1826;1827;1830;1831;1834;1835;1838;1839;1841;1842;1845;1846;1849;1850;1852;1853;1856;1857;1860;1861;1864;1865;1867;1868;1871;1872;1875;1876;1879;1880;1882;1883;1886;1887;1890;1891;1893;1894;1897;1898;1901;1902;1905;1906;1908;1909;1912;1913;1916;1917;1920;1921;1923;1924;1927;1928;1931;1932;1934;1935;1938;1939;1942;1943;1946;1947;1949;1950;1953;1954;1957;1958;1961;1962;1964;1965;1968;1969;1972;1973;1976;1977;1979;1980;1983;1984;1987;1988;1990;1991;1994;1995;1998;1999;2002;2003;2005;2006;2009;2010;2013;2014;2017;2018;2020;2021;2024;2025;2028;2029;2031;2032;2035;2036;2039;2040;2043;2044;2046;2047;2050;2051;2054;2055;2058;2059;2061;2062;2065;2066;2069;2070;2072;2073;2076;2077;2080;2081;2084;2085;2087;2088;2091;2092;2095;2096;2099;2100;2102;2103;2106;2107;2110;2111;2114;2115;2117;2118;2121;2122;2125;2126;2128;2129;2132;2133;2136;2137;2140;2141;2143;2144;2147;2148;2151;2152;2155;2156;2158;2159;2162;2163;2166;2167;2169;2170;2173;2174;2177;2178;2181;2182;2184;2185;2188;2189;2192;2193;2196;2197;2199;2200;2203;2204;2207;2208;2210;2211;2214;2215;2218;2219;2222;2223;2225;2226;2229;2230;2233;2234;2237;2238;2240;2241;2244;2245;2248;2249;2252;2253;2255;2256;2259;2260;2263;2264;2266;2267;2270;2271;2274;2275;2278;2279;2281;2282;2285;2286;2289;2290;2293;2294;2296;2297;2300;2301;2304;2305;2307;2308;2311;2312;2315;2316;2319;2320;2322;2323;2326;2327;2330;2331;2334;2335;2337;2338;2341;2342;2345;2346;2348;2349;2352;2353;2356;2357;2360;2361;2363;2364;2367;2368;2371;2372;2375;2376;2378;2379;2382;2383;2386;2387;2390;2391;2393;2394;2397;2398;2401;2402;2404;2405;2408;2409;2412;2413;2416;2417;2419;2420;2423;2424;2427;2428;2431;2432;2434;2435;2438;2439;2442;2443;2445;2446;2449;2450;2453;2454;2457;2458;2460;2461;2464;2465;2468;2469;2472;2473;2475;2476;2479;2480;2483;2484;2486;2487;2489;2490;2490;2489;1264;1262;1262;1255;1255;1252;1253;1260;1261;1261;1262;1262;1263;1263;1264;1273;1274;1274;1275;1297;1298;1298;1297;1259;1258;1258;1257;1249;1248;1248;1247;1235;1234;1221;1220;1207;1206;1193;1192;1178;1177;1164;1163;1150;1149;1136;1135;1122;1121;1108;1107;1093;1092;1079;1078;1065;1064;1051;1050;1037;1036;1022;1021;1008;1007;994;993;980;979;966;965;951;950;937;936;923;922;909;908;895;894;881;880;866;865;852;851;838;837;824;823;810;809;795;794;781;780;767;766;753;752;739;738;724;723;723;722;722;721;721;720;712;711;711;710;704;703;703;704;711;712;712;714;714;717;717;720;720;724;772;773;773;772;752;751;753;753;754;754;756;756;758;758;759;759;761;761;763;763;765;765;766;766;768;768;777;777;788;788;800;800;803;809;810;810;811;818;819;820;823;824;826;827;829;830;832;833;836;837;839;840;842;843;844;851;853;854;856;857;859;860;863;864;866;867;869;870;873;874;876;877;878;913;914;914;915;933;934;934;935;1024;1025;1025;1026;1043;1044;1044;1045;1082;1090;1091;1105;1106;1119;1120;1133;1134;1147;1148;1161;1162;1176;1177;1190;1191;1204;1205;1218;1219;1232;1233;1238;1247;1247;1259;1259;1263;1263;1262;1262;1259;1259;1256;1256;1255;1255;1254;1254;1251;1251;1248;1248;1245;1245;1242;1242;1239;1239;1236;1236;1233;1233;1230;1230;1227;1227;1224;1224;1221;1221;1218;1218;1215;1215;1212;1207;1206;1206;1202;1202;1198;1198;1196;1196;1195;1176;1175;1175;1174;1166;1164;1164;1156;1152;1151;1151;1150;1136;1135;1134;1132;1131;1129;1128;1126;1125;1123;1122;1120;1119", 
                "yn": "228;227;227;228;228;229;229;230;230;231;231;232;232;233;233;234;234;235;235;236;236;237;237;238;238;239;239;240;240;241;241;242;242;243;243;244;244;245;245;246;246;247;247;248;248;249;249;250;250;251;251;252;252;253;253;254;254;255;255;256;256;257;257;258;258;259;259;260;260;261;261;262;262;263;263;264;264;265;265;266;266;267;267;268;268;269;269;270;270;271;271;272;272;273;273;274;274;275;275;276;276;277;277;278;278;279;279;280;280;281;281;282;282;283;283;284;284;285;285;286;286;287;287;288;288;289;289;290;290;291;291;292;292;293;293;294;294;295;295;296;296;297;297;298;298;299;299;300;300;301;301;302;302;303;303;304;304;305;305;306;306;307;307;308;308;309;309;310;310;311;311;312;312;313;313;314;314;315;315;316;316;317;317;318;318;319;319;320;320;321;321;322;322;323;323;324;324;325;325;326;326;327;327;328;328;329;329;330;330;331;331;332;332;333;333;334;334;335;335;336;336;337;337;338;338;339;339;340;340;341;341;342;342;343;343;344;344;345;345;346;346;347;347;348;348;349;349;350;350;351;351;352;352;353;353;354;354;355;355;356;356;357;357;358;358;359;359;360;360;361;361;362;362;363;363;364;364;365;365;366;366;367;367;368;368;369;369;370;370;371;371;372;372;373;373;374;374;375;375;376;376;377;377;378;378;379;379;380;380;381;381;382;382;383;383;384;384;385;385;386;386;387;387;388;388;389;389;390;390;391;391;392;392;393;393;394;394;395;395;396;396;397;397;398;398;399;399;400;400;401;401;402;402;403;403;404;404;405;405;406;406;407;407;408;408;409;409;410;410;411;411;412;412;413;413;414;414;415;415;416;416;417;417;418;418;419;419;420;420;421;421;422;422;423;423;424;424;425;425;426;426;427;427;428;428;429;429;430;430;431;431;432;432;433;433;434;434;435;435;436;436;437;437;438;438;439;439;440;440;441;441;442;442;443;443;444;444;445;445;446;446;447;447;448;448;449;449;450;450;451;451;452;452;453;453;454;454;455;455;456;456;457;457;458;458;459;459;460;460;461;461;462;462;463;463;464;464;465;465;466;466;467;467;468;468;469;469;470;470;471;471;472;472;473;473;474;474;475;475;476;476;477;477;478;478;479;479;480;480;481;481;482;482;483;483;484;484;485;485;486;486;487;487;488;488;489;489;490;490;491;491;492;492;493;493;494;494;495;495;496;496;497;497;498;498;499;499;500;500;501;501;502;502;503;503;504;504;505;505;506;506;507;507;508;508;509;509;510;510;511;511;512;512;513;513;514;514;515;515;516;516;517;517;518;518;519;519;520;520;521;521;522;522;523;523;524;524;525;525;526;526;527;527;528;528;529;529;530;530;531;531;532;532;533;533;534;534;535;535;536;536;537;537;538;538;539;539;540;540;541;541;542;542;543;543;544;544;545;545;546;546;547;547;548;548;549;549;550;550;551;551;552;552;553;553;554;554;555;555;556;556;557;557;558;558;559;559;560;560;561;561;562;562;563;563;564;564;565;565;566;566;567;567;568;568;569;569;570;570;571;571;572;572;573;573;574;574;575;575;576;576;577;577;578;578;579;579;580;580;581;581;582;582;583;583;584;584;585;585;586;586;587;587;588;588;589;589;590;590;591;591;592;592;593;593;594;594;595;712;713;713;711;710;703;702;699;698;698;697;676;675;674;673;672;671;671;670;643;642;642;641;537;536;536;537;570;571;571;572;598;599;599;600;600;601;601;602;602;603;603;604;604;605;605;606;606;607;607;608;608;609;609;610;610;611;611;612;612;613;613;614;614;615;615;616;616;617;617;618;618;619;619;620;620;621;621;622;622;623;623;624;624;625;625;626;626;627;627;628;628;629;629;630;630;631;631;632;632;633;633;634;634;635;635;634;633;632;631;630;597;596;596;595;575;574;574;573;470;469;469;468;432;430;429;426;425;422;421;417;417;416;373;372;372;371;369;368;367;366;364;363;361;360;359;358;356;355;353;352;350;349;348;347;345;344;335;334;323;322;310;309;306;306;305;298;297;297;296;296;293;293;291;291;289;289;287;287;284;284;282;282;280;280;279;279;277;277;275;275;273;273;270;270;268;268;266;266;263;263;261;261;260;260;259;251;250;250;249;244;243;243;244;249;250;250;251;258;259;259;267;267;281;281;294;294;307;307;320;320;333;333;347;347;360;360;373;373;386;386;399;399;404;395;394;382;381;377;371;370;369;366;365;362;361;360;354;353;352;349;348;345;344;341;340;337;336;333;332;329;328;325;324;321;320;317;316;313;312;309;308;305;304;301;300;297;297;296;295;291;290;286;285;283;270;269;269;268;260;259;259;257;256;248;248;247;241;240;240;239;239;237;237;235;235;233;233;231;231;229;229", 
                "text": "bedroom 1", 
                "x": 924, 
                "y": 436
            }, 
            {
                "class": "Door", 
                "xn": "698;772;772;698", 
                "yn": "374;374;416;416"
            }, 
            {
                "class": "Door", 
                "xn": "2759;2859;2859;2759", 
                "yn": "1440;1440;1483;1483"
            }, 
            {
                "class": "Door", 
                "xn": "1091;1186;1186;1091", 
                "yn": "1499;1499;1542;1542"
            }, 
            {
                "class": "Door", 
                "xn": "2522;2623;2623;2522", 
                "yn": "1854;1854;1896;1896"
            }, 
            {
                "class": "Door", 
                "xn": "1614;1713;1713;1614", 
                "yn": "956;956;963;963"
            }, 
            {
                "class": "Door", 
                "xn": "1537;1636;1636;1537", 
                "yn": "1062;1062;1069;1069"
            }, 
            {
                "class": "Door", 
                "xn": "1211;1306;1306;1211", 
                "yn": "1499;1499;1542;1542"
            }, 
            {
                "class": "Door", 
                "xn": "1543;1636;1636;1543", 
                "yn": "1499;1499;1507;1507"
            }, 
            {
                "class": "Door", 
                "xn": "1125;1149;1149;1125", 
                "yn": "256;256;271;271"
            }, 
            {
                "class": "Door", 
                "xn": "2379;2387;2387;2379", 
                "yn": "2241;2241;2274;2274"
            }, 
            {
                "class": "Door", 
                "xn": "1125;1149;1149;1125", 
                "yn": "256;256;271;271"
            }, 
            {
                "class": "Door", 
                "xn": "847;851;851;847", 
                "yn": "231;231;269;269"
            }, 
            {
                "class": "Door", 
                "xn": "2369;2390;2390;2369", 
                "yn": "1239;1239;1341;1341"
            }, 
            {
                "class": "Door", 
                "xn": "2575;2582;2582;2575", 
                "yn": "1263;1263;1363;1363"
            }, 
            {
                "class": "Door", 
                "xn": "1544;1636;1636;1544", 
                "yn": "1542;1543;1500;1500"
            }, 
            {
                "class": "Door", 
                "xn": "1402;1403;1475;1474", 
                "yn": "955;976;975;954"
            }, 
            {
                "class": "Door", 
                "xn": "988;1010;1029;1007", 
                "yn": "756;819;812;749"
            }, 
            {
                "class": "Door", 
                "xn": "2018;2018;2039;2039", 
                "yn": "1241;1333;1333;1241"
            }, 
            {
                "class": "Door", 
                "xn": "1885;1890;1961;1956", 
                "yn": "1062;1081;1059;1040"
            }, 
            {
                "class": "Window", 
                "xn": "1413;1483;1483;1413", 
                "yn": "746;746;756;756"
            }, 
            {
                "class": "Window", 
                "xn": "2086;2369;2369;2086", 
                "yn": "714;714;739;739"
            }, 
            {
                "class": "Window", 
                "xn": "2392;2440;2440;2392", 
                "yn": "1086;1086;1110;1110"
            }, 
            {
                "class": "Window", 
                "xn": "2476;2546;2546;2476", 
                "yn": "1068;1068;1110;1110"
            }, 
            {
                "class": "Window", 
                "xn": "721;763;763;721", 
                "yn": "867;867;939;939"
            }, 
            {
                "class": "Window", 
                "xn": "1973;2221;2221;1973", 
                "yn": "2091;2091;2132;2132"
            }, 
            {
                "class": "Window", 
                "xn": "1413;1483;1483;1413", 
                "yn": "714;714;756;756"
            }, 
            {
                "class": "Window", 
                "xn": "2717;2760;2760;2717", 
                "yn": "1600;1600;1742;1742"
            }, 
            {
                "class": "Window", 
                "xn": "2953;2996;2996;2953", 
                "yn": "1204;1204;1347;1347"
            }, 
            {
                "class": "Window", 
                "xn": "1626;1696;1696;1626", 
                "yn": "714;714;739;739"
            }, 
            {
                "class": "Window", 
                "xn": "1709;1956;1956;1709", 
                "yn": "2132;2132;2091;2090"
            }, 
            {
                "class": "Window", 
                "xn": "1018;1237;1239;1018", 
                "yn": "659;652;600;637"
            }, 
            {
                "class": "Window", 
                "xn": "722;764;1214;1195", 
                "yn": "732;732;746;699"
            }, 
            {
                "class": "Window", 
                "xn": "2954;2996;2996;2972", 
                "yn": "1046;1046;762;762"
            }, 
            {
                "class": "Window", 
                "xn": "1649;1692;1768;1713", 
                "yn": "2073;2073;963;963"
            }, 
            {
                "class": "Wall", 
                "xn": "2546;2997;2997;2546", 
                "yn": "1069;1069;1111;1111"
            }, 
            {
                "class": "Wall", 
                "xn": "2954;2996;2996;2954", 
                "yn": "1347;1347;1506;1506"
            }, 
            {
                "class": "Wall", 
                "xn": "721;1092;1092;721", 
                "yn": "1500;1500;1542;1542"
            }, 
            {
                "class": "Wall", 
                "xn": "1649;1692;1692;1649", 
                "yn": "2073;2073;2132;2132"
            }, 
            {
                "class": "Wall", 
                "xn": "2718;2760;2760;2718", 
                "yn": "1441;1441;1601;1601"
            }, 
            {
                "class": "Wall", 
                "xn": "2859;2997;2997;2859", 
                "yn": "1440;1440;1483;1483"
            }, 
            {
                "class": "Wall", 
                "xn": "1714;1756;1756;1714", 
                "yn": "715;715;963;963"
            }, 
            {
                "class": "Wall", 
                "xn": "1636;1692;1692;1636", 
                "yn": "1500;1500;1543;1543"
            }, 
            {
                "class": "Wall", 
                "xn": "1306;1544;1544;1306", 
                "yn": "1500;1500;1542;1542"
            }, 
            {
                "class": "Wall", 
                "xn": "2717;2760;2760;2717", 
                "yn": "1742;1742;1896;1896"
            }, 
            {
                "class": "Wall", 
                "xn": "2954;2996;2996;2954", 
                "yn": "1046;1046;1205;1205"
            }, 
            {
                "class": "Wall", 
                "xn": "2221;2548;2548;2221", 
                "yn": "2092;2092;2132;2132"
            }, 
            {
                "class": "Wall", 
                "xn": "2482;2523;2523;2482", 
                "yn": "1855;1855;2132;2132"
            }, 
            {
                "class": "Wall", 
                "xn": "722;763;763;722", 
                "yn": "939;939;1542;1542"
            }, 
            {
                "class": "Wall", 
                "xn": "722;764;764;722", 
                "yn": "732;732;868;868"
            }, 
            {
                "class": "Wall", 
                "xn": "1483;1627;1627;1483", 
                "yn": "715;715;756;756"
            }, 
            {
                "class": "Wall", 
                "xn": "867;1091;1091;867", 
                "yn": "199;199;241;241"
            }, 
            {
                "class": "Wall", 
                "xn": "1216;1414;1414;1216", 
                "yn": "715;715;756;756"
            }, 
            {
                "class": "Wall", 
                "xn": "2623;2761;2761;2623", 
                "yn": "1854;1854;1896;1896"
            }, 
            {
                "class": "Wall", 
                "xn": "659;701;701;659", 
                "yn": "411;411;636;636"
            }, 
            {
                "class": "Wall", 
                "xn": "1973;2016;2016;1973", 
                "yn": "715;715;1240;1240"
            }, 
            {
                "class": "Wall", 
                "xn": "1260;1296;1296;1260", 
                "yn": "538;538;640;640"
            }, 
            {
                "class": "Wall", 
                "xn": "2440;2477;2477;2440", 
                "yn": "715;715;1110;1110"
            }, 
            {
                "class": "Wall", 
                "xn": "878;857;787;808", 
                "yn": "258;223;263;298"
            }, 
            {
                "class": "Wall", 
                "xn": "1264;1225;1195;1235", 
                "yn": "669;646;699;720"
            }, 
            {
                "class": "Wall", 
                "xn": "1233;1263;1195;1165", 
                "yn": "397;374;284;307"
            }, 
            {
                "class": "Wall", 
                "xn": "1140;1162;1107;1085", 
                "yn": "294;257;225;261"
            }, 
            {
                "class": "Wall", 
                "xn": "772;740;672;705", 
                "yn": "329;307;416;437"
            }, 
            {
                "class": "Wall", 
                "xn": "801;775;671;697", 
                "yn": "291;273;434;452"
            }, 
            {
                "class": "Wall", 
                "xn": "1186;1212;1212;1186", 
                "yn": "1063;1063;1542;1542"
            }, 
            {
                "class": "Wall", 
                "xn": "1126;1194;1194;1126", 
                "yn": "271;271;297;297"
            }, 
            {
                "class": "Wall", 
                "xn": "1648;1674;1674;1648", 
                "yn": "1063;1063;1093;1093"
            }, 
            {
                "class": "Wall", 
                "xn": "1991;2394;2394;1991", 
                "yn": "1347;1347;1370;1370"
            }, 
            {
                "class": "Wall", 
                "xn": "1967;2087;2087;1967", 
                "yn": "715;715;739;739"
            }, 
            {
                "class": "Wall", 
                "xn": "2369;2477;2477;2369", 
                "yn": "1086;1086;1109;1109"
            }, 
            {
                "class": "Wall", 
                "xn": "2370;2393;2393;2370", 
                "yn": "1087;1087;1240;1240"
            }, 
            {
                "class": "Wall", 
                "xn": "2369;2489;2489;2369", 
                "yn": "715;715;739;739"
            }, 
            {
                "class": "Wall", 
                "xn": "683;1018;1018;683", 
                "yn": "637;637;659;659"
            }, 
            {
                "class": "Wall", 
                "xn": "1696;1780;1780;1696", 
                "yn": "715;715;739;739"
            }, 
            {
                "class": "Wall", 
                "xn": "1239;1259;1259;1239", 
                "yn": "600;600;696;696"
            }, 
            {
                "class": "Wall", 
                "xn": "1956;1974;1974;1956", 
                "yn": "2091;2091;2132;2132"
            }, 
            {
                "class": "Wall", 
                "xn": "702;719;719;702", 
                "yn": "598;598;661;661"
            }, 
            {
                "class": "Wall", 
                "xn": "1696;1757;1757;1696", 
                "yn": "740;740;757;757"
            }, 
            {
                "class": "Wall", 
                "xn": "844;817;719;746", 
                "yn": "263;236;334;361"
            }, 
            {
                "class": "Wall", 
                "xn": "731;722;685;694", 
                "yn": "653;633;647;667"
            }, 
            {
                "class": "Wall", 
                "xn": "1180;1207;1156;1129", 
                "yn": "330;305;250;276"
            }, 
            {
                "class": "Wall", 
                "xn": "1221;1255;1212;1178", 
                "yn": "383;357;300;326"
            }, 
            {
                "class": "Wall", 
                "xn": "1238;1261;1092;1068", 
                "yn": "402;377;219;244"
            }, 
            {
                "class": "Wall", 
                "xn": "719;744;717;692", 
                "yn": "426;346;337;417"
            }, 
            {
                "class": "Wall", 
                "xn": "731;720;683;694", 
                "yn": "653;629;644;668"
            }, 
            {
                "class": "Wall", 
                "xn": "1256;1281;1221;1196", 
                "yn": "757;731;673;699"
            }, 
            {
                "class": "Wall", 
                "xn": "765;795;765;735", 
                "yn": "345;312;283;316"
            }, 
            {
                "class": "Wall", 
                "xn": "2972;2996;2996;2972", 
                "yn": "715;715;762;762"
            }, 
            {
                "class": "Wall", 
                "xn": "2947;2997;2997;2947", 
                "yn": "715;715;739;739"
            }, 
            {
                "class": "Wall", 
                "xn": "2972;2996;2996;2972", 
                "yn": "2085;2085;2132;2132"
            }, 
            {
                "class": "Wall", 
                "xn": "2947;2997;2997;2947", 
                "yn": "2108;2108;2132;2132"
            }, 
            {
                "class": "Wall", 
                "xn": "2717;2766;2766;2717", 
                "yn": "1441;1441;1483;1483"
            }, 
            {
                "class": "Wall", 
                "xn": "1649;1691;1691;1649", 
                "yn": "1500;1500;1553;1553"
            }, 
            {
                "class": "Wall", 
                "xn": "1648;1709;1709;1648", 
                "yn": "2090;2090;2132;2132"
            }, 
            {
                "class": "Wall", 
                "xn": "2370;2390;2390;2370", 
                "yn": "1341;1341;1370;1370"
            }, 
            {
                "class": "Wall", 
                "xn": "1713;1768;1768;1713", 
                "yn": "920;920;963;963"
            }, 
            {
                "class": "Wall", 
                "xn": "2576;2582;2582;2576", 
                "yn": "1069;1069;1264;1264"
            }, 
            {
                "class": "Wall", 
                "xn": "1531;1537;1537;1531", 
                "yn": "1063;1063;1542;1542"
            }, 
            {
                "class": "Wall", 
                "xn": "721;1095;1095;721", 
                "yn": "1140;1140;1146;1146"
            }, 
            {
                "class": "Wall", 
                "xn": "721;1095;1095;721", 
                "yn": "957;957;963;963"
            }, 
            {
                "class": "Wall", 
                "xn": "721;912;912;721", 
                "yn": "749;749;757;757"
            }, 
            {
                "class": "Wall", 
                "xn": "1608;1614;1614;1608", 
                "yn": "715;715;963;963"
            }, 
            {
                "class": "Wall", 
                "xn": "1027;1142;1142;1027", 
                "yn": "242;242;248;248"
            }, 
            {
                "class": "Wall", 
                "xn": "816;932;932;816", 
                "yn": "242;242;248;248"
            }, 
            {
                "class": "Wall", 
                "xn": "809;912;912;809", 
                "yn": "242;242;258;258"
            }, 
            {
                "class": "Wall", 
                "xn": "1046;1149;1149;1046", 
                "yn": "242;242;257;257"
            }, 
            {
                "class": "Wall", 
                "xn": "1231;1238;1238;1231", 
                "yn": "637;637;756;756"
            }, 
            {
                "class": "Wall", 
                "xn": "1271;1277;1277;1271", 
                "yn": "715;715;963;963"
            }, 
            {
                "class": "Wall", 
                "xn": "702;709;709;702", 
                "yn": "576;576;664;664"
            }, 
            {
                "class": "Wall", 
                "xn": "702;710;710;702", 
                "yn": "357;357;467;467"
            }, 
            {
                "class": "Wall", 
                "xn": "1250;1259;1259;1250", 
                "yn": "573;573;686;686"
            }, 
            {
                "class": "Wall", 
                "xn": "746;808;808;746", 
                "yn": "298;298;304;304"
            }, 
            {
                "class": "Wall", 
                "xn": "776;851;851;776", 
                "yn": "269;269;277;277"
            }, 
            {
                "class": "Wall", 
                "xn": "1151;1213;1213;1151", 
                "yn": "298;298;306;306"
            }, 
            {
                "class": "Wall", 
                "xn": "1093;1173;1173;1093", 
                "yn": "261;261;270;270"
            }, 
            {
                "class": "Wall", 
                "xn": "743;748;748;743", 
                "yn": "302;302;370;370"
            }, 
            {
                "class": "Wall", 
                "xn": "692;699;699;692", 
                "yn": "375;375;668;668"
            }, 
            {
                "class": "Wall", 
                "xn": "754;818;818;754", 
                "yn": "290;290;295;295"
            }, 
            {
                "class": "Wall", 
                "xn": "1636;1875;1875;1636", 
                "yn": "1063;1063;1069;1069"
            }, 
            {
                "class": "Wall", 
                "xn": "1260;1272;1272;1260", 
                "yn": "538;538;669;669"
            }, 
            {
                "class": "Wall", 
                "xn": "1200;1414;1414;1200", 
                "yn": "747;747;756;756"
            }, 
            {
                "class": "Wall", 
                "xn": "1209;1414;1414;1209", 
                "yn": "740;740;745;745"
            }, 
            {
                "class": "Wall", 
                "xn": "1636;1875;1875;1636", 
                "yn": "1500;1500;1507;1507"
            }, 
            {
                "class": "Wall", 
                "xn": "1991;2583;2583;1991", 
                "yn": "1363;1363;1370;1370"
            }, 
            {
                "class": "Wall", 
                "xn": "1300;1538;1538;1300", 
                "yn": "1063;1063;1069;1069"
            }, 
            {
                "class": "Wall", 
                "xn": "1087;1095;1095;1087", 
                "yn": "1063;1063;1146;1146"
            }, 
            {
                "class": "Wall", 
                "xn": "1011;1017;1017;1011", 
                "yn": "829;829;963;963"
            }, 
            {
                "class": "Wall", 
                "xn": "792;797;770;765", 
                "yn": "757;753;708;712"
            }, 
            {
                "class": "Wall", 
                "xn": "1489;1615;1615;1489", 
                "yn": "957;957;963;963"
            }, 
            {
                "class": "Wall", 
                "xn": "1194;1390;1390;1194", 
                "yn": "957;957;963;963"
            }, 
            {
                "class": "Wall", 
                "xn": "1790;1797;1797;1790", 
                "yn": "1063;1063;1311;1311"
            }, 
            {
                "class": "Wall", 
                "xn": "1868;1874;1874;1868", 
                "yn": "1305;1305;1506;1506"
            }, 
            {
                "class": "Wall", 
                "xn": "1790;1875;1875;1790", 
                "yn": "1305;1305;1311;1311"
            }, 
            {
                "class": "Wall", 
                "xn": "848;1110;1110;848", 
                "yn": "223;223;232;232"
            }, 
            {
                "class": "Wall", 
                "xn": "683;710;732;682", 
                "yn": "659;663;667;638"
            }, 
            {
                "class": "Wall", 
                "xn": "740;767;775;787", 
                "yn": "307;284;274;263"
            }, 
            {
                "class": "Wall", 
                "xn": "659;675;740;716", 
                "yn": "411;409;307;338"
            }, 
            {
                "class": "Wall", 
                "xn": "1796;1873;1873;1796", 
                "yn": "1093;1093;1089;1089"
            }, 
            {
                "class": "Wall", 
                "xn": "1871;1875;1875;1871", 
                "yn": "1304;1304;1091;1091"
            }, 
            {
                "class": "Text", 
                "height": 25, 
                "width": 66, 
                "x": 891, 
                "y": 424, 
                "text": "ch 1"
            }, 
            {
                "class": "Text", 
                "height": 26, 
                "width": 93, 
                "x": 1404, 
                "y": 802, 
                "text": "bains"
            }, 
            {
                "class": "Text", 
                "height": 25, 
                "width": 134, 
                "x": 1794, 
                "y": 792, 
                "text": "porche"
            }, 
            {
                "class": "Text", 
                "height": 30, 
                "width": 116, 
                "x": 1097, 
                "y": 861, 
                "text": "dress"
            }, 
            {
                "class": "Text", 
                "height": 25, 
                "width": 61, 
                "x": 1626, 
                "y": 851, 
                "text": "wc"
            }, 
            {
                "class": "Text", 
                "height": 25, 
                "width": 154, 
                "x": 2642, 
                "y": 857, 
                "text": "arcades"
            }, 
            {
                "class": "Text", 
                "height": 25, 
                "width": 75, 
                "x": 791, 
                "y": 891, 
                "text": "dou"
            }, 
            {
                "class": "Text", 
                "height": 25, 
                "width": 134, 
                "x": 2160, 
                "y": 904, 
                "text": "garage"
            }, 
            {
                "class": "Text", 
                "height": 25, 
                "width": 132, 
                "x": 2408, 
                "y": 1175, 
                "text": "cellier"
            }, 
            {
                "class": "Text", 
                "height": 23, 
                "width": 36, 
                "x": 1811, 
                "y": 1188, 
                "text": "pl"
            }, 
            {
                "class": "Text", 
                "height": 25, 
                "width": 70, 
                "x": 1327, 
                "y": 1198, 
                "text": "ch 3"
            }, 
            {
                "class": "Text", 
                "height": 25, 
                "width": 130, 
                "x": 1587, 
                "y": 1211, 
                "text": "bureau"
            }, 
            {
                "class": "Text", 
                "height": 25, 
                "width": 128, 
                "x": 2679, 
                "y": 1206, 
                "text": "cuisine"
            }, 
            {
                "class": "Text", 
                "height": 25, 
                "width": 70, 
                "x": 878, 
                "y": 1251, 
                "text": "ch 2"
            }, 
            {
                "class": "Text", 
                "height": 26, 
                "width": 106, 
                "x": 2466, 
                "y": 1577, 
                "text": "repas"
            }, 
            {
                "class": "Text", 
                "height": 25, 
                "width": 106, 
                "x": 1994, 
                "y": 1789, 
                "text": "salon"
            }, 
            {
                "class": "Text", 
                "height": 25, 
                "width": 154, 
                "x": 2712, 
                "y": 1956, 
                "text": "arcades"
            }, 
            {
                "class": "Text", 
                "height": 44, 
                "width": 40, 
                "x": 2825, 
                "y": 2232, 
                "text": "ch"
            }, 
            {
                "class": "Unknown", 
                "xn": "740;767;787;809", 
                "yn": "307;284;263;242"
            }, 
            {
                "class": "Unknown", 
                "xn": "2947;2997;1091;1092", 
                "yn": "715;715;199;218"
            }, 
            {
                "class": "Unknown", 
                "xn": "1743;1844;1844;1743", 
                "yn": "1326;1326;1377;1377"
            }, 
            {
                "class": "Unknown", 
                "xn": "1788;1959;1959;1788", 
                "yn": "693;693;714;714"
            }, 
            {
                "class": "Unknown", 
                "xn": "2491;2491;2512;2512", 
                "yn": "610;713;713;610"
            }
        ], 
        "class": "image", 
        "filename": "fp_41.png"
    }
]