[
    {
        "annotations": [
            {
                "class": "Room", 
                "type": "single", 
                "xn": "237;237;236;236;237;237;477;478;578;578", 
                "yn": "1227;1344;1345;1413;1414;1431;1431;1430;1430;1227", 
                "text": "cellar", 
                "x": 411, 
                "y": 1300
            }, 
            {
                "class": "Room", 
                "type": "single", 
                "xn": "958;958;957;957;1641;1641;1642;1642;1643;1643;1644;1644;1645;1645;1646;1646;1647;1647;1648;1648;1649;1649;1650;1650;1651;1651;1652;1652;1653;1653;1654;1654;1655;1655;1656;1656;1657;1657;1658;1658", 
                "yn": "1226;1438;1439;1537;1537;1508;1507;1492;1491;1475;1474;1458;1457;1442;1441;1425;1424;1408;1407;1392;1391;1375;1374;1358;1357;1342;1341;1325;1324;1308;1307;1292;1291;1275;1274;1258;1257;1242;1241;1226", 
                "text": "garage", 
                "x": 1327, 
                "y": 1353
            }, 
            {
                "class": "Room", 
                "type": "single", 
                "xn": "578;577;577;578;680;681;681;680", 
                "yn": "1537;1538;1562;1563;1563;1562;1538;1537", 
                "text": "unknown room", 
                "x": 629, 
                "y": 1550
            }, 
            {
                "class": "Room", 
                "type": "single", 
                "xn": "587;588;590;595;596;596;597;602;603;603;604;606;607;608;609;611;613;613;614;619;620;620;621;626;627;626;625;624;621;620;617;616;614;613;610;609;609;610;655;656;653;653;646;646;641;641;642;656;659;660;666;667;673;674;680;681;687;688;693;694;696;696;695;588;587", 
                "yn": "1261;1260;1262;1262;1263;1266;1267;1267;1268;1269;1270;1270;1271;1271;1272;1272;1274;1278;1279;1279;1280;1283;1284;1284;1285;1286;1286;1287;1287;1288;1288;1289;1289;1290;1290;1291;1311;1312;1312;1311;1308;1307;1300;1299;1294;1292;1291;1291;1294;1294;1300;1300;1306;1306;1312;1312;1318;1318;1323;1323;1325;1434;1435;1435;1434", 
                "text": "toilet", 
                "x": 630, 
                "y": 1383
            }, 
            {
                "class": "Door", 
                "xn": "815;920;920;815", 
                "yn": "1183;1183;1225;1225"
            }, 
            {
                "class": "Door", 
                "xn": "478;579;579;478", 
                "yn": "1431;1431;1438;1438"
            }, 
            {
                "class": "Door", 
                "xn": "437;530;530;437", 
                "yn": "2051;2051;2094;2094"
            }, 
            {
                "class": "Door", 
                "xn": "932;957;957;932", 
                "yn": "1437;1437;1538;1538"
            }, 
            {
                "class": "Door", 
                "xn": "596;690;690;596", 
                "yn": "1435;1435;1456;1456"
            }, 
            {
                "class": "Window", 
                "xn": "194;236;236;194", 
                "yn": "1343;1343;1414;1414"
            }, 
            {
                "class": "Window", 
                "xn": "194;236;236;194", 
                "yn": "1614;1614;1792;1792"
            }, 
            {
                "class": "Window", 
                "xn": "1282;1564;1564;1282", 
                "yn": "2051;2051;2094;2094"
            }, 
            {
                "class": "Window", 
                "xn": "797;1080;1080;797", 
                "yn": "2051;2051;2094;2094"
            }, 
            {
                "class": "Window", 
                "xn": "1642;1683;1683;1659", 
                "yn": "1516;1516;1233;1233"
            }, 
            {
                "class": "Wall", 
                "xn": "1080;1283;1283;1080", 
                "yn": "2052;2052;2094;2094"
            }, 
            {
                "class": "Wall", 
                "xn": "194;816;816;194", 
                "yn": "1184;1184;1226;1226"
            }, 
            {
                "class": "Wall", 
                "xn": "932;1684;1684;932", 
                "yn": "1538;1538;1580;1580"
            }, 
            {
                "class": "Wall", 
                "xn": "530;798;798;530", 
                "yn": "2052;2052;2094;2094"
            }, 
            {
                "class": "Wall", 
                "xn": "194;438;438;194", 
                "yn": "2052;2052;2094;2094"
            }, 
            {
                "class": "Wall", 
                "xn": "1564;1684;1684;1564", 
                "yn": "2051;2051;2094;2094"
            }, 
            {
                "class": "Wall", 
                "xn": "1642;1683;1683;1642", 
                "yn": "1516;1516;2094;2094"
            }, 
            {
                "class": "Wall", 
                "xn": "195;236;236;195", 
                "yn": "1792;1792;2094;2094"
            }, 
            {
                "class": "Wall", 
                "xn": "195;236;236;195", 
                "yn": "1184;1184;1344;1344"
            }, 
            {
                "class": "Wall", 
                "xn": "195;236;236;195", 
                "yn": "1414;1414;1615;1615"
            }, 
            {
                "class": "Wall", 
                "xn": "933;957;957;933", 
                "yn": "1184;1184;1438;1438"
            }, 
            {
                "class": "Wall", 
                "xn": "578;680;680;578", 
                "yn": "1538;1538;1562;1562"
            }, 
            {
                "class": "Wall", 
                "xn": "1659;1683;1683;1659", 
                "yn": "1184;1184;1233;1233"
            }, 
            {
                "class": "Wall", 
                "xn": "920;1684;1684;920", 
                "yn": "1184;1184;1225;1225"
            }, 
            {
                "class": "Wall", 
                "xn": "579;585;585;579", 
                "yn": "1184;1184;1438;1438"
            }, 
            {
                "class": "Wall", 
                "xn": "194;479;479;194", 
                "yn": "1432;1432;1438;1438"
            }, 
            {
                "class": "Wall", 
                "xn": "472;479;479;472", 
                "yn": "1432;1432;1539;1539"
            }, 
            {
                "class": "Stair", 
                "xn": "584;585;801;802;802;801;697;696;696;693;692;685;684;677;676;669;668;661;660;656;648;647;640;642;642;647;647;653;653;656;655;634;633;611;610;610;611;611;612;613;614;617;618;621;622;624;625;628;625;624;622;621;618;617;615;614;611;610;608;607;605;604;601;600;598;597;594;593;591;590;587;586;584", 
                "yn": "1226;1225;1225;1226;1436;1437;1437;1436;1325;1322;1322;1315;1315;1308;1308;1301;1301;1294;1294;1290;1290;1291;1291;1293;1294;1299;1300;1306;1307;1310;1311;1311;1310;1310;1309;1300;1299;1291;1290;1290;1289;1289;1288;1288;1287;1287;1286;1286;1283;1283;1281;1281;1278;1278;1276;1276;1273;1273;1271;1271;1269;1269;1266;1266;1264;1264;1261;1261;1259;1259;1256;1256;1254"
            }, 
            {
                "class": "Text", 
                "height": 25, 
                "width": 134, 
                "x": 344, 
                "y": 1288, 
                "text": "cellier"
            }, 
            {
                "class": "Text", 
                "height": 25, 
                "width": 135, 
                "x": 1260, 
                "y": 1341, 
                "text": "garage"
            }, 
            {
                "class": "Text", 
                "height": 25, 
                "width": 55, 
                "x": 603, 
                "y": 1371, 
                "text": "wc"
            }, 
            {
                "class": "Text", 
                "height": 24, 
                "width": 78, 
                "x": 688, 
                "y": 1484, 
                "text": "hall"
            }, 
            {
                "class": "Text", 
                "height": 25, 
                "width": 127, 
                "x": 380, 
                "y": 1714, 
                "text": "cuisine"
            }, 
            {
                "class": "Text", 
                "height": 25, 
                "width": 106, 
                "x": 794, 
                "y": 1832, 
                "text": "repas"
            }, 
            {
                "class": "Text", 
                "height": 25, 
                "width": 131, 
                "x": 1389, 
                "y": 1832, 
                "text": "sejour"
            }, 
            {
                "class": "Unknown", 
                "xn": "576;681;681;576", 
                "yn": "1523;1523;1576;1576"
            }
        ], 
        "class": "image", 
        "filename": "fp_76.png"
    }
]