[
    {
        "annotations": [
            {
                "class": "Room", 
                "type": "single", 
                "xn": "1392;1392;1393;1393;1613;1613;1614;1614;1613;1613;1614;1614", 
                "yn": "1148;1246;1247;1469;1469;1436;1435;1341;1340;1270;1269;1148", 
                "text": "bathroom", 
                "x": 1518, 
                "y": 1272
            }, 
            {
                "class": "Room", 
                "type": "single", 
                "xn": "683;683;682;682;683;683;1064;1064;1063;1063", 
                "yn": "1089;1200;1201;1340;1341;1417;1417;1247;1246;1089", 
                "text": "bedroom 3", 
                "x": 866, 
                "y": 1239
            }, 
            {
                "class": "Room", 
                "type": "single", 
                "xn": "1173;1173;1174;1174;1246;1246", 
                "yn": "1007;1072;1073;1138;1138;1007", 
                "text": "closet", 
                "x": 1210, 
                "y": 1071
            }, 
            {
                "class": "Room", 
                "type": "single", 
                "xn": "1255;1255;1253;1179;1179;1256;1257;1257;1283;1284;1382;1383;1614;1614;1613;1613;1614;1614", 
                "yn": "757;988;990;990;998;998;999;1140;1140;1139;1139;1140;1140;969;968;827;826;757", 
                "text": "bedroom 1", 
                "x": 1413, 
                "y": 902
            }, 
            {
                "class": "Room", 
                "type": "single", 
                "xn": "1179;1179;1180;1180;1251;1251", 
                "yn": "757;869;870;986;986;757", 
                "text": "closet", 
                "x": 1216, 
                "y": 841
            }, 
            {
                "class": "Room", 
                "type": "single", 
                "xn": "683;683;682;682;683;683;1073;1074;1074;1073;1073;1170;1170;1169;1169;1170;1170;1171;1171", 
                "yn": "757;828;829;968;969;1081;1081;1082;1088;1089;1139;1139;1073;1072;1005;1004;999;998;757", 
                "text": "bedroom 2", 
                "x": 919, 
                "y": 908
            }, 
            {
                "class": "Room", 
                "type": "single", 
                "xn": "1180;1181;1274;1275;1275;1276;1285;1286;1286;1287;1329;1330;1328;1328;1327;1327;1325;1325;1324;1324;1323;1323;1322;1322;1320;1320;1319;1319;1318;1318;1316;1317;1382;1383;1383;1384;1393;1394;1394;1395;1458;1459;1459;1458;1383;1382;1382;1383;1459;1460;1460;1459;1459;1458;1458;1457;1075;1074;1074;1075;1179;1180", 
                "yn": "1248;1247;1247;1248;1478;1479;1479;1478;1437;1436;1436;1435;1433;1432;1431;1430;1428;1427;1426;1425;1424;1423;1422;1421;1419;1418;1417;1416;1415;1414;1412;1411;1411;1412;1495;1496;1496;1495;1480;1479;1479;1480;1593;1594;1594;1595;1602;1603;1603;1604;1943;1944;2073;2074;2200;2201;2201;2200;1480;1479;1479;1478", 
                "text": "salon", 
                "x": 1271, 
                "y": 1744
            }, 
            {
                "class": "Room", 
                "type": "single", 
                "xn": "1074;1075;1169;1170;1170;1169;1075;1074", 
                "yn": "1149;1148;1148;1149;1467;1468;1468;1467", 
                "text": "toilet", 
                "x": 1118, 
                "y": 1321
            }, 
            {
                "class": "Door", 
                "xn": "1071;1171;1171;1071", 
                "yn": "1140;1140;1147;1147"
            }, 
            {
                "class": "Door", 
                "xn": "1284;1383;1383;1284", 
                "yn": "1140;1140;1147;1147"
            }, 
            {
                "class": "Door", 
                "xn": "1064;1072;1072;1064", 
                "yn": "1146;1146;1247;1247"
            }, 
            {
                "class": "Door", 
                "xn": "1383;1392;1392;1383", 
                "yn": "1146;1146;1247;1247"
            }, 
            {
                "class": "Window", 
                "xn": "1509;1649;1649;1509", 
                "yn": "2202;2202;2245;2245"
            }, 
            {
                "class": "Window", 
                "xn": "1614;1656;1656;1614", 
                "yn": "827;827;969;969"
            }, 
            {
                "class": "Window", 
                "xn": "1614;1656;1656;1614", 
                "yn": "1270;1270;1341;1341"
            }, 
            {
                "class": "Window", 
                "xn": "639;682;682;639", 
                "yn": "827;827;969;969"
            }, 
            {
                "class": "Window", 
                "xn": "1029;1072;1072;1029", 
                "yn": "1506;1506;1613;1613"
            }, 
            {
                "class": "Window", 
                "xn": "1029;1072;1072;1029", 
                "yn": "1890;1890;2103;2103"
            }, 
            {
                "class": "Window", 
                "xn": "639;682;682;639", 
                "yn": "1199;1199;1341;1341"
            }, 
            {
                "class": "Window", 
                "xn": "1844;1887;1887;1844", 
                "yn": "1618;1618;1761;1761"
            }, 
            {
                "class": "Wall", 
                "xn": "1030;1072;1072;1030", 
                "yn": "1418;1418;1507;1507"
            }, 
            {
                "class": "Wall", 
                "xn": "639;1073;1073;639", 
                "yn": "1418;1418;1460;1460"
            }, 
            {
                "class": "Wall", 
                "xn": "1845;1887;1887;1845", 
                "yn": "1761;1761;2245;2245"
            }, 
            {
                "class": "Wall", 
                "xn": "1649;1888;1888;1649", 
                "yn": "2203;2203;2245;2245"
            }, 
            {
                "class": "Wall", 
                "xn": "1030;1072;1072;1030", 
                "yn": "1613;1613;1891;1891"
            }, 
            {
                "class": "Wall", 
                "xn": "1845;1887;1887;1845", 
                "yn": "1436;1436;1619;1619"
            }, 
            {
                "class": "Wall", 
                "xn": "1029;1510;1510;1029", 
                "yn": "2203;2203;2245;2245"
            }, 
            {
                "class": "Wall", 
                "xn": "640;682;682;640", 
                "yn": "969;969;1200;1200"
            }, 
            {
                "class": "Wall", 
                "xn": "640;682;682;640", 
                "yn": "1341;1341;1460;1460"
            }, 
            {
                "class": "Wall", 
                "xn": "1030;1072;1072;1030", 
                "yn": "2103;2103;2245;2245"
            }, 
            {
                "class": "Wall", 
                "xn": "640;682;682;640", 
                "yn": "710;710;828;828"
            }, 
            {
                "class": "Wall", 
                "xn": "1615;1656;1656;1615", 
                "yn": "1341;1341;1477;1477"
            }, 
            {
                "class": "Wall", 
                "xn": "1615;1656;1656;1615", 
                "yn": "969;969;1271;1271"
            }, 
            {
                "class": "Wall", 
                "xn": "1614;1888;1888;1614", 
                "yn": "1436;1436;1477;1477"
            }, 
            {
                "class": "Wall", 
                "xn": "1615;1656;1656;1615", 
                "yn": "710;710;828;828"
            }, 
            {
                "class": "Wall", 
                "xn": "639;1657;1657;639", 
                "yn": "710;710;756;756"
            }, 
            {
                "class": "Wall", 
                "xn": "1029;1179;1179;1029", 
                "yn": "1470;1470;1478;1478"
            }, 
            {
                "class": "Wall", 
                "xn": "1065;1072;1072;1065", 
                "yn": "1247;1247;1507;1507"
            }, 
            {
                "class": "Wall", 
                "xn": "1755;1888;1888;1755", 
                "yn": "1807;1807;1815;1815"
            }, 
            {
                "class": "Wall", 
                "xn": "1383;1888;1888;1383", 
                "yn": "1470;1470;1477;1477"
            }, 
            {
                "class": "Wall", 
                "xn": "639;1073;1073;639", 
                "yn": "1082;1082;1088;1088"
            }, 
            {
                "class": "Wall", 
                "xn": "1383;1657;1657;1383", 
                "yn": "1141;1141;1147;1147"
            }, 
            {
                "class": "Wall", 
                "xn": "1172;1178;1178;1172", 
                "yn": "710;710;1005;1005"
            }, 
            {
                "class": "Wall", 
                "xn": "1172;1179;1179;1172", 
                "yn": "1247;1247;1477;1477"
            }, 
            {
                "class": "Wall", 
                "xn": "1461;1468;1468;1461", 
                "yn": "1471;1471;1814;1814"
            }, 
            {
                "class": "Wall", 
                "xn": "1384;1392;1392;1384", 
                "yn": "1247;1247;1495;1495"
            }, 
            {
                "class": "Wall", 
                "xn": "1064;1072;1072;1064", 
                "yn": "1082;1082;1147;1147"
            }, 
            {
                "class": "Wall", 
                "xn": "1171;1256;1256;1171", 
                "yn": "999;999;1005;1005"
            }, 
            {
                "class": "Wall", 
                "xn": "1383;1468;1468;1383", 
                "yn": "1595;1595;1601;1601"
            }, 
            {
                "class": "Wall", 
                "xn": "1277;1392;1392;1277", 
                "yn": "1247;1247;1253;1253"
            }, 
            {
                "class": "Wall", 
                "xn": "1249;1256;1256;1249", 
                "yn": "999;999;1147;1147"
            }, 
            {
                "class": "Wall", 
                "xn": "1277;1284;1284;1277", 
                "yn": "1247;1247;1477;1477"
            }, 
            {
                "class": "Wall", 
                "xn": "1171;1285;1285;1171", 
                "yn": "1141;1141;1147;1147"
            }, 
            {
                "class": "Wall", 
                "xn": "1251;1255;1255;1251", 
                "yn": "988;988;751;751"
            }, 
            {
                "class": "Wall", 
                "xn": "1178;1253;1253;1178", 
                "yn": "990;990;986;986"
            }, 
            {
                "class": "Wall", 
                "xn": "1170;1173;1172;1169", 
                "yn": "1140;1139;1004;1005"
            }, 
            {
                "class": "Stair", 
                "xn": "1283;1284;1382;1383;1383;1382;1315;1315;1317;1317;1319;1319;1321;1321;1323;1323;1325;1325;1327;1327;1329;1329;1330;1329;1284;1283;1283;1284;1329;1329;1330;1330;1308;1307;1284;1283", 
                "yn": "1253;1252;1252;1253;1410;1411;1411;1412;1414;1415;1417;1418;1420;1421;1423;1424;1426;1427;1429;1430;1432;1433;1434;1435;1435;1434;1300;1299;1299;1288;1287;1277;1277;1276;1276;1275"
            }, 
            {
                "class": "Text", 
                "height": 30, 
                "width": 54, 
                "x": 1189, 
                "y": 826, 
                "text": "pl"
            }, 
            {
                "class": "Text", 
                "height": 31, 
                "width": 89, 
                "x": 875, 
                "y": 893, 
                "text": "ch 2"
            }, 
            {
                "class": "Text", 
                "height": 31, 
                "width": 84, 
                "x": 1371, 
                "y": 887, 
                "text": "ch 1"
            }, 
            {
                "class": "Text", 
                "height": 30, 
                "width": 54, 
                "x": 1183, 
                "y": 1056, 
                "text": "pl"
            }, 
            {
                "class": "Text", 
                "height": 30, 
                "width": 116, 
                "x": 1260, 
                "y": 1165, 
                "text": "degt"
            }, 
            {
                "class": "Text", 
                "height": 30, 
                "width": 89, 
                "x": 822, 
                "y": 1224, 
                "text": "ch 3"
            }, 
            {
                "class": "Text", 
                "height": 31, 
                "width": 116, 
                "x": 1460, 
                "y": 1257, 
                "text": "bains"
            }, 
            {
                "class": "Text", 
                "height": 31, 
                "width": 77, 
                "x": 1080, 
                "y": 1306, 
                "text": "wc"
            }, 
            {
                "class": "Text", 
                "height": 31, 
                "width": 159, 
                "x": 1584, 
                "y": 1589, 
                "text": "cuisine"
            }, 
            {
                "class": "Text", 
                "height": 31, 
                "width": 134, 
                "x": 1204, 
                "y": 1729, 
                "text": "salon"
            }, 
            {
                "class": "Text", 
                "height": 30, 
                "width": 134, 
                "x": 1589, 
                "y": 1983, 
                "text": "repas"
            }, 
            {
                "class": "Unknown", 
                "xn": "1147;1169;1192;1170", 
                "yn": "1163;1238;1231;1156"
            }
        ], 
        "class": "image", 
        "filename": "fp_89.png"
    }
]