[
    {
        "annotations": [
            {
                "class": "Room", 
                "type": "single", 
                "xn": "821;821;822;822;1007;1007", 
                "yn": "1684;1730;1731;1782;1782;1684", 
                "text": "toilet", 
                "x": 993, 
                "y": 1712
            }, 
            {
                "class": "Room", 
                "type": "single", 
                "xn": "821;821;820;820;821;821;1049;1050;1149;1149", 
                "yn": "1477;1574;1575;1643;1644;1676;1676;1675;1675;1477", 
                "text": "cellar", 
                "x": 955, 
                "y": 1588
            }, 
            {
                "class": "Room", 
                "type": "single", 
                "xn": "1157;1157;1158;1158;1360;1360", 
                "yn": "1230;1266;1267;1302;1302;1230", 
                "text": "closet", 
                "x": 1275, 
                "y": 1276
            }, 
            {
                "class": "Room", 
                "type": "single", 
                "xn": "1134;1135;1377;1378;1378;1377;1361;1360;1360;1359;1135;1134", 
                "yn": "788;787;787;788;1014;1015;1015;1016;1203;1204;1204;1203", 
                "text": "other room", 
                "x": 1269, 
                "y": 1063
            }, 
            {
                "class": "Room", 
                "type": "single", 
                "xn": "822;823;1131;1132;1132;1133;1154;1155;1155;1154;1132;1131;1131;1130;823;822", 
                "yn": "788;787;787;788;1320;1321;1321;1322;1418;1419;1419;1420;1432;1433;1433;1432", 
                "text": "garage", 
                "x": 970, 
                "y": 1181
            }, 
            {
                "class": "Door", 
                "xn": "1050;1150;1150;1050", 
                "yn": "1676;1676;1683;1683"
            }, 
            {
                "class": "Door", 
                "xn": "1664;1758;1758;1664", 
                "yn": "1764;1764;1781;1781"
            }, 
            {
                "class": "Door", 
                "xn": "1008;1051;1051;1008", 
                "yn": "1682;1682;1783;1783"
            }, 
            {
                "class": "Door", 
                "xn": "1361;1371;1371;1361", 
                "yn": "1683;1683;1782;1782"
            }, 
            {
                "class": "Door", 
                "xn": "1155;1155;1176;1176", 
                "yn": "1328;1413;1413;1328"
            }, 
            {
                "class": "Window", 
                "xn": "1664;1758;1758;1664", 
                "yn": "1781;1781;1807;1807"
            }, 
            {
                "class": "Window", 
                "xn": "819;1108;1108;819", 
                "yn": "761;761;785;785"
            }, 
            {
                "class": "Window", 
                "xn": "1840;1883;1883;1840", 
                "yn": "1549;1549;1691;1691"
            }, 
            {
                "class": "Window", 
                "xn": "1361;1404;1404;1361", 
                "yn": "1319;1319;1435;1435"
            }, 
            {
                "class": "Window", 
                "xn": "1380;1404;1404;1380", 
                "yn": "944;944;1016;1016"
            }, 
            {
                "class": "Window", 
                "xn": "1604;1647;1647;1604", 
                "yn": "1965;1965;2179;2179"
            }, 
            {
                "class": "Window", 
                "xn": "873;1013;1013;873", 
                "yn": "2278;2278;2321;2321"
            }, 
            {
                "class": "Window", 
                "xn": "777;820;820;777", 
                "yn": "1573;1573;1644;1644"
            }, 
            {
                "class": "Window", 
                "xn": "778;821;820;778", 
                "yn": "1765;1765;1695;1695"
            }, 
            {
                "class": "Wall", 
                "xn": "689;874;874;689", 
                "yn": "2278;2278;2321;2321"
            }, 
            {
                "class": "Wall", 
                "xn": "1604;1647;1647;1604", 
                "yn": "1765;1765;1966;1966"
            }, 
            {
                "class": "Wall", 
                "xn": "1841;1883;1883;1841", 
                "yn": "1435;1435;1550;1550"
            }, 
            {
                "class": "Wall", 
                "xn": "1013;1648;1648;1013", 
                "yn": "2279;2279;2321;2321"
            }, 
            {
                "class": "Wall", 
                "xn": "1758;1884;1884;1758", 
                "yn": "1764;1764;1807;1807"
            }, 
            {
                "class": "Wall", 
                "xn": "778;820;820;778", 
                "yn": "762;762;1574;1574"
            }, 
            {
                "class": "Wall", 
                "xn": "689;1157;1157;689", 
                "yn": "1783;1783;1825;1825"
            }, 
            {
                "class": "Wall", 
                "xn": "1605;1647;1647;1605", 
                "yn": "2179;2179;2321;2321"
            }, 
            {
                "class": "Wall", 
                "xn": "1841;1883;1883;1841", 
                "yn": "1691;1691;1807;1807"
            }, 
            {
                "class": "Wall", 
                "xn": "778;820;820;778", 
                "yn": "1644;1644;1695;1695"
            }, 
            {
                "class": "Wall", 
                "xn": "1362;1884;1884;1362", 
                "yn": "1435;1435;1476;1476"
            }, 
            {
                "class": "Wall", 
                "xn": "1362;1404;1404;1362", 
                "yn": "1016;1016;1320;1320"
            }, 
            {
                "class": "Wall", 
                "xn": "690;731;731;690", 
                "yn": "1783;1783;2321;2321"
            }, 
            {
                "class": "Wall", 
                "xn": "777;1157;1157;777", 
                "yn": "1435;1435;1476;1476"
            }, 
            {
                "class": "Wall", 
                "xn": "1362;1665;1665;1362", 
                "yn": "1782;1782;1807;1807"
            }, 
            {
                "class": "Wall", 
                "xn": "1381;1404;1404;1381", 
                "yn": "762;762;945;945"
            }, 
            {
                "class": "Wall", 
                "xn": "1132;1405;1405;1132", 
                "yn": "1205;1205;1229;1229"
            }, 
            {
                "class": "Wall", 
                "xn": "1108;1405;1405;1108", 
                "yn": "762;762;785;785"
            }, 
            {
                "class": "Wall", 
                "xn": "1133;1156;1156;1133", 
                "yn": "1205;1205;1320;1320"
            }, 
            {
                "class": "Wall", 
                "xn": "777;827;827;777", 
                "yn": "762;762;786;786"
            }, 
            {
                "class": "Wall", 
                "xn": "1371;1401;1401;1371", 
                "yn": "1426;1426;1476;1476"
            }, 
            {
                "class": "Wall", 
                "xn": "1133;1156;1156;1133", 
                "yn": "1420;1420;1476;1476"
            }, 
            {
                "class": "Wall", 
                "xn": "778;821;821;778", 
                "yn": "1765;1765;1825;1825"
            }, 
            {
                "class": "Wall", 
                "xn": "1604;1665;1665;1604", 
                "yn": "1765;1765;1781;1781"
            }, 
            {
                "class": "Wall", 
                "xn": "777;1051;1051;777", 
                "yn": "1677;1677;1683;1683"
            }, 
            {
                "class": "Wall", 
                "xn": "1362;1371;1371;1362", 
                "yn": "1426;1426;1684;1684"
            }, 
            {
                "class": "Wall", 
                "xn": "1150;1156;1156;1150", 
                "yn": "1420;1420;1683;1683"
            }, 
            {
                "class": "Wall", 
                "xn": "1156;1362;1362;1156", 
                "yn": "1306;1306;1302;1302"
            }, 
            {
                "class": "Stair", 
                "xn": "1262;1263;1361;1362;1362;1361;1263;1262", 
                "yn": "1506;1505;1505;1506;1681;1682;1682;1681"
            }, 
            {
                "class": "Text", 
                "height": 30, 
                "width": 168, 
                "x": 1185, 
                "y": 1048, 
                "text": "atelier"
            }, 
            {
                "class": "Text", 
                "height": 31, 
                "width": 170, 
                "x": 885, 
                "y": 1166, 
                "text": "garage"
            }, 
            {
                "class": "Text", 
                "height": 30, 
                "width": 41, 
                "x": 1255, 
                "y": 1261, 
                "text": "pl"
            }, 
            {
                "class": "Text", 
                "height": 30, 
                "width": 98, 
                "x": 1205, 
                "y": 1426, 
                "text": "hall"
            }, 
            {
                "class": "Text", 
                "height": 31, 
                "width": 166, 
                "x": 872, 
                "y": 1573, 
                "text": "cellier"
            }, 
            {
                "class": "Text", 
                "height": 30, 
                "width": 161, 
                "x": 1520, 
                "y": 1570, 
                "text": "cuisine"
            }, 
            {
                "class": "Text", 
                "height": 30, 
                "width": 66, 
                "x": 960, 
                "y": 1697, 
                "text": "wc"
            }, 
            {
                "class": "Text", 
                "height": 78, 
                "width": 223, 
                "x": 1677, 
                "y": 1863, 
                "text": "terrassecouverte"
            }, 
            {
                "class": "Text", 
                "height": 31, 
                "width": 162, 
                "x": 876, 
                "y": 2028, 
                "text": "sejour"
            }, 
            {
                "class": "Text", 
                "height": 31, 
                "width": 133, 
                "x": 1317, 
                "y": 2010, 
                "text": "repas"
            }, 
            {
                "class": "Unknown", 
                "xn": "1110;1110;1131;1131", 
                "yn": "799;1204;1204;799"
            }
        ], 
        "class": "image", 
        "filename": "fp_83.png"
    }
]