[
    {
        "annotations": [
            {
                "class": "Window",
                "xn": "471;542;542;471",
                "yn": "109;109;117;117"
            },
            {
                "class": "Window",
                "xn": "912;1296;1296;912",
                "yn": "1158;1158;1166;1166"
            },
            {
                "class": "Window",
                "xn": "171;242;242;171",
                "yn": "1038;1038;1046;1046"
            },
            {
                "class": "Window",
                "xn": "252;324;324;252",
                "yn": "1038;1038;1046;1046"
            },
            {
                "class": "Window",
                "xn": "640;831;831;640",
                "yn": "1158;1158;1166;1166"
            },
            {
                "class": "Window",
                "xn": "392;400;400;392",
                "yn": "710;710;1007;1007"
            },
            {
                "class": "Window",
                "xn": "228;299;299;228",
                "yn": "109;109;117;117"
            },
            {
                "class": "Window",
                "xn": "1337;1345;1345;1337",
                "yn": "578;578;651;651"
            },
            {
                "class": "Wall",
                "xn": "381;390;390;381",
                "yn": "110;110;117;117"
            },
            {
                "class": "Wall",
                "xn": "1129;1137;1137;1129",
                "yn": "247;247;334;334"
            },
            {
                "class": "Wall",
                "xn": "1042;1050;1050;1042",
                "yn": "110;110;254;254"
            },
            {
                "class": "Wall",
                "xn": "95;400;400;95",
                "yn": "544;544;552;552"
            },
            {
                "class": "Wall",
                "xn": "96;103;103;96",
                "yn": "110;110;938;938"
            },
            {
                "class": "Wall",
                "xn": "805;1050;1050;805",
                "yn": "544;544;551;551"
            },
            {
                "class": "Wall",
                "xn": "642;727;727;642",
                "yn": "544;544;551;551"
            },
            {
                "class": "Wall",
                "xn": "591;641;641;591",
                "yn": "1159;1159;1166;1166"
            },
            {
                "class": "Wall",
                "xn": "888;1346;1346;888",
                "yn": "110;110;117;117"
            },
            {
                "class": "Wall",
                "xn": "542;774;774;542",
                "yn": "110;110;117;117"
            },
            {
                "class": "Wall",
                "xn": "838;846;846;838",
                "yn": "619;619;686;686"
            },
            {
                "class": "Wall",
                "xn": "95;401;401;95",
                "yn": "679;679;686;686"
            },
            {
                "class": "Wall",
                "xn": "657;664;664;657",
                "yn": "279;279;551;551"
            },
            {
                "class": "Wall",
                "xn": "1338;1345;1345;1338",
                "yn": "651;651;1166;1166"
            },
            {
                "class": "Wall",
                "xn": "523;600;600;523",
                "yn": "1039;1039;1046;1046"
            },
            {
                "class": "Wall",
                "xn": "1117;1227;1227;1117",
                "yn": "328;328;334;334"
            },
            {
                "class": "Wall",
                "xn": "830;1346;1346;830",
                "yn": "679;679;686;686"
            },
            {
                "class": "Wall",
                "xn": "592;599;599;592",
                "yn": "1039;1039;1166;1166"
            },
            {
                "class": "Wall",
                "xn": "392;399;399;392",
                "yn": "544;544;605;605"
            },
            {
                "class": "Wall",
                "xn": "575;768;768;575",
                "yn": "679;679;686;686"
            },
            {
                "class": "Wall",
                "xn": "1338;1345;1345;1338",
                "yn": "110;110;579;579"
            },
            {
                "class": "Wall",
                "xn": "831;913;913;831",
                "yn": "1159;1159;1166;1166"
            },
            {
                "class": "Wall",
                "xn": "95;229;229;95",
                "yn": "110;110;117;117"
            },
            {
                "class": "Wall",
                "xn": "1296;1346;1346;1296",
                "yn": "1159;1159;1166;1166"
            },
            {
                "class": "Wall",
                "xn": "839;846;846;839",
                "yn": "544;544;559;559"
            },
            {
                "class": "Wall",
                "xn": "324;453;453;324",
                "yn": "1039;1039;1046;1046"
            },
            {
                "class": "Wall",
                "xn": "393;400;400;393",
                "yn": "679;679;711;711"
            },
            {
                "class": "Wall",
                "xn": "576;583;583;576",
                "yn": "679;679;1046;1046"
            },
            {
                "class": "Wall",
                "xn": "1211;1218;1218;1211",
                "yn": "110;110;254;254"
            },
            {
                "class": "Wall",
                "xn": "95;172;172;95",
                "yn": "1039;1039;1046;1046"
            },
            {
                "class": "Wall",
                "xn": "1114;1219;1219;1114",
                "yn": "247;247;254;254"
            },
            {
                "class": "Wall",
                "xn": "96;103;103;96",
                "yn": "1011;1011;1046;1046"
            },
            {
                "class": "Wall",
                "xn": "1279;1346;1346;1279",
                "yn": "328;328;334;334"
            },
            {
                "class": "Wall",
                "xn": "392;400;400;392",
                "yn": "1007;1007;1046;1046"
            },
            {
                "class": "Wall",
                "xn": "242;253;253;242",
                "yn": "1039;1039;1046;1046"
            },
            {
                "class": "Wall",
                "xn": "223;230;230;223",
                "yn": "544;544;616;616"
            },
            {
                "class": "Wall",
                "xn": "223;230;230;223",
                "yn": "672;672;686;686"
            },
            {
                "class": "Wall",
                "xn": "1041;1059;1059;1041",
                "yn": "328;328;336;336"
            },
            {
                "class": "Wall",
                "xn": "1041;1061;1061;1041",
                "yn": "246;246;254;254"
            },
            {
                "class": "Wall",
                "xn": "462;472;472;462",
                "yn": "110;110;117;117"
            },
            {
                "class": "Wall",
                "xn": "299;309;309;299",
                "yn": "110;110;117;117"
            },
            {
                "class": "Wall",
                "xn": "384;400;400;384",
                "yn": "597;597;605;605"
            },
            {
                "class": "Wall",
                "xn": "222;326;326;222",
                "yn": "598;598;603;603"
            },
            {
                "class": "Text",
                "height": 17,
                "text": "pantry",
                "width": 49,
                "x": 1106,
                "y": 121
            },
            {
                "class": "Text",
                "height": 18,
                "text": "nook",
                "width": 72,
                "x": 802,
                "y": 199
            },
            {
                "class": "Text",
                "height": 13,
                "text": "wic",
                "width": 34,
                "x": 1238,
                "y": 226
            },
            {
                "class": "Text",
                "height": 16,
                "text": "up",
                "width": 21,
                "x": 602,
                "y": 270
            },
            {
                "class": "Text",
                "height": 18,
                "text": "greatroom",
                "width": 165,
                "x": 249,
                "y": 315
            },
            {
                "class": "Text",
                "height": 19,
                "text": "kitchen",
                "width": 107,
                "x": 795,
                "y": 448
            },
            {
                "class": "Text",
                "height": 35,
                "text": "coveredporch",
                "width": 84,
                "x": 447,
                "y": 1080
            },
            {
                "class": "Unknown",
                "xn": "282;337;337;282",
                "yn": "560;560;587;587"
            },
            {
                "class": "Unknown",
                "xn": "134;189;189;134",
                "yn": "601;601;628;628"
            },
            {
                "class": "Unknown",
                "xn": "913;968;968;913",
                "yn": "600;600;627;627"
            },
            {
                "class": "wall",
                "height": 42.8866280665286,
                "width": 87.69355291215555,
                "x": 229.1554156390634,
                "y": 553.6855713066756
            },
            {
                "class": "wall",
                "height": 176.2460348765618,
                "width": 8.793186121824078,
                "x": 561.6169744765059,
                "y": 374.2838788376441
            },
            {
                "class": "wall",
                "height": 7.2639363615069215,
                "width": 19.880246884124176,
                "x": 563.1462242368231,
                "y": 542.8836649126197
            },
            {
                "class": "wall",
                "height": 358.60906879439256,
                "width": 6.88162392142749,
                "x": 1042.1837116561983,
                "y": 327.6417611479684
            },
            {
                "class": "wall",
                "height": 140.69097794918594,
                "width": 10.704748322220667,
                "x": 1036.8313374950878,
                "y": 544.4129146729371
            },
            {
                "class": "door",
                "height": 53.96535071063897,
                "width": 42.56422027881385,
                "x": 185.45838835768902,
                "y": 616.4211186806795
            },
            {
                "class": "door",
                "height": 49.61350512572915,
                "width": 57.690122239219875,
                "x": 325.5645898366642,
                "y": 598.2465676207102
            },
            {
                "class": "door",
                "height": 58.91962352245673,
                "width": 70.18840397757145,
                "x": 452.6830091397499,
                "y": 987.4671330239069
            },
            {
                "class": "door",
                "height": 49.0545091865763,
                "width": 56.06229621323007,
                "x": 583.2635048337975,
                "y": 542.8339642954104
            },
            {
                "class": "door",
                "height": 57.67947783476552,
                "width": 59.296659456301086,
                "x": 769.239391310378,
                "y": 629.0836507773029
            },
            {
                "class": "door",
                "height": 60.37478053732468,
                "width": 48.51544864606444,
                "x": 839.8563221174275,
                "y": 557.9276594297415
            },
            {
                "class": "door",
                "height": 46.35920648401722,
                "width": 52.28887242964743,
                "x": 1061.949264808301,
                "y": 204.8430053944946
            },
            {
                "class": "door",
                "height": 50.1649739000307,
                "width": 56.245576797004105,
                "x": 1058.7849794354968,
                "y": 327.592481074443
            },
            {
                "class": "door",
                "height": 43.58120349726647,
                "width": 51.75267915300401,
                "x": 1227.537231839672,
                "y": 288.7254731693903
            },
            {
                "class": "door",
                "height": 62.19400915755739,
                "width": 56.29238785063603,
                "x": 1279.7438818624391,
                "y": 702.2929355236586
            },
            {
                "class": "window",
                "height": 17.082045195033047,
                "width": 70.2261858018025,
                "x": 309.10367495774085,
                "y": 103.84798904281995
            },
            {
                "class": "window",
                "height": 15.961582604555232,
                "width": 69.16685795307274,
                "x": 390.67873613054263,
                "y": 103.37024924854825
            },
            {
                "class": "window",
                "height": 69.16685795307274,
                "width": 15.961582604555247,
                "x": 91.20904345460139,
                "y": 939.4531475823943
            },
            {
                "class": "Stairs",
                "xn": "572.888539098;570.328143392;608.093980048;620.895958575;606.173683269;616.415266091;653.54100382;652.900904893",
                "yn": "286.764319012;440.38806134;430.786577444;440.38806134;423.105390328;428.866280665;417.344499991;286.124220086"
            },
            {
                "class": "Text",
                "height": 14.722275306420329,
                "text": "coats",
                "width": 49.287617330189846,
                "x": 329.6509470785424,
                "y": 552.4053734539458
            },
            {
                "class": "Text",
                "height": 19.001884053041977,
                "text": "pwdr",
                "width": 71.44708403943781,
                "x": 108.69077678340005,
                "y": 638.4633041822101
            },
            {
                "class": "Text",
                "height": 25.082486950015323,
                "text": "dining",
                "width": 88.16874200611471,
                "x": 205.22034777285324,
                "y": 838.3631244202116
            },
            {
                "class": "Text",
                "height": 37.24369274396224,
                "text": "2-story foyer",
                "width": 85.88851591974975,
                "x": 443.88401147906035,
                "y": 862.6855360081054
            },
            {
                "class": "Text",
                "height": 18.241808690920294,
                "text": "opt. windows",
                "width": 115.53145504249517,
                "x": 324.5521796259568,
                "y": 76.00753621216786
            },
            {
                "class": "Text",
                "height": 35.723542019718934,
                "text": "opt. storage",
                "width": 62.32617969397768,
                "x": 582.9778027473276,
                "y": 478.0874027745359
            },
            {
                "class": "window",
                "height": 10.242150269724746,
                "width": 114.81989512901964,
                "x": 773.0128150939627,
                "y": 106.1949264808303
            },
            {
                "class": "Text",
                "height": 96.49183675161737,
                "text": "opt.built-in",
                "width": 15.632755674842997,
                "x": 1003.1916658925137,
                "y": 132.0698324253981
            },
            {
                "class": "Text",
                "height": 43.12484324094632,
                "text": "desk",
                "width": 14.5546345938194,
                "x": 1023.6759664319632,
                "y": 161.17910161303686
            },
            {
                "class": "Text",
                "height": 21.123264570081346,
                "text": "opt. island",
                "width": 87.69355291215584,
                "x": 812.2855375585832,
                "y": 374.4578719241695
            },
            {
                "class": "Text",
                "height": 30.726450809174253,
                "text": "opt.w",
                "width": 30.187390268662398,
                "x": 981.6292442720405,
                "y": 566.5526280779322
            },
            {
                "class": "Text",
                "height": 30.187390268662398,
                "text": "opt.d",
                "width": 30.726450809174253,
                "x": 981.0901837315287,
                "y": 623.1539848316743
            },
            {
                "class": "Text",
                "height": 22.042185501528706,
                "text": "3 car garage",
                "width": 190.01884053041965,
                "x": 870.2862896293221,
                "y": 890.0482490444857
            },
            {
                "class": "Text",
                "height": 26.7926565147892,
                "text": "den",
                "width": 56.800431811353064,
                "x": 1169.2315303054,
                "y": 494.0565861327125
            },
            {
                "class": "Text",
                "height": 34.29460033893008,
                "text": "opt.door",
                "width": 39.65313164188797,
                "x": 1288.1909252310638,
                "y": 771.6285076259285
            },
            {
                "class": "Text",
                "height": 34.29650047469568,
                "text": "opt. window",
                "width": 68.5930009493915,
                "x": 13.538092292643057,
                "y": 954.8867763744237
            },
            {
                "class": "room",
                "height": 477.47950083922353,
                "width": 750.9871760772255,
                "x": 584.1011369489531,
                "y": 679.1334647858861
            },
            {
                "class": "room",
                "height": 343.04352487478207,
                "width": 292.0505684744767,
                "x": 1045.3556062062614,
                "y": 333.77207825654466
            },
            {
                "class": "room",
                "height": 131.5098811097497,
                "width": 161.09960435944322,
                "x": 1050.4351753641256,
                "y": 116.71501948490284
            },
            {
                "class": "room",
                "height": 356.72055251019606,
                "width": 292.60948546919303,
                "x": 98.63241083231226,
                "y": 682.2075082568265
            },
            {
                "class": "room",
                "height": 129.86600759587782,
                "width": 128.22213408200594,
                "x": 98.63241083231226,
                "y": 549.0537536332049
            },
            {
                "class": "Room",
                "xn": "103.564031374;101.92015786;404.392884412;399.461263871;226.854544914;225.2106714;397.817390357;394.529643329;583.575097425;583.575097425;849.882606672;844.95098613;803.854148283;803.854148283;1043.85968131;1038.92806077;1132.62885106;1129.34110403;1047.14742834;1043.85968131",
                "yn": "113.427272457;539.19051255;544.122133092;606.589326619;600.013832563;678.919761229;677.275887715;1038.92806077;1037.28418725;682.207508257;677.275887715;549.053753633;552.341500661;537.546639036;547.409880119;330.418576288;327.130829261;244.937153567;249.868774109;116.715019485"
            },
            {
                "class": "Room",
                "xn": "1215.11126693;1341.14859605;1336.97056304;1132.94328441;1136.42497858;1217.89662227",
                "yn": "116.288585431;118.377601936;327.279252411;328.671930081;252.07465824;250.68198057"
            },
            {
                "class": "room",
                "height": 130.7723485210147,
                "width": 190.58750344990938,
                "x": 849.1406307552887,
                "y": 549.4784330232774
            }
        ],
        "class": "image",
        "filename": "100.png"
    }
]
