[
    {
        "annotations": [
            {
                "class": "Wall",
                "xn": "443;485;485;443",
                "yn": "461;461;1215;1215"
            },
            {
                "class": "Wall",
                "xn": "1573;1615;1615;1573",
                "yn": "1359;1359;2095;2095"
            },
            {
                "class": "Wall",
                "xn": "1760;2016;2016;1760",
                "yn": "1156;1156;1194;1194"
            },
            {
                "class": "Wall",
                "xn": "1572;1899;1899;1572",
                "yn": "1921;1921;1960;1960"
            },
            {
                "class": "Wall",
                "xn": "1345;1616;1616;1345",
                "yn": "2056;2056;2095;2095"
            },
            {
                "class": "Wall",
                "xn": "1799;1839;1839;1799",
                "yn": "825;825;1194;1194"
            },
            {
                "class": "Wall",
                "xn": "2099;2334;2334;2099",
                "yn": "815;815;855;855"
            },
            {
                "class": "Wall",
                "xn": "1565;1602;1602;1565",
                "yn": "797;797;1229;1229"
            },
            {
                "class": "Wall",
                "xn": "2297;2333;2333;2297",
                "yn": "781;781;1947;1947"
            },
            {
                "class": "Wall",
                "xn": "2151;2187;2187;2151",
                "yn": "1117;1117;1194;1194"
            },
            {
                "class": "Wall",
                "xn": "1568;1604;1604;1568",
                "yn": "461;461;646;646"
            },
            {
                "class": "Wall",
                "xn": "1444;1840;1840;1444",
                "yn": "962;962;998;998"
            },
            {
                "class": "Wall",
                "xn": "2035;2334;2334;2035",
                "yn": "1913;1913;1947;1947"
            },
            {
                "class": "Wall",
                "xn": "442;2279;2279;442",
                "yn": "461;461;494;494"
            },
            {
                "class": "Wall",
                "xn": "2150;2334;2334;2150",
                "yn": "1160;1160;1194;1194"
            },
            {
                "class": "Wall",
                "xn": "1778;1983;1983;1778",
                "yn": "824;824;854;854"
            },
            {
                "class": "Wall",
                "xn": "1444;1491;1491;1444",
                "yn": "822;822;850;850"
            },
            {
                "class": "Wall",
                "xn": "1564;1642;1642;1564",
                "yn": "1165;1165;1193;1193"
            },
            {
                "class": "Wall",
                "xn": "1546;1628;1628;1546",
                "yn": "822;822;847;847"
            },
            {
                "class": "Wall",
                "xn": "1444;1466;1466;1444",
                "yn": "822;822;997;997"
            },
            {
                "class": "Wall",
                "xn": "1147;1177;1177;1147",
                "yn": "2082;2082;2099;2099"
            },
            {
                "class": "Wall",
                "xn": "744;993;993;744",
                "yn": "2067;2067;2095;2095"
            },
            {
                "class": "Wall",
                "xn": "2148;2184;2184;2148",
                "yn": "815;815;888;888"
            },
            {
                "class": "Wall",
                "xn": "743;775;775;743",
                "yn": "1172;1172;1234;1234"
            },
            {
                "class": "Wall",
                "xn": "1345;2330;2330;1345",
                "yn": "2085;2085;2090;2090"
            },
            {
                "class": "Wall",
                "xn": "1564;1840;1840;1564",
                "yn": "1053;1053;1058;1058"
            },
            {
                "class": "Wall",
                "xn": "1572;1628;1628;1572",
                "yn": "816;816;821;821"
            },
            {
                "class": "Wall",
                "xn": "1546;1603;1603;1546",
                "yn": "848;848;855;855"
            },
            {
                "class": "Text",
                "height": 47,
                "text": "kitchen",
                "width": 212,
                "x": 1099,
                "y": 700
            },
            {
                "class": "Text",
                "height": 59,
                "text": "utility",
                "width": 183,
                "x": 1661,
                "y": 710
            },
            {
                "class": "Text",
                "height": 43,
                "text": "diningroom",
                "width": 366,
                "x": 573,
                "y": 817
            },
            {
                "class": "Text",
                "height": 59.846684118672215,
                "text": "d",
                "width": 68.39621042133967,
                "x": 1644.3588922130425,
                "y": 541.4699991689395
            },
            {
                "class": "Text",
                "height": 48.44731571511568,
                "text": "w",
                "width": 71.24605252222887,
                "x": 1808.2248130141688,
                "y": 548.5946044211623
            },
            {
                "class": "Text",
                "height": 64.80000000000109,
                "text": "bedroom",
                "width": 254.4000000000051,
                "x": 1837.2000000000362,
                "y": 1548.0000000000307
            },
            {
                "class": "Text",
                "height": 62.28329911493256,
                "text": "living room",
                "width": 385.7546267763563,
                "x": 950.3225961730028,
                "y": 1615.3474996259922
            },
            {
                "class": "Text",
                "height": 132.5941322530291,
                "text": "bath",
                "width": 58.771453214856365,
                "x": 2021.1646105596863,
                "y": 941.7767015161091
            },
            {
                "class": "Text",
                "height": 64.67726753790998,
                "text": "patio/balcony",
                "width": 384.0212760063407,
                "x": 1796.815338787562,
                "y": 1989.8365590960123
            },
            {
                "class": "Wall",
                "xn": "1914.0392988;1924.1308944;1944.3140856;1940.9502204",
                "yn": "464.2133976;851.0578956;861.1494912;467.5772628"
            },
            {
                "class": "Wall",
                "xn": "2291.06382979;2325.95744681;2327.65957447;2290.21276596",
                "yn": "626.382978723;627.234042553;690.212765957;685.957446809"
            },
            {
                "class": "Wall",
                "xn": "2255.31914894;2324.25531915;2326.80851064;2251.91489362",
                "yn": "628.085106383;628.936170213;661.276595745;660.425531915"
            },
            {
                "class": "window",
                "height": 95.31914893617261,
                "width": 33.191489361703134,
                "x": 2297.0212765958017,
                "y": 686.8085106383149
            },
            {
                "class": "window",
                "height": 48.219328347044666,
                "width": 130.59401427324644,
                "x": 530.4126118174931,
                "y": 1165.3004350535834
            },
            {
                "class": "Wall",
                "xn": "486.808510638;528.510638298;529.361702128;484.255319149",
                "yn": "1168.5106383;1169.36170213;1217.0212766;1214.46808511"
            },
            {
                "class": "Wall",
                "xn": "662.127659574",
                "yn": "1171.06382979"
            },
            {
                "class": "Wall",
                "xn": "662.127659574;742.978723404;740.425531915;663.829787234",
                "yn": "1171.91489362;1170.21276596;1205.95744681;1205.95744681"
            },
            {
                "class": "Wall",
                "xn": "745.233709383;776.581972492;779.431814593;746.658630433",
                "yn": "1397.84755049;1400.69739259;1895.14499709;1895.14499709"
            },
            {
                "class": "window",
                "height": 127.96137015241038,
                "width": 4.828730949147484,
                "x": 758.7143503848097,
                "y": 1896.4840802777023
            },
            {
                "class": "Wall",
                "xn": "746.038931643;779.236456919;778.029274181;744.228157537",
                "yn": "2025.0490418;2024.44545043;2095.06564056;2093.85845782"
            },
            {
                "class": "Wall",
                "xn": "1147.61600195;1176.15460094;1176.45820305;1147.00879771",
                "yn": "2050.52869766;2049.92149343;2098.49783213;2099.40863848"
            },
            {
                "class": "window",
                "height": 5.993105787949389,
                "width": 165.66656713830707,
                "x": 1177.2172083471437,
                "y": 2080.0357874031893
            },
            {
                "class": "window",
                "height": 7.074076136959093,
                "width": 136.42861121277974,
                "x": 1899.8947339261188,
                "y": 1932.2333676950739
            },
            {
                "class": "Wall",
                "xn": "2328.38163136;2325.34988445;2329.39221367;2331.41337828",
                "yn": "1948.40268458;2088.87362501;2088.87362501;1949.41326688"
            },
            {
                "class": "Wall",
                "xn": "2248.668;2252.052;2282.508;2277.432",
                "yn": "461.916;659.88;661.572;461.916"
            },
            {
                "class": "door",
                "height": 150.7244552072068,
                "width": 116.63201891033873,
                "x": 1485.7124870424675,
                "y": 644.1676121355626
            },
            {
                "class": "door",
                "height": 77.15656635607013,
                "width": 55.62450132646927,
                "x": 1489.301164547401,
                "y": 769.771324808235
            },
            {
                "class": "door",
                "height": 110.21092750763341,
                "width": 120.851982577336,
                "x": 1641.0027068205575,
                "y": 1167.475756218794
            },
            {
                "class": "door",
                "height": 128.4527361985522,
                "width": 124.65235938794422,
                "x": 1568.7955474190044,
                "y": 1228.2817851885227
            },
            {
                "class": "door",
                "height": 226.53741103020695,
                "width": 35.19903996086896,
                "x": 2148.946516585349,
                "y": 888.098854397305
            },
            {
                "class": "door",
                "height": 160.34516511405081,
                "width": 194.7048433527758,
                "x": 744.4596951723782,
                "y": 1235.675835918597
            },
            {
                "class": "door",
                "height": 164.06075968450727,
                "width": 157.66878203446151,
                "x": 992.8871949737717,
                "y": 1928.2465910971316
            },
            {
                "class": "door",
                "height": 131.81987005275164,
                "width": 115.74427614387946,
                "x": 1982.6565820942321,
                "y": 719.114900856881
            },
            {
                "class": "room",
                "height": 152.28518400000053,
                "width": 200.06092800000056,
                "x": 1600.4874240000054,
                "y": 997.3186560000033
            },
            {
                "class": "Room",
                "xn": "486.715392;1564.655616;1573.613568;1454.174208;1445.216256;1561.669632;1573.613568;776.35584;773.369856;486.715392",
                "yn": "489.701376;495.673344;815.173632;821.1456;1009.262592;1000.30464;2051.371008;2063.314944;1167.519744;1167.519744"
            },
            {
                "class": "Room",
                "xn": "1609.445376;1606.459392;1809.506304;1806.52032;1925.95968;1917.001728",
                "yn": "498.659328;964.472832;958.500864;812.187648;821.1456;495.673344"
            },
            {
                "class": "Room",
                "xn": "1946.861568;2251.431936;2257.403904;2296.221696;2299.20768;1949.847552",
                "yn": "495.673344;498.659328;662.888448;659.902464;806.21568;815.173632"
            },
            {
                "class": "room",
                "height": 319.5002880000012,
                "width": 110.48140800000056,
                "x": 2188.726272000007,
                "y": 842.0474880000028
            },
            {
                "class": "Room",
                "xn": "1842.352128;2146.922496;2152.894464;2290.249728;2302.193664;1618.403328;1600.487424;2027.483136;2015.5392;1833.394176",
                "yn": "856.977408;851.00544;1200.365568;1197.379584;1919.987712;1914.015744;1191.407616;1194.3936;1158.561792;1161.547776"
            },
            {
                "class": "room",
                "height": 119.43936000000053,
                "width": 710.6641920000027,
                "x": 1612.4313600000053,
                "y": 1958.8055040000065
            }
        ],
        "class": "image",
        "filename": "11.png"
    }
]
