[
    {
        "annotations": [
            {
                "class": "Room", 
                "type": "open", 
                "xn": "632;946;946;632", 
                "yn": "786;786;1043;1043", 
                "text": "laundry;opt.cabs/sink;", 
                "x": "759;902", 
                "y": "868;1005"
            }, 
            {
                "class": "Room", 
                "type": "single", 
                "xn": "1264;1507;1507;1264", 
                "yn": "784;784;987;987", 
                "text": "bath;", 
                "x": "1339", 
                "y": "934"
            }, 
            {
                "class": "Room", 
                "type": "single", 
                "xn": "914;632;628;1062;1069;967;881;857;864;881;915", 
                "yn": "763;765;139;131;644;744;661;661;689;682;725", 
                "text": "bedroom 2;", 
                "x": "850", 
                "y": "417"
            }, 
            {
                "class": "Room", 
                "type": "single", 
                "xn": "1081;1085;1185;1266;1285;1289;1235;1238;1522;1520;1506;1505;1525;1520", 
                "yn": "139;639;737;658;661;682;722;765;768;682;680;660;660;139", 
                "text": "bedroom 3;", 
                "x": "1308", 
                "y": "418"
            }, 
            {
                "class": "Room", 
                "type": "single", 
                "xn": "627;886;886;946;948;692;689;630", 
                "yn": "1071;1071;1128;1128;1456;1454;1397;1404", 
                "text": "walk-in closet;", 
                "x": "786", 
                "y": "1263"
            }, 
            {
                "class": "Room", 
                "type": "single", 
                "xn": "635;632;796;793;641;642;915;915;936;938", 
                "yn": "1477;1731;1738;1771;1766;2135;2134;1783;1783;1477", 
                "text": "masterbath;", 
                "x": "814", 
                "y": "1964"
            }, 
            {
                "class": "Room", 
                "type": "single", 
                "xn": "971;1076;1192;1252;1251;1178;1185;1138;1149;1370;1366;981;967", 
                "yn": "767;660;782;784;938;940;1251;1256;1434;1432;1503;1510;1498", 
                "text": "dn;", 
                "x": "1109", 
                "y": "1357"
            }, 
            {
                "class": "Room", 
                "type": "single", 
                "xn": "955;1149;1147;1463;1463;1520;1520;1460;1458;955", 
                "yn": "1532;1529;1684;1681;1736;1736;2244;2244;2306;2301", 
                "text": "masterbedroom;", 
                "x": "1230", 
                "y": "2000"
            }
        ], 
        "class": "image", 
        "filename": "2.png"
    }
]