[
    {
        "annotations": [
            {
                "class": "Room", 
                "type": "single", 
                "xn": "946;1246;1246;946", 
                "yn": "492;492;660;660", 
                "text": "bath;", 
                "x": "1020", 
                "y": "600"
            }, 
            {
                "class": "Room", 
                "type": "single", 
                "xn": "724;800;800;724", 
                "yn": "59;59;220;220", 
                "text": "clos;", 
                "x": "783", 
                "y": "143"
            }, 
            {
                "class": "Room", 
                "type": "single", 
                "xn": "715;802;802;715", 
                "yn": "232;232;391;391", 
                "text": "clos.;", 
                "x": "778", 
                "y": "302"
            }, 
            {
                "class": "Room", 
                "type": "single", 
                "xn": "55;165;165;55", 
                "yn": "483;483;591;591", 
                "text": "clos;", 
                "x": "119", 
                "y": "538"
            }, 
            {
                "class": "Room", 
                "type": "open", 
                "xn": "53;281;281;396;402;575;579;247;251;575;579;59;51;176;185;53", 
                "yn": "59;59;144;136;61;66;494;492;515;513;1022;1022;918;916;473;466", 
                "text": "dining;kitchen;livingroom;", 
                "x": "170;369;394", 
                "y": "138;280;761"
            }, 
            {
                "class": "Room", 
                "type": "open", 
                "xn": "822;818;724;715;845;843;1250;1246;928;926;965;963;943;948;1248;1248", 
                "yn": "70;411;409;498;500;1018;1018;673;671;392;392;406;406;473;477;57", 
                "text": "bedroom;hall;bedroom;", 
                "x": "1052;781;1053", 
                "y": "237;457;840"
            }
        ], 
        "class": "image", 
        "filename": "36.png"
    }
]