[
    {
        "annotations": [
            {
                "class": "Window",
                "xn": "3020;3048;3048;3020",
                "yn": "3068;3068;3331;3331"
            },
            {
                "class": "Window",
                "xn": "461;723;723;461",
                "yn": "4027;4027;4054;4054"
            },
            {
                "class": "Window",
                "xn": "1057;1100;1100;1057",
                "yn": "3043;3043;3111;3111"
            },
            {
                "class": "Window",
                "xn": "1733;1993;1993;1733",
                "yn": "4400;4400;4427;4427"
            },
            {
                "class": "Window",
                "xn": "2260;2288;2288;2260",
                "yn": "837;837;1100;1100"
            },
            {
                "class": "Wall",
                "xn": "981;1120;1120;981",
                "yn": "3979;3979;4028;4028"
            },
            {
                "class": "Wall",
                "xn": "905;1120;1120;905",
                "yn": "2696;2696;2739;2739"
            },
            {
                "class": "Wall",
                "xn": "1100;1141;1141;1100",
                "yn": "2439;2439;2484;2484"
            },
            {
                "class": "Wall",
                "xn": "686;769;769;686",
                "yn": "2696;2696;2735;2735"
            },
            {
                "class": "Wall",
                "xn": "905;992;992;905",
                "yn": "2203;2203;2241;2241"
            },
            {
                "class": "Wall",
                "xn": "1012;1100;1100;1012",
                "yn": "2202;2202;2241;2241"
            },
            {
                "class": "Wall",
                "xn": "1000;1252;1252;1000",
                "yn": "612;612;643;643"
            },
            {
                "class": "Wall",
                "xn": "854;1029;1029;854",
                "yn": "868;868;900;900"
            },
            {
                "class": "Wall",
                "xn": "212;769;769;212",
                "yn": "1950;1950;1978;1978"
            },
            {
                "class": "Wall",
                "xn": "723;1099;1099;723",
                "yn": "4027;4027;4055;4055"
            },
            {
                "class": "Wall",
                "xn": "212;462;462;212",
                "yn": "4028;4028;4054;4054"
            },
            {
                "class": "Wall",
                "xn": "212;331;331;212",
                "yn": "868;868;895;895"
            },
            {
                "class": "Wall",
                "xn": "979;1120;1120;979",
                "yn": "3044;3044;3071;3071"
            },
            {
                "class": "Wall",
                "xn": "1000;1252;1252;1000",
                "yn": "664;664;687;687"
            },
            {
                "class": "Wall",
                "xn": "212;707;707;212",
                "yn": "2786;2786;2806;2806"
            },
            {
                "class": "Wall",
                "xn": "212;791;791;212",
                "yn": "3397;3397;3417;3417"
            },
            {
                "class": "Wall",
                "xn": "927;949;949;927",
                "yn": "2884;2884;3057;3057"
            },
            {
                "class": "Wall",
                "xn": "1038;1058;1058;1038",
                "yn": "3044;3044;3417;3417"
            },
            {
                "class": "Wall",
                "xn": "979;1059;1059;979",
                "yn": "3396;3396;3418;3418"
            },
            {
                "class": "Wall",
                "xn": "404;423;423;404",
                "yn": "2233;2233;2274;2274"
            },
            {
                "class": "Wall",
                "xn": "1100;1119;1119;1100",
                "yn": "2222;2222;3111;3111"
            },
            {
                "class": "Wall",
                "xn": "311;330;330;311",
                "yn": "868;868;972;972"
            },
            {
                "class": "Wall",
                "xn": "686;791;791;686",
                "yn": "3051;3051;3071;3071"
            },
            {
                "class": "Wall",
                "xn": "404;423;423;404",
                "yn": "2674;2674;2806;2806"
            },
            {
                "class": "Wall",
                "xn": "855;874;874;855",
                "yn": "868;868;972;972"
            },
            {
                "class": "Wall",
                "xn": "1053;1072;1072;1053",
                "yn": "1917;1917;2027;2027"
            },
            {
                "class": "Wall",
                "xn": "1053;1072;1072;1053",
                "yn": "2165;2165;2241;2241"
            },
            {
                "class": "Wall",
                "xn": "687;706;706;687",
                "yn": "2696;2696;2901;2901"
            },
            {
                "class": "Wall",
                "xn": "212;424;424;212",
                "yn": "2232;2232;2252;2252"
            },
            {
                "class": "Wall",
                "xn": "982;1002;1002;982",
                "yn": "3572;3572;3601;3601"
            },
            {
                "class": "Wall",
                "xn": "854;1029;1029;854",
                "yn": "955;955;972;972"
            },
            {
                "class": "Wall",
                "xn": "212;260;260;212",
                "yn": "956;956;973;973"
            },
            {
                "class": "Wall",
                "xn": "282;331;331;282",
                "yn": "955;955;972;972"
            },
            {
                "class": "Wall",
                "xn": "213;228;228;213",
                "yn": "956;956;4054;4054"
            },
            {
                "class": "Wall",
                "xn": "927;1120;1120;927",
                "yn": "3043;3043;3058;3058"
            },
            {
                "class": "Wall",
                "xn": "2038;2289;2289;2038",
                "yn": "613;613;643;643"
            },
            {
                "class": "Wall",
                "xn": "2256;2288;2288;2256",
                "yn": "613;613;838;838"
            },
            {
                "class": "Wall",
                "xn": "2261;2288;2288;2261",
                "yn": "1100;1100;1315;1315"
            },
            {
                "class": "Wall",
                "xn": "2260;2369;2369;2260",
                "yn": "1288;1288;1315;1315"
            },
            {
                "class": "Wall",
                "xn": "2038;2289;2289;2038",
                "yn": "664;664;687;687"
            },
            {
                "class": "Wall",
                "xn": "2219;2289;2289;2219",
                "yn": "3158;3158;3209;3209"
            },
            {
                "class": "Wall",
                "xn": "2219;2289;2289;2219",
                "yn": "3366;3366;3416;3416"
            },
            {
                "class": "Wall",
                "xn": "2301;2347;2347;2301",
                "yn": "3703;3703;3774;3774"
            },
            {
                "class": "Wall",
                "xn": "1417;1460;1460;1417",
                "yn": "2439;2439;2484;2484"
            },
            {
                "class": "Wall",
                "xn": "2257;2289;2289;2257",
                "yn": "2439;2439;2700;2700"
            },
            {
                "class": "Wall",
                "xn": "2258;2288;2288;2258",
                "yn": "2819;2819;3218;3218"
            },
            {
                "class": "Wall",
                "xn": "1498;1525;1525;1498",
                "yn": "3396;3396;4427;4427"
            },
            {
                "class": "Wall",
                "xn": "3021;3048;3048;3021",
                "yn": "3331;3331;4047;4047"
            },
            {
                "class": "Wall",
                "xn": "3021;3048;3048;3021",
                "yn": "1289;1289;3069;3069"
            },
            {
                "class": "Wall",
                "xn": "2891;3049;3049;2891",
                "yn": "1289;1289;1315;1315"
            },
            {
                "class": "Wall",
                "xn": "1504;1925;1925;1504",
                "yn": "3674;3674;3701;3701"
            },
            {
                "class": "Wall",
                "xn": "1438;1526;1526;1438",
                "yn": "3979;3979;4008;4008"
            },
            {
                "class": "Wall",
                "xn": "1993;2318;2318;1993",
                "yn": "4401;4401;4427;4427"
            },
            {
                "class": "Wall",
                "xn": "1497;1734;1734;1497",
                "yn": "4401;4401;4427;4427"
            },
            {
                "class": "Wall",
                "xn": "2113;2322;2322;2113",
                "yn": "3677;3677;3701;3701"
            },
            {
                "class": "Wall",
                "xn": "2058;2105;2105;2058",
                "yn": "2932;2932;2957;2957"
            },
            {
                "class": "Wall",
                "xn": "2113;3049;3049;2113",
                "yn": "3396;3396;3416;3416"
            },
            {
                "class": "Wall",
                "xn": "1504;1758;1758;1504",
                "yn": "3396;3396;3416;3416"
            },
            {
                "class": "Wall",
                "xn": "2300;2940;2940;2300",
                "yn": "4028;4028;4048;4048"
            },
            {
                "class": "Wall",
                "xn": "1738;3049;3049;1738",
                "yn": "2534;2534;2554;2554"
            },
            {
                "class": "Wall",
                "xn": "2114;2134;2134;2114",
                "yn": "3576;3576;3701;3701"
            },
            {
                "class": "Wall",
                "xn": "1439;1459;1459;1439",
                "yn": "2439;2439;3111;3111"
            },
            {
                "class": "Wall",
                "xn": "2490;2702;2702;2490",
                "yn": "3703;3703;3723;3723"
            },
            {
                "class": "Wall",
                "xn": "2963;3049;3049;2963",
                "yn": "4027;4027;4048;4048"
            },
            {
                "class": "Wall",
                "xn": "1505;1525;1525;1505",
                "yn": "3027;3027;3178;3178"
            },
            {
                "class": "Wall",
                "xn": "1886;1925;1925;1886",
                "yn": "3396;3396;3417;3417"
            },
            {
                "class": "Wall",
                "xn": "2985;3049;3049;2985",
                "yn": "3702;3702;3724;3724"
            },
            {
                "class": "Wall",
                "xn": "1438;1759;1759;1438",
                "yn": "2666;2666;2686;2686"
            },
            {
                "class": "Wall",
                "xn": "1711;2289;2289;1711",
                "yn": "3158;3158;3178;3178"
            },
            {
                "class": "Wall",
                "xn": "2085;2105;2105;2085",
                "yn": "2874;2874;3178;3178"
            },
            {
                "class": "Wall",
                "xn": "2114;2134;2134;2114",
                "yn": "3396;3396;3438;3438"
            },
            {
                "class": "Wall",
                "xn": "1738;1758;1758;1738",
                "yn": "2823;2823;3178;3178"
            },
            {
                "class": "Wall",
                "xn": "1739;1758;1758;1739",
                "yn": "2439;2439;2700;2700"
            },
            {
                "class": "Wall",
                "xn": "1905;1924;1924;1905",
                "yn": "3396;3396;3701;3701"
            },
            {
                "class": "Wall",
                "xn": "2853;2872;2872;2853",
                "yn": "3868;3868;4048;4048"
            },
            {
                "class": "Wall",
                "xn": "1438;1759;1759;1438",
                "yn": "3027;3027;3047;3047"
            },
            {
                "class": "Wall",
                "xn": "1504;1568;1568;1504",
                "yn": "3158;3158;3178;3178"
            },
            {
                "class": "Wall",
                "xn": "1738;1808;1808;1738",
                "yn": "2932;2932;2953;2953"
            },
            {
                "class": "Wall",
                "xn": "2280;2299;2299;2280",
                "yn": "3396;3396;3601;3601"
            },
            {
                "class": "Wall",
                "xn": "1904;1962;1962;1904",
                "yn": "3583;3583;3604;3604"
            },
            {
                "class": "Wall",
                "xn": "2280;2299;2299;2280",
                "yn": "3630;3630;3701;3701"
            },
            {
                "class": "Wall",
                "xn": "1610;2289;2289;1610",
                "yn": "2439;2439;2455;2455"
            },
            {
                "class": "Wall",
                "xn": "2301;2317;2317;2301",
                "yn": "3897;3897;4427;4427"
            },
            {
                "class": "Wall",
                "xn": "2169;2289;2289;2169",
                "yn": "1845;1845;1870;1870"
            },
            {
                "class": "Wall",
                "xn": "2269;2288;2288;2269",
                "yn": "1845;1845;2287;2287"
            },
            {
                "class": "Wall",
                "xn": "993;1011;1011;993",
                "yn": "3603;3603;3628;3628"
            },
            {
                "class": "Wall",
                "xn": "2098;2135;2135;2098",
                "yn": "3586;3586;3604;3604"
            },
            {
                "class": "Wall",
                "xn": "1416;1474;1474;1416",
                "yn": "2439;2439;2456;2456"
            },
            {
                "class": "Wall",
                "xn": "2502;2525;2525;2502",
                "yn": "3396;3396;3723;3723"
            },
            {
                "class": "Wall",
                "xn": "2084;2119;2119;2084",
                "yn": "2874;2874;2894;2894"
            },
            {
                "class": "Wall",
                "xn": "2300;2361;2361;2300",
                "yn": "3702;3702;3724;3724"
            },
            {
                "class": "Wall",
                "xn": "2247;2289;2289;2247",
                "yn": "2873;2873;2891;2891"
            },
            {
                "class": "Wall",
                "xn": "2852;3049;3049;2852",
                "yn": "3703;3703;3723;3723"
            },
            {
                "class": "Wall",
                "xn": "930;948;948;930",
                "yn": "2696;2696;2746;2746"
            },
            {
                "class": "Wall",
                "xn": "982;1001;1001;982",
                "yn": "3397;3397;3434;3434"
            },
            {
                "class": "Wall",
                "xn": "912;1120;1120;912",
                "yn": "3051;3051;3071;3071"
            },
            {
                "class": "Wall",
                "xn": "687;706;706;687",
                "yn": "3040;3040;3070;3070"
            },
            {
                "class": "Wall",
                "xn": "912;1059;1059;912",
                "yn": "3397;3397;3417;3417"
            },
            {
                "class": "Wall",
                "xn": "764;790;790;764",
                "yn": "3051;3051;3417;3417"
            },
            {
                "class": "Wall",
                "xn": "722;1106;1106;722",
                "yn": "4029;4029;4034;4034"
            },
            {
                "class": "Wall",
                "xn": "212;331;331;212",
                "yn": "956;956;962;962"
            },
            {
                "class": "Wall",
                "xn": "905;1099;1099;905",
                "yn": "2203;2203;2213;2213"
            },
            {
                "class": "Wall",
                "xn": "2269;2277;2277;2269",
                "yn": "3356;3356;3416;3416"
            },
            {
                "class": "Wall",
                "xn": "2278;2286;2286;2278",
                "yn": "3356;3356;3601;3601"
            },
            {
                "class": "Wall",
                "xn": "2300;3049;3049;2300",
                "yn": "4040;4040;4048;4048"
            },
            {
                "class": "Text",
                "height": 63,
                "text": "eat",
                "width": 112,
                "x": 1590,
                "y": 1557
            },
            {
                "class": "Text",
                "height": 67,
                "text": "nook",
                "width": 180,
                "x": 1559,
                "y": 2304
            },
            {
                "class": "Text",
                "height": 68,
                "text": "dressing room",
                "width": 191,
                "x": 2664,
                "y": 3551
            },
            {
                "class": "Text",
                "height": 65.60730000000126,
                "text": "view",
                "width": 236.58390000000463,
                "x": 1550.7180000000305,
                "y": 345.9294000000068
            },
            {
                "class": "Text",
                "height": 86.9559154200017,
                "text": "relax",
                "width": 205.53216372000406,
                "x": 1545.4437695100303,
                "y": 972.325236060019
            },
            {
                "class": "Text",
                "height": 75.0982905900014,
                "text": "grand sleep",
                "width": 426.8744938800084,
                "x": 403.1592442200079,
                "y": 1399.1997299400275
            },
            {
                "class": "Text",
                "height": 67.59540000000129,
                "text": "relax",
                "width": 190.8576000000039,
                "x": 2550.73230000005,
                "y": 1926.4689000000378
            },
            {
                "class": "Text",
                "height": 85.38839394789102,
                "text": "splash",
                "width": 286.3022620605768,
                "x": 565.9073951840642,
                "y": 2404.2692884151365
            },
            {
                "class": "Text",
                "height": 78.32012865918796,
                "text": "splash",
                "width": 273.6993743466239,
                "x": 1862.840049399177,
                "y": 2698.2547550971804
            },
            {
                "class": "Text",
                "height": 87.06267618216361,
                "text": "dress",
                "width": 210.9595615183199,
                "x": 436.9876631450911,
                "y": 2899.8568297597617
            },
            {
                "class": "Text",
                "height": 81.00000000000182,
                "text": "dress",
                "width": 193.0000000000041,
                "x": 1513.0000000000305,
                "y": 2841.0000000000573
            },
            {
                "class": "Text",
                "height": 87.47640000000183,
                "text": "sleep",
                "width": 282.3102000000058,
                "x": 2520.910800000051,
                "y": 2926.4832000000592
            },
            {
                "class": "Text",
                "height": 79.5240000000017,
                "text": "w",
                "width": 89.46450000000186,
                "x": 934.4070000000191,
                "y": 3093.4836000000637
            },
            {
                "class": "Text",
                "height": 77.53590000000167,
                "text": "d",
                "width": 67.5954000000014,
                "x": 944.3475000000194,
                "y": 3198.852900000066
            },
            {
                "class": "Text",
                "height": 84.60000000000173,
                "text": "greet",
                "width": 201.6300000000042,
                "x": 1173.1200000000242,
                "y": 3458.730000000072
            },
            {
                "class": "Text",
                "height": 72.88374600000134,
                "text": "read",
                "width": 190.61902800000394,
                "x": 507.3830010000105,
                "y": 3683.4323940000763
            },
            {
                "class": "Text",
                "height": 70.50000000000136,
                "text": "arrive",
                "width": 235.4700000000048,
                "x": 1166.070000000024,
                "y": 4089.000000000084
            },
            {
                "class": "Text",
                "height": 98.70000000000164,
                "text": "sleep",
                "width": 235.47000000000503,
                "x": 1813.2600000000373,
                "y": 3984.660000000082
            },
            {
                "class": "Text",
                "height": 89.46450000000186,
                "text": "splash",
                "width": 274.3578000000057,
                "x": 2435.4225000000506,
                "y": 3761.4852000000783
            },
            {
                "class": "Wall",
                "xn": "768.70033077;768.70033077;749.833211852;750.372272392;766.544088608;768.161270229;730.966092934;729.887971853",
                "yn": "1978.35218368;1986.97715233;1988.05527341;2203.14042907;2202.60136853;2241.41372745;2241.41372745;1978.89124422"
            },
            {
                "class": "Wall",
                "xn": "1030.14469292;1051.168054;1052.24617508;1028.5275113;1028.5275113",
                "yn": "1915.82116098;1916.36022152;1986.43809179;1988.59433395;1988.59433395"
            },
            {
                "class": "Wall",
                "xn": "1027.44939022;1027.44939022;906.1607686;905.082647519;1006.96508968;1001.57448427",
                "yn": "644.177345912;1988.05527341;1987.51621287;1949.78197503;1949.24291449;644.716406452"
            },
            {
                "class": "Wall",
                "xn": "2319.07841022;2346.60266406;2345.32246621;2359.40464259;2359.40464259;2317.79821237;2317.79821237;2317.79821237",
                "yn": "3896.28216479;3896.28216479;3934.68810037;3933.40790252;4027.5024447;4027.5024447;4027.5024447;4027.5024447"
            },
            {
                "class": "door",
                "height": 264.2017428685558,
                "width": 147.01548595105123,
                "x": 3027.666746904978,
                "y": 4101.518992112655
            },
            {
                "class": "door",
                "height": 140.62350830100513,
                "width": 106.53296083409487,
                "x": 2771.9876409031503,
                "y": 3724.392310759959
            },
            {
                "class": "door",
                "height": 6.080602896972778,
                "width": 262.22599993195536,
                "x": 2699.7876862559588,
                "y": 3709.1677671534567
            },
            {
                "class": "door",
                "height": 154.325701525172,
                "width": 130.74816379215918,
                "x": 2357.7537733012346,
                "y": 3567.710141509004
            },
            {
                "class": "door",
                "height": 145.30245628509192,
                "width": 133.14057668413716,
                "x": 1964.4636050173895,
                "y": 3583.273789797115
            },
            {
                "class": "door",
                "height": 136.98117024233352,
                "width": 143.38215950599374,
                "x": 1990.067562072032,
                "y": 3439.2515313647564
            },
            {
                "class": "door",
                "height": 151.06334662238623,
                "width": 129.2999831259408,
                "x": 1757.071552874792,
                "y": 3395.7248043718655
            },
            {
                "class": "door",
                "height": 192.66977683617915,
                "width": 316.20886962482587,
                "x": 1120.1731211405781,
                "y": 3802.827721540671
            },
            {
                "class": "door",
                "height": 135.0349888345254,
                "width": 144.6803451798487,
                "x": 857.3650084731775,
                "y": 3435.8902714562587
            },
            {
                "class": "door",
                "height": 7.681187116392266,
                "width": 123.5390927886466,
                "x": 789.2419762093334,
                "y": 3403.405991488261
            },
            {
                "class": "door",
                "height": 138.25010761630028,
                "width": 140.39352013748294,
                "x": 928.0976216722149,
                "y": 2746.783145895943
            },
            {
                "class": "door",
                "height": 134.4783834402424,
                "width": 140.79615984347538,
                "x": 2270.7893472191276,
                "y": 3218.455807704058
            },
            {
                "class": "door",
                "height": 151.2549970622008,
                "width": 139.85386663037661,
                "x": 1570.31569814325,
                "y": 3158.113129615297
            },
            {
                "class": "door",
                "height": 108.1767185558615,
                "width": 121.61879600954853,
                "x": 1936.2992522572886,
                "y": 2833.077848096119
            },
            {
                "class": "door",
                "height": 152.52917316376534,
                "width": 130.8682254955379,
                "x": 2118.2601740553655,
                "y": 2872.783184498606
            },
            {
                "class": "door",
                "height": 124.55044909230537,
                "width": 146.21139676053235,
                "x": 1611.9355223105601,
                "y": 2701.300682125144
            },
            {
                "class": "door",
                "height": 139.85386663037661,
                "width": 134.53333909552566,
                "x": 1475.3062778780516,
                "y": 2439.0818370482575
            },
            {
                "class": "door",
                "height": 136.34107131596784,
                "width": 142.1019616532625,
                "x": 928.7835421571345,
                "y": 2027.1932998012717
            },
            {
                "class": "door",
                "height": 22.666587411509454,
                "width": 524.353722119587,
                "x": 2367.902831589027,
                "y": 1288.9732708011743
            },
            {
                "class": "door",
                "height": 21.633871483641656,
                "width": 525.5758189849396,
                "x": 329.598394956657,
                "y": 944.2548612271795
            },
            {
                "class": "door",
                "height": 27.978724071459624,
                "width": 818.6033139617414,
                "x": 1238.2841750336372,
                "y": 638.0954167265172
            },
            {
                "class": "room",
                "height": 604.6742161937673,
                "width": 741.295168806585,
                "x": 235.29164061096384,
                "y": 3415.5238153204427
            },
            {
                "class": "room",
                "height": 260.59181702074466,
                "width": 379.50264614671596,
                "x": 1528.1306551507757,
                "y": 3415.5238153204427
            },
            {
                "class": "room",
                "height": 336.49234625008785,
                "width": 285.8919934305259,
                "x": 1454.7601435624108,
                "y": 2684.3487170777703
            },
            {
                "class": "room",
                "height": 217.581517124117,
                "width": 268.1818699436792,
                "x": 1462.3501964853451,
                "y": 2449.0570764668064
            },
            {
                "class": "room",
                "height": 306.1321345583506,
                "width": 146.7410231767301,
                "x": 951.2866330077677,
                "y": 2734.9490698973323
            },
            {
                "class": "room",
                "height": 263.1218346617229,
                "width": 164.45114666357722,
                "x": 2104.9746772937838,
                "y": 2891.8101636379747
            },
            {
                "class": "room",
                "height": 258.06179937976685,
                "width": 139.150970253796,
                "x": 2130.274853703565,
                "y": 3420.583850602399
            },
            {
                "class": "room",
                "height": 273.2419052256355,
                "width": 204.93142891922616,
                "x": 2299.7860356490983,
                "y": 3420.583850602399
            },
            {
                "class": "room",
                "height": 285.8919934305263,
                "width": 493.35343999073075,
                "x": 2527.4876233371274,
                "y": 3410.463780038486
            },
            {
                "class": "Room",
                "xn": "1523.14435423;1931.71956562;1931.71956562;2117.98179434;2108.96910586;2301.23979357;2301.23979357;2352.31169499;2349.3074655;3007.23372502;3022.25487249;2872.04339772;2863.03070923;2848.00956175;2848.00956175;2370.33707197;2352.31169499;2298.23556407;2307.24825256;1520.14012473",
                "yn": "3710.22342697;3704.21496798;3611.08385362;3596.06270614;3704.21496798;3704.21496798;3773.31224637;3776.31647587;3731.25303344;3722.24034495;4025.667524;4025.667524;3869.44759023;3863.43913124;4025.667524;4022.6632945;3905.49834418;3896.48565569;4404.20044043;4398.19198144"
            },
            {
                "class": "Room",
                "xn": "2295.23133458;2286.21864609;2265.18903962;2265.18903962;2087.93949939;2081.9310404;2069.91412241;2087.93949939;1754.47002538;1748.46156639;2256.17635114;2256.17635114;2289.22287559;2286.21864609;3022.25487249;3019.250643",
                "yn": "3397.78355943;2820.97149629;2817.9672668;2869.03916822;2866.03493873;2941.14067612;2935.13221712;3169.46211778;3160.44942929;2559.60353018;2559.60353018;2700.80231647;2700.80231647;2559.60353018;2553.59507119;3391.77510044"
            },
            {
                "class": "Room",
                "xn": "234.329900651;988.391504027;1012.42533999;913.285766639;904.273078152;1054.48455293;1057.48878242;910.281537143;901.268848656;1090.53530687;1099.54799536;901.268848656;913.285766639;1039.46340545;1042.46763495;784.103898331;796.120816313;678.955865988;687.968554474;769.082750853;775.091209845;225.317212164;222.312982669;687.968554474;684.964324979;705.993931448;705.993931448;775.091209845;775.091209845;684.964324979;681.960095483;426.600588364;429.60481786;402.5667524;396.558293409;225.317212164;222.312982669;417.587899877;423.596358869;330.465244507;318.448326525;739.040455898;730.027767412;775.091209845;757.065832871;222.312982669",
                "yn": "973.370356549;973.370356549;1949.74494259;1946.7407131;1994.80838503;1997.81261452;2205.10444971;2199.09599072;2241.15520366;2235.14674467;2694.79385748;2700.80231647;3070.32254442;3082.33946241;3385.76664145;3403.79201843;3043.28447896;3043.28447896;3073.32677392;3076.33100341;3391.77510044;3388.77087095;2805.95034882;2811.95880781;2899.08146318;2902.08569267;2733.84884092;2736.85307042;2688.78539849;2688.78539849;2781.91651285;2778.91228336;2673.76425101;2673.76425101;2781.91651285;2784.92074235;2253.17212164;2250.16789215;2220.12559719;2226.13405618;1982.79146704;1973.77877856;2256.17635114;2232.14251517;1958.75763108;1949.74494259"
            },
            {
                "class": "Room",
                "xn": "1499.11051827;1060.49301192;1048.47609394;1144.61143779;1144.61143779;1123.58183133;1111.56491334;1069.50570041;1069.50570041;1111.56491334;1123.58183133;1030.45071696;1030.45071696;2259.18058063;2259.18058063;3022.25487249;3019.250643;2301.23979357;2292.22710508;2265.18903962;2262.18481013;1754.47002538;1754.47002538;1411.9878629;1436.02169886;1417.99632189;1499.11051827;1499.11051827;2214.1171382;2217.12136769;2280.2101871;2286.21864609;2229.13828568;2208.10867921;2117.98179434;2120.98602384;1934.72379512;1928.71533612;1499.11051827",
                "yn": "3980.60408157;3980.60408157;3106.37329837;3106.37329837;3064.31408543;3064.31408543;2217.12136769;2205.10444971;1979.78723755;1961.76186058;1916.69841814;1910.68995915;681.960095483;687.968554474;1321.86097803;1318.85674853;2529.56123523;2538.57392372;2430.42166188;2436.43012087;2532.56546472;2526.55700573;2418.40474389;2445.44280935;3055.30139695;3115.38598686;3103.36906887;3169.46211778;3184.48326525;3208.51710122;3214.52556021;3355.7243465;3364.73703498;3397.78355943;3394.77932994;3575.03309967;3578.03732917;3388.77087095;3397.78355943"
            }
        ],
        "class": "image",
        "filename": "37.png"
    }
]
