[
    {
        "annotations": [
            {
                "class": "Room", 
                "type": "single", 
                "xn": "28;234;234;28", 
                "yn": "1489;1489;1697;1697", 
                "text": "ensuite;", 
                "x": "157", 
                "y": "1587"
            }, 
            {
                "class": "Room", 
                "type": "single", 
                "xn": "26;291;291;26", 
                "yn": "1327;1327;1475;1475", 
                "text": "laundry;", 
                "x": "188", 
                "y": "1359"
            }, 
            {
                "class": "Room", 
                "type": "single", 
                "xn": "432;878;878;432", 
                "yn": "3;3;340;340", 
                "text": "outdoor room;", 
                "x": "680", 
                "y": "68"
            }, 
            {
                "class": "Room", 
                "type": "single", 
                "xn": "25;349;340;26", 
                "yn": "26;30;333;331", 
                "text": "bedroom 3;", 
                "x": "247", 
                "y": "86"
            }, 
            {
                "class": "Room", 
                "type": "single", 
                "xn": "26;212;212;26", 
                "yn": "346;346;439;439", 
                "text": "wc;", 
                "x": "139", 
                "y": "376"
            }, 
            {
                "class": "Room", 
                "type": "single", 
                "xn": "26;296;296;26", 
                "yn": "448;448;634;634", 
                "text": "bathroom;", 
                "x": "213", 
                "y": "492"
            }, 
            {
                "class": "Room", 
                "type": "single", 
                "xn": "25;342;342;25", 
                "yn": "994;994;1315;1315", 
                "text": "bedroom 2;", 
                "x": "184", 
                "y": "1027"
            }, 
            {
                "class": "Room", 
                "type": "open", 
                "xn": "26;407;407;321;321;398;405;236;240;25", 
                "yn": "2063;2050;1706;1711;1701;1701;1491;1494;1706;1708", 
                "text": "robe;wir;mastersuite;robe;", 
                "x": "313;305;254;380", 
                "y": "1514;1620;1769;1592"
            }, 
            {
                "class": "Room", 
                "type": "single", 
                "xn": "300;390;390;300", 
                "yn": "1430;1430;1481;1481", 
                "text": "broom;", 
                "x": "350", 
                "y": "1461"
            }, 
            {
                "class": "Room", 
                "type": "open", 
                "xn": "216;214;306;303;22;24;409;415;297;302;411;406;611;604;521;524;550;545;918;914;1098;1103;861;867;411;414;394;389;401;400", 
                "yn": "352;436;441;657;649;985;983;1329;1325;1421;1427;1866;1866;1438;1437;1207;1205;1266;1269;1204;1207;794;788;373;364;787;779;757;760;349", 
                "text": "dining;kitchen;entry;family;childrens retreat;", 
                "x": "914;687;522;636;256", 
                "y": "854;1152;1662;678;809"
            }, 
            {
                "class": "Room", 
                "type": "single", 
                "xn": "616;616;701;702;1168;1168;1213;1219;1104;1101;923;923", 
                "yn": "1278;1866;1869;1887;1885;1864;1861;1284;1270;1216;1217;1275", 
                "text": "doublegarage;", 
                "x": "963", 
                "y": "1557"
            }
        ], 
        "class": "image", 
        "filename": "39.png"
    }
]