[
    {
        "annotations": [
            {
                "class": "Window",
                "xn": "136;433;433;136",
                "yn": "0;0;29;29"
            },
            {
                "class": "Window",
                "xn": "0;28;28;0",
                "yn": "1611;1611;1648;1648"
            },
            {
                "class": "Wall",
                "xn": "173;226;226;173",
                "yn": "2128;2128;2222;2222"
            },
            {
                "class": "Wall",
                "xn": "1071;1152;1152;1071",
                "yn": "1;1;53;53"
            },
            {
                "class": "Wall",
                "xn": "687;719;719;687",
                "yn": "972;972;1095;1095"
            },
            {
                "class": "Wall",
                "xn": "280;370;370;280",
                "yn": "972;972;1002;1002"
            },
            {
                "class": "Wall",
                "xn": "393;425;425;393",
                "yn": "1661;1661;1738;1738"
            },
            {
                "class": "Wall",
                "xn": "0;97;97;0",
                "yn": "971;971;1003;1003"
            },
            {
                "class": "Wall",
                "xn": "0;97;97;0",
                "yn": "436;436;469;469"
            },
            {
                "class": "Wall",
                "xn": "0;107;107;0",
                "yn": "2127;2127;2156;2156"
            },
            {
                "class": "Wall",
                "xn": "1122;1348;1348;1122",
                "yn": "1362;1362;1390;1390"
            },
            {
                "class": "Wall",
                "xn": "1123;1151;1151;1123",
                "yn": "411;411;1111;1111"
            },
            {
                "class": "Wall",
                "xn": "1122;1151;1151;1122",
                "yn": "1310;1310;1390;1390"
            },
            {
                "class": "Wall",
                "xn": "1;28;28;1",
                "yn": "1;1;1326;1326"
            },
            {
                "class": "Wall",
                "xn": "661;768;768;661",
                "yn": "2076;2076;2104;2104"
            },
            {
                "class": "Wall",
                "xn": "1;28;28;1",
                "yn": "1648;1648;2156;2156"
            },
            {
                "class": "Wall",
                "xn": "433;570;570;433",
                "yn": "1;1;29;29"
            },
            {
                "class": "Wall",
                "xn": "541;649;649;541",
                "yn": "410;410;438;438"
            },
            {
                "class": "Wall",
                "xn": "1;28;28;1",
                "yn": "1494;1494;1612;1612"
            },
            {
                "class": "Wall",
                "xn": "1004;1152;1152;1004",
                "yn": "411;411;438;438"
            },
            {
                "class": "Wall",
                "xn": "542;569;569;542",
                "yn": "378;378;438;438"
            },
            {
                "class": "Wall",
                "xn": "0;137;137;0",
                "yn": "1;1;29;29"
            },
            {
                "class": "Wall",
                "xn": "542;569;569;542",
                "yn": "1;1;80;80"
            },
            {
                "class": "Wall",
                "xn": "0;256;256;0",
                "yn": "1429;1429;1455;1455"
            },
            {
                "class": "Wall",
                "xn": "1295;1348;1348;1295",
                "yn": "2075;2075;2103;2103"
            },
            {
                "class": "Wall",
                "xn": "357;451;451;357",
                "yn": "2127;2127;2155;2155"
            },
            {
                "class": "Wall",
                "xn": "1322;1347;1347;1322",
                "yn": "1362;1362;2103;2103"
            },
            {
                "class": "Wall",
                "xn": "686;1348;1348;686",
                "yn": "1378;1378;1390;1390"
            },
            {
                "class": "Wall",
                "xn": "230;290;290;230",
                "yn": "1595;1595;1607;1607"
            },
            {
                "class": "Wall",
                "xn": "0;370;370;0",
                "yn": "1226;1226;1238;1238"
            },
            {
                "class": "Wall",
                "xn": "491;542;542;491",
                "yn": "1083;1083;1095;1095"
            },
            {
                "class": "Wall",
                "xn": "344;370;370;344",
                "yn": "1433;1433;1445;1445"
            },
            {
                "class": "Wall",
                "xn": "1;29;29;1",
                "yn": "1419;1419;1458;1458"
            },
            {
                "class": "Wall",
                "xn": "686;1152;1152;686",
                "yn": "1029;1029;1039;1039"
            },
            {
                "class": "Wall",
                "xn": "358;369;369;358",
                "yn": "972;972;1445;1445"
            },
            {
                "class": "Wall",
                "xn": "0;426;426;0",
                "yn": "1661;1661;1672;1672"
            },
            {
                "class": "Wall",
                "xn": "231;242;242;231",
                "yn": "1537;1537;1672;1672"
            },
            {
                "class": "Wall",
                "xn": "531;541;541;531",
                "yn": "972;972;1095;1095"
            },
            {
                "class": "Wall",
                "xn": "280;542;542;280",
                "yn": "972;972;983;983"
            },
            {
                "class": "Wall",
                "xn": "414;425;425;414",
                "yn": "1596;1596;1738;1738"
            },
            {
                "class": "Wall",
                "xn": "366;426;426;366",
                "yn": "1596;1596;1607;1607"
            },
            {
                "class": "Text",
                "height": 30,
                "text": "dining",
                "width": 126,
                "x": 261,
                "y": 327
            },
            {
                "class": "Text",
                "height": 27,
                "text": "pantry",
                "width": 84,
                "x": 147,
                "y": 1089
            },
            {
                "class": "Text",
                "height": 29,
                "text": "study",
                "width": 118,
                "x": 875,
                "y": 1208
            },
            {
                "class": "Text",
                "height": 30,
                "text": "laundry",
                "width": 167,
                "x": 122,
                "y": 1351
            },
            {
                "class": "Text",
                "height": 30,
                "text": "toilet",
                "width": 112,
                "x": 106,
                "y": 1543
            },
            {
                "class": "Text",
                "height": 23,
                "text": "closet",
                "width": 61,
                "x": 307,
                "y": 1625
            },
            {
                "class": "Text",
                "height": 29,
                "text": "entry",
                "width": 113,
                "x": 510,
                "y": 1865
            },
            {
                "class": "Wall",
                "xn": "717.735500987;717.735500987;687.231742195;685.437403442;667.494015918;658.522322155;710.558145977;714.146823482;697.99777471;699.792113462;699.792113462",
                "yn": "1378.05216189;1318.83898306;1324.22199932;2068.87258159;2074.25559785;2221.39137555;2221.39137555;2077.84427536;2077.84427536;1378.05216189;1378.05216189"
            },
            {
                "class": "Wall",
                "xn": "450.379026869;450.379026869;430.641300592;421.66960683;394.754525543;394.754525543",
                "yn": "2124.49708292;2072.4612591;2072.4612591;2013.24808027;2007.86506401;2126.29142167"
            },
            {
                "class": "door",
                "height": 296.86263418383675,
                "width": 24.649243993603704,
                "x": 542.283367859283,
                "y": 78.23455702317717
            },
            {
                "class": "door",
                "height": 25.451613510166624,
                "width": 355.050008466824,
                "x": 646.4709831582315,
                "y": 411.0435581891905
            },
            {
                "class": "door",
                "height": 76.35484053049981,
                "width": 86.53548593456645,
                "x": 255.78871577717427,
                "y": 1368.0242261714545
            },
            {
                "class": "door",
                "height": 86.5354859345664,
                "width": 86.53548593456642,
                "x": 2.5451613510166595,
                "y": 1328.5742252306964
            },
            {
                "class": "door",
                "height": 76.35484053049981,
                "width": 62.35645309990815,
                "x": 176.88871389565784,
                "y": 1459.6500348080542
            },
            {
                "class": "door",
                "height": 67.44677580194138,
                "width": 75.08225985499149,
                "x": 290.14839401589916,
                "y": 1537.2774560140624
            },
            {
                "class": "door",
                "height": 94.76664604849248,
                "width": 95.66918553466877,
                "x": 507.2271912309797,
                "y": 2004.5401987971636
            },
            {
                "class": "window",
                "height": 36.43801286011012,
                "width": 25.720950254195248,
                "x": 0.0,
                "y": 1457.5205144043973
            },
            {
                "class": "window",
                "height": 27.86436277537814,
                "width": 63.23066937489668,
                "x": 107.17062605914691,
                "y": 2128.408633534658
            },
            {
                "class": "window",
                "height": 25.72095025419503,
                "width": 125.38963248920192,
                "x": 229.3451397665744,
                "y": 2128.408633534658
            },
            {
                "class": "window",
                "height": 193.78858526640875,
                "width": 28.709420039467886,
                "x": 1121.461720291717,
                "y": 1112.4900265293832
            },
            {
                "class": "Text",
                "height": 163.19942936286895,
                "text": "kitchen",
                "width": 45.33317482301919,
                "x": 140.53284195135944,
                "y": 615.0200717656269
            },
            {
                "class": "Text",
                "height": 36.2665398584154,
                "text": "family",
                "width": 117.86625453984993,
                "x": 852.2636866727605,
                "y": 834.1304167435528
            },
            {
                "class": "Text",
                "height": 73.80967917948306,
                "text": "home theater/ living",
                "width": 315.6000075260663,
                "x": 128.5306482263415,
                "y": 1994.1339185215559
            },
            {
                "class": "Text",
                "height": 51.37759813275511,
                "text": "double garage",
                "width": 333.9543878629079,
                "x": 896.0857556683459,
                "y": 1712.0829024826912
            },
            {
                "class": "Text",
                "height": 43.8220689955852,
                "text": "outdoor room",
                "width": 341.50991700007785,
                "x": 734.3974321329108,
                "y": 185.86601677437866
            },
            {
                "class": "Text",
                "height": 42.310963168151375,
                "text": "portico",
                "width": 169.243852672605,
                "x": 388.35419765053103,
                "y": 2171.459074022619
            },
            {
                "class": "Wall",
                "xn": "1121.87123449;1094.50852146;1092.22829537;1123.39138522",
                "yn": "970.616237429;971.376312791;1027.62188959;1029.14204031"
            },
            {
                "class": "Stairs",
                "xn": "486.202801516;511.625170223;510.263257614;368.624346248;370.440229727;528.876063274;529.330034144;488.926626735;489.834568474;484.840888907;483.932947168;476.669413251;476.215442382;478.031325861;478.031325861;476.215442382;476.215442382;486.202801516;486.202801516",
                "yn": "1318.33140579;1316.96949318;1372.80791016;1372.35393929;983.754874777;984.662816516;1080.90464091;1080.90464091;1090.89200004;1090.89200004;1087.71420395;1088.62214569;1099.97141744;1099.51744657;1311.97581362;1312.88375536;1321.05523101;1322.87111449;1319.23934753"
            },
            {
                "class": "room",
                "height": 191.75932950137167,
                "width": 323.8602009356502,
                "x": 29.829229033546724,
                "y": 1240.043664108871
            },
            {
                "class": "room",
                "height": 210.93526245150906,
                "width": 208.80460323482708,
                "x": 25.567910600182906,
                "y": 1446.717608127016
            },
            {
                "class": "room",
                "height": 686.0722677715746,
                "width": 620.0218320544355,
                "x": 700.986882288348,
                "y": 1384.9284908432408
            },
            {
                "class": "room",
                "height": 406.9559103862446,
                "width": 568.8860108540697,
                "x": 573.1473292874335,
                "y": 8.522636866727636
            },
            {
                "class": "Room",
                "xn": "29.8292290335;274.855038952;276.985698169;351.558770753;357.950748403;276.985698169;276.985698169;545.448759471;551.840737121;498.574256704;513.48887122;362.212066836;377.126681353;240.764491485;240.764491485;428.262502553;432.523820986;389.910636653;389.910636653;17.0452737335;34.0905474669;392.041295869;389.910636653;413.347888036;424.00118412;688.202926988;679.680290122;718.032156022;720.162815238;1118.59608876;1124.98806641;715.901496805;722.293474455;681.810949338;692.464245422;724.424133672;724.424133672;1090.89751894;1090.89751894;1124.98806641;1127.11872562;528.403485737;534.795463387;23.4372513835;29.8292290335;93.749005534;93.749005534;21.3065921668;31.9598882502;95.8796647507;95.8796647507;29.8292290335",
                "yn": "1222.99839038;1231.52102724;1118.59608876;1112.20411111;1007.80180949;1005.67115027;969.44994359;965.188625157;1099.42015581;1093.02817816;1367.88321711;1384.92849084;1446.71760813;1442.45628969;1591.60243486;1595.86375329;1745.00989846;1747.14055768;1672.5674851;1672.5674851;2130.65921668;2120.0059206;2000.68900446;1998.55834525;2066.73944018;2073.13141783;1325.27003278;1318.87805513;1378.53651319;1372.14453554;1041.89235696;1039.76169774;1099.42015581;1093.02817816;973.711262024;965.188625157;1018.45510557;1020.58576479;969.44994359;967.319284374;438.915798636;434.654480203;27.6985698169;34.0905474669;426.131843336;436.78513942;475.13700532;475.13700532;967.319284374;967.319284374;999.279172624;1003.54049106"
            }
        ],
        "class": "image",
        "filename": "46.png"
    }
]
