[
    {
        "annotations": [
            {
                "class": "Window",
                "xn": "1485;1759;1759;1485",
                "yn": "2797;2797;2834;2834"
            },
            {
                "class": "Window",
                "xn": "1449;1703;1703;1449",
                "yn": "1661;1661;1699;1699"
            },
            {
                "class": "Wall",
                "xn": "386;486;486;386",
                "yn": "1137;1137;1176;1176"
            },
            {
                "class": "Wall",
                "xn": "458;510;510;458",
                "yn": "2796;2796;2835;2835"
            },
            {
                "class": "Wall",
                "xn": "996;1102;1102;996",
                "yn": "1137;1137;1176;1176"
            },
            {
                "class": "Wall",
                "xn": "792;832;832;792",
                "yn": "2785;2785;2835;2835"
            },
            {
                "class": "Wall",
                "xn": "349;498;498;349",
                "yn": "2668;2668;2709;2709"
            },
            {
                "class": "Wall",
                "xn": "1131;1167;1167;1131",
                "yn": "1662;1662;2706;2706"
            },
            {
                "class": "Wall",
                "xn": "794;937;937;794",
                "yn": "2669;2669;2707;2707"
            },
            {
                "class": "Wall",
                "xn": "349;510;510;349",
                "yn": "1661;1661;1700;1700"
            },
            {
                "class": "Wall",
                "xn": "1045;1169;1169;1045",
                "yn": "1668;1668;1700;1700"
            },
            {
                "class": "Wall",
                "xn": "928;1169;1169;928",
                "yn": "2094;2094;2115;2115"
            },
            {
                "class": "Wall",
                "xn": "630;651;651;630",
                "yn": "1986;1986;2194;2194"
            },
            {
                "class": "Wall",
                "xn": "929;949;949;929",
                "yn": "2035;2035;2115;2115"
            },
            {
                "class": "Wall",
                "xn": "849;925;925;849",
                "yn": "2293;2293;2314;2314"
            },
            {
                "class": "Wall",
                "xn": "905;924;924;905",
                "yn": "2297;2297;2706;2706"
            },
            {
                "class": "Wall",
                "xn": "532;828;828;532",
                "yn": "1986;1986;2004;2004"
            },
            {
                "class": "Wall",
                "xn": "808;827;827;808",
                "yn": "1986;1986;2066;2066"
            },
            {
                "class": "Wall",
                "xn": "349;442;442;349",
                "yn": "1985;1985;2005;2005"
            },
            {
                "class": "Wall",
                "xn": "1105;1169;1169;1105",
                "yn": "2690;2690;2706;2706"
            },
            {
                "class": "Wall",
                "xn": "2107;2145;2145;2107",
                "yn": "991;991;1485;1485"
            },
            {
                "class": "Wall",
                "xn": "1326;1363;1363;1326",
                "yn": "631;631;1486;1486"
            },
            {
                "class": "Wall",
                "xn": "1760;1780;1780;1760",
                "yn": "631;631;1022;1022"
            },
            {
                "class": "Wall",
                "xn": "1325;2146;2146;1325",
                "yn": "1467;1467;1485;1485"
            },
            {
                "class": "Wall",
                "xn": "2046;2065;2065;2046",
                "yn": "631;631;1010;1010"
            },
            {
                "class": "Wall",
                "xn": "1997;2066;2066;1997",
                "yn": "631;631;651;651"
            },
            {
                "class": "Wall",
                "xn": "1778;1797;1797;1778",
                "yn": "1126;1126;1485;1485"
            },
            {
                "class": "Wall",
                "xn": "1893;2146;2146;1893",
                "yn": "1247;1247;1266;1266"
            },
            {
                "class": "Wall",
                "xn": "1649;1859;1859;1649",
                "yn": "631;631;650;650"
            },
            {
                "class": "Wall",
                "xn": "1325;1394;1394;1325",
                "yn": "631;631;651;651"
            },
            {
                "class": "Wall",
                "xn": "1899;2146;2146;1899",
                "yn": "991;991;1010;1010"
            },
            {
                "class": "Wall",
                "xn": "1758;1810;1810;1758",
                "yn": "990;990;1010;1010"
            },
            {
                "class": "Wall",
                "xn": "1758;1798;1798;1758",
                "yn": "1122;1122;1139;1139"
            },
            {
                "class": "Wall",
                "xn": "2107;2145;2145;2107",
                "yn": "1662;1662;2706;2706"
            },
            {
                "class": "Wall",
                "xn": "1703;1926;1926;1703",
                "yn": "1662;1662;1699;1699"
            },
            {
                "class": "Wall",
                "xn": "1325;1450;1450;1325",
                "yn": "1662;1662;1700;1700"
            },
            {
                "class": "Wall",
                "xn": "1325;1475;1475;1325",
                "yn": "2668;2668;2707;2707"
            },
            {
                "class": "Wall",
                "xn": "1771;1913;1913;1771",
                "yn": "2669;2669;2707;2707"
            },
            {
                "class": "Wall",
                "xn": "1436;1486;1486;1436",
                "yn": "2798;2798;2834;2834"
            },
            {
                "class": "Wall",
                "xn": "2027;2146;2146;2027",
                "yn": "2668;2668;2706;2706"
            },
            {
                "class": "Wall",
                "xn": "1759;1810;1810;1759",
                "yn": "2796;2796;2834;2834"
            },
            {
                "class": "Wall",
                "xn": "2070;2146;2146;2070",
                "yn": "1664;1664;1700;1700"
            },
            {
                "class": "Wall",
                "xn": "1826;1846;1846;1826",
                "yn": "2291;2291;2706;2706"
            },
            {
                "class": "Wall",
                "xn": "1784;1804;1804;1784",
                "yn": "1662;1662;2066;2066"
            },
            {
                "class": "Wall",
                "xn": "1936;2146;2146;1936",
                "yn": "2296;2296;2316;2316"
            },
            {
                "class": "Wall",
                "xn": "1899;2146;2146;1899",
                "yn": "2041;2041;2060;2060"
            },
            {
                "class": "Wall",
                "xn": "1784;1803;1803;1784",
                "yn": "2157;2157;2194;2194"
            },
            {
                "class": "Wall",
                "xn": "1325;1401;1401;1325",
                "yn": "2453;2453;2506;2506"
            },
            {
                "class": "Wall",
                "xn": "1825;1853;1853;1825",
                "yn": "2296;2296;2317;2317"
            },
            {
                "class": "Wall",
                "xn": "1450;1474;1474;1450",
                "yn": "2785;2785;2834;2834"
            },
            {
                "class": "Wall",
                "xn": "1325;1401;1401;1325",
                "yn": "2357;2357;2411;2411"
            },
            {
                "class": "Wall",
                "xn": "1772;1794;1794;1772",
                "yn": "2785;2785;2834;2834"
            },
            {
                "class": "Wall",
                "xn": "1760;1779;1779;1760",
                "yn": "1113;1113;1144;1144"
            },
            {
                "class": "Wall",
                "xn": "349;425;425;349",
                "yn": "2357;2357;2408;2408"
            },
            {
                "class": "Wall",
                "xn": "1112;1170;1170;1112",
                "yn": "2668;2668;2690;2690"
            },
            {
                "class": "Wall",
                "xn": "349;425;425;349",
                "yn": "2456;2456;2506;2506"
            },
            {
                "class": "Wall",
                "xn": "387;429;429;387",
                "yn": "1137;1137;1699;1699"
            },
            {
                "class": "Wall",
                "xn": "349;871;871;349",
                "yn": "2170;2170;2194;2194"
            },
            {
                "class": "Wall",
                "xn": "850;870;870;850",
                "yn": "2174;2174;2200;2200"
            },
            {
                "class": "Wall",
                "xn": "783;833;833;783",
                "yn": "2800;2800;2821;2821"
            },
            {
                "class": "Wall",
                "xn": "808;827;827;808",
                "yn": "2157;2157;2194;2194"
            },
            {
                "class": "Wall",
                "xn": "475;497;497;475",
                "yn": "2785;2785;2835;2835"
            },
            {
                "class": "Wall",
                "xn": "406;411;411;406",
                "yn": "2451;2451;2505;2505"
            },
            {
                "class": "Wall",
                "xn": "349;421;421;349",
                "yn": "2405;2405;2411;2411"
            },
            {
                "class": "Wall",
                "xn": "990;1102;1102;990",
                "yn": "1139;1139;1150;1150"
            },
            {
                "class": "Wall",
                "xn": "1045;1115;1115;1045",
                "yn": "1661;1661;1666;1666"
            },
            {
                "class": "Wall",
                "xn": "459;474;474;459",
                "yn": "2779;2779;2835;2835"
            },
            {
                "class": "Wall",
                "xn": "776;833;833;776",
                "yn": "2822;2822;2835;2835"
            },
            {
                "class": "Wall",
                "xn": "459;473;473;459",
                "yn": "2669;2669;2719;2719"
            },
            {
                "class": "Wall",
                "xn": "820;830;830;820",
                "yn": "2669;2669;2719;2719"
            },
            {
                "class": "Wall",
                "xn": "794;943;943;794",
                "yn": "2693;2693;2707;2707"
            },
            {
                "class": "Wall",
                "xn": "1325;1456;1456;1325",
                "yn": "1662;1662;1675;1675"
            },
            {
                "class": "Wall",
                "xn": "2021;2146;2146;2021",
                "yn": "2693;2693;2706;2706"
            },
            {
                "class": "Wall",
                "xn": "2064;2146;2146;2064",
                "yn": "1664;1664;1673;1673"
            },
            {
                "class": "Wall",
                "xn": "2097;2146;2146;2097",
                "yn": "1981;1981;1987;1987"
            },
            {
                "class": "Wall",
                "xn": "1437;1449;1449;1437",
                "yn": "2669;2669;2719;2719"
            },
            {
                "class": "Wall",
                "xn": "1796;1807;1807;1796",
                "yn": "2669;2669;2719;2719"
            },
            {
                "class": "Wall",
                "xn": "1437;1449;1449;1437",
                "yn": "2779;2779;2834;2834"
            },
            {
                "class": "Wall",
                "xn": "1797;1809;1809;1797",
                "yn": "2779;2779;2834;2834"
            },
            {
                "class": "Wall",
                "xn": "1771;1919;1919;1771",
                "yn": "2695;2695;2707;2707"
            },
            {
                "class": "Wall",
                "xn": "1697;1932;1932;1697",
                "yn": "1662;1662;1675;1675"
            },
            {
                "class": "Wall",
                "xn": "1390;1396;1396;1390",
                "yn": "2454;2454;2505;2505"
            },
            {
                "class": "Wall",
                "xn": "458;516;516;458",
                "yn": "2822;2822;2835;2835"
            },
            {
                "class": "Wall",
                "xn": "820;832;832;820",
                "yn": "2779;2779;2835;2835"
            },
            {
                "class": "Wall",
                "xn": "1752;1810;1810;1752",
                "yn": "2822;2822;2834;2834"
            },
            {
                "class": "Text",
                "height": 27,
                "text": "bedroom",
                "width": 172,
                "x": 1488,
                "y": 1015
            },
            {
                "class": "Text",
                "height": 27,
                "text": "dn",
                "width": 46,
                "x": 1887,
                "y": 1055
            },
            {
                "class": "Text",
                "height": 27,
                "text": "store",
                "width": 118,
                "x": 1886,
                "y": 1421
            },
            {
                "class": "Text",
                "height": 27,
                "text": "bedroom",
                "width": 172,
                "x": 1488,
                "y": 1894
            },
            {
                "class": "Text",
                "height": 27,
                "text": "dn",
                "width": 45,
                "x": 1893,
                "y": 2099
            },
            {
                "class": "Text",
                "height": 27,
                "text": "up",
                "width": 44,
                "x": 1900,
                "y": 2238
            },
            {
                "class": "Text",
                "height": 27,
                "text": "bedroom",
                "width": 172,
                "x": 1531,
                "y": 2425
            },
            {
                "class": "Text",
                "height": 27,
                "text": "bedroom",
                "width": 171,
                "x": 1891,
                "y": 2455
            },
            {
                "class": "window",
                "height": 20.186381547964515,
                "width": 60.55914464389343,
                "x": 1394.0477610182552,
                "y": 628.1526964043074
            },
            {
                "class": "window",
                "height": 16.624078921853084,
                "width": 67.6837498961163,
                "x": 1581.6623659934546,
                "y": 630.527564821715
            },
            {
                "class": "door",
                "height": 77.18322356574663,
                "width": 115.18111824426819,
                "x": 1459.3566424969638,
                "y": 631.7149990304189
            },
            {
                "class": "wall",
                "height": 657.8385516219046,
                "width": 36.81046046981771,
                "x": 350.2930915676206,
                "y": 1699.2183526551357
            },
            {
                "class": "wall",
                "height": 40.37276309592926,
                "width": 54.6219736003747,
                "x": 350.2930915676206,
                "y": 2412.866312086119
            },
            {
                "class": "wall",
                "height": 198.3015128535344,
                "width": 36.81046046981771,
                "x": 350.2930915676206,
                "y": 2506.6736145737186
            },
            {
                "class": "wall",
                "height": 521.4174660220394,
                "width": 38.22533542429619,
                "x": 1061.3503288902223,
                "y": 1139.5928123368285
            },
            {
                "class": "wall",
                "height": 20.30720944415725,
                "width": 17.91812598013871,
                "x": 1045.821286374102,
                "y": 1638.3139854506921
            },
            {
                "class": "wall",
                "height": 6.60504357171385,
                "width": 14.275416751768944,
                "x": 1115.8262317763151,
                "y": 1661.0619253252155
            },
            {
                "class": "wall",
                "height": 749.2709856920987,
                "width": 36.810460469817826,
                "x": 1326.3640111221464,
                "y": 1661.2204579766185
            },
            {
                "class": "wall",
                "height": 42.74763151333673,
                "width": 56.996842017782456,
                "x": 1325.1765769134427,
                "y": 2411.678877877421
            },
            {
                "class": "wall",
                "height": 251.73605224520588,
                "width": 34.43559205241013,
                "x": 1327.5514453308504,
                "y": 2453.2390751820544
            },
            {
                "class": "wall",
                "height": 8.096056451129925,
                "width": 98.67068799814706,
                "x": 1032.5001992831744,
                "y": 2033.8811815823178
            },
            {
                "class": "door",
                "height": 109.14943916302104,
                "width": 90.53870529651522,
                "x": 441.12469191691014,
                "y": 1893.7679191187763
            },
            {
                "class": "door",
                "height": 110.65841758462966,
                "width": 89.53271968210959,
                "x": 831.9501031135346,
                "y": 1941.5522358030494
            },
            {
                "class": "door",
                "height": 42.754388612243474,
                "width": 71.92797143000939,
                "x": 960.2132689502646,
                "y": 1998.8934158241757
            },
            {
                "class": "wall",
                "height": 19.493265173898635,
                "width": 3.1733222376112735,
                "x": 827.7837722683363,
                "y": 2033.6462225606551
            },
            {
                "class": "wall",
                "height": 18.749801106800987,
                "width": 4.687450276700247,
                "x": 923.0015726666065,
                "y": 2034.5664860095626
            },
            {
                "class": "wall",
                "height": 7.670373180054867,
                "width": 10.227164240073193,
                "x": 949.6348128751305,
                "y": 2034.1403541662264
            },
            {
                "class": "door",
                "height": 84.90233199594422,
                "width": 40.31077107370447,
                "x": 987.7922575494515,
                "y": 2127.1958222345174
            },
            {
                "class": "door",
                "height": 90.6100517939908,
                "width": 87.04272692021175,
                "x": 739.5064463344218,
                "y": 2066.1945668928947
            },
            {
                "class": "door",
                "height": 88.46965686972317,
                "width": 110.58707108715419,
                "x": 759.1267331402072,
                "y": 2202.109644583881
            },
            {
                "class": "door",
                "height": 104.16588631435206,
                "width": 90.96678428136875,
                "x": 942.4872316524568,
                "y": 2601.293297959771
            },
            {
                "class": "wall",
                "height": 13.995842269240711,
                "width": 5.383016257400186,
                "x": 1034.0774230465952,
                "y": 2692.0464303258836
            },
            {
                "class": "door",
                "height": 105.94954875124131,
                "width": 83.8321345338104,
                "x": 1852.1550744661458,
                "y": 2295.573556276897
            },
            {
                "class": "door",
                "height": 92.03698174350257,
                "width": 109.51687362502048,
                "x": 1734.7900861188114,
                "y": 2199.9692496596153
            },
            {
                "class": "door",
                "height": 109.51687362502071,
                "width": 89.89658681923515,
                "x": 1809.347175980796,
                "y": 1948.8295785455616
            },
            {
                "class": "door",
                "height": 92.34400623334022,
                "width": 110.13505330581847,
                "x": 1692.691050038657,
                "y": 2065.455845842966
            },
            {
                "class": "wall",
                "height": 19.000000000000455,
                "width": 517.0000000000075,
                "x": 1329.000000000019,
                "y": 2173.0000000000314
            },
            {
                "class": "wall",
                "height": 24.044139283054392,
                "width": 20.993763403861294,
                "x": 1824.3042096329625,
                "y": 2174.7385679897225
            },
            {
                "class": "wall",
                "height": 18.95332920969895,
                "width": 4.06142768779273,
                "x": 1804.5374486605588,
                "y": 2040.4612703469998
            },
            {
                "class": "door",
                "height": 90.03571248931291,
                "width": 112.16739600623873,
                "x": 1667.4211558774975,
                "y": 1021.5783914290188
            },
            {
                "class": "door",
                "height": 66.39505055077825,
                "width": 89.53271968210993,
                "x": 1802.7262210150682,
                "y": 1197.6258739500215
            },
            {
                "class": "wall",
                "height": 19.01999077614778,
                "width": 3.5886775049334574,
                "x": 1798.2862977221964,
                "y": 1245.9888297129248
            },
            {
                "class": "wall",
                "height": 109.8978393448524,
                "width": 89.59062990069492,
                "x": 1809.1334531280334,
                "y": 898.8926533369727
            },
            {
                "class": "Stairs",
                "xn": "1025.74103986;1131.01002999;1129.32572615;1025.74103986;1025.74103986",
                "yn": "2221.59676777;2252.75638885;2440.55626725;2436.34550765;2436.34550765"
            },
            {
                "class": "Stairs",
                "xn": "2001.91137267;1943.56420703;1942.05522861;2105.52789095;2105.52789095;1941.049243;1944.06719984;2001.91137267",
                "yn": "2193.55163221;2192.5456466;2294.65318646;2295.15617927;2061.76751672;2060.76153111;2162.36607817;2161.86308536"
            },
            {
                "class": "window",
                "height": 36.17021276595801,
                "width": 136.8794326241159,
                "x": 1931.2056737589,
                "y": 1661.7021276596045
            },
            {
                "class": "Text",
                "height": 126.90000000000236,
                "text": "kitchen/family/dining room",
                "width": 241.11000000000445,
                "x": 597.8400000000111,
                "y": 1600.3500000000297
            },
            {
                "class": "Text",
                "height": 83.12039460926735,
                "text": "utility room",
                "width": 146.0544076705691,
                "x": 431.03861775948445,
                "y": 2051.88631264019
            },
            {
                "class": "Text",
                "height": 37.0546845269273,
                "text": "reception room",
                "width": 316.6491223210172,
                "x": 519.6077352980523,
                "y": 2405.1858865660247
            },
            {
                "class": "Stairs",
                "xn": "1941.13475177;2106.38297872;2104.25531915;2003.54609929;2002.12765957;1939.71631206",
                "yn": "1011.34751773;1010.63829787;1115.60283688;1144.68085106;1113.4751773;1112.76595745"
            },
            {
                "class": "Text",
                "height": 26.65861878175201,
                "text": "t",
                "width": 26.15562597454891,
                "x": 2063.276495146161,
                "y": 1285.6496152105283
            },
            {
                "class": "Text",
                "height": 25.149640360143394,
                "text": "b",
                "width": 22.634676324129032,
                "x": 2079.8752577838554,
                "y": 1386.7511694583045
            },
            {
                "class": "Text",
                "height": 43.531338091082034,
                "text": "up",
                "width": 58.59987819953335,
                "x": 1051.4492431230549,
                "y": 2449.4749087404925
            },
            {
                "class": "Text",
                "height": 38.5084913882647,
                "text": "in",
                "width": 48.554184793899026,
                "x": 969.4094136437083,
                "y": 2717.3600662240733
            },
            {
                "class": "window",
                "height": 24.883199999999988,
                "width": 145.15200000000004,
                "x": 1853.7983999999994,
                "y": 628.3007999999999
            },
            {
                "class": "window",
                "height": 35.785799999999654,
                "width": 113.32170000000019,
                "x": 1914.5403,
                "y": 2668.0302
            },
            {
                "class": "window",
                "height": 73.55970000000025,
                "width": 37.77390000000014,
                "x": 1771.3971,
                "y": 2709.7803
            },
            {
                "class": "window",
                "height": 77.53589999999986,
                "width": 33.79770000000008,
                "x": 1439.3844,
                "y": 2709.7803
            },
            {
                "class": "window",
                "height": 65.60730000000012,
                "width": 35.785799999999995,
                "x": 457.263,
                "y": 2717.7327
            },
            {
                "class": "window",
                "height": 39.76200000000017,
                "width": 272.3697,
                "x": 502.9893,
                "y": 2795.2686
            },
            {
                "class": "window",
                "height": 75.54779999999982,
                "width": 37.773900000000026,
                "x": 791.2638,
                "y": 2711.7684
            },
            {
                "class": "window",
                "height": 37.77390000000014,
                "width": 506.96549999999996,
                "x": 489.0726,
                "y": 1137.1932
            },
            {
                "class": "room",
                "height": 339.02236389107,
                "width": 265.6518523027041,
                "x": 1778.6024016076283,
                "y": 647.6845160904023
            },
            {
                "class": "room",
                "height": 212.5214818421632,
                "width": 313.72218748128876,
                "x": 1796.3125250944752,
                "y": 1257.4187675661326
            },
            {
                "class": "room",
                "height": 344.08239917302626,
                "width": 303.6021169173762,
                "x": 1803.9025780174095,
                "y": 1692.5818018143716
            },
            {
                "class": "room",
                "height": 354.20246973693884,
                "width": 265.6518523027039,
                "x": 1839.3228249911035,
                "y": 2314.966141494993
            },
            {
                "class": "room",
                "height": 475.6433165038893,
                "width": 419.98292840237036,
                "x": 1363.6795084872142,
                "y": 1697.641837096328
            },
            {
                "class": "room",
                "height": 172.04119958651336,
                "width": 237.82165825194465,
                "x": 389.62271671063263,
                "y": 2003.773971654682
            },
            {
                "class": "room",
                "height": 172.04119958651313,
                "width": 159.3911113816224,
                "x": 652.7445513723586,
                "y": 2001.243954013704
            },
            {
                "class": "Room",
                "xn": "384.562681429;382.032663788;511.063563478;508.533545837;422.512946043;422.512946043;1062.60740921;1072.72747977;1049.95732101;1049.95732101;1135.9779208;1138.50793844;931.04649188;814.665680395;814.665680395",
                "yn": "1986.06384817;1697.6418371;1702.70187238;1664.75160776;1667.2816254;1171.39816777;1168.86815013;1654.6315372;1649.57150192;1702.70187238;1695.11181946;2034.13418335;2034.13418335;2029.07414806;1983.53383053"
            },
            {
                "class": "Room",
                "xn": "376.972628506;852.61594501;855.145962651;908.276333111;908.276333111;802.01559219;804.545609831;498.413475273;495.883457632;384.562681429",
                "yn": "2190.99527709;2190.99527709;2304.84607093;2302.31605329;2679.2886818;2681.81869944;2790.609458;2795.66949328;2674.22864651;2679.2886818"
            },
            {
                "class": "Room",
                "xn": "814.665680395;933.576509521;931.04649188;1146.09799136;1151.15802665;1019.59710931;1024.6571446;1148.628009;1143.56797372;918.396403675;913.336368393;870.326068496;860.205997933;822.255733318",
                "yn": "2036.66420099;2041.72423627;2107.50469493;2102.44465965;2261.83577103;2208.70540057;2443.99704118;2443.99704118;2674.22864651;2679.2886818;2294.72600037;2292.19598273;2175.81517124;2170.75513596"
            },
            {
                "class": "Room",
                "xn": "1361.14949085;1755.83224284;1765.9523134;1788.72247217;1791.25248981;1361.14949085",
                "yn": "642.624480808;640.094463167;1135.9779208;1138.50793844;1467.41023177;1462.35019649"
            },
            {
                "class": "Room",
                "xn": "1356.08945556;1821.6127015;1834.26278971;1778.60240161;1778.60240161;1469.94024941;1467.41023177;1351.02942028",
                "yn": "2188.46525945;2188.46525945;2674.22864651;2674.22864651;2803.2595462;2798.19951092;2669.16861123;2674.22864651"
            }
        ],
        "class": "image",
        "filename": "52.png"
    }
]
