[
    {
        "annotations": [
            {
                "class": "Room", 
                "type": "open", 
                "xn": "1796;2109;2109;1796", 
                "yn": "1257;1257;1469;1469", 
                "text": "store;t;b;", 
                "x": "1945;2076;2090", 
                "y": "1434;1298;1398"
            }, 
            {
                "class": "Room", 
                "type": "single", 
                "xn": "1839;2104;2104;1839", 
                "yn": "2314;2314;2668;2668", 
                "text": "bedroom;", 
                "x": "1976", 
                "y": "2468"
            }, 
            {
                "class": "Room", 
                "type": "single", 
                "xn": "1363;1782;1782;1363", 
                "yn": "1697;1697;2172;2172", 
                "text": "bedroom;", 
                "x": "1574", 
                "y": "1907"
            }, 
            {
                "class": "Room", 
                "type": "single", 
                "xn": "389;626;626;389", 
                "yn": "2003;2003;2175;2175", 
                "text": "utility room;", 
                "x": "504", 
                "y": "2092"
            }, 
            {
                "class": "Room", 
                "type": "single", 
                "xn": "384;382;511;508;422;422;1062;1072;1049;1049;1135;1138;931;814;814", 
                "yn": "1986;1697;1702;1664;1667;1171;1168;1654;1649;1702;1695;2034;2034;2029;1983", 
                "text": "kitchen/family/dining room;", 
                "x": "717", 
                "y": "1663"
            }, 
            {
                "class": "Room", 
                "type": "single", 
                "xn": "376;852;855;908;908;802;804;498;495;384", 
                "yn": "2190;2190;2304;2302;2679;2681;2790;2795;2674;2679", 
                "text": "reception room;", 
                "x": "677", 
                "y": "2423"
            }, 
            {
                "class": "Room", 
                "type": "single", 
                "xn": "814;933;931;1146;1151;1019;1024;1148;1143;918;913;870;860;822", 
                "yn": "2036;2041;2107;2102;2261;2208;2443;2443;2674;2679;2294;2292;2175;2170", 
                "text": "up;", 
                "x": "1080", 
                "y": "2470"
            }, 
            {
                "class": "Room", 
                "type": "single", 
                "xn": "1361;1755;1765;1788;1791;1361", 
                "yn": "642;640;1135;1138;1467;1462", 
                "text": "bedroom;", 
                "x": "1574", 
                "y": "1028"
            }, 
            {
                "class": "Room", 
                "type": "single", 
                "xn": "1356;1821;1834;1778;1778;1469;1467;1351", 
                "yn": "2188;2188;2674;2674;2803;2798;2669;2674", 
                "text": "bedroom;", 
                "x": "1617", 
                "y": "2438"
            }
        ], 
        "class": "image", 
        "filename": "52.png"
    }
]