[
    {
        "annotations": [
            {
                "class": "Room", 
                "type": "single", 
                "xn": "369;702;702;369", 
                "yn": "25;25;313;313", 
                "text": "bathroom;", 
                "x": "580", 
                "y": "207"
            }, 
            {
                "class": "Room", 
                "type": "single", 
                "xn": "27;358;358;27", 
                "yn": "32;32;424;424", 
                "text": "bedroom 3;", 
                "x": "224", 
                "y": "277"
            }, 
            {
                "class": "Room", 
                "type": "single", 
                "xn": "30;353;353;30", 
                "yn": "569;569;968;968", 
                "text": "bedroom2;", 
                "x": "220", 
                "y": "717"
            }, 
            {
                "class": "Room", 
                "type": "single", 
                "xn": "374;477;477;374", 
                "yn": "1004;1004;1208;1208", 
                "text": "toilet;", 
                "x": "435", 
                "y": "1188"
            }, 
            {
                "class": "Room", 
                "type": "single", 
                "xn": "708;711;770;769;1125;1121;705", 
                "yn": "426;314;318;22;27;432;439", 
                "text": "bedroom 4;", 
                "x": "983", 
                "y": "282"
            }, 
            {
                "class": "Room", 
                "type": "single", 
                "xn": "367;551;551;367", 
                "yn": "320;320;426;426", 
                "text": "toilet;", 
                "x": "486", 
                "y": "404"
            }, 
            {
                "class": "Room", 
                "type": "open", 
                "xn": "689;200;199;86;90;132;134;30;27;132;135;371;362;551;551;692", 
                "yn": "1786;1787;1718;1718;1223;1228;1202;1204;1019;1024;980;979;1223;1223;1151;1152", 
                "text": "ensuite;masterbedroom;wir;", 
                "x": "266;517;160", 
                "y": "1124;1304;1474"
            }, 
            {
                "class": "Room", 
                "type": "single", 
                "xn": "1127;686;689;548;547;368;364;488;486;543;540;246;241;563;560;699;698;723;720;1101;1103;1122", 
                "yn": "970;967;1142;1140;973;968;887;865;689;692;563;559;436;436;320;320;501;500;445;448;504;500", 
                "text": "rumpus/ leisure;", 
                "x": "914", 
                "y": "624"
            }
        ], 
        "class": "image", 
        "filename": "60.png"
    }
]