[
    {
        "annotations": [
            {
                "class": "Room", 
                "type": "single", 
                "xn": "125;383;383;125", 
                "yn": "369;369;528;528", 
                "text": "ensuite;", 
                "x": "241", 
                "y": "443"
            }, 
            {
                "class": "Room", 
                "type": "single", 
                "xn": "715;1000;1000;715", 
                "yn": "410;410;675;675", 
                "text": "kitchen;", 
                "x": "852", 
                "y": "526"
            }, 
            {
                "class": "Room", 
                "type": "single", 
                "xn": "1776;1935;1935;1776", 
                "yn": "461;461;843;843", 
                "text": "bedroom;", 
                "x": "1855", 
                "y": "668"
            }, 
            {
                "class": "Room", 
                "type": "open", 
                "xn": "1772;1933;1933;1772", 
                "yn": "174;174;452;452", 
                "text": "dn;ensuite;", 
                "x": "1858;1858", 
                "y": "226;282"
            }, 
            {
                "class": "Room", 
                "type": "single", 
                "xn": "1593;1767;1767;1593", 
                "yn": "170;170;455;455", 
                "text": "bthrm;", 
                "x": "1677", 
                "y": "298"
            }, 
            {
                "class": "Room", 
                "type": "single", 
                "xn": "1422;1766;1766;1422", 
                "yn": "568;568;842;842", 
                "text": "bedroom;", 
                "x": "1593", 
                "y": "718"
            }, 
            {
                "class": "Room", 
                "type": "open", 
                "xn": "857;855;994;997;1004;1003;1772;1765;1593;1586;1004;1006;994;994", 
                "yn": "172;400;400;340;340;558;559;464;461;168;174;240;235;174", 
                "text": "diningarea;lounge;", 
                "x": "1129;1438", 
                "y": "322;341"
            }, 
            {
                "class": "Room", 
                "type": "single", 
                "xn": "127;394;392;504;511;123", 
                "yn": "536;534;409;407;771;775", 
                "text": "bedroom;", 
                "x": "309", 
                "y": "657"
            }, 
            {
                "class": "Room", 
                "type": "single", 
                "xn": "520;708;708;769;771;520", 
                "yn": "410;409;689;687;782;776", 
                "text": "utility;", 
                "x": "619", 
                "y": "610"
            }
        ], 
        "class": "image", 
        "filename": "76.png"
    }
]