[
    {
        "annotations": [
            {
                "class": "Room", 
                "type": "single", 
                "xn": "858;1014;1009;1193;1193;1574;1563;1620;1619;1121;1114;1195;1196;856", 
                "yn": "2621;2620;2764;2763;2459;2460;2878;2881;3057;3057;2876;2881;2870;2878", 
                "text": "guest suite;", 
                "x": "1342", 
                "y": "2699"
            }, 
            {
                "class": "Room", 
                "type": "single", 
                "xn": "546;901;901;546", 
                "yn": "1717;1717;2039;2039", 
                "text": "den;", 
                "x": "740", 
                "y": "1829"
            }, 
            {
                "class": "Room", 
                "type": "single", 
                "xn": "548;550;790;794;726;726;788;845;936;1016;935;964;987;981;997;977;936;870;817;716;677;632;603;579;581;552;552;566;583;609;628;650;661;671;694;714;755;790;841;860;849;845;841;854;860;868;878;845;798;759;722;698;675;663", 
                "yn": "1411;1702;1706;1538;1526;1508;1514;1522;1495;1446;1303;1266;1266;1173;1151;1077;1095;1018;1018;1052;995;1040;1079;1138;1147;1147;1221;1284;1319;1366;1387;1399;1399;1380;1385;1401;1421;1417;1419;1411;1389;1360;1354;1350;1383;1403;1424;1428;1428;1428;1415;1401;1395;1413", 
                "text": "master bath;", 
                "x": "819", 
                "y": "1174"
            }, 
            {
                "class": "Room", 
                "type": "open", 
                "xn": "542;1120;1116;1159;1149;1056;1044;1040;1071;1085;1087;1071;1056;1034;1007;970;946;872;894;874;890;884;884;913;923;942;933;923;548", 
                "yn": "234;232;671;671;813;810;802;813;843;864;966;985;999;1013;1018;1028;1081;1013;966;917;882;856;827;817;831;829;798;800;806", 
                "text": "master suite;optional fire place;", 
                "x": "826;987", 
                "y": "439;282"
            }, 
            {
                "class": "Room", 
                "type": "single", 
                "xn": "915;1030;1128;1122;1097;1073;1057;1044;915", 
                "yn": "1518;1456;1452;1616;1639;1659;1682;1706;1702", 
                "text": "laundry;", 
                "x": "1036", 
                "y": "1618"
            }, 
            {
                "class": "Room", 
                "type": "open", 
                "xn": "909;915;1054;1110;1114;1323;1325;1383;1530;1534;1389;1339;1331;1342;1370;1382;1403;1530;1528;1709;1963;1963;1895;1893;1965;1965;1130;1128;1200;1202;1120;1134;1206;1202;1167;1165;1151;1169;1100;1102;1161;1126;1161;1167;1184;1186;1202;1204;1204;1200;1188;1186;1186;1169;1151;1138;1100;1079;1073;1042", 
                "yn": "1721;1842;1838;1907;1973;1977;1909;1840;1842;1721;1717;1643;1545;1473;1403;1362;1358;1364;1434;1426;1157;849;845;815;813;378;378;493;503;525;548;626;650;691;685;821;825;853;870;960;987;1046;1095;1143;1182;1223;1268;1315;1370;1413;1442;1477;1504;1542;1596;1624;1641;1672;1700;1727", 
                "text": "foyer;living;kitchen;", 
                "x": "1226;1568;1661", 
                "y": "1782;569;1217"
            }, 
            {
                "class": "Room", 
                "type": "single", 
                "xn": "1327;1394;1529;1528;1432;1429;1333", 
                "yn": "1934;1849;1846;2035;2037;1984;1988", 
                "text": "powder room;", 
                "x": "1428", 
                "y": "1922"
            }, 
            {
                "class": "Room", 
                "type": "open", 
                "xn": "1963;1533;1535;1576;1572;1559;1561;1727;1725;1712;1713;1971", 
                "yn": "2039;2041;1653;1650;1627;1624;1435;1437;1624;1621;1653;1649", 
                "text": "bath 1;bed room 1;", 
                "x": "1639;1761", 
                "y": "1565;1775"
            }
        ], 
        "class": "image", 
        "filename": "89.png"
    }
]