contour_details : [628 2204],[628 2517],[1225 2517],[1225 2204] : repas : [1030,2317]
contour_details : [630 1778],[630 2187],[1237 2187],[1237 2049],[1236 2048],[1236 1844],[1235 1843],[1235 1778] : sejour : [808,2029]
contour_details : [1736 1170],[1736 1667],[2053 1667],[2053 1174],[2030 1174],[2029 1173],[1950 1173],[1949 1172],[1871 1172],[1870 1171],[1791 1171],[1790 1170] : chambre : [1895,1385]
contour_details : [1246 1168],[1246 1185],[1245 1186],[1060 1186],[1060 1763],[1229 1763],[1229 1266],[1230 1265],[1721 1265],[1721 1174],[1698 1174],[1697 1173],[1618 1173],[1617 1172],[1539 1172],[1538 1171],[1460 1171],[1459 1170],[1380 1170],[1379 1169],[1301 1169],[1300 1168] : hall : [1136,1356]
contour_details : [952 1066],[952 1265],[1045 1265],[1045 1184],[1020 1184],[1019 1183],[1019 1066] : wc : [988,1156]
contour_details : [626 1066],[626 1739],[1031 1739],[1031 1392],[1032 1391],[1049 1391],[1049 1298],[1006 1298],[1005 1299],[942 1299],[941 1300],[922 1300],[921 1299],[921 1066] : garage : [780,1356]
