contour_details : [619 2152],[618 2153],[618 2252],[1238 2252],[1238 2152]
contour_details : [1057 1714],[1056 1715],[1056 1814],[1242 1814],[1242 1714]
contour_details : [1011 1182],[1010 1183],[1010 1394],[1110 1394],[1110 1182]
contour_details : [1731 1120],[1730 1121],[1730 1167],[1729 1168],[1687 1168],[1686 1169],[1686 1272],[1786 1272],[1786 1221],[1787 1220],[1894 1220],[1894 1120]
