contour_details : [1444 2156],[1444 2256],[1529 2256],[1529 2156]
contour_details : [1380 1950],[1380 2110],[1479 2110],[1479 1950]
contour_details : [1684 1646],[1684 1746],[1773 1746],[1773 1646]
contour_details : [734 1594],[734 2108],[833 2108],[833 1594]
