contour_details : [1680 928],[1680 958],[1679 959],[1679 1054],[1678 1055],[1678 1149],[1677 1150],[1677 1245],[1676 1246],[1676 1309],[2353 1309],[2353 1041],[2338 1026],[2338 1025],[2381 982],[2382 982],[2393 993],[2394 993],[2394 992],[2400 986],[2400 985],[2405 980],[2405 979],[2411 973],[2411 972],[2417 966],[2417 965],[2422 960],[2422 959],[2428 953],[2428 952],[2433 947],[2433 946],[2439 940],[2439 939],[2445 933],[2445 932],[2449 928] : repas : [1980,1096]
contour_details : [2186 582],[2186 608],[2185 609],[2185 690],[2184 691],[2184 773],[2183 774],[2183 855],[2182 856],[2182 911],[2705 911],[2705 582] : sejour : [2368,648]
contour_details : [1678 576],[1678 911],[2165 911],[2165 576] : cuisine : [1876,724]
