contour_details : [1850 1325],[1850 1634],[1949 1634],[1949 1325]
contour_details : [1395 1280],[1395 1379],[1454 1379],[1455 1380],[1455 1839],[1554 1839],[1554 1380],[1555 1379],[1594 1379],[1594 1280]
contour_details : [1400 940],[1400 1039],[1599 1039],[1599 940]
contour_details : [880 825],[880 924],[959 924],[959 825]
