[
    {
        "annotations": [
            {
                "class": "Wall",
                "xn": "577.0;1441.0;1441.0;577.0",
                "yn": "913.0;911.0;955.0;953.0"
            },
            {
                "class": "Wall",
                "xn": "1511.0;1503.0;1698.0;1693.0",
                "yn": "911.0;961.0;956.0;913.0"
            },
            {
                "class": "Wall",
                "xn": "1651.0;1698.0;1694.0;1648.0",
                "yn": "1212.0;1212.0;914.0;913.0"
            },
            {
                "class": "Wall",
                "xn": "1651.0;1695.0;1698.0;1653.0",
                "yn": "1352.0;1353.0;1655.0;1654.0"
            },
            {
                "class": "Wall",
                "xn": "1654.0;1697.0;1695.0;1653.0",
                "yn": "1799.0;1798.0;1953.0;1953.0"
            },
            {
                "class": "Wall",
                "xn": "1546.0;1546.0;1698.0;1697.0",
                "yn": "1909.0;1953.0;1954.0;1909.0"
            },
            {
                "class": "Wall",
                "xn": "1369.0;1368.0;1218.0;1216.0",
                "yn": "1909.0;1954.0;1954.0;1907.0"
            },
            {
                "class": "Wall",
                "xn": "1220.0;1264.0;1263.0;1218.0",
                "yn": "1808.0;1808.0;1755.0;1756.0"
            },
            {
                "class": "Wall",
                "xn": "1124.5;1125.5;1263.5;1261.5",
                "yn": "1754.5;1798.5;1798.5;1753.5"
            },
            {
                "class": "Wall",
                "xn": "844.0;695.0;695.0;844.0",
                "yn": "1756.0;1755.0;1798.0;1798.0"
            },
            {
                "class": "Wall",
                "xn": "739.0;737.0;695.0;696.0",
                "yn": "1738.0;1796.0;1798.0;1738.0"
            },
            {
                "class": "Wall",
                "xn": "737.5;696.5;697.5;736.5",
                "yn": "1453.0;1452.0;1397.0;1397.0"
            },
            {
                "class": "Wall",
                "xn": "576.0;619.0;622.0;575.0",
                "yn": "1253.0;1254.0;1441.0;1434.0"
            },
            {
                "class": "Wall",
                "xn": "575.0;620.0;621.0;575.0",
                "yn": "1113.0;1115.0;908.0;908.0"
            },
            {
                "class": "Wall",
                "xn": "1297.5;1319.5;1320.5;1298.5",
                "yn": "1271.5;1271.5;1319.5;1318.5"
            },
            {
                "class": "Wall",
                "xn": "1220.0;1321.0;1321.0;1220.0",
                "yn": "1297.0;1295.0;1321.0;1321.0"
            },
            {
                "class": "Wall",
                "xn": "1219.5;1242.5;1242.5;1218.5",
                "yn": "1437.0;1437.0;1298.0;1297.0"
            },
            {
                "class": "Wall",
                "xn": "1298.0;1321.0;1322.0;1296.0",
                "yn": "1174.0;1173.0;952.0;953.0"
            },
            {
                "class": "Wall",
                "xn": "1445.0;1445.0;1320.0;1319.0",
                "yn": "1050.0;1062.0;1061.0;1050.0"
            },
            {
                "class": "Wall",
                "xn": "1528.0;1528.0;1650.0;1650.0",
                "yn": "1050.5;1061.5;1061.5;1051.5"
            },
            {
                "class": "Wall",
                "xn": "1238.0;1237.0;1653.0;1653.0",
                "yn": "1533.0;1524.0;1525.0;1534.0"
            },
            {
                "class": "Wall",
                "xn": "1237.0;1246.0;1245.0;1237.0",
                "yn": "1437.0;1437.0;1534.0;1535.0"
            },
            {
                "class": "Window",
                "xn": "1438.0;1512.0;1512.0;1452.0;1436.0;1436.0",
                "yn": "910.0;910.0;954.0;995.0;973.0;952.0"
            },
            {
                "class": "Door",
                "xn": "1454.0;1530.0;1443.0;1440.0",
                "yn": "1109.0;1058.0;1057.0;1089.0"
            },
            {
                "class": "Window",
                "xn": "1705.0;1705.0;1645.0;1611.0;1622.0;1609.0;1642.0",
                "yn": "1209.0;1353.0;1357.0;1294.0;1284.0;1278.0;1214.0"
            },
            {
                "class": "Window",
                "xn": "1706.0;1706.0;1643.0;1609.0;1621.0;1606.0;1640.0",
                "yn": "1652.0;1797.0;1801.0;1734.0;1728.0;1718.0;1655.0"
            },
            {
                "class": "Window",
                "xn": "1364.0;1547.0;1552.0;1364.0",
                "yn": "1961.0;1959.0;1903.0;1903.0"
            },
            {
                "class": "Window",
                "xn": "842.0;1126.0;1129.0;841.0",
                "yn": "1807.0;1807.0;1746.0;1746.0"
            },
            {
                "class": "Window",
                "xn": "690.0;742.0;742.0;689.0",
                "yn": "1735.0;1734.0;1451.0;1448.0"
            },
            {
                "class": "Wall",
                "xn": "576.0;742.0;741.0;571.0",
                "yn": "1398.0;1398.0;1438.0;1441.0"
            },
            {
                "class": "Window",
                "xn": "565.0;628.0;660.0;648.0;660.0;628.0;565.0",
                "yn": "1109.0;1110.0;1173.0;1183.0;1187.0;1255.0;1257.0"
            },
            {
                "class": "Door",
                "xn": "1416.0;1313.0;1316.0;1368.0;1400.0",
                "yn": "1172.0;1172.0;1275.0;1260.0;1224.0"
            },
            {
                "class": "Door",
                "xn": "1369.0;1215.0;1213.0;1265.0;1317.0;1356.0",
                "yn": "1906.0;1904.0;1808.0;1806.0;1813.0;1850.0"
            },
            {
                "class": "Text",
                "height": 25,
                "text": "sejour",
                "width": 130,
                "x": 752,
                "y": 1170
            },
            {
                "class": "Text",
                "height": 25,
                "text": "chambre 1",
                "width": 181,
                "x": 1384,
                "y": 1259
            },
            {
                "class": "Text",
                "height": 25,
                "text": "repas",
                "width": 106,
                "x": 948,
                "y": 1554
            },
            {
                "class": "Text",
                "height": 25,
                "text": "cuisine",
                "width": 127,
                "x": 1378,
                "y": 1660
            },
            {
                "class": "Text",
                "height": 21.24664155291623,
                "text": "d",
                "width": 21.246641552916117,
                "x": 1425.885721995709,
                "y": 993.870677086413
            },
            {
                "class": "Text",
                "height": 33.050331304536485,
                "text": "terrasse b.a.",
                "width": 236.07379503240224,
                "x": 830.9797585140556,
                "y": 2167.1574383974516
            },
            {
                "class": "Text",
                "height": 151.08722882073744,
                "text": "placard",
                "width": 30.689593354212093,
                "x": 1270.0770172743237,
                "y": 1343.2598937343682
            },
            {
                "class": "Stairs",
                "xn": "1079.86572574;1079.86572574;1192.74991941;1192.74991941;1198.72262807;1199.31989894;1297.86959183;1297.86959183;1297.86959183",
                "yn": "953.244302143;1166.47000131;1167.06727217;1052.3912659;1052.3912659;1167.06727217;1166.47000131;955.036114741;955.036114741"
            },
            {
                "class": "wall",
                "height": 113.25945198116665,
                "width": 3.9054983441783406,
                "x": 1194.1812244698594,
                "y": 1053.5832840794458
            }
        ],
        "class": "image",
        "filename": "fp_27.png"
    }
]
