[
    {
        "annotations": [
            {
                "class": "Wall",
                "xn": "518.0;1032.0;1032.0;518.0",
                "yn": "1079.0;1079.0;1122.0;1123.0"
            },
            {
                "class": "Wall",
                "xn": "1252.0;1415.0;1416.0;1254.0",
                "yn": "1078.5;1077.5;1102.5;1101.5"
            },
            {
                "class": "Wall",
                "xn": "1124.0;1123.0;1296.0;1298.0",
                "yn": "1122.0;1076.0;1076.0;1122.0"
            },
            {
                "class": "Wall",
                "xn": "1255.0;1301.0;1301.0;1254.0",
                "yn": "1328.0;1328.0;1078.0;1076.0"
            },
            {
                "class": "Wall",
                "xn": "1255.0;1298.0;1298.0;1255.0",
                "yn": "1422.0;1422.0;1482.0;1481.0"
            },
            {
                "class": "Wall",
                "xn": "1415.0;1251.0;1254.0;1415.0",
                "yn": "1439.0;1437.0;1485.0;1482.0"
            },
            {
                "class": "Wall",
                "xn": "1376.0;1418.0;1415.0;1376.0",
                "yn": "1726.0;1726.0;1434.0;1434.0"
            },
            {
                "class": "Wall",
                "xn": "1376.0;1416.0;1415.0;1373.0",
                "yn": "1870.0;1870.0;2175.0;2173.0"
            },
            {
                "class": "Wall",
                "xn": "1295.0;1295.0;1416.0;1413.0",
                "yn": "2130.0;2173.0;2171.0;2131.0"
            },
            {
                "class": "Wall",
                "xn": "1015.0;1017.0;870.0;866.0",
                "yn": "2129.0;2176.0;2173.0;2131.0"
            },
            {
                "class": "Wall",
                "xn": "590.0;591.0;518.0;518.0",
                "yn": "2129.0;2173.0;2173.0;2132.0"
            },
            {
                "class": "Wall",
                "xn": "516.0;562.0;563.0;516.0",
                "yn": "1438.0;1439.0;2175.0;2173.0"
            },
            {
                "class": "Wall",
                "xn": "518.0;559.0;562.0;516.0",
                "yn": "1368.0;1371.0;1272.0;1273.0"
            },
            {
                "class": "Wall",
                "xn": "518.0;559.0;562.0;515.0",
                "yn": "1204.0;1203.0;1081.0;1081.0"
            },
            {
                "class": "Wall",
                "xn": "895.0;920.0;921.0;895.0",
                "yn": "1438.0;1438.0;1681.0;1682.0"
            },
            {
                "class": "Wall",
                "xn": "778.0;778.0;556.0;556.0",
                "yn": "1455.0;1467.0;1466.0;1454.0"
            },
            {
                "class": "Wall",
                "xn": "772.0;771.0;659.0;659.0",
                "yn": "1561.0;1572.0;1572.0;1560.0"
            },
            {
                "class": "Wall",
                "xn": "772.0;772.0;558.0;557.0",
                "yn": "1674.0;1685.0;1684.0;1673.0"
            },
            {
                "class": "Wall",
                "xn": "692.0;691.0;557.0;558.0",
                "yn": "1359.0;1349.0;1349.0;1360.0"
            },
            {
                "class": "Wall",
                "xn": "802.0;802.0;684.0;683.0",
                "yn": "1332.0;1342.0;1341.0;1330.0"
            },
            {
                "class": "Wall",
                "xn": "772.0;783.0;782.0;771.0",
                "yn": "1367.0;1367.0;1339.0;1340.0"
            },
            {
                "class": "Wall",
                "xn": "894.0;906.0;906.0;894.0",
                "yn": "1348.0;1348.0;1123.0;1122.0"
            },
            {
                "class": "Wall",
                "xn": "1522.0;1546.0;1547.0;1522.0",
                "yn": "1079.0;1080.0;1104.0;1105.0"
            },
            {
                "class": "Window",
                "xn": "1031.0;1126.0;1124.0;1045.0;1029.0;1026.0",
                "yn": "1071.0;1074.0;1124.0;1174.0;1147.0;1119.0"
            },
            {
                "class": "Door",
                "xn": "1159.0;1302.0;1305.0;1209.0;1170.0",
                "yn": "1325.0;1322.0;1419.0;1421.0;1380.0"
            },
            {
                "class": "Door",
                "xn": "995.0;890.0;891.0;945.0;985.0",
                "yn": "1433.0;1436.0;1341.0;1346.0;1377.0"
            },
            {
                "class": "Window",
                "xn": "590.0;868.0;873.0;595.0",
                "yn": "2180.0;2180.0;2128.0;2125.0"
            },
            {
                "class": "Window",
                "xn": "1016.0;1296.0;1295.0;1015.0",
                "yn": "2125.0;2125.0;2174.0;2178.0"
            },
            {
                "class": "Window",
                "xn": "1424.0;1374.0;1337.0;1349.0;1335.0;1371.0;1424.0",
                "yn": "1727.0;1725.0;1789.0;1799.0;1805.0;1869.0;1869.0"
            },
            {
                "class": "Window",
                "xn": "507.0;556.0;596.0;562.0;506.0",
                "yn": "1200.0;1202.0;1264.0;1275.0;1272.0"
            },
            {
                "class": "Window",
                "xn": "510.0;509.0;559.0;596.0;563.0",
                "yn": "1367.0;1439.0;1438.0;1428.0;1369.0"
            },
            {
                "class": "Wall",
                "xn": "1523.0;1546.0;1546.0;1523.0",
                "yn": "1439.0;1439.0;1461.0;1460.0"
            },
            {
                "class": "Door",
                "xn": "769.0;827.0;774.0",
                "yn": "1359.0;1372.0;1461.0"
            },
            {
                "class": "Door",
                "xn": "824.0;894.0;894.0;789.0;805.0",
                "yn": "1255.0;1242.0;1342.0;1343.0;1290.0"
            },
            {
                "class": "Wall",
                "xn": "684.0;693.0;693.0;684.0",
                "yn": "1334.0;1335.0;1359.0;1359.0"
            },
            {
                "class": "Text",
                "height": 25,
                "text": "cellier",
                "width": 133,
                "x": 647,
                "y": 1218
            },
            {
                "class": "Text",
                "height": 25,
                "text": "cuisine",
                "width": 127,
                "x": 1013,
                "y": 1285
            },
            {
                "class": "Text",
                "height": 25,
                "text": "wc",
                "width": 55,
                "x": 657,
                "y": 1386
            },
            {
                "class": "Text",
                "height": 25,
                "text": "repas",
                "width": 106,
                "x": 1061,
                "y": 1628
            },
            {
                "class": "Text",
                "height": 25,
                "text": "sejour",
                "width": 131,
                "x": 1029,
                "y": 1929
            },
            {
                "class": "Text",
                "height": 94,
                "text": "degt",
                "width": 25,
                "x": 826,
                "y": 1561
            },
            {
                "class": "Text",
                "height": 63.73992465874858,
                "text": "terrasse couverte",
                "width": 177.05534627430166,
                "x": 1350.3421075853403,
                "y": 1220.5015203175192
            },
            {
                "class": "Text",
                "height": 30.68959335421232,
                "text": "balcon bois",
                "width": 219.548629380134,
                "x": 597.2667014319775,
                "y": 2190.764817900692
            },
            {
                "class": "Stairs",
                "xn": "773.0;561.0;562.0;772.0;772.0;659.0;658.0;774.0",
                "yn": "1466.0;1466.0;1676.0;1675.0;1572.0;1573.0;1563.0;1561.0"
            }
        ],
        "class": "image",
        "filename": "fp_23.png"
    }
]
