[
    {
        "annotations": [
            {
                "class": "Room", 
                "type": "UN", 
                "xn": "1604;1605;1626;1627;1627;1626;1626;1625;1625;1624;1605;1604;1577;1576;1549;1548;1522;1521;1494;1493;1487;1477;1477;1458;1458;1438;1438;1419;1419;1399;1399;1389;1041;1040;1040;1039;1039;1038;1038;1037;1037;1036;1036;1035;1035;1034;1034;1033;1033;1034;1046;1047;1096;1097;1145;1146;1195;1196;1245;1246;1295;1296;1345;1346;1395;1396;1445;1446;1482;1483;1483;1484;1484;1485;1485;1486;1486;1487;1487;1488;1488;1489;1489;1490;1490;1491;1491;1492;1492;1493;1493;1494;1494;1495;1495;1529;1530;1541;1541;1540;1540;1539;1539;1540", 
                "yn": "800;799;799;800;901;902;1036;1037;1069;1070;1070;1069;1069;1068;1068;1067;1067;1066;1066;1065;1065;1075;1076;1095;1096;1116;1117;1136;1137;1157;1158;1168;1168;1167;1134;1133;1088;1087;1042;1041;996;995;950;949;905;904;859;858;847;846;846;847;847;848;848;849;849;850;850;851;851;852;852;853;853;854;854;855;855;856;857;858;866;867;875;876;883;884;892;893;901;902;909;910;918;919;927;928;935;936;944;945;953;954;959;959;958;958;900;899;821;820;801;800", 
                "text": "chambre parents", 
                "x": 1246, 
                "y": 898
            }, 
            {
                "class": "Room", 
                "type": "UN", 
                "xn": "2537;2538;2577;2578;2736;2737;2895;2896;3014;3015;3015;3016;3016;3017;3017;3018;3018;3017;3008;3007;2967;2966;2927;2926;2886;2885;2855;2855;2856;2856;2855;2541;2540;2540;2539;2539;2538;2538;2537", 
                "yn": "796;795;795;796;796;797;797;798;798;799;826;827;935;936;1044;1045;1125;1126;1126;1127;1127;1128;1128;1129;1129;1130;1130;1133;1134;1144;1145;1145;1144;1058;1057;942;941;825;824", 
                "text": "salle tv", 
                "x": 2755, 
                "y": 947
            }, 
            {
                "class": "Room", 
                "type": "UN", 
                "xn": "1979;1980;2088;2089;2089;2090;2090;2091;2091;2090;2078;2077;2023;2022;1968;1967;1913;1912;1872;1872;1873;1873;1874;1874;1873;1648;1647;1647;1648;1648;1649;1649;1650;1650;1651", 
                "yn": "796;795;795;796;816;817;898;899;959;960;960;961;961;962;962;963;963;964;964;976;977;1028;1029;1066;1067;1067;1066;1045;1044;955;954;865;864;797;796", 
                "text": "cellier", 
                "x": 1846, 
                "y": 839
            }, 
            {
                "class": "Room", 
                "type": "UN", 
                "xn": "2215;2216;2252;2253;2401;2402;2513;2514;2514;2515;2515;2516;2516;2517;2517;2518;2518;2519;2519;2520;2520;2521;2521;2520;2289;2288;2212;2211;2211;2212;2212;2213;2213;2214;2214;2215", 
                "yn": "795;794;794;795;795;796;796;797;809;810;859;860;910;911;961;962;1011;1012;1062;1063;1112;1113;1150;1151;1151;1150;1150;1149;1128;1127;1039;1038;951;950;862;861", 
                "text": "vide", 
                "x": 2394, 
                "y": 1003
            }, 
            {
                "class": "Room", 
                "type": "UN", 
                "xn": "2105;2106;2127;2128;2193;2194;2194;2195;2195;2196;2196;2197;2197;2198;2198;2197;2162;2161;2113;2112;2101;2100;2100;2101;2101;2102;2102;2103;2103;2104;2104;2105", 
                "yn": "795;794;794;795;795;796;806;807;850;851;894;895;937;938;970;971;971;970;970;969;969;968;961;960;926;925;891;890;856;855;821;820", 
                "text": "wc", 
                "x": 2142, 
                "y": 883
            }, 
            {
                "class": "Room", 
                "type": "UN", 
                "xn": "1221;1222;1234;1235;1283;1284;1332;1333;1381;1382;1430;1431;1467;1468;1468;1469;1469;1470;1470;1471;1471;1472;1472;1473;1473;1472;1219;1218;1218;1219;1219;1220;1220;1221", 
                "yn": "638;637;637;638;638;639;639;640;640;641;641;642;642;643;652;653;689;690;727;728;764;765;802;803;830;831;831;830;815;814;751;750;686;685", 
                "text": "dressing", 
                "x": 1344, 
                "y": 735
            }, 
            {
                "class": "Room", 
                "type": "UN", 
                "xn": "866;867;908;909;1077;1078;1204;1205;1205;1204;1204;1203;1203;1202;1202;1201;1201;1200;1174;1173;1064;1063;954;953;871;870;870;871;871;872;872;873;873;874;929;930;1003;1004;1021;1022;1022;1023;1023;1024;1024;1003;1002;972;971;942;941;912;911;882;881;874;873;873;872;872;871;871;870;870;869;869;868;868;867;867;866", 
                "yn": "637;636;636;637;637;638;638;639;674;675;722;723;770;771;817;818;829;830;830;831;831;832;832;833;833;832;825;824;794;793;763;762;739;738;738;737;737;736;736;735;732;731;727;726;724;724;723;723;722;722;721;721;720;720;719;719;718;710;709;699;698;687;686;675;674;664;663;652;651;640;639", 
                "text": "bains", 
                "x": 1053, 
                "y": 662
            }
        ], 
        "class": "image", 
        "filename": "fp_22.png"
    }
]