[
    {
        "annotations": [
            {
                "class": "Room", 
                "type": "UN", 
                "xn": "1243;1244;1279;1280;1422;1423;1565;1566;1672;1673;1673;1672;1672;1671;1671;1670;1618;1617;1404;1403;1244;1243", 
                "yn": "2092;2091;2091;2092;2092;2093;2093;2094;2094;2095;2195;2196;2330;2331;2363;2364;2364;2365;2365;2366;2366;2365", 
                "text": "cave", 
                "x": 1438, 
                "y": 2227
            }, 
            {
                "class": "Room", 
                "type": "UN", 
                "xn": "1228;1229;1265;1266;1413;1414;1561;1562;1672;1673;1673;1672;1646;1645;1539;1538;1432;1431;1325;1324;1244;1243;1243;1227;1226;1226;1227;1227;1228", 
                "yn": "1757;1756;1756;1757;1757;1758;1758;1759;1759;1760;2070;2071;2071;2072;2072;2073;2073;2074;2074;2075;2075;2074;2020;2020;2019;1987;1986;1856;1855", 
                "text": "ch 2", 
                "x": 1421, 
                "y": 1909
            }, 
            {
                "class": "Room", 
                "type": "UN", 
                "xn": "820;821;866;867;1048;1049;1185;1186;1186;1187;1187;1188;1188;1189;1189;1190;1190;1191;1191;1192;1192;1193;1193;1192;1052;1051;864;863;817;816;816;817;817;818;818;819;819;820", 
                "yn": "1636;1635;1635;1636;1636;1637;1637;1638;1651;1652;1707;1708;1762;1763;1817;1818;1873;1874;1928;1929;1984;1985;2025;2026;2026;2025;2025;2024;2024;2023;2000;1999;1903;1902;1806;1805;1709;1708", 
                "text": "ch 1", 
                "x": 993, 
                "y": 1776
            }, 
            {
                "class": "Room", 
                "type": "UN", 
                "xn": "1495;1496;1506;1507;1549;1550;1592;1593;1635;1636;1667;1668;1668;1667;1640;1639;1528;1527;1444;1443;1443;1444;1448;1449;1465;1466;1482;1483;1495", 
                "yn": "1544;1543;1543;1544;1544;1545;1545;1546;1546;1547;1547;1548;1737;1738;1738;1739;1739;1740;1740;1739;1646;1645;1645;1646;1646;1647;1647;1648;1648", 
                "text": "bains", 
                "x": 1568, 
                "y": 1664
            }, 
            {
                "class": "Room", 
                "type": "UN", 
                "xn": "1348;1349;1354;1355;1379;1380;1404;1405;1429;1430;1454;1455;1473;1474;1474;1475;1475;1476;1476;1475;1460;1459;1397;1396;1350;1349;1349;1348", 
                "yn": "1543;1542;1542;1543;1543;1544;1544;1545;1545;1546;1546;1547;1547;1548;1558;1559;1600;1601;1632;1633;1633;1634;1634;1635;1635;1634;1566;1565", 
                "text": "wc", 
                "x": 1400, 
                "y": 1565
            }, 
            {
                "class": "Room", 
                "type": "UN", 
                "xn": "1349;1350;1685;1686;1686;1687;1687;1688;1688;1687;1353;1352;1352;1351;1351;1350;1350;1349", 
                "yn": "840;839;839;840;860;861;941;942;1001;1002;1002;1001;962;961;908;907;854;853", 
                "text": "cellier", 
                "x": 1549, 
                "y": 920
            }
        ], 
        "class": "image", 
        "filename": "fp_37.png"
    }
]