[
    {
        "annotations": [
            {
                "class": "Room", 
                "type": "UN", 
                "xn": "874;875;1306;1307;1307;1306;1306;1305;1305;1304;1224;1223;1116;1115;1008;1007;900;899;873;872;872;873;873;874", 
                "yn": "1899;1898;1898;1899;2034;2035;2214;2215;2259;2260;2260;2259;2259;2258;2258;2257;2257;2256;2256;2255;2212;2211;2033;2032", 
                "text": "chambre 3", 
                "x": 1087, 
                "y": 2104
            }, 
            {
                "class": "Room", 
                "type": "UN", 
                "xn": "435;436;487;488;693;694;848;849;849;848;828;827;745;744;661;660;578;577;494;493;431;430;430;431;431;432;432;433;433;434;434;435", 
                "yn": "1899;1898;1898;1899;1899;1900;1900;1901;2252;2253;2253;2254;2254;2255;2255;2256;2256;2257;2257;2258;2258;2257;2240;2239;2169;2168;2097;2096;2025;2024;1953;1952", 
                "text": "chambre 2", 
                "x": 591, 
                "y": 2098
            }, 
            {
                "class": "Room", 
                "type": "UN", 
                "xn": "977;978;987;988;1026;1027;1055;1056;1056;1057;1057;1058;1058;1059;1059;1060;1060;1061;1061;1074;1075;1092;1093;1110;1111;1128;1129;1132;1133;1133;1132;1076;1075;1000;999;981;980;980;979;979;978;978;977", 
                "yn": "1579;1578;1578;1579;1579;1580;1580;1581;1585;1586;1605;1606;1625;1626;1645;1646;1664;1665;1679;1679;1678;1678;1677;1677;1676;1676;1675;1675;1676;1764;1765;1765;1764;1764;1763;1763;1762;1717;1716;1656;1655;1595;1594", 
                "text": "wc", 
                "x": 1026, 
                "y": 1726
            }, 
            {
                "class": "Room", 
                "type": "UN", 
                "xn": "771;772;793;794;881;882;947;948;948;949;949;950;950;949;928;927;838;837;770;769;769;770;770;771", 
                "yn": "1462;1461;1461;1462;1462;1463;1463;1464;1501;1502;1651;1652;1764;1765;1765;1766;1766;1767;1767;1766;1729;1728;1577;1576", 
                "text": "bains", 
                "x": 891, 
                "y": 1613
            }, 
            {
                "class": "Room", 
                "type": "UN", 
                "xn": "433;434;745;746;746;745;427;426;426;427;427;428;428;429;429;430;430;431;431;432;432;433", 
                "yn": "1460;1459;1459;1460;1867;1868;1868;1867;1854;1853;1795;1794;1737;1736;1679;1678;1621;1620;1562;1561;1504;1503", 
                "text": "chambre 1", 
                "x": 588, 
                "y": 1667
            }, 
            {
                "class": "Room", 
                "type": "UN", 
                "xn": "1322;1323;1664;1665;1665;1666;1666;1667;1667;1668;1668;1667;1328;1327;1327;1326;1326;1325;1325;1324;1324;1323;1323;1322", 
                "yn": "1287;1286;1286;1287;1309;1310;1398;1399;1487;1488;1553;1554;1554;1553;1514;1513;1461;1460;1407;1406;1354;1353;1301;1300", 
                "text": "bureau", 
                "x": 1509, 
                "y": 1466
            }, 
            {
                "class": "Room", 
                "type": "UN", 
                "xn": "1316;1317;2022;2023;2023;2022;2022;2021;2021;2020;1904;1903;1748;1747;1709;1708;1708;1707;1707;1706;1706;1705;1705;1704;1704;1703;1703;1558;1557;1363;1362;1314;1313;1313;1314;1314;1315;1315;1316", 
                "yn": "795;794;794;795;1016;1017;1312;1313;1386;1387;1387;1386;1386;1385;1385;1384;1364;1363;1337;1336;1309;1308;1281;1280;1253;1252;1246;1246;1245;1245;1244;1244;1243;1207;1206;1057;1056;907;906", 
                "text": "garage", 
                "x": 1691, 
                "y": 922
            }
        ], 
        "class": "image", 
        "filename": "fp_4.png"
    }
]