[
    {
        "annotations": [
            {
                "class": "Wall", 
                "xn": "1669.0;1628.0;1628.0;1669.0", 
                "yn": "601.0;602.0;472.0;472.0"
            }, 
            {
                "class": "Wall", 
                "xn": "1628.0;1628.0;2329.0;2330.0", 
                "yn": "429.0;472.0;473.0;429.0"
            }, 
            {
                "class": "Wall", 
                "xn": "1662.0;1670.0;1670.0;1663.0", 
                "yn": "807.0;809.0;877.0;878.0"
            }, 
            {
                "class": "Wall", 
                "xn": "1663.0;1664.0;1740.0;1740.0", 
                "yn": "1146.0;1152.0;1151.0;1144.0"
            }, 
            {
                "class": "Wall", 
                "xn": "1663.0;1663.0;2490.0;2489.0", 
                "yn": "996.0;1004.0;1003.0;997.0"
            }, 
            {
                "class": "Wall", 
                "xn": "1740.0;1739.0;1747.0;1747.0", 
                "yn": "1003.0;1152.0;1152.0;1003.0"
            }, 
            {
                "class": "Wall", 
                "xn": "1887.0;1887.0;2016.0;2015.0", 
                "yn": "879.0;885.0;885.0;878.0"
            }, 
            {
                "class": "Wall", 
                "xn": "2016.0;2025.0;2023.0;2017.0", 
                "yn": "472.0;472.0;885.0;885.0"
            }, 
            {
                "class": "Wall", 
                "xn": "2416.0;2415.0;2943.0;2943.0", 
                "yn": "431.0;473.0;474.0;430.0"
            }, 
            {
                "class": "Wall", 
                "xn": "2944.0;2986.0;2988.0;2943.0", 
                "yn": "607.0;607.0;429.0;429.0"
            }, 
            {
                "class": "Wall", 
                "xn": "2943.0;2987.0;2988.0;2943.0", 
                "yn": "1375.0;1376.0;762.0;763.0"
            }, 
            {
                "class": "Wall", 
                "xn": "2601.0;2602.0;2942.0;2942.0", 
                "yn": "878.0;885.0;885.0;880.0"
            }, 
            {
                "class": "Wall", 
                "xn": "2140.0;2140.0;2236.0;2236.0", 
                "yn": "1557.0;1602.0;1601.0;1557.0"
            }, 
            {
                "class": "Wall", 
                "xn": "2235.0;2279.0;2277.0;2235.0", 
                "yn": "1476.0;1475.0;1602.0;1602.0"
            }, 
            {
                "class": "Wall", 
                "xn": "2236.0;2277.0;2278.0;2236.0", 
                "yn": "1368.0;1368.0;1323.0;1322.0"
            }, 
            {
                "class": "Wall", 
                "xn": "678.0;677.0;734.0;734.0", 
                "yn": "455.0;429.0;430.0;454.0"
            }, 
            {
                "class": "Wall", 
                "xn": "677.0;653.0;653.0;677.0", 
                "yn": "1338.0;1338.0;429.0;429.0"
            }, 
            {
                "class": "Wall", 
                "xn": "1280.0;1304.0;1304.0;1280.0", 
                "yn": "1338.0;1339.0;820.0;820.0"
            }, 
            {
                "class": "Wall", 
                "xn": "1304.0;1304.0;694.0;695.0", 
                "yn": "1381.0;1340.0;1340.0;1383.0"
            }, 
            {
                "class": "Wall", 
                "xn": "695.0;653.0;653.0;694.0", 
                "yn": "1907.0;1909.0;1338.0;1338.0"
            }, 
            {
                "class": "Wall", 
                "xn": "1223.0;1222.0;1279.0;1279.0", 
                "yn": "430.0;455.0;455.0;431.0"
            }, 
            {
                "class": "Wall", 
                "xn": "1305.0;1278.0;1278.0;1303.0", 
                "yn": "665.0;665.0;430.0;429.0"
            }, 
            {
                "class": "Wall", 
                "xn": "1278.0;1278.0;1396.0;1396.0", 
                "yn": "709.0;665.0;666.0;708.0"
            }, 
            {
                "class": "Wall", 
                "xn": "1492.5;1492.5;1303.5;1303.5", 
                "yn": "1152.0;1144.0;1144.0;1152.0"
            }, 
            {
                "class": "Wall", 
                "xn": "1357.0;1350.0;1349.0;1357.0", 
                "yn": "1197.0;1197.0;1153.0;1152.0"
            }, 
            {
                "class": "Wall", 
                "xn": "1304.0;1304.0;1356.0;1356.0", 
                "yn": "1205.0;1197.0;1197.0;1206.0"
            }, 
            {
                "class": "Wall", 
                "xn": "1768.0;1768.0;1669.0;1669.0", 
                "yn": "602.0;596.0;595.0;602.0"
            }, 
            {
                "class": "Wall", 
                "xn": "1628.0;1627.0;1604.0;1605.0", 
                "yn": "668.0;708.0;708.0;668.0"
            }, 
            {
                "class": "Wall", 
                "xn": "1670.0;1628.0;1627.0;1670.0", 
                "yn": "708.0;708.0;661.0;660.0"
            }, 
            {
                "class": "Wall", 
                "xn": "1769.0;1775.0;1775.0;1768.0", 
                "yn": "878.0;878.0;596.0;596.0"
            }, 
            {
                "class": "Wall", 
                "xn": "1775.0;1775.0;1663.0;1662.0", 
                "yn": "879.0;886.0;886.0;878.0"
            }, 
            {
                "class": "Wall", 
                "xn": "1806.0;1762.0;1763.0;1805.0", 
                "yn": "1909.0;1909.0;1603.0;1603.0"
            }, 
            {
                "class": "Wall", 
                "xn": "1762.0;1762.0;1812.0;1812.0", 
                "yn": "1557.0;1603.0;1601.0;1557.0"
            }, 
            {
                "class": "Wall", 
                "xn": "1479.0;1479.0;1498.0;1498.0", 
                "yn": "667.0;708.0;708.0;667.0"
            }, 
            {
                "class": "Wall", 
                "xn": "2149.0;2150.0;2236.0;2236.0", 
                "yn": "1322.0;1329.0;1329.0;1322.0"
            }, 
            {
                "class": "Wall", 
                "xn": "2136.0;2137.0;2248.0;2248.0", 
                "yn": "879.0;885.0;885.0;878.0"
            }, 
            {
                "class": "Wall", 
                "xn": "2248.0;2255.0;2254.0;2248.0", 
                "yn": "473.0;473.0;884.0;886.0"
            }, 
            {
                "class": "Wall", 
                "xn": "2142.0;2147.0;2149.0;2140.0", 
                "yn": "1004.0;1003.0;1329.0;1329.0"
            }, 
            {
                "class": "Wall", 
                "xn": "2366.0;2366.0;2484.0;2483.0", 
                "yn": "879.0;885.0;885.0;878.0"
            }, 
            {
                "class": "Wall", 
                "xn": "2484.0;2490.0;2491.0;2484.0", 
                "yn": "473.0;473.0;885.0;885.0"
            }, 
            {
                "class": "Wall", 
                "xn": "2601.0;2615.0;2615.0;2601.0", 
                "yn": "1005.0;1004.0;998.0;997.0"
            }, 
            {
                "class": "Wall", 
                "xn": "2608.0;2614.0;2614.0;2608.0", 
                "yn": "1006.0;1006.0;1323.0;1322.0"
            }, 
            {
                "class": "Window", 
                "xn": "1411.0;1477.0;1478.0;1400.0;1400.0;1403.0", 
                "yn": "746.0;712.0;661.0;663.0;712.0;730.0"
            }, 
            {
                "class": "Wall", 
                "xn": "1497.0;1495.0;1483.0;1485.0", 
                "yn": "1042.0;670.0;671.0;1042.0"
            }, 
            {
                "class": "Door", 
                "xn": "1502.0;1499.0;1604.0;1607.0;1592.0;1546.0", 
                "yn": "812.0;668.0;667.0;708.0;768.0;801.0"
            }, 
            {
                "class": "Window", 
                "xn": "1692.0;1671.0;1622.0;1625.0;1668.0", 
                "yn": "646.0;603.0;606.0;659.0;659.0"
            }, 
            {
                "class": "Window", 
                "xn": "2399.0;2336.0;2331.0;2415.0;2412.0;2410.0", 
                "yn": "508.0;476.0;424.0;422.0;473.0;494.0"
            }, 
            {
                "class": "Window", 
                "xn": "2906.0;2941.0;2990.0;2993.0;2941.0;2906.0;2924.0", 
                "yn": "676.0;612.0;610.0;761.0;761.0;694.0;685.0"
            }, 
            {
                "class": "Window", 
                "xn": "2943.0;2943.0;2612.0;2613.0", 
                "yn": "1366.0;1321.0;1321.0;1365.0"
            }, 
            {
                "class": "Window", 
                "xn": "2613.0;2614.0;2275.0;2278.0", 
                "yn": "1322.0;1367.0;1367.0;1321.0"
            }, 
            {
                "class": "Window", 
                "xn": "2186.0;2234.0;2282.0;2282.0;2233.0;2205.0", 
                "yn": "1389.0;1476.0;1475.0;1370.0;1367.0;1376.0"
            }, 
            {
                "class": "Window", 
                "xn": "2136.0;2141.0;1812.0;1811.0", 
                "yn": "1554.0;1606.0;1607.0;1554.0"
            }, 
            {
                "class": "Wall", 
                "xn": "1781.0;1805.0;1805.0;1782.0", 
                "yn": "1338.0;1341.0;1364.0;1365.0"
            }, 
            {
                "class": "Window", 
                "xn": "1409.0;1760.0;1759.0;1409.0", 
                "yn": "1896.0;1896.0;1854.0;1853.0"
            }, 
            {
                "class": "Window", 
                "xn": "1048.0;1048.0;1409.0;1408.0", 
                "yn": "1852.0;1896.0;1896.0;1851.0"
            }, 
            {
                "class": "Window", 
                "xn": "1045.0;1047.0;690.0;692.0", 
                "yn": "1854.0;1899.0;1897.0;1855.0"
            }, 
            {
                "class": "Door", 
                "xn": "1412.0;1281.0;1282.0;1344.0;1387.0", 
                "yn": "714.0;712.0;817.0;816.0;782.0"
            }, 
            {
                "class": "Door", 
                "xn": "1618.0;1668.0;1668.0;1638.0", 
                "yn": "792.0;704.0;808.0;805.0"
            }, 
            {
                "class": "Door", 
                "xn": "1383.0;1494.0;1491.0;1441.0;1395.0", 
                "yn": "1141.0;1139.0;1038.0;1044.0;1090.0"
            }, 
            {
                "class": "Door", 
                "xn": "1777.0;1776.0;1890.0;1873.0;1826.0", 
                "yn": "773.0;882.0;881.0;827.0;783.0"
            }, 
            {
                "class": "Door", 
                "xn": "2024.0;2020.0;2142.0;2124.0;2079.0", 
                "yn": "776.0;882.0;882.0;819.0;784.0"
            }, 
            {
                "class": "Door", 
                "xn": "2252.0;2256.0;2370.0;2352.0;2301.0", 
                "yn": "774.0;884.0;882.0;826.0;780.0"
            }, 
            {
                "class": "Door", 
                "xn": "2495.0;2489.0;2601.0;2594.0;2535.0", 
                "yn": "774.0;885.0;884.0;828.0;782.0"
            }, 
            {
                "class": "Door", 
                "xn": "2716.0;2604.0;2608.0;2659.0;2706.0", 
                "yn": "888.0;888.0;998.0;989.0;944.0"
            }, 
            {
                "class": "Door", 
                "xn": "2597.0;2594.0;2493.0;2496.0;2535.0", 
                "yn": "1105.0;1002.0;998.0;1049.0;1088.0"
            }, 
            {
                "class": "Text", 
                "height": 25, 
                "width": 135, 
                "x": 1380, 
                "y": 515, 
                "text": "porche"
            }, 
            {
                "class": "Text", 
                "height": 25, 
                "width": 93, 
                "x": 2282, 
                "y": 636, 
                "text": "bains"
            }, 
            {
                "class": "Text", 
                "height": 25, 
                "width": 147, 
                "x": 1813, 
                "y": 666, 
                "text": "lingerie"
            }, 
            {
                "class": "Text", 
                "height": 24, 
                "width": 130, 
                "x": 2067, 
                "y": 678, 
                "text": "bureau"
            }, 
            {
                "class": "Text", 
                "height": 25, 
                "width": 52, 
                "x": 1699, 
                "y": 754, 
                "text": "wc"
            }, 
            {
                "class": "Text", 
                "height": 25, 
                "width": 134, 
                "x": 910, 
                "y": 807, 
                "text": "garage"
            }, 
            {
                "class": "Text", 
                "height": 25, 
                "width": 132, 
                "x": 1329, 
                "y": 872, 
                "text": "cellier"
            }, 
            {
                "class": "Text", 
                "height": 23, 
                "width": 77, 
                "x": 1518, 
                "y": 855, 
                "text": "hall"
            }, 
            {
                "class": "Text", 
                "height": 25, 
                "width": 227, 
                "x": 1872, 
                "y": 937, 
                "text": "degagement"
            }, 
            {
                "class": "Text", 
                "height": 23, 
                "width": 44, 
                "x": 1683, 
                "y": 1062, 
                "text": "pl"
            }, 
            {
                "class": "Text", 
                "height": 25, 
                "width": 204, 
                "x": 880, 
                "y": 1221, 
                "text": "rangement"
            }, 
            {
                "class": "Text", 
                "height": 25, 
                "width": 127, 
                "x": 1872, 
                "y": 1268, 
                "text": "cuisine"
            }, 
            {
                "class": "Text", 
                "height": 25, 
                "width": 106, 
                "x": 1429, 
                "y": 1504, 
                "text": "repas"
            }, 
            {
                "class": "Text", 
                "height": 25, 
                "width": 129, 
                "x": 856, 
                "y": 1569, 
                "text": "sejour"
            }, 
            {
                "class": "Text", 
                "height": 72.80275785488061, 
                "width": 161.20610667866413, 
                "x": 2293.2868724287387, 
                "y": 1099.8416633076604, 
                "text": "chambre enfant"
            }, 
            {
                "class": "Text", 
                "height": 65.00246237042916, 
                "width": 163.80620517348143, 
                "x": 2685.9017451461305, 
                "y": 1050.4397919061344, 
                "text": "chambre enfant"
            }, 
            {
                "class": "Text", 
                "height": 65.00246237042916, 
                "width": 158.60600818384682, 
                "x": 2631.2996767549703, 
                "y": 626.6237372509365, 
                "text": "chambre parents"
            }
        ], 
        "class": "image", 
        "filename": "fp_47.png"
    }
]