[
    {
        "annotations": [
            {
                "class": "Wall", 
                "xn": "492.0;1073.0;1074.0;491.0", 
                "yn": "708.0;708.0;737.0;733.0"
            }, 
            {
                "class": "Wall", 
                "xn": "1141.0;1141.0;1317.0;1316.0", 
                "yn": "706.0;735.0;731.0;709.0"
            }, 
            {
                "class": "Wall", 
                "xn": "1384.0;1383.0;1626.0;1625.0", 
                "yn": "706.0;733.0;731.0;709.0"
            }, 
            {
                "class": "Wall", 
                "xn": "492.0;517.0;520.0;491.0", 
                "yn": "769.0;769.0;708.0;706.0"
            }, 
            {
                "class": "Wall", 
                "xn": "492.0;519.0;519.0;492.0", 
                "yn": "1048.0;1048.0;1110.0;1108.0"
            }, 
            {
                "class": "Wall", 
                "xn": "1162.0;1162.0;491.0;487.0", 
                "yn": "1085.0;1111.0;1111.0;1086.0"
            }, 
            {
                "class": "Wall", 
                "xn": "633.0;677.0;678.0;633.0", 
                "yn": "1211.0;1211.0;1086.0;1086.0"
            }, 
            {
                "class": "Wall", 
                "xn": "1261.0;1262.0;1623.0;1627.0", 
                "yn": "1086.0;1112.0;1109.0;1084.0"
            }, 
            {
                "class": "Wall", 
                "xn": "1587.0;1628.0;1628.0;1584.0", 
                "yn": "1192.0;1194.0;1089.0;1089.0"
            }, 
            {
                "class": "Wall", 
                "xn": "1630.0;1603.0;1603.0;1628.0", 
                "yn": "1115.0;1116.0;708.0;709.0"
            }, 
            {
                "class": "Wall", 
                "xn": "1584.0;1630.0;1632.0;1587.0", 
                "yn": "1261.0;1259.0;1300.0;1300.0"
            }, 
            {
                "class": "Wall", 
                "xn": "1584.0;1630.0;1628.0;1586.0", 
                "yn": "1366.0;1368.0;1500.0;1500.0"
            }, 
            {
                "class": "Wall", 
                "xn": "1894.0;1583.0;1584.0;1892.0", 
                "yn": "1455.0;1455.0;1499.0;1503.0"
            }, 
            {
                "class": "Wall", 
                "xn": "1851.0;1895.0;1895.0;1848.0", 
                "yn": "1608.0;1607.0;1455.0;1455.0"
            }, 
            {
                "class": "Wall", 
                "xn": "1851.0;1851.0;1896.0;1892.0", 
                "yn": "1746.0;2460.0;2465.0;1745.0"
            }, 
            {
                "class": "Wall", 
                "xn": "1768.0;1769.0;1894.0;1896.0", 
                "yn": "2419.0;2463.0;2465.0;2418.0"
            }, 
            {
                "class": "Wall", 
                "xn": "1487.0;1486.0;971.0;971.0;1016.0;1016.0", 
                "yn": "2418.0;2464.0;2465.0;2407.0;2408.0;2418.0"
            }, 
            {
                "class": "Wall", 
                "xn": "968.0;1014.0;1016.0;967.0", 
                "yn": "2125.0;2124.0;2061.0;2060.0"
            }, 
            {
                "class": "Wall", 
                "xn": "816.0;863.0;862.0;873.0;873.0;814.0", 
                "yn": "1926.0;1926.0;2059.0;2059.0;2101.0;2103.0"
            }, 
            {
                "class": "Wall", 
                "xn": "816.0;817.0;862.0;863.0", 
                "yn": "1610.0;1785.0;1784.0;1608.0"
            }, 
            {
                "class": "Wall", 
                "xn": "981.0;816.0;814.0;935.0;937.0;981.0", 
                "yn": "1655.0;1655.0;1609.0;1610.0;1597.0;1597.0"
            }, 
            {
                "class": "Wall", 
                "xn": "762.0;978.0;980.0;935.0;934.0;764.0", 
                "yn": "1439.0;1440.0;1497.0;1496.0;1485.0;1484.0"
            }, 
            {
                "class": "Wall", 
                "xn": "631.0;633.0;678.0;678.0", 
                "yn": "1349.0;1480.0;1481.0;1350.0"
            }, 
            {
                "class": "Wall", 
                "xn": "698.0;698.0;631.0;630.0", 
                "yn": "1441.0;1480.0;1484.0;1442.0"
            }, 
            {
                "class": "Window", 
                "xn": "1072.0;1141.0;1141.0;1072.0", 
                "yn": "700.0;701.0;735.0;736.0"
            }, 
            {
                "class": "Window", 
                "xn": "1317.0;1386.0;1386.0;1319.0", 
                "yn": "702.0;701.0;736.0;737.0"
            }, 
            {
                "class": "Door", 
                "xn": "1165.0;1164.0;1259.0;1250.0;1217.0", 
                "yn": "997.0;1089.0;1089.0;1046.0;1008.0"
            }, 
            {
                "class": "Wall", 
                "xn": "1266.0;1277.0;1276.0;1263.0", 
                "yn": "1380.0;1381.0;1109.0;1109.0"
            }, 
            {
                "class": "Wall", 
                "xn": "1385.0;1384.0;1264.0;1264.0", 
                "yn": "1374.0;1385.0;1385.0;1372.0"
            }, 
            {
                "class": "Wall", 
                "xn": "1479.0;1479.0;1586.0;1586.0", 
                "yn": "1275.0;1285.0;1283.0;1274.0"
            }, 
            {
                "class": "Wall", 
                "xn": "1479.0;1487.0;1488.0;1479.0", 
                "yn": "1392.0;1392.0;1274.0;1275.0"
            }, 
            {
                "class": "Door", 
                "xn": "1477.0;1478.0;1385.0;1389.0;1427.0", 
                "yn": "1281.0;1382.0;1372.0;1337.0;1294.0"
            }, 
            {
                "class": "Door", 
                "xn": "1385.0;1486.0;1486.0;1421.0;1391.0", 
                "yn": "1402.0;1389.0;1484.0;1467.0;1426.0"
            }, 
            {
                "class": "Wall", 
                "xn": "1460.0;1460.0;1628.0;1630.0", 
                "yn": "1492.0;1503.0;1504.0;1493.0"
            }, 
            {
                "class": "Wall", 
                "xn": "1359.0;1371.0;1370.0;1359.0", 
                "yn": "1492.0;1492.0;1852.0;1852.0"
            }, 
            {
                "class": "Door", 
                "xn": "1371.0;1371.0;1466.0;1455.0;1422.0", 
                "yn": "1594.0;1489.0;1491.0;1545.0;1580.0"
            }, 
            {
                "class": "Wall", 
                "xn": "1148.0;1159.0;1158.0;1146.0", 
                "yn": "1337.0;1337.0;1110.0;1109.0"
            }, 
            {
                "class": "Wall", 
                "xn": "1155.0;1154.0;979.0;979.0", 
                "yn": "1438.0;1449.0;1447.0;1437.0"
            }, 
            {
                "class": "Door", 
                "xn": "1058.0;1153.0;1153.0;1103.0;1069.0", 
                "yn": "1426.0;1427.0;1333.0;1341.0;1379.0"
            }, 
            {
                "class": "Door", 
                "xn": "1079.0;966.0;964.0;1023.0;1066.0", 
                "yn": "1494.0;1490.0;1599.0;1590.0;1544.0"
            }, 
            {
                "class": "Wall", 
                "xn": "1222.0;977.0;978.0;1222.0", 
                "yn": "1644.0;1644.0;1652.0;1655.0"
            }, 
            {
                "class": "Wall", 
                "xn": "1211.0;1221.0;1221.0;1210.0", 
                "yn": "1758.0;1758.0;1640.0;1638.0"
            }, 
            {
                "class": "Door", 
                "xn": "1124.0;1221.0;1219.0;1172.0;1134.0", 
                "yn": "1845.0;1845.0;1757.0;1762.0;1804.0"
            }, 
            {
                "class": "Wall", 
                "xn": "1222.0;1211.0;1211.0;1221.0", 
                "yn": "2066.0;2066.0;1844.0;1844.0"
            }, 
            {
                "class": "Wall", 
                "xn": "1011.0;1011.0;1224.0;1224.0", 
                "yn": "2058.0;2067.0;2069.0;2059.0"
            }, 
            {
                "class": "Door", 
                "xn": "873.0;870.0;970.0;967.0;952.0;912.0", 
                "yn": "1969.0;2102.0;2105.0;2056.0;2004.0;1972.0"
            }, 
            {
                "class": "Window", 
                "xn": "809.0;866.0;865.0;809.0", 
                "yn": "1783.0;1783.0;1926.0;1927.0"
            }, 
            {
                "class": "Window", 
                "xn": "967.0;1016.0;1017.0;966.0", 
                "yn": "2125.0;2124.0;2412.0;2412.0"
            }, 
            {
                "class": "Wall", 
                "xn": "1389.0;1400.0;1399.0;1389.0", 
                "yn": "2362.0;2362.0;2423.0;2423.0"
            }, 
            {
                "class": "Wall", 
                "xn": "1451.0;1451.0;1388.0;1388.0", 
                "yn": "2360.0;2371.0;2369.0;2360.0"
            }, 
            {
                "class": "Wall", 
                "xn": "1454.0;1443.0;1442.0;1452.0", 
                "yn": "2361.0;2359.0;2423.0;2423.0"
            }, 
            {
                "class": "Wall", 
                "xn": "1353.0;1355.0;1855.0;1855.0", 
                "yn": "1847.0;1857.0;1855.0;1846.0"
            }, 
            {
                "class": "Window", 
                "xn": "1903.0;1845.0;1844.0;1902.0", 
                "yn": "1603.0;1604.0;1744.0;1743.0"
            }, 
            {
                "class": "Window", 
                "xn": "1635.0;1635.0;1580.0;1579.0", 
                "yn": "1194.0;1260.0;1260.0;1193.0"
            }, 
            {
                "class": "Window", 
                "xn": "1637.0;1580.0;1581.0;1637.0", 
                "yn": "1298.0;1298.0;1368.0;1367.0"
            }, 
            {
                "class": "Window", 
                "xn": "626.0;684.0;685.0;626.0", 
                "yn": "1210.0;1210.0;1350.0;1349.0"
            }, 
            {
                "class": "Window", 
                "xn": "766.0;765.0;698.0;697.0", 
                "yn": "1433.0;1490.0;1488.0;1434.0"
            }, 
            {
                "class": "Window", 
                "xn": "1483.0;1769.0;1768.0;1485.0", 
                "yn": "2470.0;2470.0;2417.0;2415.0"
            }, 
            {
                "class": "Wall", 
                "xn": "817.0;840.0;840.0;817.0", 
                "yn": "2437.0;2437.0;2462.0;2463.0"
            }, 
            {
                "class": "Text", 
                "height": 31, 
                "width": 170, 
                "x": 785, 
                "y": 870, 
                "text": "garage"
            }, 
            {
                "class": "Text", 
                "height": 31, 
                "width": 166, 
                "x": 1351, 
                "y": 870, 
                "text": "cellier"
            }, 
            {
                "class": "Text", 
                "height": 31, 
                "width": 233, 
                "x": 786, 
                "y": 1197, 
                "text": "chambre 2"
            }, 
            {
                "class": "Text", 
                "height": 31, 
                "width": 117, 
                "x": 1369, 
                "y": 1194, 
                "text": "bains"
            }, 
            {
                "class": "Text", 
                "height": 49, 
                "width": 66, 
                "x": 1503, 
                "y": 1356, 
                "text": "wc"
            }, 
            {
                "class": "Text", 
                "height": 31, 
                "width": 168, 
                "x": 768, 
                "y": 1555, 
                "text": "porche"
            }, 
            {
                "class": "Text", 
                "height": 31, 
                "width": 227, 
                "x": 1482, 
                "y": 1597, 
                "text": "chambre 1"
            }, 
            {
                "class": "Text", 
                "height": 31, 
                "width": 162, 
                "x": 918, 
                "y": 1785, 
                "text": "cuisine"
            }, 
            {
                "class": "Text", 
                "height": 31, 
                "width": 162, 
                "x": 1533, 
                "y": 2088, 
                "text": "sejour"
            }, 
            {
                "class": "Text", 
                "height": 31, 
                "width": 133, 
                "x": 1090, 
                "y": 2228, 
                "text": "repas"
            }, 
            {
                "class": "Text", 
                "height": 33.801280432623116, 
                "width": 91.00344731860082, 
                "x": 1172.644421162541, 
                "y": 1570.4594908695672, 
                "text": "hall"
            }, 
            {
                "class": "Text", 
                "height": 83.20315183414914, 
                "width": 226.20856904909323, 
                "x": 507.019206489347, 
                "y": 2350.4890393147166, 
                "text": "terrasse couverte"
            }
        ], 
        "class": "image", 
        "filename": "fp_40.png"
    }
]