[
    {
        "annotations": [
            {
                "class": "Room", 
                "type": "UN", 
                "xn": "2550;2551;2580;2582;2583;2584;2585;2586;2587;2588;2589;2591;2592;2593;2594;2595;2596;2598;2599;2600;2601;2602;2603;2605;2606;2607;2608;2609;2610;2611;2612;2614;2615;2616;2617;2618;2619;2621;2622;2623;2624;2625;2626;2628;2629;2630;2631;2632;2633;2634;2635;2637;2638;2639;2640;2641;2642;2644;2645;2646;2647;2648;2649;2650;2651;2653;2654;2655;2656;2657;2658;2660;2661;2662;2663;2664;2665;2667;2668;2669;2670;2671;2672;2673;2674;2676;2677;2678;2679;2680;2681;2683;2684;2685;2686;2687;2688;2690;2691;2692;2693;2694;2695;2696;2697;2699;2700;2701;2702;2703;2704;2706;2707;2708;2709;2711;2711;2710;2473;2473;2474;2474;2475;2475;2474;2358;2357;2202;2201;2045;2044;1889;1888;1732;1731;1693;1692;1692;1693;1693;1694;1694;1695;1695;1696;1696;1697;1723;1724;1759;1760;1795;1796;1831;1832;1867;1868;1876;1876;1877;1877;1878;1878;1879;1966;1967;2083;2084;2200;2201;2316;2317;2433;2434", 
                "yn": "1371;1370;1370;1372;1372;1373;1373;1374;1374;1375;1375;1377;1377;1378;1378;1379;1379;1381;1381;1382;1382;1383;1383;1385;1385;1386;1386;1387;1387;1388;1388;1390;1390;1391;1391;1392;1392;1394;1394;1395;1395;1396;1396;1398;1398;1399;1399;1400;1400;1401;1401;1403;1403;1404;1404;1405;1405;1407;1407;1408;1408;1409;1409;1410;1410;1412;1412;1413;1413;1414;1414;1416;1416;1417;1417;1418;1418;1420;1420;1421;1421;1422;1422;1423;1423;1425;1425;1426;1426;1427;1427;1429;1429;1430;1430;1431;1431;1433;1433;1434;1434;1435;1435;1436;1436;1438;1438;1439;1439;1440;1440;1442;1442;1443;1443;1445;1846;1847;1847;1876;1877;1996;1997;2085;2086;2086;2085;2085;2084;2084;2083;2083;2082;2082;2081;2081;2080;2046;2045;1903;1902;1761;1760;1619;1618;1512;1511;1511;1510;1510;1509;1509;1508;1508;1507;1507;1506;1506;1491;1490;1426;1425;1377;1376;1376;1375;1375;1374;1374;1373;1373;1372;1372;1371", 
                "text": "salon", 
                "x": 2047, 
                "y": 1801
            }, 
            {
                "class": "Room", 
                "type": "UN", 
                "xn": "2394;2395;2572;2573;2573;2574;2574;2575;2575;2576;2576;2575;2440;2439;2395;2394", 
                "yn": "1113;1112;1112;1113;1133;1134;1215;1216;1297;1298;1358;1359;1359;1358;1358;1357", 
                "text": "cellier", 
                "x": 2474, 
                "y": 1187
            }, 
            {
                "class": "Room", 
                "type": "UN", 
                "xn": "1207;1208;1527;1528;1528;1527;1527;1526;1526;1525;1525;1524;1524;1523;1523;1522;1522;1521;1521;1520;1520;1519;1461;1460;1382;1381;1303;1302;1224;1223;1204;1203;1203;1204;1204;1205;1205;1206;1206;1207", 
                "yn": "1071;1070;1070;1071;1110;1111;1163;1164;1216;1217;1269;1270;1321;1322;1374;1375;1427;1428;1480;1481;1493;1494;1494;1493;1493;1492;1492;1491;1491;1490;1490;1489;1464;1463;1359;1358;1255;1254;1150;1149", 
                "text": "ch 3", 
                "x": 1359, 
                "y": 1206
            }, 
            {
                "class": "Room", 
                "type": "UN", 
                "xn": "1632;1633;1645;1646;1646;1679;1679;1678;1678;1677;1677;1676;1676;1675;1675;1676;1760;1761;1788;1789;1789;1788;1788;1816;1817;1855;1856;1864;1865;1865;1864;1864;1863;1863;1862;1862;1861;1861;1860;1860;1859;1812;1811;1748;1747;1684;1683;1620;1619;1556;1555;1540;1539;1539;1540;1540;1541;1541;1542;1580;1581", 
                "yn": "1069;1068;1068;1069;1095;1095;1092;1091;1086;1085;1080;1079;1075;1074;1073;1072;1072;1071;1071;1072;1254;1255;1314;1314;1313;1313;1312;1312;1313;1340;1341;1376;1377;1412;1413;1449;1450;1485;1486;1494;1495;1495;1494;1494;1493;1493;1492;1492;1491;1491;1490;1490;1489;1438;1437;1228;1227;1071;1070;1070;1069", 
                "text": "bureau", 
                "x": 1652, 
                "y": 1223
            }, 
            {
                "class": "Room", 
                "type": "UN", 
                "xn": "1094;1095;1106;1107;1152;1153;1187;1188;1188;1189;1189;1188;1154;1153;1013;1012;871;870;765;764;764;765;765;766;806;807;971;972;1095;1095;1094", 
                "yn": "1065;1064;1064;1065;1065;1066;1066;1067;1173;1174;1492;1493;1493;1494;1494;1495;1495;1496;1496;1495;1410;1409;1150;1149;1149;1150;1150;1151;1151;1087;1086", 
                "text": "ch 2", 
                "x": 912, 
                "y": 1260
            }, 
            {
                "class": "Room", 
                "type": "UN", 
                "xn": "764;765;845;846;1088;1089;1089;1088;1088;1087;1087;1086;1086;1085;1059;1058;952;951;845;844;765;764", 
                "yn": "969;968;968;969;969;970;1010;1011;1064;1065;1118;1119;1131;1132;1132;1133;1133;1134;1134;1135;1135;1134", 
                "text": "rgt", 
                "x": 869, 
                "y": 1035
            }, 
            {
                "class": "Room", 
                "type": "UN", 
                "xn": "765;766;1006;1007;1007;1006;1006;1005;1005;1004;1004;1003;1003;1002;825;824;765;764;764;765", 
                "yn": "761;760;760;761;796;797;843;844;890;891;937;938;948;949;949;948;948;947;901;900", 
                "text": "dou", 
                "x": 818, 
                "y": 902
            }, 
            {
                "class": "Room", 
                "type": "UN", 
                "xn": "1204;1205;1265;1266;1266;1265;1174;1173;1052;1051;1021;1020;1020;1021;1021;1022", 
                "yn": "759;758;758;759;951;952;952;951;951;950;950;949;903;902;760;759", 
                "text": "dress", 
                "x": 1155, 
                "y": 876
            }, 
            {
                "class": "Room", 
                "type": "UN", 
                "xn": "1703;1704;1707;1708;1708;1709;1709;1710;1710;1709;1638;1637;1614;1613;1613;1614;1614;1615;1615;1616;1616;1617;1628;1629;1643;1644;1658;1659;1673;1674;1688;1689", 
                "yn": "757;756;756;757;781;782;881;882;955;956;956;955;955;954;939;938;875;874;811;810;763;762;762;761;761;760;760;759;759;758;758;757", 
                "text": "wc", 
                "x": 1656, 
                "y": 863
            }, 
            {
                "class": "Room", 
                "type": "UN", 
                "xn": "1280;1281;1320;1321;1480;1481;1600;1601;1601;1602;1602;1603;1603;1602;1576;1575;1468;1467;1360;1359;1279;1278;1278;1279;1279;1280", 
                "yn": "757;756;756;757;757;758;758;759;782;783;878;879;949;950;950;951;951;952;952;953;953;952;929;928;831;830", 
                "text": "bains", 
                "x": 1450, 
                "y": 815
            }, 
            {
                "class": "Room", 
                "type": "UN", 
                "xn": "2331;2332;2436;2437;2437;2436;2436;2435;2368;2368;2367;2367;2366;2366;2365;2365;2364;2014;2013;2013;2014;2014;2015;2015;2016;2016;2017;2017;2018", 
                "yn": "740;739;739;740;996;997;1082;1083;1083;1147;1148;1233;1234;1320;1321;1341;1342;1342;1341;1305;1304;1154;1153;1004;1003;854;853;741;740", 
                "text": "garage", 
                "x": 2227, 
                "y": 916
            }, 
            {
                "class": "Room", 
                "type": "UN", 
                "xn": "990;991;1003;1004;1004;1005;1005;1006;1006;1007;1007;1006;975;974;933;932;890;889;848;847;805;804;794;792;792;790;790;788;788;786;786;785;785;783;783;781;781;779;779;778;778;776;776;774;774;773;773;771;771;769;769;767;767;766;766;764;764;762;762;760;760;759;759;757;757;755;755;754;754;752;752;750;750;748;748;747;747;745;745;743;743;741;741;740;740;738;738;736;737;776;777;830;831;883;884;937;938", 
                "yn": "646;645;645;646;654;655;687;688;720;721;745;746;746;745;745;744;744;743;743;742;742;741;741;739;738;736;735;733;732;730;729;728;727;725;724;722;721;719;718;717;716;714;713;711;710;709;708;706;705;703;702;700;699;698;697;695;694;692;691;689;688;687;686;684;683;681;680;679;678;676;675;673;672;670;669;668;667;665;664;662;661;659;658;657;656;654;653;651;650;650;649;649;648;648;647;647;646", 
                "text": "wc", 
                "x": 884, 
                "y": 679
            }, 
            {
                "class": "Room", 
                "type": "UN", 
                "xn": "985;986;1010;1011;1014;1015;1018;1019;1021;1022;1025;1026;1029;1030;1033;1034;1036;1037;1040;1041;1044;1045;1047;1048;1051;1052;1055;1056;1059;1060;1062;1063;1066;1067;1070;1071;1074;1075;1077;1078;1081;1082;1085;1086;1089;1090;1092;1093;1096;1097;1100;1101;1103;1104;1107;1112;1113;1117;1118;1123;1124;1129;1130;1134;1135;1140;1141;1145;1146;1151;1152;1156;1157;1162;1163;1168;1169;1173;1174;1179;1180;1187;1187;1190;1190;1192;1192;1194;1194;1196;1196;1198;1198;1200;1200;1203;1203;1205;1205;1207;1207;1209;1209;1211;1211;1213;1213;1216;1216;1218;1218;1220;1220;1222;1222;1224;1224;1225;1225;1226;1226;1227;1227;1228;1228;1229;1229;1230;1230;1231;1231;1232;1232;1233;1233;1234;1234;1235;1235;1236;1236;1237;1237;1238;1238;1239;1239;1240;1240;1241;1241;1242;1242;1243;1243;1244;1244;1245;1245;1246;1246;1247;1247;1248;1248;1249;1249;1250;1250;1251;1251;1252;1252;1253;1253;1254;1254;1255;1255;1254;1254;1253;1253;1252;1252;1251;1251;1250;1250;1249;1249;1248;1248;1247;1247;1246;1246;1245;1245;1244;1244;1243;1243;1242;1242;1241;1241;1240;1240;1239;1239;1238;1238;1237;1237;1236;1236;1235;1235;1234;1234;1233;1233;1231;1231;1230;1230;1228;1228;1227;1227;1225;1225;1224;1224;1222;1222;1221;1221;1219;1219;1218;1218;1216;1216;1215;1215;1213;1213;1212;1212;1210;1210;1209;1209;1207;1207;1206;1206;1204;1204;1203;1203;1201;1201;1200;1200;1198;1198;1197;1197;1195;1195;1194;1194;1192;1192;1191;1191;1190;1221;1220;1218;1217;1215;1214;1213;1212;1210;1209;1208;1207;1205;1204;1202;1201;1200;1199;1197;1196;1195;1194;1192;1191;1189;1188;1187;1186;1184;1183;1168;1167;1149;1148;1131;1130;1112;1111;1093;1092;1074;1073;1056;1055;1037;1036;1018;1017;1013;1012;1012;1011;1011;1010;1010;1009;1009;1008;1008;1007;1007;1006;1006;1005;1005;999;998;968;967;937;936;906;905;875;874;844;843;813;812;782;781;751;750;728;727;727;726;726;725;725;724;724;723;723;722;722;721;721;720;720;719;719;718;718;717;717;716;716;715;715;714;714;713;713;712;712;711;711;710;710;709;709;708;708;707;707;706;706;705;705;704;704;703;703;702;702;703;703;704;704;705;705;706;706;707;707;708;708;709;709;710;710;711;711;712;712;713;713;714;714;715;715;716;716;717;717;718;718;719;719;720;720;721;721;722;722;723;723;724;724;725;725;726;726;727;727;728;728;729;729;730;730;733;733;735;735;738;738;740;740;743;743;747;747;751;751;756;756;760;760;765;765;769;769;774;774;779;779;783;783;788;788;792;792;797;797;801;801;806;806;809;810;811;813;814;815;816;817;818;820;821;822;823;825;826;827;828;830;831;832;833;835;836;837;838;840;841;842;843;844;845;847;848;849;850;852;853;854;855;857;858;859;860;862;863;864;865;866;867;869;870;871;872;874;875;876;877;879;880;881;882;884;885;886;887;889;890;891;892;893;894;896;897;898;899;901;902;903;904;906;907;908;909;911;912", 
                "yn": "249;248;248;249;249;250;250;251;251;252;252;253;253;254;254;255;255;256;256;257;257;258;258;259;259;260;260;261;261;262;262;263;263;264;264;265;265;266;266;267;267;268;268;269;269;270;270;271;271;272;272;273;273;274;274;279;279;283;283;288;288;293;293;297;297;302;302;306;306;311;311;315;315;320;320;325;325;329;329;334;334;341;342;345;346;348;349;351;352;354;355;357;358;360;361;364;365;367;368;370;371;373;374;376;377;379;380;383;384;386;387;389;390;392;393;395;396;397;401;402;405;406;410;411;415;416;419;420;424;425;428;429;433;434;437;438;442;443;446;447;451;452;456;457;460;461;465;466;469;470;474;475;478;479;483;484;487;488;492;493;496;497;501;502;506;507;510;511;515;516;519;520;524;525;528;529;533;534;539;540;543;544;547;548;551;552;555;556;560;561;564;565;568;569;572;573;576;577;580;581;584;585;588;589;592;593;596;597;600;601;604;605;608;609;612;613;616;617;620;621;624;625;627;629;630;631;632;634;635;636;637;639;640;641;642;644;645;646;647;649;650;651;652;654;655;656;657;659;660;661;662;664;665;666;667;669;670;671;672;674;675;676;677;679;680;681;682;684;685;686;687;689;690;691;692;694;695;696;697;698;729;730;730;731;731;732;732;733;733;734;734;735;735;736;736;737;737;738;738;739;739;740;740;741;741;742;742;743;743;744;744;743;743;742;742;741;741;740;740;739;739;738;738;737;737;736;736;735;735;734;725;724;711;710;698;697;684;683;671;670;657;656;644;643;640;640;641;641;642;642;643;643;644;644;645;645;646;646;647;647;648;648;649;649;648;647;646;644;643;641;640;638;637;635;634;632;631;629;628;626;625;623;622;620;619;617;616;614;613;611;610;608;607;605;604;602;601;599;598;596;595;593;592;590;589;587;586;584;583;581;580;562;561;537;536;470;469;467;466;463;462;459;458;455;454;452;451;448;447;444;443;440;439;437;436;433;432;429;428;426;425;423;422;421;420;419;418;416;415;414;413;412;411;409;408;407;406;405;404;402;401;400;399;398;397;395;394;393;392;391;390;389;386;385;383;382;379;378;376;375;372;371;367;366;362;361;356;355;351;350;345;344;340;339;334;333;328;327;323;322;317;316;312;311;306;305;301;300;295;294;291;291;290;290;289;289;288;288;287;287;286;286;285;285;284;284;283;283;282;282;281;281;280;280;279;279;278;278;277;277;276;276;275;275;274;274;273;273;272;272;271;271;270;270;269;269;268;268;267;267;266;266;265;265;264;264;263;263;262;262;261;261;260;260;259;259;258;258;257;257;256;256;255;255;254;254;253;253;252;252;251;251;250;250;249", 
                "text": "ch 1", 
                "x": 921, 
                "y": 434
            }
        ], 
        "class": "image", 
        "filename": "fp_41.png"
    }
]