[
    {
        "annotations": [
            {
                "class": "Window", 
                "xn": "604.0;646.0;653.0;604.0", 
                "yn": "1511.0;1509.0;1647.0;1648.0"
            }, 
            {
                "class": "Window", 
                "xn": "799.0;796.0;932.0;931.0", 
                "yn": "2181.0;2228.0;2229.0;2179.0"
            }, 
            {
                "class": "Window", 
                "xn": "1238.0;1240.0;1379.0;1374.0", 
                "yn": "2179.0;2233.0;2233.0;2179.0"
            }, 
            {
                "class": "Window", 
                "xn": "1815.0;1812.0;2018.0;2017.0", 
                "yn": "2184.0;2229.0;2233.0;2181.0"
            }, 
            {
                "class": "Window", 
                "xn": "2165.0;2282.0;2280.0;2166.0;2174.0;2221.0;2180.0", 
                "yn": "1973.0;1972.0;1830.0;1835.0;1878.0;1902.0;1926.0"
            }, 
            {
                "class": "Window", 
                "xn": "2231.0;2281.0;2281.0;2231.0", 
                "yn": "1378.0;1379.0;1516.0;1515.0"
            }, 
            {
                "class": "Window", 
                "xn": "2248.0;2283.0;2285.0;2247.0", 
                "yn": "1039.0;1041.0;1108.0;1109.0"
            }, 
            {
                "class": "Window", 
                "xn": "1512.0;1561.0;1563.0;1513.0", 
                "yn": "1282.0;1286.0;1356.0;1354.0"
            }, 
            {
                "class": "Window", 
                "xn": "1371.0;1370.0;1329.0;1330.0", 
                "yn": "1442.0;1490.0;1490.0;1444.0"
            }, 
            {
                "class": "Window", 
                "xn": "1117.0;1116.0;1183.0;1184.0", 
                "yn": "1325.0;1374.0;1376.0;1326.0"
            }, 
            {
                "class": "Door", 
                "xn": "1405.0;1499.0;1501.0;1417.0;1402.0", 
                "yn": "1446.0;1448.0;1592.0;1563.0;1512.0"
            }, 
            {
                "class": "Door", 
                "xn": "1178.0;1179.0;1091.0;1093.0;1128.0", 
                "yn": "1606.0;1704.0;1701.0;1646.0;1611.0"
            }, 
            {
                "class": "Door", 
                "xn": "887.0;990.0;983.0;938.0;897.0", 
                "yn": "1804.0;1803.0;1703.0;1704.0;1746.0"
            }, 
            {
                "class": "Door", 
                "xn": "1084.0;1080.0;990.0;992.0;1026.0", 
                "yn": "1903.0;1806.0;1804.0;1857.0;1887.0"
            }, 
            {
                "class": "Door", 
                "xn": "1183.0;1184.0;1278.0;1274.0;1229.0", 
                "yn": "1898.0;1801.0;1799.0;1851.0;1890.0"
            }, 
            {
                "class": "Door", 
                "xn": "1617.0;1516.0;1514.0;1573.0;1610.0", 
                "yn": "1593.0;1589.0;1489.0;1498.0;1536.0"
            }, 
            {
                "class": "Door", 
                "xn": "1560.0;1557.0;1656.0;1649.0;1604.0", 
                "yn": "1315.0;1221.0;1216.0;1264.0;1308.0"
            }, 
            {
                "class": "Wall", 
                "xn": "1516.0;2276.0;2278.0;1517.0", 
                "yn": "681.0;681.0;707.0;709.0"
            }, 
            {
                "class": "Wall", 
                "xn": "1542.0;1542.0;1516.0;1516.0", 
                "yn": "679.0;854.0;855.0;681.0"
            }, 
            {
                "class": "Wall", 
                "xn": "2279.0;2253.0;2253.0;2277.0", 
                "yn": "1040.0;1039.0;677.0;677.0"
            }, 
            {
                "class": "Wall", 
                "xn": "2278.0;2252.0;2253.0;2276.0", 
                "yn": "1199.0;1200.0;1113.0;1113.0"
            }, 
            {
                "class": "Wall", 
                "xn": "2277.0;1656.0;1656.0;2277.0", 
                "yn": "1202.0;1202.0;1226.0;1227.0"
            }, 
            {
                "class": "Wall", 
                "xn": "2279.0;2237.0;2235.0;2277.0", 
                "yn": "1378.0;1373.0;1228.0;1227.0"
            }, 
            {
                "class": "Wall", 
                "xn": "2278.0;2235.0;2234.0;2280.0", 
                "yn": "1520.0;1520.0;1829.0;1831.0"
            }, 
            {
                "class": "Wall", 
                "xn": "2278.0;2278.0;2236.0;2237.0", 
                "yn": "2229.0;1972.0;1975.0;2230.0"
            }, 
            {
                "class": "Wall", 
                "xn": "2022.0;2234.0;2234.0;2020.0", 
                "yn": "2232.0;2231.0;2186.0;2189.0"
            }, 
            {
                "class": "Wall", 
                "xn": "1382.0;1805.0;1806.0;1378.0", 
                "yn": "2228.0;2229.0;2189.0;2189.0"
            }, 
            {
                "class": "Wall", 
                "xn": "1509.0;1505.0;1516.0;1519.0", 
                "yn": "2187.0;1805.0;1805.0;2188.0"
            }, 
            {
                "class": "Wall", 
                "xn": "1280.0;1501.0;1501.0;1277.0", 
                "yn": "1804.0;1803.0;1811.0;1811.0"
            }, 
            {
                "class": "Wall", 
                "xn": "1082.0;1082.0;1095.0;1093.0", 
                "yn": "2189.0;1806.0;1805.0;2188.0"
            }, 
            {
                "class": "Wall", 
                "xn": "1182.0;1183.0;1093.0;1094.0", 
                "yn": "1810.0;1805.0;1801.0;1812.0"
            }, 
            {
                "class": "Wall", 
                "xn": "936.0;936.0;1235.0;1239.0", 
                "yn": "2230.0;2189.0;2187.0;2231.0"
            }, 
            {
                "class": "Wall", 
                "xn": "606.0;799.0;796.0;606.0", 
                "yn": "2230.0;2230.0;2186.0;2185.0"
            }, 
            {
                "class": "Wall", 
                "xn": "607.0;605.0;650.0;649.0", 
                "yn": "1651.0;2182.0;2183.0;1649.0"
            }, 
            {
                "class": "Wall", 
                "xn": "652.0;983.0;983.0;651.0", 
                "yn": "1804.0;1802.0;1811.0;1814.0"
            }, 
            {
                "class": "Wall", 
                "xn": "652.0;1113.0;1115.0;651.0", 
                "yn": "1331.0;1332.0;1374.0;1374.0"
            }, 
            {
                "class": "Wall", 
                "xn": "607.0;605.0;649.0;649.0", 
                "yn": "1332.0;1510.0;1506.0;1329.0"
            }, 
            {
                "class": "Wall", 
                "xn": "1319.0;1184.0;1187.0;1319.0", 
                "yn": "1331.0;1331.0;1373.0;1372.0"
            }, 
            {
                "class": "Wall", 
                "xn": "1321.0;1279.0;1280.0;1325.0", 
                "yn": "1373.0;1373.0;1489.0;1489.0"
            }, 
            {
                "class": "Wall", 
                "xn": "1374.0;1374.0;1399.0;1398.0", 
                "yn": "1448.0;1490.0;1489.0;1448.0"
            }, 
            {
                "class": "Wall", 
                "xn": "1504.0;1560.0;1559.0;1503.0", 
                "yn": "1449.0;1451.0;1492.0;1490.0"
            }, 
            {
                "class": "Wall", 
                "xn": "1515.0;1558.0;1560.0;1514.0", 
                "yn": "1356.0;1356.0;1451.0;1446.0"
            }, 
            {
                "class": "Wall", 
                "xn": "1516.0;1557.0;1560.0;1516.0", 
                "yn": "1202.0;1201.0;1286.0;1284.0"
            }, 
            {
                "class": "Wall", 
                "xn": "1513.0;1541.0;1541.0;1513.0", 
                "yn": "1135.0;1132.0;1198.0;1197.0"
            }, 
            {
                "class": "Wall", 
                "xn": "980.0;976.0;989.0;987.0", 
                "yn": "1372.0;1703.0;1702.0;1371.0"
            }, 
            {
                "class": "Wall", 
                "xn": "1087.0;989.0;989.0;1088.0", 
                "yn": "1697.0;1693.0;1705.0;1705.0"
            }, 
            {
                "class": "Wall", 
                "xn": "1391.0;1387.0;1380.0;1380.0", 
                "yn": "1498.0;1521.0;1521.0;1497.0"
            }, 
            {
                "class": "Door", 
                "xn": "1433.0;1388.0;1391.0;1412.0", 
                "yn": "1597.0;1517.0;1610.0;1607.0"
            }, 
            {
                "class": "Wall", 
                "xn": "1387.0;1389.0;1377.0;1378.0", 
                "yn": "1616.0;1704.0;1705.0;1620.0"
            }, 
            {
                "class": "Wall", 
                "xn": "1386.0;1192.0;1191.0;1378.0", 
                "yn": "1628.0;1626.0;1615.0;1616.0"
            }, 
            {
                "class": "Wall", 
                "xn": "1194.0;1194.0;1182.0;1185.0", 
                "yn": "1486.0;1705.0;1705.0;1485.0"
            }, 
            {
                "class": "Wall", 
                "xn": "1274.0;1189.0;1189.0;1273.0", 
                "yn": "1479.0;1479.0;1491.0;1493.0"
            }, 
            {
                "class": "Wall", 
                "xn": "1733.0;1749.0;1749.0;1738.0", 
                "yn": "1233.0;1234.0;1590.0;1590.0"
            }, 
            {
                "class": "Wall", 
                "xn": "1523.0;1749.0;1749.0;1523.0", 
                "yn": "1587.0;1587.0;1597.0;1597.0"
            }, 
            {
                "class": "Text", 
                "height": 31, 
                "width": 170, 
                "x": 2051, 
                "y": 1088, 
                "text": "garage"
            }, 
            {
                "class": "Text", 
                "height": 31, 
                "width": 167, 
                "x": 1567, 
                "y": 1367, 
                "text": "cellier"
            }, 
            {
                "class": "Text", 
                "height": 32, 
                "width": 161, 
                "x": 1980, 
                "y": 1396, 
                "text": "cuisine"
            }, 
            {
                "class": "Text", 
                "height": 31, 
                "width": 116, 
                "x": 1061, 
                "y": 1520, 
                "text": "bains"
            }, 
            {
                "class": "Text", 
                "height": 31, 
                "width": 66, 
                "x": 1294, 
                "y": 1523, 
                "text": "wc"
            }, 
            {
                "class": "Text", 
                "height": 30, 
                "width": 227, 
                "x": 723, 
                "y": 1571, 
                "text": "chambre 1"
            }, 
            {
                "class": "Text", 
                "height": 30, 
                "width": 98, 
                "x": 1409, 
                "y": 1644, 
                "text": "hall"
            }, 
            {
                "class": "Text", 
                "height": 31, 
                "width": 286, 
                "x": 998, 
                "y": 1737, 
                "text": "degagement"
            }, 
            {
                "class": "Text", 
                "height": 32, 
                "width": 163, 
                "x": 1868, 
                "y": 1894, 
                "text": "sejour"
            }, 
            {
                "class": "Text", 
                "height": 30, 
                "width": 233, 
                "x": 735, 
                "y": 2008, 
                "text": "chambre 2"
            }, 
            {
                "class": "Text", 
                "height": 31, 
                "width": 234, 
                "x": 1213, 
                "y": 2008, 
                "text": "chambre 3"
            }, 
            {
                "class": "Text", 
                "height": 33.28640509956858, 
                "width": 119.83105835844685, 
                "x": 1381.3858116320946, 
                "y": 1368.0712495922671, 
                "text": "porche"
            }, 
            {
                "class": "Text", 
                "height": 33.28640509956858, 
                "width": 29.957764589611543, 
                "x": 1314.8130014329577, 
                "y": 1647.677052428643, 
                "text": "pl"
            }
        ], 
        "class": "image", 
        "filename": "fp_5.png"
    }
]