[
    {
        "annotations": [
            {
                "class": "Room", 
                "type": "UN", 
                "xn": "1551;1552;1659;1660;1660;1659;1552;1551;1226;1225;1225;1226;1226;1227;1227;1228", 
                "yn": "2059;2058;2058;2059;2401;2402;2402;2403;2403;2402;2360;2359;2189;2188;2060;2059", 
                "text": "chambre 1", 
                "x": 1444, 
                "y": 2175
            }, 
            {
                "class": "Room", 
                "type": "UN", 
                "xn": "1637;1638;1657;1658;1658;1659;1659;1660;1660;1661;1661;1660;1641;1640;1562;1561;1482;1481;1422;1421;1421;1420;1420;1419;1419;1418;1418;1417;1417;1416;1416;1415;1415;1416;1476;1477;1556;1557", 
                "yn": "1829;1828;1828;1829;1846;1847;1917;1918;1989;1990;2042;2043;2043;2044;2044;2045;2045;2046;2046;2045;2020;2019;1984;1983;1948;1947;1913;1912;1877;1876;1841;1840;1832;1831;1831;1830;1830;1829", 
                "text": "wc", 
                "x": 1601, 
                "y": 1907
            }, 
            {
                "class": "Room", 
                "type": "UN", 
                "xn": "1304;1305;1349;1350;1526;1527;1659;1660;1660;1659;1659;1658;1658;1657;1593;1592;1507;1506;1421;1420;1334;1333;1248;1247;1226;1225;1225;1224;1224;1225;1254;1255;1294;1295;1304", 
                "yn": "1462;1461;1461;1462;1462;1463;1463;1464;1593;1594;1765;1766;1808;1809;1809;1808;1808;1807;1807;1806;1806;1805;1805;1804;1804;1803;1692;1691;1654;1653;1653;1652;1652;1651;1651", 
                "text": "chambre 2", 
                "x": 1472, 
                "y": 1587
            }, 
            {
                "class": "Room", 
                "type": "UN", 
                "xn": "1201;1202;1286;1287;1287;1288;1288;1287;1282;1281;1255;1254;1229;1228;1209;1209;1208;1058;1057;603;602;602;601;601;602;858;859", 
                "yn": "1461;1460;1460;1461;1503;1504;1633;1634;1634;1635;1635;1636;1636;1637;1637;1806;1807;1807;1808;1808;1807;1549;1548;1463;1462;1462;1461", 
                "text": "cuisine/repas", 
                "x": 891, 
                "y": 1604
            }, 
            {
                "class": "Room", 
                "type": "UN", 
                "xn": "679;680;1676;1677;1677;1676;1594;1593;1262;1261;929;928;680;679", 
                "yn": "887;886;886;887;1424;1425;1425;1426;1426;1427;1427;1428;1428;1427", 
                "text": "garage", 
                "x": 1133, 
                "y": 1084
            }
        ], 
        "class": "image", 
        "filename": "fp_53.png"
    }
]