[
    {
        "annotations": [
            {
                "class": "Room", 
                "type": "UN", 
                "xn": "1491;1492;1521;1522;1522;1521;1521;1520;1520;1519;1519;1518;1518;1522;1523;1541;1542;1560;1561;1579;1580;1593;1594;1594;1595;1595;1594;1431;1430;1211;1210;1156;1155;1155;1156;1156;1157;1157;1158;1158;1159;1249;1250;1370;1371", 
                "yn": "1146;1145;1145;1146;1197;1198;1267;1268;1336;1337;1406;1407;1423;1423;1424;1424;1425;1425;1426;1426;1427;1427;1428;1472;1473;1606;1607;1607;1606;1606;1605;1605;1604;1567;1566;1415;1414;1263;1262;1149;1148;1148;1147;1147;1146", 
                "text": "chambre 2", 
                "x": 1347, 
                "y": 1318
            }, 
            {
                "class": "Room", 
                "type": "UN", 
                "xn": "1036;1037;1139;1140;1140;1141;1141;1142;1142;1143;1143;1142;1088;1087;867;866;701;700;700;701;701;702;952;953;1036", 
                "yn": "1142;1141;1141;1142;1180;1181;1334;1335;1489;1490;1604;1605;1605;1606;1606;1607;1607;1606;1516;1515;1241;1240;1240;1239;1239", 
                "text": "chambre 3", 
                "x": 898, 
                "y": 1348
            }, 
            {
                "class": "Room", 
                "type": "UN", 
                "xn": "983;984;1023;1024;1024;1023;1023;1022;996;995;889;888;782;781;701;700;700;701;701;702;822;823", 
                "yn": "1027;1026;1026;1027;1176;1177;1225;1226;1226;1227;1227;1228;1228;1229;1229;1228;1179;1178;1029;1028;1028;1027", 
                "text": "bains", 
                "x": 865, 
                "y": 1082
            }, 
            {
                "class": "Room", 
                "type": "UN", 
                "xn": "2183;2184;2263;2264;2504;2505;2505;2506;2506;2505;2477;2476;2388;2388;2387;2105;2104;2104;2103;2103;2102;2102;2101;2101;2102;2112;2113;2125;2126;2139;2140;2153;2154;2167;2168;2181;2182;2184;2184;2183", 
                "yn": "569;568;568;569;569;570;657;658;922;923;923;924;924;1000;1001;1001;1000;957;956;897;896;837;836;822;821;821;820;820;819;819;818;818;817;817;816;816;815;815;631;630", 
                "text": "chambre 1", 
                "x": 2313, 
                "y": 728
            }, 
            {
                "class": "Room", 
                "type": "UN", 
                "xn": "2124;2125;2169;2170;2170;2169;2034;2033;1988;1987;1987;1988;1988;1989;1989;1990", 
                "yn": "567;566;566;567;805;806;806;805;805;804;776;775;657;656;568;567", 
                "text": "d", 
                "x": 2014, 
                "y": 678
            }, 
            {
                "class": "Room", 
                "type": "UN", 
                "xn": "1116;1117;1142;1143;1143;1142;1142;1141;1141;1140;1140;1139;1037;1036;1036;1037", 
                "yn": "566;565;565;566;629;630;715;716;800;801;821;822;822;821;567;566", 
                "text": "wc", 
                "x": 1084, 
                "y": 692
            }, 
            {
                "class": "Room", 
                "type": "UN", 
                "xn": "698;699;779;780;1020;1021;1021;1022;1022;1021;699;698", 
                "yn": "566;565;565;566;566;567;677;678;1010;1011;1011;1010", 
                "text": "chambre 4", 
                "x": 874, 
                "y": 686
            }, 
            {
                "class": "Room", 
                "type": "UN", 
                "xn": "1798;1799;1842;1843;1973;1974;1974;1975;1975;1974;1908;1907;1819;1818;1797;1796;1796;1797;1797;1798", 
                "yn": "565;564;564;565;565;566;677;678;1013;1014;1014;1013;1013;1012;1012;1011;956;955;733;732", 
                "text": "cellier", 
                "x": 1893, 
                "y": 716
            }, 
            {
                "class": "Room", 
                "type": "UN", 
                "xn": "1715;1716;1764;1765;1765;1766;1766;1765;1170;1169;1169;1170;1170;1171;1171;1172;1172;1173;1173;1174;1321;1322;1518;1519", 
                "yn": "355;354;354;355;514;515;992;993;993;992;954;953;795;794;636;635;477;476;358;357;357;356;356;355", 
                "text": "garage", 
                "x": 1451, 
                "y": 633
            }
        ], 
        "class": "image", 
        "filename": "fp_67.png"
    }
]