[
    {
        "annotations": [
            {
                "class": "Room", 
                "type": "UN", 
                "xn": "1306;1307;1325;1326;1326;1325;1154;1153;1096;1095;1095;1096;1153;1154;1229;1230", 
                "yn": "1219;1218;1218;1219;1309;1310;1310;1309;1309;1308;1222;1221;1221;1220;1220;1219", 
                "text": "wc", 
                "x": 1251, 
                "y": 1246
            }, 
            {
                "class": "Room", 
                "type": "UN", 
                "xn": "1763;1764;1782;1783;1783;1966;1967;1967;1968;1968;1969;1969;1970;1970;1971;1971;1970;1843;1842;1672;1671;1629;1628;1628;1627;1627;1626;1626;1627;1685;1686", 
                "yn": "1032;1031;1031;1032;1107;1107;1108;1133;1134;1235;1236;1337;1338;1439;1440;1515;1516;1516;1515;1515;1514;1514;1513;1334;1333;1094;1093;1034;1033;1033;1032", 
                "text": "chambre 1", 
                "x": 1821, 
                "y": 1310
            }, 
            {
                "class": "Room", 
                "type": "UN", 
                "xn": "1376;1377;1506;1507;1507;1506;1506;1505;1505;1504;1504;1503;1440;1439;1182;1181;989;988;988;987;987;986;986;985;985;984;984;985", 
                "yn": "1030;1029;1029;1030;1073;1074;1131;1132;1189;1190;1203;1204;1204;1205;1205;1206;1206;1205;1173;1172;1130;1129;1086;1085;1042;1041;1031;1030", 
                "text": "cellier", 
                "x": 1351, 
                "y": 1063
            }, 
            {
                "class": "Room", 
                "type": "UN", 
                "xn": "1623;1624;1666;1667;1839;1840;1969;1970;1970;1969;1801;1800;1800;1799;1799;1798;1798;1797;1797;1796;1796;1795;1795;1794;1794;1775;1774;1692;1691;1630;1629;1629;1628;1628;1627;1627;1626;1626;1625;1625;1624;1624;1623", 
                "yn": "589;588;588;589;589;590;590;591;1090;1091;1091;1090;1082;1081;1069;1068;1056;1055;1044;1043;1031;1030;1018;1017;1015;1015;1016;1016;1017;1017;1016;964;963;892;891;821;820;750;749;678;677;607;606", 
                "text": "chambre 2", 
                "x": 1765, 
                "y": 791
            }, 
            {
                "class": "Room", 
                "type": "UN", 
                "xn": "1593;1594;1609;1610;1610;1609;1609;1608;1584;1583;1551;1550;1518;1517;1485;1484;1452;1451;1419;1418;1411;1410;1410;1411;1411;1412;1412;1413;1413;1414;1414;1415;1463;1464;1528;1529", 
                "yn": "588;587;587;588;830;831;910;911;911;910;910;909;909;908;908;907;907;906;906;905;905;904;886;885;807;806;729;728;650;649;591;590;590;589;589;588", 
                "text": "bains", 
                "x": 1546, 
                "y": 709
            }, 
            {
                "class": "Room", 
                "type": "UN", 
                "xn": "1313;1314;1399;1400;1400;1409;1410;1446;1447;1483;1484;1511;1512;1512;1513;1513;1514;1514;1515;1515;1516;1516;1515;1478;1477;1325;1324;1171;1170;1056;1055;1055;1056;1056;1057", 
                "yn": "586;585;585;586;919;919;920;920;921;921;922;922;923;928;929;950;951;972;973;995;996;1011;1012;1012;1013;1013;1014;1014;1015;1015;1014;908;907;587;586", 
                "text": "chambre 3", 
                "x": 1257, 
                "y": 774
            }, 
            {
                "class": "Room", 
                "type": "UN", 
                "xn": "369;370;450;451;775;776;1019;1020;1020;1019;1019;1018;1018;1017;1010;1009;975;974;949;949;950;950;951;951;952;952;951;806;805;612;611;418;417;369;368;368;369", 
                "yn": "572;571;571;572;572;573;573;574;733;734;946;947;999;1000;1000;1001;1001;1002;1002;1020;1021;1093;1094;1166;1167;1221;1222;1222;1221;1221;1220;1220;1219;1219;1218;1057;1056", 
                "text": "garage", 
                "x": 816, 
                "y": 821
            }
        ], 
        "class": "image", 
        "filename": "fp_62.png"
    }
]