[
    {
        "annotations": [
            {
                "class": "Room", 
                "type": "UN", 
                "xn": "414;415;433;434;509;510;585;586;661;662;737;738;794;795;795;794;794;793;793;792;792;791;791;790;790;789;789;788;788;787;787;786;786;785;785;784;784;783;645;644;460;459;413;412;412;413;413;414", 
                "yn": "1443;1442;1442;1443;1443;1444;1444;1445;1445;1446;1446;1447;1447;1448;1465;1466;1488;1489;1512;1513;1535;1536;1559;1560;1582;1583;1606;1607;1629;1630;1652;1653;1676;1677;1699;1700;1705;1706;1706;1705;1705;1704;1704;1703;1672;1671;1541;1540", 
                "text": "cellier", 
                "x": 605, 
                "y": 1575
            }, 
            {
                "class": "Room", 
                "type": "UN", 
                "xn": "1120;1121;1158;1159;1159;1160;1160;1161;1161;1162;1162;1161;1155;1154;1126;1125;1097;1096;1069;1068;1040;1039;1018;1017;1017;986;985;943;942;901;900;858;857;847;846;846;847;847;848;848;849;849;850;850;851;851;852;852;853;853;854;968;969", 
                "yn": "1321;1320;1320;1321;1342;1343;1430;1431;1518;1519;1583;1584;1584;1585;1585;1586;1586;1587;1587;1588;1588;1589;1589;1588;1506;1506;1505;1505;1504;1504;1503;1503;1502;1502;1501;1496;1495;1470;1469;1445;1444;1419;1418;1394;1393;1368;1367;1342;1341;1323;1322;1322;1321", 
                "text": "bains", 
                "x": 1018, 
                "y": 1422
            }, 
            {
                "class": "Room", 
                "type": "UN", 
                "xn": "848;849;1266;1267;1267;1266;1266;1265;1265;1264;1187;1186;1082;1081;978;977;873;872;847;846;846;847;847;848", 
                "yn": "988;987;987;988;1108;1109;1268;1269;1308;1309;1309;1308;1308;1307;1307;1306;1306;1305;1305;1304;1266;1265;1107;1106", 
                "text": "chambre 1", 
                "x": 1090, 
                "y": 1133
            }, 
            {
                "class": "Room", 
                "type": "UN", 
                "xn": "1285;1286;1604;1605;1605;1604;1571;1570;1525;1524;1480;1479;1434;1433;1389;1388;1343;1342;1298;1297;1286;1285", 
                "yn": "983;982;982;983;1404;1405;1405;1404;1404;1403;1403;1402;1402;1401;1401;1400;1400;1399;1399;1398;1398;1397", 
                "text": "chambre 2", 
                "x": 1477, 
                "y": 1133
            }, 
            {
                "class": "Room", 
                "type": "UN", 
                "xn": "1621;1622;1664;1665;1834;1835;1961;1962;1962;1963;1963;1964;1964;1963;1936;1935;1823;1822;1709;1708;1624;1623;1623;1622;1622;1621", 
                "yn": "981;980;980;981;981;982;982;983;1035;1036;1246;1247;1404;1405;1405;1406;1406;1407;1407;1408;1408;1407;1248;1247;1035;1034", 
                "text": "chambre 3", 
                "x": 1837, 
                "y": 1139
            }
        ], 
        "class": "image", 
        "filename": "fp_7.png"
    }
]