[
    {
        "annotations": [
            {
                "class": "Wall",
                "xn": "2016.0;2060.0;2060.0;2016.0",
                "yn": "1020.0;1020.0;1118.0;1118.0"
            },
            {
                "class": "Wall",
                "xn": "1445.0;1524.0;1523.0;1444.0",
                "yn": "1211.0;1212.0;1256.0;1255.0"
            },
            {
                "class": "Wall",
                "xn": "2017.0;2061.0;2060.0;2016.0",
                "yn": "1212.0;1212.0;1471.0;1471.0"
            },
            {
                "class": "Wall",
                "xn": "2017.0;2060.0;2059.0;2016.0",
                "yn": "1755.0;1756.0;1897.0;1897.0"
            },
            {
                "class": "Wall",
                "xn": "2060.0;2060.0;1917.0;1917.0",
                "yn": "1940.0;1897.0;1896.0;1940.0"
            },
            {
                "class": "Wall",
                "xn": "1824.0;1824.0;1781.0;1780.0",
                "yn": "1896.0;1940.0;1940.0;1897.0"
            },
            {
                "class": "Wall",
                "xn": "1739.0;1783.0;1783.0;1739.0",
                "yn": "1896.0;1896.0;2209.0;2209.0"
            },
            {
                "class": "Wall",
                "xn": "1646.0;1645.0;1783.0;1783.0",
                "yn": "2209.0;2254.0;2254.0;2209.0"
            },
            {
                "class": "Wall",
                "xn": "333.0;378.0;378.0;334.0",
                "yn": "1359.0;1359.0;1255.0;1255.0"
            },
            {
                "class": "Wall",
                "xn": "333.0;333.0;965.0;965.0",
                "yn": "1211.0;1255.0;1256.0;1211.0"
            },
            {
                "class": "Wall",
                "xn": "1039.0;1039.0;1100.0;1124.0;1124.0",
                "yn": "1211.0;1254.0;1255.0;1255.0;1211.0"
            },
            {
                "class": "Wall",
                "xn": "1107.0;1116.0;1116.0;1107.0",
                "yn": "1459.0;1459.0;1255.0;1255.0"
            },
            {
                "class": "Wall",
                "xn": "1067.0;1067.0;1110.0;1108.0",
                "yn": "1786.0;1565.0;1565.0;1785.0"
            },
            {
                "class": "Wall",
                "xn": "1198.0;1339.0;1339.0;1198.0",
                "yn": "1211.0;1211.0;1255.0;1255.0"
            },
            {
                "class": "Wall",
                "xn": "1044.0;1043.0;1115.0;1116.0",
                "yn": "1460.0;1467.0;1466.0;1459.0"
            },
            {
                "class": "Wall",
                "xn": "1066.0;1074.0;1074.0;1067.0",
                "yn": "1863.0;1862.0;1785.0;1785.0"
            },
            {
                "class": "Wall",
                "xn": "1067.0;1066.0;1074.0;1074.0",
                "yn": "1955.0;2034.0;2034.0;1955.0"
            },
            {
                "class": "Wall",
                "xn": "1269.0;1361.0;1362.0;1269.0",
                "yn": "2209.0;2209.0;2253.0;2253.0"
            },
            {
                "class": "Wall",
                "xn": "1225.0;1270.0;1269.0;1225.0",
                "yn": "2076.0;2075.0;2253.0;2254.0"
            },
            {
                "class": "Wall",
                "xn": "711.0;720.0;720.0;711.0",
                "yn": "1256.0;1255.0;1460.0;1461.0"
            },
            {
                "class": "Wall",
                "xn": "944.0;945.0;712.0;709.0",
                "yn": "1459.0;1467.0;1468.0;1459.0"
            },
            {
                "class": "Wall",
                "xn": "780.0;788.0;967.0;967.0",
                "yn": "1566.0;1575.0;1575.0;1566.0"
            },
            {
                "class": "Wall",
                "xn": "2061.0;2060.0;1524.0;1523.0",
                "yn": "975.0;1020.0;1020.0;975.0"
            },
            {
                "class": "Wall",
                "xn": "968.0;968.0;1270.0;1270.0",
                "yn": "2032.0;2077.0;2075.0;2032.0"
            },
            {
                "class": "Wall",
                "xn": "1480.0;1524.0;1524.0;1480.0",
                "yn": "975.0;975.0;1211.0;1211.0"
            },
            {
                "class": "Wall",
                "xn": "1515.0;1524.0;1524.0;1514.0",
                "yn": "1374.0;1374.0;1254.0;1255.0"
            },
            {
                "class": "Wall",
                "xn": "464.0;464.0;377.0;377.0",
                "yn": "2032.0;2076.0;2077.0;2032.0"
            },
            {
                "class": "Wall",
                "xn": "333.0;378.0;377.0;333.0",
                "yn": "1505.0;1505.0;2076.0;2077.0"
            },
            {
                "class": "Wall",
                "xn": "377.0;377.0;507.0;505.0",
                "yn": "1559.0;1569.0;1568.0;1559.0"
            },
            {
                "class": "Wall",
                "xn": "609.0;609.0;823.0;823.0",
                "yn": "2032.0;2076.0;2077.0;2033.0"
            },
            {
                "class": "Wall",
                "xn": "705.0;713.0;714.0;705.0",
                "yn": "1640.0;1648.0;2033.0;2033.0"
            },
            {
                "class": "Wall",
                "xn": "783.0;787.0;713.0;708.0",
                "yn": "1567.0;1572.0;1647.0;1640.0"
            },
            {
                "class": "Wall",
                "xn": "1213.0;1221.0;1221.0;1213.0",
                "yn": "1568.5;1568.5;1683.5;1683.5"
            },
            {
                "class": "Wall",
                "xn": "1319.0;1319.0;1329.0;1329.0",
                "yn": "1565.0;1779.0;1779.0;1565.0"
            },
            {
                "class": "Wall",
                "xn": "1109.0;1108.0;1381.0;1381.0",
                "yn": "1779.0;1787.0;1787.0;1778.0"
            },
            {
                "class": "Wall",
                "xn": "1260.0;1269.0;1270.0;1261.0",
                "yn": "1787.0;1787.0;2031.0;2032.0"
            },
            {
                "class": "Wall",
                "xn": "1214.0;1222.0;1222.0;1213.0",
                "yn": "1254.0;1254.0;1461.0;1461.0"
            },
            {
                "class": "Wall",
                "xn": "1298.0;1299.0;1213.0;1212.0",
                "yn": "1468.0;1459.0;1460.0;1468.0"
            },
            {
                "class": "Wall",
                "xn": "1329.0;1329.0;1374.0;1374.0",
                "yn": "1725.0;1733.0;1733.0;1725.0"
            },
            {
                "class": "Wall",
                "xn": "1381.0;1381.0;1374.0;1374.0",
                "yn": "1726.0;1777.0;1777.0;1726.0"
            },
            {
                "class": "Wall",
                "xn": "513.0;505.0;505.0;514.0",
                "yn": "1514.0;1514.0;1569.0;1568.0"
            },
            {
                "class": "Wall",
                "xn": "503.0;503.0;610.0;613.0",
                "yn": "1506.0;1514.0;1515.0;1507.0"
            },
            {
                "class": "Wall",
                "xn": "634.0;643.0;642.0;634.0",
                "yn": "1568.0;1568.0;1535.0;1539.0"
            },
            {
                "class": "Wall",
                "xn": "613.0;643.0;633.0;611.0",
                "yn": "1507.0;1537.0;1539.0;1517.0"
            },
            {
                "class": "Wall",
                "xn": "1067.0;1090.0;1090.0;1067.0",
                "yn": "976.0;976.0;999.0;999.0"
            },
            {
                "class": "Window",
                "xn": "328.0;381.0;380.0;329.0",
                "yn": "1506.0;1506.0;1360.0;1361.0"
            },
            {
                "class": "Window",
                "xn": "462.0;463.0;610.0;607.0",
                "yn": "2030.0;2080.0;2080.0;2029.0"
            },
            {
                "class": "Window",
                "xn": "824.0;824.0;967.0;967.0",
                "yn": "2029.0;2080.0;2080.0;2029.0"
            },
            {
                "class": "Window",
                "xn": "1362.0;1365.0;1644.0;1645.0",
                "yn": "2207.0;2254.0;2254.0;2208.0"
            },
            {
                "class": "Door",
                "xn": "1824.0;1826.0;1917.0;1916.0;1902.0;1867.0",
                "yn": "1811.0;1941.0;1940.0;1889.0;1840.0;1814.0"
            },
            {
                "class": "Window",
                "xn": "2013.0;2064.0;2062.0;2014.0",
                "yn": "1468.0;1469.0;1753.0;1753.0"
            },
            {
                "class": "Door",
                "xn": "1928.0;2061.0;2061.0;2015.0;1969.0;1935.0",
                "yn": "1122.0;1120.0;1213.0;1212.0;1200.0;1167.0"
            },
            {
                "class": "Door",
                "xn": "1341.0;1341.0;1441.0;1442.0;1398.0",
                "yn": "1352.0;1236.0;1235.0;1298.0;1345.0"
            },
            {
                "class": "Window",
                "xn": "1198.0;1125.0;1124.0;1194.0",
                "yn": "1255.0;1256.0;1208.0;1209.0"
            },
            {
                "class": "Window",
                "xn": "966.0;965.0;1035.0;1034.0",
                "yn": "1209.0;1257.0;1258.0;1209.0"
            },
            {
                "class": "Door",
                "xn": "642.0;708.0;642.0;615.0;616.0",
                "yn": "1405.0;1468.0;1539.0;1490.0;1435.0"
            },
            {
                "class": "Door",
                "xn": "1037.0;1040.0;946.0;959.0;993.0",
                "yn": "1372.0;1462.0;1464.0;1409.0;1377.0"
            },
            {
                "class": "Door",
                "xn": "640.0;705.0;643.0;619.0;611.0",
                "yn": "1701.0;1639.0;1565.0;1599.0;1656.0"
            },
            {
                "class": "Door",
                "xn": "1062.0;1064.0;968.0;976.0;1016.0",
                "yn": "1664.0;1567.0;1569.0;1622.0;1656.0"
            },
            {
                "class": "Door",
                "xn": "1303.0;1226.0;1316.0;1315.0",
                "yn": "1523.0;1564.0;1564.0;1540.0"
            },
            {
                "class": "Door",
                "xn": "1195.0;1114.0;1211.0;1209.0",
                "yn": "1511.0;1462.0;1465.0;1489.0"
            },
            {
                "class": "Text",
                "height": 31,
                "text": "porche",
                "width": 169,
                "x": 1177,
                "y": 1091
            },
            {
                "class": "Text",
                "height": 31,
                "text": "cuisine",
                "width": 161,
                "x": 1660,
                "y": 1091
            },
            {
                "class": "Text",
                "height": 31,
                "text": "chambre 1",
                "width": 227,
                "x": 450,
                "y": 1321
            },
            {
                "class": "Text",
                "height": 30,
                "text": "wc",
                "width": 67,
                "x": 1133,
                "y": 1369
            },
            {
                "class": "Text",
                "height": 30,
                "text": "pl",
                "width": 54,
                "x": 416,
                "y": 1526
            },
            {
                "class": "Text",
                "height": 30,
                "text": "pl",
                "width": 54,
                "x": 538,
                "y": 1525
            },
            {
                "class": "Text",
                "height": 31,
                "text": "degagement",
                "width": 285,
                "x": 799,
                "y": 1516
            },
            {
                "class": "Text",
                "height": 30,
                "text": "chambre 2",
                "width": 232,
                "x": 397,
                "y": 1682
            },
            {
                "class": "Text",
                "height": 31,
                "text": "chambre 3",
                "width": 233,
                "x": 822,
                "y": 1711
            },
            {
                "class": "Text",
                "height": 31,
                "text": "sejour",
                "width": 162,
                "x": 1589,
                "y": 1699
            },
            {
                "class": "Text",
                "height": 187,
                "text": "placard",
                "width": 31,
                "x": 1241,
                "y": 1270
            },
            {
                "class": "Text",
                "height": 44.851535999999896,
                "text": "bains",
                "width": 123.34172400000011,
                "x": 897.0307200000003,
                "y": 1297.8913230000005
            },
            {
                "class": "Text",
                "height": 86.89985100000013,
                "text": "terrasse couverte",
                "width": 229.86412200000018,
                "x": 1782.8485560000006,
                "y": 2060.3674350000006
            },
            {
                "class": "Text",
                "height": 40.42329221119303,
                "text": "cf",
                "width": 41.26544413225952,
                "x": 1347.4430737064308,
                "y": 1676.7244748434398
            },
            {
                "class": "Stairs",
                "xn": "1110.47010406;1108.94995334;1319.49082864;1318.73075328;1223.72133302;1222.96125765;1214.60042867;1210.0399765",
                "yn": "1567.27539669;1778.57634736;1778.57634736;1571.83584887;1571.83584887;1685.84715319;1683.5669271;1568.03547206"
            }
        ],
        "class": "image",
        "filename": "fp_79.png"
    }
]
