[
    {
        "annotations": [
            {
                "class": "Room", 
                "type": "UN", 
                "xn": "1607;1608;1721;1722;2062;2063;2063;2064;2064;2065;2065;2064;2008;2007;1779;1778;1607;1606;1606;1607", 
                "yn": "1584;1583;1583;1584;1584;1585;1624;1625;1782;1783;1901;1902;1902;1903;1903;1904;1904;1903;1824;1823", 
                "text": "ch amis/tv", 
                "x": 1833, 
                "y": 1732
            }, 
            {
                "class": "Room", 
                "type": "UN", 
                "xn": "1161;1162;1255;1256;1256;1255;1255;1254;1112;1111;922;921;874;873;873;874;874;875;875;876;876;877;877;878", 
                "yn": "1417;1416;1416;1417;1650;1651;1728;1729;1729;1728;1728;1727;1727;1726;1708;1707;1631;1630;1553;1552;1476;1475;1418;1417", 
                "text": "bureau", 
                "x": 1080, 
                "y": 1527
            }, 
            {
                "class": "Room", 
                "type": "UN", 
                "xn": "1907;1908;1915;1916;1946;1947;1977;1978;2008;2009;2039;2040;2062;2063;2063;2064;2064;2063;2015;2014;1950;1949;1885;1884;1868;1867;1867;1868;1877;1878;1907", 
                "yn": "1375;1374;1374;1375;1375;1376;1376;1377;1377;1378;1378;1379;1379;1380;1426;1427;1566;1567;1567;1566;1566;1565;1565;1564;1564;1563;1477;1476;1476;1477;1477", 
                "text": "douche", 
                "x": 1921, 
                "y": 1507
            }, 
            {
                "class": "Room", 
                "type": "UN", 
                "xn": "1505;1506;1511;1512;1512;1511;1511;1516;1517;1523;1524;1530;1531;1532;1532;1533;1549;1550;1617;1618;1684;1685;1735;1737;1737;1738;1738;1739;1739;1740;1740;1741;1741;1742;1742;1743;1743;1744;1744;1745;1745;1746;1746;1747;1747;1748;1748;1749;1749;1750;1750;1751;1751;1752;1752;1753;1753;1754;1754;1755;1755;1756;1756;1757;1757;1758;1758;1759;1759;1759;1758;1758;1757;1757;1756;1756;1755;1755;1754;1754;1753;1753;1752;1752;1751;1751;1750;1750;1751;1762;1763;1810;1811;1858;1859;1894;1895;1895;1896;1896;1895;1862;1861;1763;1764;1764;1765;1765;1860;1861;1861;1860;1860;1859;1859;1858;1858;1857;1857;1856;1599;1598;1513;1514;1514;1515;1515;1516;1516;1517;1517;1518;1518;1536;1537;1593;1594;1594;1593;1593;1592;1592;1591;1591;1590;1585;1584;1560;1559;1536;1535;1517;1517;1516;1516;1515;1515;1514;1514;1513;1513;1512;1485;1484;1373;1372;1289;1288;1288;1289;1289;1290;1312;1313;1343;1344;1373;1374;1404;1405;1411;1411;1412;1430;1431;1455;1456;1480;1481", 
                "yn": "1231;1230;1230;1231;1399;1400;1455;1455;1454;1454;1453;1453;1452;1452;1376;1375;1375;1376;1376;1377;1377;1378;1378;1380;1382;1383;1385;1386;1388;1389;1392;1393;1395;1396;1398;1399;1401;1402;1404;1405;1407;1408;1410;1411;1414;1415;1417;1418;1420;1421;1423;1424;1426;1427;1429;1430;1432;1433;1436;1437;1439;1440;1442;1443;1445;1446;1448;1449;1451;1449;1448;1440;1439;1432;1431;1423;1422;1414;1413;1406;1405;1397;1396;1388;1387;1379;1378;1377;1376;1376;1377;1377;1378;1378;1379;1379;1380;1400;1401;1462;1463;1463;1464;1464;1465;1467;1468;1469;1469;1470;1487;1488;1511;1512;1535;1536;1558;1559;1564;1565;1565;1564;1564;1565;1568;1569;1572;1573;1576;1577;1579;1580;1582;1582;1583;1583;1584;1663;1664;1769;1770;1875;1876;1901;1902;1902;1903;1903;1904;1904;1905;1905;1936;1937;1978;1979;2020;2021;2063;2064;2073;2074;2074;2075;2075;2076;2076;2075;1929;1928;1488;1487;1487;1486;1486;1485;1485;1484;1484;1483;1483;1235;1234;1234;1233;1233;1232;1232;1231", 
                "text": "wc", 
                "x": 1800, 
                "y": 1446
            }, 
            {
                "class": "Room", 
                "type": "UN", 
                "xn": "602;603;719;720;1184;1185;1533;1534;1534;1535;1535;1534;1518;1517;1449;1448;1379;1378;1310;1309;1258;1258;1257;1257;1256;1256;1255;1255;1254;1010;1009;684;683;602;601;601;602", 
                "yn": "578;577;577;578;578;579;579;580;730;731;1182;1183;1183;1184;1184;1185;1185;1186;1186;1187;1187;1232;1233;1292;1293;1353;1354;1368;1369;1369;1368;1368;1367;1367;1366;1170;1169", 
                "text": "garages", 
                "x": 1067, 
                "y": 916
            }
        ], 
        "class": "image", 
        "filename": "fp_81.png"
    }
]