[
    {
        "annotations": [
            {
                "class": "Wall", 
                "xn": "1549.0;1549.0;1508.0;1508.0;1569.0;1568.0", 
                "yn": "1692.0;1702.0;1703.0;1648.0;1647.0;1690.0"
            }, 
            {
                "class": "Wall", 
                "xn": "952.0;1255.0;1255.0;952.0", 
                "yn": "1933.0;1933.0;1975.0;1974.0"
            }, 
            {
                "class": "Window", 
                "xn": "1695.0;1768.0;1768.0;1707.0;1695.0", 
                "yn": "656.0;656.0;708.0;743.0;708.0"
            }, 
            {
                "class": "Door", 
                "xn": "1754.0;1718.0;1703.0;1800.0;1798.0", 
                "yn": "975.0;1011.0;1068.0;1069.0;967.0"
            }, 
            {
                "class": "Window", 
                "xn": "1963.0;1953.0;1954.0;2027.0;2027.0", 
                "yn": "744.0;707.0;655.0;655.0;708.0"
            }, 
            {
                "class": "Door", 
                "xn": "927.0;918.0;883.0;827.0;780.0;778.0", 
                "yn": "1262.0;1310.0;1352.0;1368.0;1367.0;1264.0"
            }, 
            {
                "class": "Door", 
                "xn": "1073.0;1041.0;1016.0;1018.0", 
                "yn": "1148.0;1160.0;1161.0;1066.0"
            }, 
            {
                "class": "Window", 
                "xn": "776.0;825.0;869.0;830.0;775.0", 
                "yn": "1078.0;1078.0;1087.0;1154.0;1155.0"
            }, 
            {
                "class": "Window", 
                "xn": "744.0;710.0;659.0;655.0;710.0;744.0;727.0", 
                "yn": "1661.0;1727.0;1727.0;1580.0;1582.0;1642.0;1655.0"
            }, 
            {
                "class": "Window", 
                "xn": "809.0;855.0;883.0;909.0;956.0;957.0;809.0", 
                "yn": "1854.0;1870.0;1900.0;1871.0;1857.0;1983.0;1983.0"
            }, 
            {
                "class": "Window", 
                "xn": "1249.0;1298.0;1325.0;1350.0;1399.0;1397.0;1252.0", 
                "yn": "1855.0;1870.0;1901.0;1871.0;1857.0;1981.0;1981.0"
            }, 
            {
                "class": "Window", 
                "xn": "1506.0;1556.0;1555.0;1506.0", 
                "yn": "1702.0;1700.0;1914.0;1915.0"
            }, 
            {
                "class": "Door", 
                "xn": "1663.0;1661.0;1566.0;1562.0;1577.0;1617.0", 
                "yn": "1549.0;1696.0;1698.0;1639.0;1591.0;1557.0"
            }, 
            {
                "class": "Door", 
                "xn": "1399.0;1399.0;1506.0;1499.0;1456.0", 
                "yn": "1281.0;1172.0;1172.0;1225.0;1267.0"
            }, 
            {
                "class": "Door", 
                "xn": "1809.0;1837.0;1850.0;1754.0;1756.0", 
                "yn": "1254.0;1221.0;1169.0;1172.0;1267.0"
            }, 
            {
                "class": "Door", 
                "xn": "2150.0;2106.0;2057.0;2057.0;2160.0", 
                "yn": "1230.0;1272.0;1282.0;1176.0;1175.0"
            }, 
            {
                "class": "Door", 
                "xn": "2108.0;2065.0;2052.0;2157.0;2157.0", 
                "yn": "966.0;1012.0;1068.0;1065.0;957.0"
            }, 
            {
                "class": "Door", 
                "xn": "2222.0;2250.0;2258.0;2162.0;2162.0", 
                "yn": "1089.0;1119.0;1165.0;1167.0;1073.0"
            }, 
            {
                "class": "Window", 
                "xn": "1237.0;1226.0;1225.0;1303.0;1303.0", 
                "yn": "735.0;694.0;655.0;656.0;698.0"
            }, 
            {
                "class": "Window", 
                "xn": "1480.0;1479.0;1493.0;1558.0;1558.0", 
                "yn": "656.0;708.0;743.0;707.0;656.0"
            }, 
            {
                "class": "Door", 
                "xn": "1319.0;1281.0;1273.0;1367.0;1369.0", 
                "yn": "960.0;996.0;1047.0;1045.0;950.0"
            }, 
            {
                "class": "Door", 
                "xn": "1458.0;1496.0;1506.0;1400.0;1402.0", 
                "yn": "970.0;1007.0;1065.0;1064.0;956.0"
            }, 
            {
                "class": "Door", 
                "xn": "1812.0;1867.0;1899.0;1914.0;1913.0;1815.0", 
                "yn": "1550.0;1562.0;1595.0;1646.0;1696.0;1698.0"
            }, 
            {
                "class": "Door", 
                "xn": "2108.0;2149.0;2183.0;2208.0;2257.0;2258.0;2107.0", 
                "yn": "1574.0;1581.0;1620.0;1585.0;1573.0;1696.0;1695.0"
            }, 
            {
                "class": "Window", 
                "xn": "2485.0;2504.0;2484.0;2521.0;2572.0;2571.0;2521.0", 
                "yn": "1370.0;1378.0;1386.0;1448.0;1450.0;1305.0;1305.0"
            }, 
            {
                "class": "Window", 
                "xn": "2483.0;2504.0;2484.0;2519.0;2572.0;2572.0;2518.0", 
                "yn": "970.0;977.0;981.0;1048.0;1050.0;906.0;903.0"
            }, 
            {
                "class": "Wall", 
                "xn": "663.0;1227.0;1227.0;662.0", 
                "yn": "662.0;662.0;688.0;688.0"
            }, 
            {
                "class": "Wall", 
                "xn": "660.0;663.0;688.0;688.0", 
                "yn": "662.0;721.0;719.0;665.0"
            }, 
            {
                "class": "Wall", 
                "xn": "663.0;1273.0;1273.0;663.0", 
                "yn": "1065.0;1065.0;1043.0;1041.0"
            }, 
            {
                "class": "Wall", 
                "xn": "691.0;691.0;665.0;665.0", 
                "yn": "1008.0;1065.0;1066.0;1010.0"
            }, 
            {
                "class": "Wall", 
                "xn": "1485.0;1486.0;1372.0;1372.0", 
                "yn": "663.0;707.0;707.0;663.0"
            }, 
            {
                "class": "Wall", 
                "xn": "1308.0;1486.0;1486.0;1310.0", 
                "yn": "660.0;660.0;687.0;688.0"
            }, 
            {
                "class": "Wall", 
                "xn": "1374.0;1371.0;1396.0;1399.0", 
                "yn": "1065.0;660.0;658.0;1063.0"
            }, 
            {
                "class": "Wall", 
                "xn": "1564.0;1695.0;1695.0;1559.0", 
                "yn": "665.0;663.0;705.0;704.0"
            }, 
            {
                "class": "Wall", 
                "xn": "2566.0;2028.0;2028.0;2566.0", 
                "yn": "663.0;662.0;704.0;707.0"
            }, 
            {
                "class": "Wall", 
                "xn": "2569.0;2567.0;2523.0;2519.0", 
                "yn": "662.0;898.0;902.0;662.0"
            }, 
            {
                "class": "Wall", 
                "xn": "2567.0;2569.0;2520.0;2522.0", 
                "yn": "1051.0;1304.0;1302.0;1051.0"
            }, 
            {
                "class": "Wall", 
                "xn": "2567.0;2567.0;2523.0;2525.0", 
                "yn": "1689.0;1450.0;1449.0;1691.0"
            }, 
            {
                "class": "Wall", 
                "xn": "2255.0;2567.0;2566.0;2259.0", 
                "yn": "1649.0;1650.0;1691.0;1689.0"
            }, 
            {
                "class": "Wall", 
                "xn": "1919.0;2108.0;2108.0;1919.0", 
                "yn": "1647.0;1647.0;1691.0;1691.0"
            }, 
            {
                "class": "Wall", 
                "xn": "1662.0;1814.0;1814.0;1662.0", 
                "yn": "1652.0;1649.0;1693.0;1696.0"
            }, 
            {
                "class": "Wall", 
                "xn": "1550.0;1395.0;1397.0;1550.0", 
                "yn": "1973.0;1972.0;1931.0;1934.0"
            }, 
            {
                "class": "Wall", 
                "xn": "1506.0;1505.0;1550.0;1552.0", 
                "yn": "1916.0;1972.0;1972.0;1909.0"
            }, 
            {
                "class": "Wall", 
                "xn": "1667.0;1692.0;1692.0;1667.0", 
                "yn": "1950.0;1950.0;1975.0;1975.0"
            }, 
            {
                "class": "Wall", 
                "xn": "665.0;808.0;808.0;662.0", 
                "yn": "1973.0;1973.0;1933.0;1933.0"
            }, 
            {
                "class": "Wall", 
                "xn": "662.0;662.0;705.0;704.0", 
                "yn": "1730.0;1969.0;1970.0;1730.0"
            }, 
            {
                "class": "Wall", 
                "xn": "662.0;662.0;708.0;708.0", 
                "yn": "1377.0;1581.0;1580.0;1377.0"
            }, 
            {
                "class": "Wall", 
                "xn": "823.0;658.0;662.0;778.0;782.0;827.0", 
                "yn": "1423.0;1419.0;1375.0;1373.0;1361.0;1364.0"
            }, 
            {
                "class": "Wall", 
                "xn": "782.0;782.0;824.0;826.0", 
                "yn": "1158.0;1263.0;1263.0;1156.0"
            }, 
            {
                "class": "Wall", 
                "xn": "783.0;783.0;821.0;821.0", 
                "yn": "1038.0;1078.0;1080.0;1041.0"
            }, 
            {
                "class": "Wall", 
                "xn": "1602.0;1600.0;1612.0;1612.0", 
                "yn": "1065.0;704.0;704.0;1065.0"
            }, 
            {
                "class": "Wall", 
                "xn": "1506.0;1702.0;1702.0;1508.0", 
                "yn": "1057.0;1056.0;1069.0;1069.0"
            }, 
            {
                "class": "Wall", 
                "xn": "1813.0;1812.0;1800.0;1802.0", 
                "yn": "703.0;1065.0;1065.0;704.0"
            }, 
            {
                "class": "Wall", 
                "xn": "1765.0;1953.0;1956.0;1768.0", 
                "yn": "663.0;662.0;705.0;707.0"
            }, 
            {
                "class": "Wall", 
                "xn": "1808.0;2057.0;2058.0;1812.0", 
                "yn": "1056.0;1058.0;1070.0;1069.0"
            }, 
            {
                "class": "Wall", 
                "xn": "2173.5;2170.5;2159.5;2160.5", 
                "yn": "701.5;1070.5;1069.5;702.5"
            }, 
            {
                "class": "Wall", 
                "xn": "2525.0;2160.0;2160.0;2525.0", 
                "yn": "1168.0;1167.0;1180.0;1178.0"
            }, 
            {
                "class": "Wall", 
                "xn": "1848.0;2053.0;2053.0;1847.0", 
                "yn": "1168.0;1167.0;1180.0;1180.0"
            }, 
            {
                "class": "Wall", 
                "xn": "1506.0;1754.0;1755.0;1505.0", 
                "yn": "1169.0;1170.0;1179.0;1180.0"
            }, 
            {
                "class": "Wall", 
                "xn": "1278.0;1277.0;1400.0;1400.0", 
                "yn": "1168.0;1180.0;1179.0;1168.0"
            }, 
            {
                "class": "Wall", 
                "xn": "1198.0;1210.0;1211.0;1198.0", 
                "yn": "1521.0;1522.0;1250.0;1248.0"
            }, 
            {
                "class": "Wall", 
                "xn": "1015.0;1026.0;1026.0;1015.0", 
                "yn": "1248.0;1248.0;1161.0;1161.0"
            }, 
            {
                "class": "Wall", 
                "xn": "825.0;1025.0;1025.0;824.0", 
                "yn": "1163.0;1162.0;1172.0;1172.0"
            }, 
            {
                "class": "Wall", 
                "xn": "2043.0;2054.0;2058.0;2043.0", 
                "yn": "1646.0;1647.0;1174.0;1175.0"
            }, 
            {
                "class": "Wall", 
                "xn": "1744.0;1743.0;1755.0;1754.0", 
                "yn": "1650.0;1176.0;1177.0;1649.0"
            }, 
            {
                "class": "Wall", 
                "xn": "2285.0;2297.0;2296.0;2285.0", 
                "yn": "1571.0;1571.0;1651.0;1651.0"
            }, 
            {
                "class": "Wall", 
                "xn": "1715.0;1739.0;1739.0;1713.0", 
                "yn": "251.0;251.0;275.0;275.0"
            }, 
            {
                "class": "Wall", 
                "xn": "1172.0;1196.0;1196.0;1175.0", 
                "yn": "249.0;252.0;275.0;275.0"
            }, 
            {
                "class": "Wall", 
                "xn": "1199.0;1279.0;1284.0;1212.0", 
                "yn": "1250.0;1173.0;1179.0;1251.0"
            }, 
            {
                "class": "Text", 
                "height": 25, 
                "width": 135, 
                "x": 974, 
                "y": 833, 
                "text": "garage"
            }, 
            {
                "class": "Text", 
                "height": 25, 
                "width": 132, 
                "x": 1423, 
                "y": 851, 
                "text": "cellier"
            }, 
            {
                "class": "Text", 
                "height": 25, 
                "width": 93, 
                "x": 1914, 
                "y": 851, 
                "text": "bains"
            }, 
            {
                "class": "Text", 
                "height": 25, 
                "width": 186, 
                "x": 2256, 
                "y": 833, 
                "text": "chambre 2"
            }, 
            {
                "class": "Text", 
                "height": 25, 
                "width": 55, 
                "x": 925, 
                "y": 1081, 
                "text": "wc"
            }, 
            {
                "class": "Text", 
                "height": 25, 
                "width": 226, 
                "x": 1477, 
                "y": 1111, 
                "text": "degagement"
            }, 
            {
                "class": "Text", 
                "height": 25, 
                "width": 135, 
                "x": 627, 
                "y": 1170, 
                "text": "porche"
            }, 
            {
                "class": "Text", 
                "height": 25, 
                "width": 150, 
                "x": 851, 
                "y": 1200, 
                "text": "placard"
            }, 
            {
                "class": "Text", 
                "height": 24, 
                "width": 79, 
                "x": 969, 
                "y": 1318, 
                "text": "hall"
            }, 
            {
                "class": "Text", 
                "height": 25, 
                "width": 127, 
                "x": 1405, 
                "y": 1318, 
                "text": "cuisine"
            }, 
            {
                "class": "Text", 
                "height": 25, 
                "width": 131, 
                "x": 1807, 
                "y": 1318, 
                "text": "bureau"
            }, 
            {
                "class": "Text", 
                "height": 24, 
                "width": 182, 
                "x": 2214, 
                "y": 1306, 
                "text": "chambre 1"
            }, 
            {
                "class": "Text", 
                "height": 25, 
                "width": 151, 
                "x": 2315, 
                "y": 1607, 
                "text": "placard"
            }, 
            {
                "class": "Text", 
                "height": 25, 
                "width": 130, 
                "x": 791, 
                "y": 1684, 
                "text": "sejour"
            }, 
            {
                "class": "Text", 
                "height": 25, 
                "width": 107, 
                "x": 1258, 
                "y": 1684, 
                "text": "repas"
            }, 
            {
                "class": "Text", 
                "height": 63, 
                "width": 175, 
                "x": 1572, 
                "y": 1752, 
                "text": "terrassecouverte"
            }, 
            {
                "class": "Text", 
                "height": 29.610000000000014, 
                "width": 124.08000000000015, 
                "x": 1635.6000000000035, 
                "y": 854.4600000000019, 
                "text": "douch"
            }, 
            {
                "class": "Text", 
                "height": 33.28640509956858, 
                "width": 233.0048356969803, 
                "x": 1301.4984393931325, 
                "y": 452.6951093541331, 
                "text": "abri voiture"
            }
        ], 
        "class": "image", 
        "filename": "fp_9.png"
    }
]