[
    {
        "annotations": [
            {
                "class": "Room", 
                "type": "open", 
                "xn": "1081;1082;1460;1461;1461;1462;1520;1521;1521;1520;1507;1506;1491;1490;1475;1474;1449;1448;1448;1447;1439;1438;1438;1437;1429;1428;1428;1427;1419;1418;1418;1417;1409;1408;1408;1407;1399;1398;1398;1397;1389;1388;1388;1387;1379;1378;1378;1377;1369;1368;1368;1367;1359;1358;1358;1357;1349;1348;1348;1347;1339;1338;1338;1337;1329;1328;1328;1327;1319;1318;1318;1317;1309;1308;1308;1307;1299;1298;1298;1297;1289;1288;1288;1287;1279;1278;1277;1275;1274;1273;954;953;953;954;966;967;967;968;1023;1024", 
                "yn": "1679;1678;1678;1679;1736;1737;1737;1738;2249;2250;2250;2251;2251;2252;2252;2253;2253;2254;2255;2256;2256;2257;2258;2259;2259;2260;2261;2262;2262;2263;2264;2265;2265;2266;2267;2268;2268;2269;2270;2271;2271;2272;2273;2274;2274;2275;2276;2277;2277;2278;2279;2280;2280;2281;2282;2283;2283;2284;2285;2286;2286;2287;2288;2289;2289;2290;2291;2292;2292;2293;2294;2295;2295;2296;2297;2298;2298;2299;2300;2301;2301;2302;2303;2304;2304;2305;2305;2307;2307;2308;2308;2307;1866;1865;1865;1864;1681;1680;1680;1679", 
                "text": "master bedroom", 
                "x": 1230, 
                "y": 2000
            }, 
            {
                "class": "Room", 
                "type": "open", 
                "xn": "630;631;888;889;889;890;947;948;948;947;935;934;934;933;920;919;919;920;950;951;951;950;919;918;918;919;933;934;934;933;646;645;645;646;806;807;807;806;646;645;645;646;791;792;792;791;690;689;689;690;821;822;822;821;691;690;690;689;631;630", 
                "yn": "1074;1073;1073;1074;1130;1131;1131;1132;1459;1460;1460;1461;1786;1787;1787;1788;1864;1865;1865;1866;2035;2036;2036;2037;2153;2154;2154;2155;2306;2307;2307;2306;2155;2154;2154;2153;2136;2135;2135;2134;1767;1766;1766;1765;1740;1739;1739;1738;1481;1480;1480;1479;1460;1459;1459;1458;1402;1401;1401;1400", 
                "text": "bathroom", 
                "x": 814, 
                "y": 1964
            }, 
            {
                "class": "Room", 
                "type": "open", 
                "xn": "630;631;947;948;948;947;631;630", 
                "yn": "787;786;786;787;1045;1046;1046;1045", 
                "text": "laundry", 
                "x": 759, 
                "y": 868
            }, 
            {
                "class": "Room", 
                "type": "open", 
                "xn": "1442;1443;1504;1505;1505;1504;1381;1380;1380;1381;1504;1505;1505;1504;1292;1291;1291;1290;1269;1268;1268;1267;1249;1248;1248;1247;1182;1181;1181;1180;1180;1179;1179;1178;1178;1177;1177;1176;1176;1175;1175;1174;1174;1173;1173;1172;1172;1171;1171;1170;1170;1169;1169;1168;1168;1167;1167;1166;1166;1165;1165;1164;1164;1163;1163;1162;1162;1161;1161;1160;1160;1159;1159;1158;1158;1157;1157;1156;1156;1155;1155;1154;1154;1153;1153;1152;1152;1151;1151;1150;1151;1374;1375;1375;1376;1376;1377;1377;1378;1378;1379;1379;1380;1380;1381;1381;1380;1352;1351;1321;1320;1290;1289;1259;1258;1228;1227;1197;1196;1168;1167;1167;1166;1139;1138;1138;1137;1082;1081;1024;1023;968;967;967;966;950;949;949;950;1441;1442", 
                "yn": "780;779;779;780;986;987;987;988;1006;1007;1007;1008;1257;1258;1258;1257;1135;1134;1134;1133;900;899;899;900;942;943;943;944;961;962;976;977;991;992;1006;1007;1022;1023;1037;1038;1052;1053;1067;1068;1083;1084;1098;1099;1113;1114;1128;1129;1144;1145;1159;1160;1174;1175;1189;1190;1204;1205;1220;1221;1235;1236;1250;1251;1265;1266;1281;1282;1296;1297;1311;1312;1326;1327;1342;1343;1357;1358;1372;1373;1387;1388;1402;1403;1417;1418;1419;1419;1420;1431;1432;1444;1445;1457;1458;1470;1471;1483;1484;1496;1497;1509;1510;1510;1511;1511;1512;1512;1513;1513;1514;1514;1515;1515;1516;1516;1515;1506;1505;1505;1506;1676;1677;1677;1678;1678;1679;1679;1678;915;914;914;913;787;786;786;785", 
                "text": "dn", 
                "x": 1109, 
                "y": 1357
            }, 
            {
                "class": "Room", 
                "type": "open", 
                "xn": "1085;1086;1520;1521;1521;1520;1242;1241;1241;1246;1246;1244;1244;1239;1239;1235;1230;1229;1229;1228;1225;1223;1222;1219;1218;1215;1214;1211;1210;1207;1206;1205;1192;1191;1191;1187;1186;1184;1183;1181;1180;1178;1177;1174;1173;1171;1170;1168;1167;1165;1162;1161;1161;1162;1169;1174;1175;1178;1182;1183;1185;1186;1188;1190;1191;1191;1190;1186;1185;1185;1186;1188;1189;1189;1188;1086;1085", 
                "yn": "142;141;141;142;766;767;767;766;715;710;708;706;705;700;699;695;695;696;700;701;701;703;703;706;706;709;709;712;712;715;715;716;716;717;725;729;729;731;731;733;733;735;735;738;738;740;740;742;742;744;744;745;753;754;754;759;759;762;758;758;756;756;754;754;755;766;767;767;768;778;779;779;780;783;784;784;783", 
                "text": "bedroom 3", 
                "x": 1308, 
                "y": 418
            }, 
            {
                "class": "Room", 
                "type": "open", 
                "xn": "630;631;1065;1066;1066;1067;1082;1083;1083;1082;969;968;968;967;961;960;960;959;938;912;911;899;853;884;885;895;894;631;630", 
                "yn": "142;141;141;142;662;663;663;664;783;784;784;783;768;767;767;766;718;717;717;691;691;679;725;756;756;766;767;767;766", 
                "text": "bedroom 2", 
                "x": 850, 
                "y": 417
            }, 
            {
                "class": "Door", 
                "xn": "956;956;975;975", 
                "yn": "1882;2027;2027;1882", 
                "confidence": 0.866666666667
            }, 
            {
                "class": "Door", 
                "xn": "923;924;943;942", 
                "yn": "803;905;904;802", 
                "confidence": 1.0
            }, 
            {
                "class": "Window", 
                "xn": "642;806;806;642", 
                "yn": "2309;2309;2325;2325", 
                "confidence": 1.0
            }, 
            {
                "class": "Window", 
                "xn": "611;688;688;611", 
                "yn": "1478;1478;1741;1741", 
                "confidence": 1.0
            }, 
            {
                "class": "Window", 
                "xn": "767;927;927;767", 
                "yn": "79;79;139;139", 
                "confidence": 1.0
            }, 
            {
                "class": "Window", 
                "xn": "1222;1382;1382;1222", 
                "yn": "79;79;139;139", 
                "confidence": 1.0
            }, 
            {
                "class": "Window", 
                "xn": "627;806;806;627", 
                "yn": "2309;2309;2325;2325", 
                "confidence": 1.0
            }, 
            {
                "class": "Window", 
                "xn": "1006;1144;1144;1006", 
                "yn": "2309;2309;2369;2369", 
                "confidence": 1.0
            }, 
            {
                "class": "Window", 
                "xn": "1267;1267;1462;1464", 
                "yn": "2310;2369;2309;2251", 
                "confidence": 0.5
            }, 
            {
                "class": "Wall", 
                "xn": "612;688;688;612", 
                "yn": "1403;1403;1479;1479", 
                "confidence": 1.0
            }, 
            {
                "class": "Wall", 
                "xn": "891;965;965;891", 
                "yn": "1048;1048;1129;1129", 
                "confidence": 1.0
            }, 
            {
                "class": "Wall", 
                "xn": "1464;1537;1537;1464", 
                "yn": "2251;2251;2325;2325", 
                "confidence": 1.0
            }, 
            {
                "class": "Wall", 
                "xn": "1463;1538;1538;1463", 
                "yn": "1660;1660;1735;1735", 
                "confidence": 1.0
            }, 
            {
                "class": "Wall", 
                "xn": "1382;1538;1538;1382", 
                "yn": "80;80;139;139", 
                "confidence": 1.0
            }, 
            {
                "class": "Wall", 
                "xn": "927;1223;1223;927", 
                "yn": "80;80;139;139", 
                "confidence": 1.0
            }, 
            {
                "class": "Wall", 
                "xn": "612;768;768;612", 
                "yn": "80;80;139;139", 
                "confidence": 1.0
            }, 
            {
                "class": "Wall", 
                "xn": "1144;1267;1267;1144", 
                "yn": "2310;2310;2369;2369", 
                "confidence": 1.0
            }, 
            {
                "class": "Wall", 
                "xn": "883;1007;1007;883", 
                "yn": "2310;2310;2369;2369", 
                "confidence": 1.0
            }, 
            {
                "class": "Wall", 
                "xn": "913;959;959;913", 
                "yn": "719;719;784;784", 
                "confidence": 1.0
            }, 
            {
                "class": "Wall", 
                "xn": "1193;1238;1238;1193", 
                "yn": "718;718;784;784", 
                "confidence": 1.0
            }, 
            {
                "class": "Wall", 
                "xn": "1251;1289;1289;1251", 
                "yn": "1136;1136;1276;1276", 
                "confidence": 1.0
            }, 
            {
                "class": "Wall", 
                "xn": "613;643;643;613", 
                "yn": "1741;1741;2325;2325", 
                "confidence": 1.0
            }, 
            {
                "class": "Wall", 
                "xn": "1507;1537;1537;1507", 
                "yn": "769;769;1276;1276", 
                "confidence": 1.0
            }, 
            {
                "class": "Wall", 
                "xn": "920;951;951;920", 
                "yn": "2038;2038;2152;2152", 
                "confidence": 1.0
            }, 
            {
                "class": "Wall", 
                "xn": "921;951;951;921", 
                "yn": "1789;1789;1863;1863", 
                "confidence": 1.0
            }, 
            {
                "class": "Wall", 
                "xn": "936;966;966;936", 
                "yn": "1462;1462;1863;1863", 
                "confidence": 1.0
            }, 
            {
                "class": "Wall", 
                "xn": "1140;1165;1165;1140", 
                "yn": "1507;1507;1676;1676", 
                "confidence": 1.0
            }, 
            {
                "class": "Wall", 
                "xn": "916;960;899;855", 
                "yn": "785;741;681;725", 
                "confidence": 1.0
            }, 
            {
                "class": "Wall", 
                "xn": "612;820;820;612", 
                "yn": "1461;1461;1478;1478", 
                "confidence": 1.0
            }, 
            {
                "class": "Wall", 
                "xn": "612;966;966;612", 
                "yn": "1048;1048;1071;1071", 
                "confidence": 1.0
            }, 
            {
                "class": "Wall", 
                "xn": "1452;1538;1538;1452", 
                "yn": "2310;2310;2323;2323", 
                "confidence": 1.0
            }, 
            {
                "class": "Wall", 
                "xn": "1147;1538;1538;1147", 
                "yn": "1661;1661;1676;1676", 
                "confidence": 1.0
            }, 
            {
                "class": "Wall", 
                "xn": "1523;1537;1537;1523", 
                "yn": "80;80;2325;2325", 
                "confidence": 1.0
            }, 
            {
                "class": "Wall", 
                "xn": "1068;1083;1083;1068", 
                "yn": "80;80;661;661", 
                "confidence": 1.0
            }, 
            {
                "class": "Wall", 
                "xn": "613;628;628;613", 
                "yn": "80;80;2325;2325", 
                "confidence": 1.0
            }, 
            {
                "class": "Wall", 
                "xn": "936;951;951;936", 
                "yn": "2038;2038;2369;2369", 
                "confidence": 1.0
            }, 
            {
                "class": "Wall", 
                "xn": "612;966;966;612", 
                "yn": "769;769;784;784", 
                "confidence": 1.0
            }, 
            {
                "class": "Wall", 
                "xn": "1245;1235;1166;1176", 
                "yn": "710;696;746;760", 
                "confidence": 1.0
            }, 
            {
                "class": "Wall", 
                "xn": "1163;1238;1238;1163", 
                "yn": "746;746;752;752", 
                "confidence": 1.0
            }, 
            {
                "class": "Wall", 
                "xn": "1187;1538;1538;1187", 
                "yn": "769;769;777;777", 
                "confidence": 1.0
            }, 
            {
                "class": "Wall", 
                "xn": "1191;1440;1440;1191", 
                "yn": "769;769;784;784", 
                "confidence": 1.0
            }, 
            {
                "class": "Wall", 
                "xn": "1250;1538;1538;1250", 
                "yn": "1260;1260;1276;1276", 
                "confidence": 1.0
            }, 
            {
                "class": "Wall", 
                "xn": "612;805;805;612", 
                "yn": "2137;2137;2152;2152", 
                "confidence": 1.0
            }, 
            {
                "class": "Wall", 
                "xn": "612;790;790;612", 
                "yn": "1741;1741;1764;1764", 
                "confidence": 1.0
            }, 
            {
                "class": "Wall", 
                "xn": "1382;1538;1538;1382", 
                "yn": "989;989;1005;1005", 
                "confidence": 1.0
            }, 
            {
                "class": "Wall", 
                "xn": "950;965;965;950", 
                "yn": "916;916;1529;1529", 
                "confidence": 1.0
            }, 
            {
                "class": "Wall", 
                "xn": "1367;1538;1538;1367", 
                "yn": "124;124;137;137", 
                "confidence": 1.0
            }, 
            {
                "class": "Wall", 
                "xn": "913;1238;1238;913", 
                "yn": "124;124;139;139", 
                "confidence": 1.0
            }, 
            {
                "class": "Wall", 
                "xn": "612;783;783;612", 
                "yn": "124;124;139;139", 
                "confidence": 1.0
            }, 
            {
                "class": "Wall", 
                "xn": "806;1021;1021;806", 
                "yn": "2310;2310;2326;2326", 
                "confidence": 1.0
            }, 
            {
                "class": "Wall", 
                "xn": "1227;1237;1237;1227", 
                "yn": "701;701;784;784", 
                "confidence": 1.0
            }, 
            {
                "class": "Wall", 
                "xn": "1219;1224;1224;1219", 
                "yn": "711;711;784;784", 
                "confidence": 1.0
            }, 
            {
                "class": "Wall", 
                "xn": "1250;1266;1266;1250", 
                "yn": "901;901;1276;1276", 
                "confidence": 1.0
            }, 
            {
                "class": "Stair", 
                "xn": "1184;1185;1249;1250;1250;1251;1251;1521;1522;1522;1521;1521;1520;1164;1163;1163;1164;1179;1180;1210;1211;1242;1243;1273;1274;1304;1305;1336;1337;1367;1368;1382;1382;1381;1381;1380;1380;1379;1379;1378;1378;1377;1377;1376;1376;1375;1375;1265;1264;1152;1151;1151;1152;1152;1153;1153;1154;1154;1155;1155;1156;1156;1157;1157;1158;1158;1159;1159;1160;1160;1161;1161;1162;1162;1163;1163;1164;1164;1165;1165;1166;1166;1167;1167;1168;1168;1169;1169;1170;1170;1171;1171;1172;1172;1173;1173;1174;1174;1175;1175;1176;1176;1177;1177;1178;1178;1179;1179;1180;1180;1181;1181;1182;1182;1183;1183;1184", 
                "yn": "946;945;945;946;1111;1112;1275;1275;1276;1467;1468;1659;1660;1660;1659;1518;1517;1517;1516;1516;1515;1515;1514;1514;1513;1513;1512;1512;1511;1511;1510;1510;1505;1504;1491;1490;1478;1477;1465;1464;1451;1450;1438;1437;1424;1423;1418;1418;1419;1419;1418;1411;1410;1397;1396;1383;1382;1368;1367;1354;1353;1340;1339;1326;1325;1311;1310;1297;1296;1283;1282;1268;1267;1254;1253;1240;1239;1225;1224;1211;1210;1197;1196;1182;1181;1168;1167;1154;1153;1140;1139;1125;1124;1111;1110;1097;1096;1082;1081;1068;1067;1054;1053;1039;1038;1025;1024;1011;1010;997;996;982;981;968;967;954;953", 
                "confidence": 1.0
            }, 
            {
                "class": "Text", 
                "height": 38, 
                "width": 307, 
                "x": 697, 
                "y": 398, 
                "text": "bedroom 2", 
                "confidence": "0.79"
            }, 
            {
                "class": "Text", 
                "height": 40, 
                "width": 303, 
                "x": 1157, 
                "y": 398, 
                "text": "bedroom 3", 
                "confidence": "0.81"
            }, 
            {
                "class": "Text", 
                "height": 30, 
                "width": 199, 
                "x": 660, 
                "y": 853, 
                "text": "laundry", 
                "confidence": "0.81"
            }, 
            {
                "class": "Text", 
                "height": 30, 
                "width": 61, 
                "x": 1079, 
                "y": 1342, 
                "text": "dn", 
                "confidence": "0.92"
            }, 
            {
                "class": "Text", 
                "height": 92, 
                "width": 137, 
                "x": 746, 
                "y": 1918, 
                "text": "masterbath", 
                "confidence": "0.65"
            }, 
            {
                "class": "Text", 
                "height": 93, 
                "width": 237, 
                "x": 1112, 
                "y": 1954, 
                "text": "masterbedroom", 
                "confidence": "0.81"
            }, 
            {
                "class": "Text", 
                "height": 94, 
                "width": 24, 
                "x": 1210, 
                "y": 1044, 
                "text": "linen", 
                "confidence": "0.84"
            }
        ], 
        "class": "image", 
        "filename": "2.png"
    }
]