[
    {
        "annotations": [
            {
                "class": "Door", 
                "xn": "2147;2194;2194;2147", 
                "yn": "551;551;553;553", 
                "confidence": 1.0
            }, 
            {
                "class": "Door", 
                "xn": "2984;3022;3022;2984", 
                "yn": "3702;3702;3712;3712", 
                "confidence": 1.0
            }, 
            {
                "class": "Door", 
                "xn": "3368;3409;3409;3368", 
                "yn": "3771;3771;3776;3776", 
                "confidence": 1.0
            }, 
            {
                "class": "Door", 
                "xn": "4095;4113;4113;4095", 
                "yn": "234;234;243;243", 
                "confidence": 1.0
            }, 
            {
                "class": "Door", 
                "xn": "4075;4117;4117;4075", 
                "yn": "656;656;663;663", 
                "confidence": 1.0
            }, 
            {
                "class": "Door", 
                "xn": "1003;1051;1051;1003", 
                "yn": "1400;1400;1407;1407", 
                "confidence": 1.0
            }, 
            {
                "class": "Door", 
                "xn": "2770;2787;2787;2770", 
                "yn": "1749;1749;1759;1759", 
                "confidence": 1.0
            }, 
            {
                "class": "Door", 
                "xn": "1327;1340;1340;1327", 
                "yn": "1793;1793;1800;1800", 
                "confidence": 1.0
            }, 
            {
                "class": "Door", 
                "xn": "574;632;632;574", 
                "yn": "3844;3844;3851;3851", 
                "confidence": 1.0
            }, 
            {
                "class": "Door", 
                "xn": "579;638;638;579", 
                "yn": "3838;3838;3849;3849", 
                "confidence": 1.0
            }, 
            {
                "class": "Door", 
                "xn": "282;328;328;282", 
                "yn": "3801;3801;3814;3814", 
                "confidence": 1.0
            }, 
            {
                "class": "Door", 
                "xn": "3990;3988;3988;3990", 
                "yn": "237;237;260;260", 
                "confidence": 1.0
            }, 
            {
                "class": "Door", 
                "xn": "3969;3981;3981;3969", 
                "yn": "234;234;260;260", 
                "confidence": 1.0
            }, 
            {
                "class": "Door", 
                "xn": "2027;2034;2034;2027", 
                "yn": "622;622;668;668", 
                "confidence": 1.0
            }, 
            {
                "class": "Door", 
                "xn": "4012;4021;4021;4012", 
                "yn": "604;604;663;663", 
                "confidence": 1.0
            }, 
            {
                "class": "Door", 
                "xn": "3965;3980;3980;3965", 
                "yn": "573;573;599;599", 
                "confidence": 1.0
            }, 
            {
                "class": "Door", 
                "xn": "2670;2677;2677;2670", 
                "yn": "1956;1956;2020;2020", 
                "confidence": 1.0
            }, 
            {
                "class": "Door", 
                "xn": "4023;4027;4027;4023", 
                "yn": "142;142;233;233", 
                "confidence": 1.0
            }, 
            {
                "class": "Door", 
                "xn": "2070;2073;2073;2070", 
                "yn": "613;613;645;645", 
                "confidence": 1.0
            }, 
            {
                "class": "Door", 
                "xn": "2064;2070;2070;2064", 
                "yn": "613;613;669;669", 
                "confidence": 1.0
            }, 
            {
                "class": "Door", 
                "xn": "3965;3980;3980;3965", 
                "yn": "573;573;599;599", 
                "confidence": 1.0
            }, 
            {
                "class": "Door", 
                "xn": "4312;4318;4318;4312", 
                "yn": "608;608;633;633", 
                "confidence": 1.0
            }, 
            {
                "class": "Door", 
                "xn": "2612;2615;2615;2612", 
                "yn": "1179;1179;1219;1219", 
                "confidence": 1.0
            }, 
            {
                "class": "Door", 
                "xn": "538;546;546;538", 
                "yn": "3825;3825;3895;3895", 
                "confidence": 1.0
            }, 
            {
                "class": "Door", 
                "xn": "580;584;584;580", 
                "yn": "3772;3772;4018;4018", 
                "confidence": 1.0
            }, 
            {
                "class": "Wall", 
                "xn": "4051;4074;4074;4051", 
                "yn": "220;220;258;258", 
                "confidence": 1.0
            }, 
            {
                "class": "Wall", 
                "xn": "4073;4079;4038;4032", 
                "yn": "257;243;226;240", 
                "confidence": 1.0
            }, 
            {
                "class": "Wall", 
                "xn": "4050;4073;4073;4050", 
                "yn": "576;576;616;616", 
                "confidence": 1.0
            }, 
            {
                "class": "Wall", 
                "xn": "3101;3162;3162;3101", 
                "yn": "2656;2656;4155;4155", 
                "confidence": 1.0
            }, 
            {
                "class": "Wall", 
                "xn": "4125;4182;4182;4125", 
                "yn": "790;790;3440;3440", 
                "confidence": 1.0
            }, 
            {
                "class": "Wall", 
                "xn": "2592;3139;3139;2592", 
                "yn": "2656;2656;2694;2694", 
                "confidence": 1.0
            }, 
            {
                "class": "Wall", 
                "xn": "3611;3649;3649;3611", 
                "yn": "3460;3460;4155;4155", 
                "confidence": 1.0
            }, 
            {
                "class": "Wall", 
                "xn": "790;1855;1855;790", 
                "yn": "2167;2167;2204;2204", 
                "confidence": 1.0
            }, 
            {
                "class": "Wall", 
                "xn": "4613;5555;5555;4613", 
                "yn": "3402;3402;3440;3440", 
                "confidence": 1.0
            }, 
            {
                "class": "Wall", 
                "xn": "1817;1854;1854;1817", 
                "yn": "2167;2167;2527;2527", 
                "confidence": 1.0
            }, 
            {
                "class": "Wall", 
                "xn": "1816;1855;1855;1816", 
                "yn": "790;790;1738;1738", 
                "confidence": 1.0
            }, 
            {
                "class": "Wall", 
                "xn": "2350;2387;2387;2350", 
                "yn": "3530;3530;4155;4155", 
                "confidence": 1.0
            }, 
            {
                "class": "Wall", 
                "xn": "2308;2624;2624;2308", 
                "yn": "2490;2490;2528;2528", 
                "confidence": 1.0
            }, 
            {
                "class": "Wall", 
                "xn": "2350;2387;2387;2350", 
                "yn": "2490;2490;3137;3137", 
                "confidence": 1.0
            }, 
            {
                "class": "Wall", 
                "xn": "790;1917;1917;790", 
                "yn": "2490;2490;2527;2527", 
                "confidence": 1.0
            }, 
            {
                "class": "Wall", 
                "xn": "4144;4223;4223;4144", 
                "yn": "3402;3402;3440;3440", 
                "confidence": 1.0
            }, 
            {
                "class": "Wall", 
                "xn": "3791;3822;3822;3791", 
                "yn": "790;790;1250;1250", 
                "confidence": 1.0
            }, 
            {
                "class": "Wall", 
                "xn": "2593;2623;2623;2593", 
                "yn": "2490;2490;3096;3096", 
                "confidence": 1.0
            }, 
            {
                "class": "Wall", 
                "xn": "3100;3192;3192;3100", 
                "yn": "3466;3466;3494;3494", 
                "confidence": 1.0
            }, 
            {
                "class": "Wall", 
                "xn": "3583;3650;3650;3583", 
                "yn": "3464;3464;3490;3490", 
                "confidence": 1.0
            }, 
            {
                "class": "Wall", 
                "xn": "3168;3319;3319;3168", 
                "yn": "867;867;887;887", 
                "confidence": 1.0
            }, 
            {
                "class": "Wall", 
                "xn": "867;889;889;867", 
                "yn": "3042;3042;3190;3190", 
                "confidence": 1.0
            }, 
            {
                "class": "Wall", 
                "xn": "556;578;578;556", 
                "yn": "3872;3872;3910;3910", 
                "confidence": 1.0
            }, 
            {
                "class": "Wall", 
                "xn": "253;276;276;253", 
                "yn": "3871;3871;3910;3910", 
                "confidence": 1.0
            }, 
            {
                "class": "Wall", 
                "xn": "5086;5555;5555;5086", 
                "yn": "4169;4169;4237;4237", 
                "confidence": 1.0
            }, 
            {
                "class": "Wall", 
                "xn": "4349;4590;4590;4349", 
                "yn": "4172;4172;4235;4235", 
                "confidence": 1.0
            }, 
            {
                "class": "Wall", 
                "xn": "4131;4134;4049;4046", 
                "yn": "313;309;233;236", 
                "confidence": 1.0
            }, 
            {
                "class": "Wall", 
                "xn": "4078;4075;3959;3962", 
                "yn": "237;233;316;319", 
                "confidence": 1.0
            }, 
            {
                "class": "Wall", 
                "xn": "4169;4172;3949;3946", 
                "yn": "298;294;190;194", 
                "confidence": 1.0
            }, 
            {
                "class": "Wall", 
                "xn": "4079;4075;3979;3983", 
                "yn": "237;232;302;307", 
                "confidence": 1.0
            }, 
            {
                "class": "Wall", 
                "xn": "4128;4124;4044;4048", 
                "yn": "176;171;260;265", 
                "confidence": 1.0
            }, 
            {
                "class": "Wall", 
                "xn": "4077;4080;3962;3959", 
                "yn": "260;256;169;173", 
                "confidence": 1.0
            }, 
            {
                "class": "Wall", 
                "xn": "4152;4148;4048;4051", 
                "yn": "208;203;247;253", 
                "confidence": 1.0
            }, 
            {
                "class": "Wall", 
                "xn": "4077;4074;4050;4053", 
                "yn": "128;122;324;331", 
                "confidence": 1.0
            }, 
            {
                "class": "Wall", 
                "xn": "4183;4182;3933;3934", 
                "yn": "224;219;268;273", 
                "confidence": 1.0
            }, 
            {
                "class": "Wall", 
                "xn": "4070;4075;4012;4006", 
                "yn": "267;262;154;157", 
                "confidence": 1.0
            }, 
            {
                "class": "Wall", 
                "xn": "4088;4094;4060;4054", 
                "yn": "336;334;229;230", 
                "confidence": 1.0
            }, 
            {
                "class": "Wall", 
                "xn": "4113;4108;4045;4050", 
                "yn": "225;217;243;252", 
                "confidence": 1.0
            }, 
            {
                "class": "Wall", 
                "xn": "4048;4162;4162;4048", 
                "yn": "241;241;249;249", 
                "confidence": 1.0
            }, 
            {
                "class": "Wall", 
                "xn": "4079;4071;4030;4038", 
                "yn": "235;230;294;299", 
                "confidence": 1.0
            }, 
            {
                "class": "Wall", 
                "xn": "4023;4096;4096;4023", 
                "yn": "235;235;246;246", 
                "confidence": 1.0
            }, 
            {
                "class": "Wall", 
                "xn": "4069;4072;3999;3996", 
                "yn": "608;604;482;486", 
                "confidence": 1.0
            }, 
            {
                "class": "Wall", 
                "xn": "4170;4173;4051;4048", 
                "yn": "652;648;582;586", 
                "confidence": 1.0
            }, 
            {
                "class": "Wall", 
                "xn": "4175;4178;4050;4047", 
                "yn": "641;637;583;587", 
                "confidence": 1.0
            }, 
            {
                "class": "Wall", 
                "xn": "4175;4172;3947;3950", 
                "yn": "541;537;640;644", 
                "confidence": 1.0
            }, 
            {
                "class": "Wall", 
                "xn": "4066;4075;4065;4055", 
                "yn": "639;632;574;575", 
                "confidence": 1.0
            }, 
            {
                "class": "Wall", 
                "xn": "4183;4184;3933;3932", 
                "yn": "618;613;561;566", 
                "confidence": 1.0
            }, 
            {
                "class": "Wall", 
                "xn": "4044;4192;4192;4044", 
                "yn": "587;587;593;593", 
                "confidence": 1.0
            }, 
            {
                "class": "Wall", 
                "xn": "4102;4096;4048;4054", 
                "yn": "555;549;599;605", 
                "confidence": 1.0
            }, 
            {
                "class": "Wall", 
                "xn": "4112;4117;4051;4046", 
                "yn": "620;613;580;587", 
                "confidence": 1.0
            }, 
            {
                "class": "Wall", 
                "xn": "4019;4091;4091;4019", 
                "yn": "588;588;601;601", 
                "confidence": 1.0
            }, 
            {
                "class": "Wall", 
                "xn": "3028;3163;3163;3028", 
                "yn": "3790;3790;3795;3795", 
                "confidence": 1.0
            }, 
            {
                "class": "Wall", 
                "xn": "2981;3163;3163;2981", 
                "yn": "3506;3506;3511;3511", 
                "confidence": 1.0
            }, 
            {
                "class": "Wall", 
                "xn": "3100;3199;3199;3100", 
                "yn": "3498;3498;3504;3504", 
                "confidence": 1.0
            }, 
            {
                "class": "Wall", 
                "xn": "3100;3228;3228;3100", 
                "yn": "3833;3833;3839;3839", 
                "confidence": 1.0
            }, 
            {
                "class": "Wall", 
                "xn": "3015;3163;3163;3015", 
                "yn": "3648;3648;3654;3654", 
                "confidence": 1.0
            }, 
            {
                "class": "Wall", 
                "xn": "3100;3199;3199;3100", 
                "yn": "3459;3459;3465;3465", 
                "confidence": 1.0
            }, 
            {
                "class": "Wall", 
                "xn": "3100;3228;3228;3100", 
                "yn": "3690;3690;3696;3696", 
                "confidence": 1.0
            }, 
            {
                "class": "Wall", 
                "xn": "3100;3650;3650;3100", 
                "yn": "3549;3549;3555;3555", 
                "confidence": 1.0
            }, 
            {
                "class": "Wall", 
                "xn": "2349;3139;3139;2349", 
                "yn": "3084;3084;3099;3099", 
                "confidence": 1.0
            }, 
            {
                "class": "Wall", 
                "xn": "3100;3650;3650;3100", 
                "yn": "3490;3490;3498;3498", 
                "confidence": 1.0
            }, 
            {
                "class": "Wall", 
                "xn": "4144;4230;4230;4144", 
                "yn": "3435;3435;3442;3442", 
                "confidence": 1.0
            }, 
            {
                "class": "Wall", 
                "xn": "3824;4413;4413;3824", 
                "yn": "2448;2448;2454;2454", 
                "confidence": 1.0
            }, 
            {
                "class": "Wall", 
                "xn": "3824;4413;4413;3824", 
                "yn": "2232;2232;2238;2238", 
                "confidence": 1.0
            }, 
            {
                "class": "Wall", 
                "xn": "3824;4413;4413;3824", 
                "yn": "1547;1547;1554;1554", 
                "confidence": 1.0
            }, 
            {
                "class": "Wall", 
                "xn": "4144;4541;4541;4144", 
                "yn": "2964;2964;2969;2969", 
                "confidence": 1.0
            }, 
            {
                "class": "Wall", 
                "xn": "4144;5555;5555;4144", 
                "yn": "3402;3402;3408;3408", 
                "confidence": 1.0
            }, 
            {
                "class": "Wall", 
                "xn": "3824;4413;4413;3824", 
                "yn": "1920;1920;1926;1926", 
                "confidence": 1.0
            }, 
            {
                "class": "Wall", 
                "xn": "3824;4413;4413;3824", 
                "yn": "1558;1558;1564;1564", 
                "confidence": 1.0
            }, 
            {
                "class": "Wall", 
                "xn": "791;4412;4412;791", 
                "yn": "790;790;795;795", 
                "confidence": 1.0
            }, 
            {
                "class": "Wall", 
                "xn": "3824;4413;4413;3824", 
                "yn": "1257;1257;1264;1264", 
                "confidence": 1.0
            }, 
            {
                "class": "Wall", 
                "xn": "790;4413;4413;790", 
                "yn": "849;849;855;855", 
                "confidence": 1.0
            }, 
            {
                "class": "Wall", 
                "xn": "4167;4162;3792;3797", 
                "yn": "793;790;1203;1206", 
                "confidence": 1.0
            }, 
            {
                "class": "Wall", 
                "xn": "4144;4925;4925;4144", 
                "yn": "3364;3364;3371;3371", 
                "confidence": 1.0
            }, 
            {
                "class": "Wall", 
                "xn": "3790;5383;5383;3790", 
                "yn": "2461;2461;2468;2468", 
                "confidence": 1.0
            }, 
            {
                "class": "Wall", 
                "xn": "3791;4183;4183;3791", 
                "yn": "2747;2747;2753;2753", 
                "confidence": 1.0
            }, 
            {
                "class": "Wall", 
                "xn": "3546;3650;3650;3546", 
                "yn": "3833;3833;3839;3839", 
                "confidence": 1.0
            }, 
            {
                "class": "Wall", 
                "xn": "3577;3650;3650;3577", 
                "yn": "3498;3498;3504;3504", 
                "confidence": 1.0
            }, 
            {
                "class": "Wall", 
                "xn": "3546;3650;3650;3546", 
                "yn": "3690;3690;3696;3696", 
                "confidence": 1.0
            }, 
            {
                "class": "Wall", 
                "xn": "4602;4648;4648;4602", 
                "yn": "3394;3394;3400;3400", 
                "confidence": 1.0
            }, 
            {
                "class": "Wall", 
                "xn": "1776;1855;1855;1776", 
                "yn": "2342;2342;2348;2348", 
                "confidence": 1.0
            }, 
            {
                "class": "Wall", 
                "xn": "2342;2427;2427;2342", 
                "yn": "3523;3523;3528;3528", 
                "confidence": 1.0
            }, 
            {
                "class": "Wall", 
                "xn": "2620;2617;2350;2353", 
                "yn": "2494;2490;2787;2791", 
                "confidence": 1.0
            }, 
            {
                "class": "Wall", 
                "xn": "2309;2306;1970;1972", 
                "yn": "2531;2527;2721;2725", 
                "confidence": 1.0
            }, 
            {
                "class": "Wall", 
                "xn": "2301;2306;2306;2301", 
                "yn": "2483;2483;2533;2533", 
                "confidence": 1.0
            }, 
            {
                "class": "Wall", 
                "xn": "2349;2355;2355;2349", 
                "yn": "2490;2490;3144;3144", 
                "confidence": 1.0
            }, 
            {
                "class": "Wall", 
                "xn": "2619;2624;2356;2352", 
                "yn": "2790;2786;2489;2493", 
                "confidence": 1.0
            }, 
            {
                "class": "Wall", 
                "xn": "2342;2394;2394;2342", 
                "yn": "3139;3139;3144;3144", 
                "confidence": 1.0
            }, 
            {
                "class": "Wall", 
                "xn": "1917;1924;1924;1917", 
                "yn": "2483;2483;2558;2558", 
                "confidence": 1.0
            }, 
            {
                "class": "Wall", 
                "xn": "580;583;456;453", 
                "yn": "3905;3901;3847;3851", 
                "confidence": 1.0
            }, 
            {
                "class": "Wall", 
                "xn": "642;640;455;458", 
                "yn": "3867;3862;3948;3952", 
                "confidence": 1.0
            }, 
            {
                "class": "Wall", 
                "xn": "607;604;455;458", 
                "yn": "3882;3878;3948;3952", 
                "confidence": 1.0
            }, 
            {
                "class": "Wall", 
                "xn": "624;628;504;499", 
                "yn": "3962;3958;3821;3825", 
                "confidence": 1.0
            }, 
            {
                "class": "Wall", 
                "xn": "632;628;538;542", 
                "yn": "3792;3789;3946;3949", 
                "confidence": 1.0
            }, 
            {
                "class": "Wall", 
                "xn": "574;571;531;534", 
                "yn": "3884;3880;4014;4017", 
                "confidence": 1.0
            }, 
            {
                "class": "Wall", 
                "xn": "694;695;443;441", 
                "yn": "3926;3921;3869;3874", 
                "confidence": 1.0
            }, 
            {
                "class": "Wall", 
                "xn": "581;584;556;553", 
                "yn": "4018;4009;3773;3782", 
                "confidence": 1.0
            }, 
            {
                "class": "Wall", 
                "xn": "441;585;585;441", 
                "yn": "3895;3895;3901;3901", 
                "confidence": 1.0
            }, 
            {
                "class": "Wall", 
                "xn": "583;576;523;529", 
                "yn": "3890;3884;3938;3945", 
                "confidence": 1.0
            }, 
            {
                "class": "Wall", 
                "xn": "597;603;565;559", 
                "yn": "3961;3956;3876;3880", 
                "confidence": 1.0
            }, 
            {
                "class": "Wall", 
                "xn": "579;584;513;508", 
                "yn": "3910;3902;3865;3873", 
                "confidence": 1.0
            }, 
            {
                "class": "Wall", 
                "xn": "529;622;622;529", 
                "yn": "3885;3885;3898;3898", 
                "confidence": 1.0
            }, 
            {
                "class": "Wall", 
                "xn": "366;369;253;250", 
                "yn": "3972;3968;3886;3890", 
                "confidence": 1.0
            }, 
            {
                "class": "Wall", 
                "xn": "379;376;226;229", 
                "yn": "3849;3845;3912;3916", 
                "confidence": 1.0
            }, 
            {
                "class": "Wall", 
                "xn": "280;283;153;150", 
                "yn": "3904;3900;3847;3851", 
                "confidence": 1.0
            }, 
            {
                "class": "Wall", 
                "xn": "328;324;250;254", 
                "yn": "3794;3791;3918;3921", 
                "confidence": 1.0
            }, 
            {
                "class": "Wall", 
                "xn": "288;292;201;197", 
                "yn": "3927;3923;3822;3827", 
                "confidence": 1.0
            }, 
            {
                "class": "Wall", 
                "xn": "271;268;228;231", 
                "yn": "3884;3880;4013;4018", 
                "confidence": 1.0
            }, 
            {
                "class": "Wall", 
                "xn": "341;345;252;248", 
                "yn": "3956;3951;3884;3889", 
                "confidence": 1.0
            }, 
            {
                "class": "Wall", 
                "xn": "276;279;159;156", 
                "yn": "3906;3901;3836;3841", 
                "confidence": 1.0
            }, 
            {
                "class": "Wall", 
                "xn": "266;269;253;250", 
                "yn": "3928;3921;3777;3784", 
                "confidence": 1.0
            }, 
            {
                "class": "Wall", 
                "xn": "288;294;257;251", 
                "yn": "3927;3920;3880;3886", 
                "confidence": 1.0
            }, 
            {
                "class": "Wall", 
                "xn": "391;392;154;153", 
                "yn": "3928;3923;3872;3877", 
                "confidence": 1.0
            }, 
            {
                "class": "Wall", 
                "xn": "276;280;260;256", 
                "yn": "3996;3993;3866;3869", 
                "confidence": 1.0
            }, 
            {
                "class": "Wall", 
                "xn": "137;281;281;137", 
                "yn": "3893;3893;3902;3902", 
                "confidence": 1.0
            }, 
            {
                "class": "Wall", 
                "xn": "279;273;219;225", 
                "yn": "3890;3883;3939;3946", 
                "confidence": 1.0
            }, 
            {
                "class": "Wall", 
                "xn": "294;302;256;249", 
                "yn": "3961;3957;3876;3882", 
                "confidence": 1.0
            }, 
            {
                "class": "Wall", 
                "xn": "279;283;213;208", 
                "yn": "3906;3897;3867;3875", 
                "confidence": 1.0
            }, 
            {
                "class": "Wall", 
                "xn": "361;358;251;254", 
                "yn": "3885;3875;3895;3905", 
                "confidence": 1.0
            }, 
            {
                "class": "Wall", 
                "xn": "225;318;318;225", 
                "yn": "3885;3885;3897;3897", 
                "confidence": 1.0
            }, 
            {
                "class": "Wall", 
                "xn": "4147;4144;4080;4083", 
                "yn": "156;152;220;224", 
                "confidence": 1.0
            }, 
            {
                "class": "Wall", 
                "xn": "4085;4192;4192;4085", 
                "yn": "244;244;249;249", 
                "confidence": 1.0
            }, 
            {
                "class": "Wall", 
                "xn": "3028;3034;3034;3028", 
                "yn": "3737;3737;3840;3840", 
                "confidence": 1.0
            }, 
            {
                "class": "Wall", 
                "xn": "3223;3229;3229;3223", 
                "yn": "3584;3584;3958;3958", 
                "confidence": 1.0
            }, 
            {
                "class": "Wall", 
                "xn": "3072;3077;3077;3072", 
                "yn": "790;790;854;854", 
                "confidence": 1.0
            }, 
            {
                "class": "Wall", 
                "xn": "2273;2278;2278;2273", 
                "yn": "790;790;854;854", 
                "confidence": 1.0
            }, 
            {
                "class": "Wall", 
                "xn": "4561;4558;4223;4226", 
                "yn": "3207;3203;3396;3400", 
                "confidence": 1.0
            }, 
            {
                "class": "Wall", 
                "xn": "4451;4448;4223;4226", 
                "yn": "3271;3267;3396;3400", 
                "confidence": 1.0
            }, 
            {
                "class": "Wall", 
                "xn": "3546;3552;3552;3546", 
                "yn": "3584;3584;3958;3958", 
                "confidence": 1.0
            }, 
            {
                "class": "Wall", 
                "xn": "569;575;575;569", 
                "yn": "3845;3845;3912;3912", 
                "confidence": 1.0
            }, 
            {
                "class": "Wall", 
                "xn": "539;546;546;539", 
                "yn": "3779;3779;3826;3826", 
                "confidence": 1.0
            }, 
            {
                "class": "Wall", 
                "xn": "490;492;443;441", 
                "yn": "3902;3897;3882;3887", 
                "confidence": 1.0
            }, 
            {
                "class": "Wall", 
                "xn": "380;383;337;334", 
                "yn": "3936;3932;3909;3913", 
                "confidence": 1.0
            }, 
            {
                "class": "Wall", 
                "xn": "327;387;387;327", 
                "yn": "3877;3877;3887;3887", 
                "confidence": 1.0
            }, 
            {
                "class": "Wall", 
                "xn": "4103;4100;4078;4081", 
                "yn": "132;128;189;192", 
                "confidence": 1.0
            }, 
            {
                "class": "Wall", 
                "xn": "3022;3031;3031;3022", 
                "yn": "3703;3703;3770;3770", 
                "confidence": 1.0
            }, 
            {
                "class": "Wall", 
                "xn": "3222;3553;3553;3222", 
                "yn": "3584;3584;3589;3589", 
                "confidence": 1.0
            }, 
            {
                "class": "Wall", 
                "xn": "572;580;580;572", 
                "yn": "3805;3805;3860;3860", 
                "confidence": 1.0
            }, 
            {
                "class": "Wall", 
                "xn": "2198;2203;2203;2198", 
                "yn": "503;503;551;551", 
                "confidence": 1.0
            }, 
            {
                "class": "Wall", 
                "xn": "2990;2985;2964;2969", 
                "yn": "3667;3666;3737;3738", 
                "confidence": 1.0
            }, 
            {
                "class": "Wall", 
                "xn": "3376;3369;3355;3362", 
                "yn": "3772;3770;3821;3823", 
                "confidence": 1.0
            }, 
            {
                "class": "Wall", 
                "xn": "3409;3419;3419;3409", 
                "yn": "3770;3770;3824;3824", 
                "confidence": 1.0
            }, 
            {
                "class": "Wall", 
                "xn": "1009;1004;985;990", 
                "yn": "1333;1330;1407;1409", 
                "confidence": 1.0
            }, 
            {
                "class": "Wall", 
                "xn": "1051;1046;984;989", 
                "yn": "1255;1253;1507;1509", 
                "confidence": 1.0
            }, 
            {
                "class": "Wall", 
                "xn": "1049;1051;986;984", 
                "yn": "1262;1257;1240;1244", 
                "confidence": 1.0
            }, 
            {
                "class": "Wall", 
                "xn": "935;1675;1675;935", 
                "yn": "1504;1504;1509;1509", 
                "confidence": 1.0
            }, 
            {
                "class": "Wall", 
                "xn": "2763;2771;2771;2763", 
                "yn": "1545;1545;1830;1830", 
                "confidence": 1.0
            }, 
            {
                "class": "Wall", 
                "xn": "2787;2796;2796;2787", 
                "yn": "1704;1704;1759;1759", 
                "confidence": 1.0
            }, 
            {
                "class": "Wall", 
                "xn": "1340;1351;1351;1340", 
                "yn": "1746;1746;1800;1800", 
                "confidence": 1.0
            }, 
            {
                "class": "Wall", 
                "xn": "1292;1299;1299;1292", 
                "yn": "1746;1746;1800;1800", 
                "confidence": 1.0
            }, 
            {
                "class": "Wall", 
                "xn": "1374;1380;1348;1342", 
                "yn": "1798;1795;1746;1749", 
                "confidence": 1.0
            }, 
            {
                "class": "Wall", 
                "xn": "3938;3996;3996;3938", 
                "yn": "224;224;235;235", 
                "confidence": 1.0
            }, 
            {
                "class": "Wall", 
                "xn": "3981;4027;4027;3981", 
                "yn": "595;595;605;605", 
                "confidence": 1.0
            }, 
            {
                "class": "Wall", 
                "xn": "3938;4001;4001;3938", 
                "yn": "599;599;613;613", 
                "confidence": 1.0
            }, 
            {
                "class": "Wall", 
                "xn": "2261;2797;2797;2261", 
                "yn": "2020;2020;2025;2025", 
                "confidence": 1.0
            }, 
            {
                "class": "Wall", 
                "xn": "2651;2650;2580;2581", 
                "yn": "1958;1953;1967;1972", 
                "confidence": 1.0
            }, 
            {
                "class": "Wall", 
                "xn": "2679;2747;2747;2679", 
                "yn": "1949;1949;1954;1954", 
                "confidence": 1.0
            }, 
            {
                "class": "Wall", 
                "xn": "2782;2775;2695;2702", 
                "yn": "1820;1815;2020;2024", 
                "confidence": 1.0
            }, 
            {
                "class": "Wall", 
                "xn": "2478;2484;2484;2478", 
                "yn": "2011;2011;2072;2072", 
                "confidence": 1.0
            }, 
            {
                "class": "Wall", 
                "xn": "2031;2077;2077;2031", 
                "yn": "647;647;652;652", 
                "confidence": 1.0
            }, 
            {
                "class": "Wall", 
                "xn": "4312;4368;4368;4312", 
                "yn": "602;602;609;609", 
                "confidence": 1.0
            }, 
            {
                "class": "Wall", 
                "xn": "4312;4368;4368;4312", 
                "yn": "653;653;661;661", 
                "confidence": 1.0
            }, 
            {
                "class": "Wall", 
                "xn": "1370;1381;1381;1370", 
                "yn": "1746;1746;1800;1800", 
                "confidence": 1.0
            }, 
            {
                "class": "Wall", 
                "xn": "2750;2748;2481;2482", 
                "yn": "1958;1953;2014;2019", 
                "confidence": 1.0
            }, 
            {
                "class": "Wall", 
                "xn": "2480;2566;2566;2480", 
                "yn": "2012;2012;2025;2025", 
                "confidence": 1.0
            }, 
            {
                "class": "Stair", 
                "xn": "4952;4953;4990;4991;5065;5066;5141;5142;5216;5217;5254;5255;5255;5254;5254;5253;5253;5252;5252;5251;5251;5250;5250;5249;5175;5174;5026;5025;4951;4950;4950;4951;4951;4952", 
                "yn": "2710;2709;2709;2710;2710;2711;2711;2712;2712;2713;2713;2714;2780;2781;2912;2913;3044;3045;3176;3177;3308;3309;3375;3376;3376;3375;3375;3374;3374;3373;3208;3207;2876;2875", 
                "confidence": 1.0
            }, 
            {
                "class": "Text", 
                "height": 57, 
                "width": 351, 
                "x": 2594, 
                "y": 312, 
                "text": "balcony", 
                "confidence": "0.86"
            }, 
            {
                "class": "Text", 
                "height": 62, 
                "width": 148, 
                "x": 3908, 
                "y": 1418, 
                "text": "dn", 
                "confidence": "0.94"
            }, 
            {
                "class": "Text", 
                "height": 57, 
                "width": 353, 
                "x": 260, 
                "y": 2332, 
                "text": "balcony", 
                "confidence": "0.86"
            }
        ], 
        "class": "image", 
        "filename": "35.png"
    }
]