[
    {
        "annotations": [
            {
                "class": "Door", 
                "xn": "1732;1839;1839;1732", 
                "yn": "1778;1778;1817;1817", 
                "confidence": 1.0
            }, 
            {
                "class": "Door", 
                "xn": "1732;1839;1839;1732", 
                "yn": "1778;1778;1817;1817", 
                "confidence": 1.0
            }, 
            {
                "class": "Door", 
                "xn": "2444;2542;2542;2444", 
                "yn": "1281;1281;1288;1288", 
                "confidence": 1.0
            }, 
            {
                "class": "Door", 
                "xn": "2444;2536;2536;2444", 
                "yn": "1294;1294;1300;1300", 
                "confidence": 1.0
            }, 
            {
                "class": "Door", 
                "xn": "2567;2682;2682;2567", 
                "yn": "544;544;563;563", 
                "confidence": 1.0
            }, 
            {
                "class": "Door", 
                "xn": "2579;2682;2682;2579", 
                "yn": "544;544;559;559", 
                "confidence": 1.0
            }, 
            {
                "class": "Door", 
                "xn": "607;650;650;607", 
                "yn": "795;795;802;802", 
                "confidence": 1.0
            }, 
            {
                "class": "Door", 
                "xn": "997;1105;1105;997", 
                "yn": "2147;2147;2167;2167", 
                "confidence": 1.0
            }, 
            {
                "class": "Door", 
                "xn": "3037;3143;3143;3037", 
                "yn": "418;418;450;450", 
                "confidence": 1.0
            }, 
            {
                "class": "Door", 
                "xn": "2791;2895;2895;2791", 
                "yn": "1985;1985;2004;2004", 
                "confidence": 1.0
            }, 
            {
                "class": "Door", 
                "xn": "494;502;502;494", 
                "yn": "1240;1240;1376;1376", 
                "confidence": 1.0
            }, 
            {
                "class": "Door", 
                "xn": "3370;3389;3389;3370", 
                "yn": "1065;1065;1184;1184", 
                "confidence": 1.0
            }, 
            {
                "class": "Door", 
                "xn": "3370;3389;3389;3370", 
                "yn": "1065;1065;1184;1184", 
                "confidence": 1.0
            }, 
            {
                "class": "Door", 
                "xn": "654;660;660;654", 
                "yn": "689;689;701;701", 
                "confidence": 1.0
            }, 
            {
                "class": "Door", 
                "xn": "599;605;605;599", 
                "yn": "728;728;753;753", 
                "confidence": 1.0
            }, 
            {
                "class": "Door", 
                "xn": "303;334;334;303", 
                "yn": "1460;1460;1530;1530", 
                "confidence": 1.0
            }, 
            {
                "class": "Door", 
                "xn": "2890;2909;2909;2890", 
                "yn": "1122;1122;1242;1242", 
                "confidence": 1.0
            }, 
            {
                "class": "Door", 
                "xn": "3019;3038;3038;3019", 
                "yn": "459;459;568;568", 
                "confidence": 1.0
            }, 
            {
                "class": "Door", 
                "xn": "3019;3038;3038;3019", 
                "yn": "459;459;568;568", 
                "confidence": 1.0
            }, 
            {
                "class": "Door", 
                "xn": "2890;2909;2909;2890", 
                "yn": "1122;1122;1242;1242", 
                "confidence": 1.0
            }, 
            {
                "class": "Door", 
                "xn": "3019;3038;3038;3019", 
                "yn": "459;459;576;576", 
                "confidence": 1.0
            }, 
            {
                "class": "Door", 
                "xn": "599;605;605;599", 
                "yn": "728;728;753;753", 
                "confidence": 1.0
            }, 
            {
                "class": "Wall", 
                "xn": "484;572;572;484", 
                "yn": "2861;2861;2930;2930", 
                "confidence": 1.0
            }, 
            {
                "class": "Wall", 
                "xn": "871;958;958;871", 
                "yn": "2861;2861;2930;2930", 
                "confidence": 1.0
            }, 
            {
                "class": "Wall", 
                "xn": "1584;1655;1655;1584", 
                "yn": "9;9;76;76", 
                "confidence": 1.0
            }, 
            {
                "class": "Wall", 
                "xn": "1069;1125;1125;1069", 
                "yn": "1779;1779;1992;1992", 
                "confidence": 1.0
            }, 
            {
                "class": "Wall", 
                "xn": "6;44;44;6", 
                "yn": "525;525;1276;1276", 
                "confidence": 1.0
            }, 
            {
                "class": "Wall", 
                "xn": "830;1145;1145;830", 
                "yn": "2740;2740;2779;2779", 
                "confidence": 1.0
            }, 
            {
                "class": "Wall", 
                "xn": "1069;1733;1733;1069", 
                "yn": "1779;1779;1817;1817", 
                "confidence": 1.0
            }, 
            {
                "class": "Wall", 
                "xn": "1858;1896;1896;1858", 
                "yn": "1779;1779;2655;2655", 
                "confidence": 1.0
            }, 
            {
                "class": "Wall", 
                "xn": "265;303;303;265", 
                "yn": "9;9;563;563", 
                "confidence": 1.0
            }, 
            {
                "class": "Wall", 
                "xn": "6;44;44;6", 
                "yn": "2087;2087;2655;2655", 
                "confidence": 1.0
            }, 
            {
                "class": "Wall", 
                "xn": "6;44;44;6", 
                "yn": "1700;1700;1986;1986", 
                "confidence": 1.0
            }, 
            {
                "class": "Wall", 
                "xn": "1615;1654;1654;1615", 
                "yn": "638;638;1303;1303", 
                "confidence": 1.0
            }, 
            {
                "class": "Wall", 
                "xn": "1616;1654;1654;1616", 
                "yn": "412;412;485;485", 
                "confidence": 1.0
            }, 
            {
                "class": "Wall", 
                "xn": "357;541;541;357", 
                "yn": "2617;2617;2656;2656", 
                "confidence": 1.0
            }, 
            {
                "class": "Wall", 
                "xn": "5;128;128;5", 
                "yn": "2616;2616;2655;2655", 
                "confidence": 1.0
            }, 
            {
                "class": "Wall", 
                "xn": "502;540;540;502", 
                "yn": "2523;2523;2784;2784", 
                "confidence": 1.0
            }, 
            {
                "class": "Wall", 
                "xn": "1616;1654;1654;1616", 
                "yn": "1614;1614;1817;1817", 
                "confidence": 1.0
            }, 
            {
                "class": "Wall", 
                "xn": "6;45;45;6", 
                "yn": "1506;1506;1598;1598", 
                "confidence": 1.0
            }, 
            {
                "class": "Wall", 
                "xn": "1106;1144;1144;1106", 
                "yn": "2619;2619;2784;2784", 
                "confidence": 1.0
            }, 
            {
                "class": "Wall", 
                "xn": "1510;1655;1655;1510", 
                "yn": "412;412;451;451", 
                "confidence": 1.0
            }, 
            {
                "class": "Wall", 
                "xn": "501;613;613;501", 
                "yn": "2745;2745;2785;2785", 
                "confidence": 1.0
            }, 
            {
                "class": "Wall", 
                "xn": "5;145;145;5", 
                "yn": "525;525;564;564", 
                "confidence": 1.0
            }, 
            {
                "class": "Wall", 
                "xn": "969;1042;1042;969", 
                "yn": "398;398;437;437", 
                "confidence": 1.0
            }, 
            {
                "class": "Wall", 
                "xn": "970;1008;1008;970", 
                "yn": "9;9;81;81", 
                "confidence": 1.0
            }, 
            {
                "class": "Wall", 
                "xn": "853;1009;1009;853", 
                "yn": "9;9;47;47", 
                "confidence": 1.0
            }, 
            {
                "class": "Wall", 
                "xn": "264;504;504;264", 
                "yn": "9;9;46;46", 
                "confidence": 1.0
            }, 
            {
                "class": "Wall", 
                "xn": "1810;1897;1897;1810", 
                "yn": "2618;2618;2655;2655", 
                "confidence": 1.0
            }, 
            {
                "class": "Wall", 
                "xn": "969;1655;1655;969", 
                "yn": "1148;1148;1178;1178", 
                "confidence": 1.0
            }, 
            {
                "class": "Wall", 
                "xn": "508;541;541;508", 
                "yn": "2148;2148;2260;2260", 
                "confidence": 1.0
            }, 
            {
                "class": "Wall", 
                "xn": "589;621;621;589", 
                "yn": "2060;2060;2178;2178", 
                "confidence": 1.0
            }, 
            {
                "class": "Wall", 
                "xn": "5;621;621;5", 
                "yn": "1530;1530;1560;1560", 
                "confidence": 1.0
            }, 
            {
                "class": "Wall", 
                "xn": "590;620;620;590", 
                "yn": "1442;1442;1635;1635", 
                "confidence": 1.0
            }, 
            {
                "class": "Wall", 
                "xn": "884;906;906;884", 
                "yn": "2148;2148;2564;2564", 
                "confidence": 1.0
            }, 
            {
                "class": "Wall", 
                "xn": "284;303;303;284", 
                "yn": "692;692;1260;1260", 
                "confidence": 1.0
            }, 
            {
                "class": "Wall", 
                "xn": "1105;1124;1124;1105", 
                "yn": "2141;2141;2784;2784", 
                "confidence": 1.0
            }, 
            {
                "class": "Wall", 
                "xn": "283;761;761;283", 
                "yn": "1242;1242;1260;1260", 
                "confidence": 1.0
            }, 
            {
                "class": "Wall", 
                "xn": "304;621;621;304", 
                "yn": "1442;1442;1461;1461", 
                "confidence": 1.0
            }, 
            {
                "class": "Wall", 
                "xn": "929;948;948;929", 
                "yn": "1409;1409;1679;1679", 
                "confidence": 1.0
            }, 
            {
                "class": "Wall", 
                "xn": "5;157;157;5", 
                "yn": "1241;1241;1261;1261", 
                "confidence": 1.0
            }, 
            {
                "class": "Wall", 
                "xn": "5;541;541;5", 
                "yn": "2148;2148;2166;2166", 
                "confidence": 1.0
            }, 
            {
                "class": "Wall", 
                "xn": "1070;1088;1088;1070", 
                "yn": "1409;1409;1992;1992", 
                "confidence": 1.0
            }, 
            {
                "class": "Wall", 
                "xn": "884;1125;1125;884", 
                "yn": "2546;2546;2565;2565", 
                "confidence": 1.0
            }, 
            {
                "class": "Wall", 
                "xn": "5;128;128;5", 
                "yn": "975;975;995;995", 
                "confidence": 1.0
            }, 
            {
                "class": "Wall", 
                "xn": "884;998;998;884", 
                "yn": "2413;2413;2431;2431", 
                "confidence": 1.0
            }, 
            {
                "class": "Wall", 
                "xn": "929;1089;1089;929", 
                "yn": "1409;1409;1428;1428", 
                "confidence": 1.0
            }, 
            {
                "class": "Wall", 
                "xn": "884;998;998;884", 
                "yn": "2148;2148;2167;2167", 
                "confidence": 1.0
            }, 
            {
                "class": "Wall", 
                "xn": "1106;1124;1124;1106", 
                "yn": "1779;1779;2029;2029", 
                "confidence": 1.0
            }, 
            {
                "class": "Wall", 
                "xn": "5;304;304;5", 
                "yn": "1040;1040;1059;1059", 
                "confidence": 1.0
            }, 
            {
                "class": "Wall", 
                "xn": "596;613;613;596", 
                "yn": "1148;1148;1260;1260", 
                "confidence": 1.0
            }, 
            {
                "class": "Wall", 
                "xn": "109;126;126;109", 
                "yn": "976;976;1059;1059", 
                "confidence": 1.0
            }, 
            {
                "class": "Wall", 
                "xn": "485;502;502;485", 
                "yn": "1376;1376;1548;1548", 
                "confidence": 1.0
            }, 
            {
                "class": "Wall", 
                "xn": "743;761;761;743", 
                "yn": "1148;1148;1260;1260", 
                "confidence": 1.0
            }, 
            {
                "class": "Wall", 
                "xn": "1010;1035;1007;982", 
                "yn": "2785;2761;2733;2757", 
                "confidence": 1.0
            }, 
            {
                "class": "Wall", 
                "xn": "495;507;491;479", 
                "yn": "1269;1257;1241;1253", 
                "confidence": 1.0
            }, 
            {
                "class": "Wall", 
                "xn": "3849;3920;3920;3849", 
                "yn": "9;9;76;76", 
                "confidence": 1.0
            }, 
            {
                "class": "Wall", 
                "xn": "2278;2312;2312;2278", 
                "yn": "1555;1555;1825;1825", 
                "confidence": 1.0
            }, 
            {
                "class": "Wall", 
                "xn": "2278;2313;2313;2278", 
                "yn": "532;532;933;933", 
                "confidence": 1.0
            }, 
            {
                "class": "Wall", 
                "xn": "2278;2312;2312;2278", 
                "yn": "1167;1167;1453;1453", 
                "confidence": 1.0
            }, 
            {
                "class": "Wall", 
                "xn": "3880;3913;3913;3880", 
                "yn": "419;419;1195;1195", 
                "confidence": 1.0
            }, 
            {
                "class": "Wall", 
                "xn": "2278;2310;2310;2278", 
                "yn": "2059;2059;2648;2648", 
                "confidence": 1.0
            }, 
            {
                "class": "Wall", 
                "xn": "3881;3913;3913;3881", 
                "yn": "1425;1425;1810;1810", 
                "confidence": 1.0
            }, 
            {
                "class": "Wall", 
                "xn": "3235;3267;3267;3235", 
                "yn": "15;15;450;450", 
                "confidence": 1.0
            }, 
            {
                "class": "Wall", 
                "xn": "2774;2806;2806;2774", 
                "yn": "2617;2617;2923;2923", 
                "confidence": 1.0
            }, 
            {
                "class": "Wall", 
                "xn": "3371;3403;3403;3371", 
                "yn": "1779;1779;2777;2777", 
                "confidence": 1.0
            }, 
            {
                "class": "Wall", 
                "xn": "2773;2872;2872;2773", 
                "yn": "2890;2890;2923;2923", 
                "confidence": 1.0
            }, 
            {
                "class": "Wall", 
                "xn": "2535;2568;2568;2535", 
                "yn": "15;15;563;563", 
                "confidence": 1.0
            }, 
            {
                "class": "Wall", 
                "xn": "3732;3914;3914;3732", 
                "yn": "419;419;450;450", 
                "confidence": 1.0
            }, 
            {
                "class": "Wall", 
                "xn": "3167;3200;3200;3167", 
                "yn": "2746;2746;2923;2923", 
                "confidence": 1.0
            }, 
            {
                "class": "Wall", 
                "xn": "2623;2807;2807;2623", 
                "yn": "2617;2617;2648;2648", 
                "confidence": 1.0
            }, 
            {
                "class": "Wall", 
                "xn": "3143;3423;3423;3143", 
                "yn": "419;419;450;450", 
                "confidence": 1.0
            }, 
            {
                "class": "Wall", 
                "xn": "2536;2668;2668;2536", 
                "yn": "15;15;47;47", 
                "confidence": 1.0
            }, 
            {
                "class": "Wall", 
                "xn": "2897;3268;3268;2897", 
                "yn": "15;15;46;46", 
                "confidence": 1.0
            }, 
            {
                "class": "Wall", 
                "xn": "3333;3649;3649;3333", 
                "yn": "1779;1779;1810;1810", 
                "confidence": 1.0
            }, 
            {
                "class": "Wall", 
                "xn": "2696;2793;2793;2696", 
                "yn": "2074;2074;2105;2105", 
                "confidence": 1.0
            }, 
            {
                "class": "Wall", 
                "xn": "3167;3404;3404;3167", 
                "yn": "2746;2746;2777;2777", 
                "confidence": 1.0
            }, 
            {
                "class": "Wall", 
                "xn": "2277;2410;2410;2277", 
                "yn": "532;532;564;564", 
                "confidence": 1.0
            }, 
            {
                "class": "Wall", 
                "xn": "2277;2394;2394;2277", 
                "yn": "2616;2616;2648;2648", 
                "confidence": 1.0
            }, 
            {
                "class": "Wall", 
                "xn": "2277;2482;2482;2277", 
                "yn": "2075;2075;2106;2106", 
                "confidence": 1.0
            }, 
            {
                "class": "Wall", 
                "xn": "3105;3200;3200;3105", 
                "yn": "2893;2893;2923;2923", 
                "confidence": 1.0
            }, 
            {
                "class": "Wall", 
                "xn": "3829;3914;3914;3829", 
                "yn": "1784;1784;1810;1810", 
                "confidence": 1.0
            }, 
            {
                "class": "Wall", 
                "xn": "2277;2578;2578;2277", 
                "yn": "1655;1655;1679;1679", 
                "confidence": 1.0
            }, 
            {
                "class": "Wall", 
                "xn": "3747;3914;3914;3747", 
                "yn": "1511;1511;1532;1532", 
                "confidence": 1.0
            }, 
            {
                "class": "Wall", 
                "xn": "2513;2580;2580;2513", 
                "yn": "539;539;559;559", 
                "confidence": 1.0
            }, 
            {
                "class": "Wall", 
                "xn": "3540;3560;3560;3540", 
                "yn": "1511;1511;1810;1810", 
                "confidence": 1.0
            }, 
            {
                "class": "Wall", 
                "xn": "2277;2702;2702;2277", 
                "yn": "810;810;830;830", 
                "confidence": 1.0
            }, 
            {
                "class": "Wall", 
                "xn": "2774;2792;2792;2774", 
                "yn": "1242;1242;2105;2105", 
                "confidence": 1.0
            }, 
            {
                "class": "Wall", 
                "xn": "3333;3426;3426;3333", 
                "yn": "1510;1510;1530;1530", 
                "confidence": 1.0
            }, 
            {
                "class": "Wall", 
                "xn": "2891;2909;2909;2891", 
                "yn": "579;579;1123;1123", 
                "confidence": 1.0
            }, 
            {
                "class": "Wall", 
                "xn": "3370;3914;3914;3370", 
                "yn": "1048;1048;1066;1066", 
                "confidence": 1.0
            }, 
            {
                "class": "Wall", 
                "xn": "2649;2737;2737;2649", 
                "yn": "2312;2312;2332;2332", 
                "confidence": 1.0
            }, 
            {
                "class": "Wall", 
                "xn": "2553;2571;2571;2553", 
                "yn": "1283;1283;1677;1677", 
                "confidence": 1.0
            }, 
            {
                "class": "Wall", 
                "xn": "3020;3038;3038;3020", 
                "yn": "256;256;460;460", 
                "confidence": 1.0
            }, 
            {
                "class": "Wall", 
                "xn": "2358;2376;2376;2358", 
                "yn": "1584;1584;1679;1679", 
                "confidence": 1.0
            }, 
            {
                "class": "Wall", 
                "xn": "3539;3647;3647;3539", 
                "yn": "1511;1511;1530;1530", 
                "confidence": 1.0
            }, 
            {
                "class": "Wall", 
                "xn": "2773;2910;2910;2773", 
                "yn": "1242;1242;1260;1260", 
                "confidence": 1.0
            }, 
            {
                "class": "Wall", 
                "xn": "2705;2793;2793;2705", 
                "yn": "1459;1459;1479;1479", 
                "confidence": 1.0
            }, 
            {
                "class": "Wall", 
                "xn": "2675;2793;2793;2675", 
                "yn": "1659;1659;1678;1678", 
                "confidence": 1.0
            }, 
            {
                "class": "Wall", 
                "xn": "2649;2737;2737;2649", 
                "yn": "2247;2247;2266;2266", 
                "confidence": 1.0
            }, 
            {
                "class": "Wall", 
                "xn": "3334;3352;3352;3334", 
                "yn": "1421;1421;2004;2004", 
                "confidence": 1.0
            }, 
            {
                "class": "Wall", 
                "xn": "2552;2793;2793;2552", 
                "yn": "1525;1525;1544;1544", 
                "confidence": 1.0
            }, 
            {
                "class": "Wall", 
                "xn": "2890;3039;3039;2890", 
                "yn": "643;643;663;663", 
                "confidence": 1.0
            }, 
            {
                "class": "Wall", 
                "xn": "2682;2701;2701;2682", 
                "yn": "545;545;830;830", 
                "confidence": 1.0
            }, 
            {
                "class": "Wall", 
                "xn": "2895;3404;3404;2895", 
                "yn": "1986;1986;2004;2004", 
                "confidence": 1.0
            }, 
            {
                "class": "Wall", 
                "xn": "2277;2445;2445;2277", 
                "yn": "1282;1282;1303;1303", 
                "confidence": 1.0
            }, 
            {
                "class": "Wall", 
                "xn": "2718;2736;2736;2718", 
                "yn": "2247;2247;2648;2648", 
                "confidence": 1.0
            }, 
            {
                "class": "Wall", 
                "xn": "2650;2668;2668;2650", 
                "yn": "2247;2247;2331;2331", 
                "confidence": 1.0
            }, 
            {
                "class": "Wall", 
                "xn": "2277;2377;2377;2277", 
                "yn": "1583;1583;1603;1603", 
                "confidence": 1.0
            }, 
            {
                "class": "Wall", 
                "xn": "3020;3038;3038;3020", 
                "yn": "15;15;141;141", 
                "confidence": 1.0
            }, 
            {
                "class": "Wall", 
                "xn": "3407;3426;3426;3407", 
                "yn": "1422;1422;1529;1529", 
                "confidence": 1.0
            }, 
            {
                "class": "Wall", 
                "xn": "3799;3817;3817;3799", 
                "yn": "983;983;1066;1066", 
                "confidence": 1.0
            }, 
            {
                "class": "Wall", 
                "xn": "2890;3039;3039;2890", 
                "yn": "576;576;594;594", 
                "confidence": 1.0
            }, 
            {
                "class": "Wall", 
                "xn": "3019;3268;3268;3019", 
                "yn": "93;93;114;114", 
                "confidence": 1.0
            }, 
            {
                "class": "Wall", 
                "xn": "2362;2380;2380;2362", 
                "yn": "2075;2075;2156;2156", 
                "confidence": 1.0
            }, 
            {
                "class": "Wall", 
                "xn": "3020;3038;3038;3020", 
                "yn": "568;568;663;663", 
                "confidence": 1.0
            }, 
            {
                "class": "Wall", 
                "xn": "2681;2910;2910;2681", 
                "yn": "696;696;713;713", 
                "confidence": 1.0
            }, 
            {
                "class": "Wall", 
                "xn": "2685;2793;2793;2685", 
                "yn": "1282;1282;1301;1301", 
                "confidence": 1.0
            }, 
            {
                "class": "Wall", 
                "xn": "3798;3914;3914;3798", 
                "yn": "982;982;1001;1001", 
                "confidence": 1.0
            }, 
            {
                "class": "Wall", 
                "xn": "3019;3268;3268;3019", 
                "yn": "256;256;274;274", 
                "confidence": 1.0
            }, 
            {
                "class": "Wall", 
                "xn": "2707;2724;2724;2707", 
                "yn": "1283;1283;1544;1544", 
                "confidence": 1.0
            }, 
            {
                "class": "Wall", 
                "xn": "2277;2381;2381;2277", 
                "yn": "2138;2138;2157;2157", 
                "confidence": 1.0
            }, 
            {
                "class": "Wall", 
                "xn": "3170;3187;3187;3170", 
                "yn": "15;15;113;113", 
                "confidence": 1.0
            }, 
            {
                "class": "Wall", 
                "xn": "3333;3426;3426;3333", 
                "yn": "1421;1421;1440;1440", 
                "confidence": 1.0
            }, 
            {
                "class": "Wall", 
                "xn": "3854;3870;3854;3838", 
                "yn": "1811;1793;1778;1796", 
                "confidence": 1.0
            }, 
            {
                "class": "Wall", 
                "xn": "1276;1277;1275;1274", 
                "yn": "2417;2382;2324;2359", 
                "confidence": 1.0
            }, 
            {
                "class": "Wall", 
                "xn": "1409;1406;1403;1406", 
                "yn": "2292;2315;2443;2420", 
                "confidence": 1.0
            }, 
            {
                "class": "Wall", 
                "xn": "3858;3880;3880;3858", 
                "yn": "1779;1779;1810;1810", 
                "confidence": 1.0
            }, 
            {
                "class": "Wall", 
                "xn": "2277;2486;2486;2277", 
                "yn": "2082;2082;2100;2100", 
                "confidence": 1.0
            }, 
            {
                "class": "Wall", 
                "xn": "3371;3389;3389;3371", 
                "yn": "1184;1184;1439;1439", 
                "confidence": 1.0
            }, 
            {
                "class": "Wall", 
                "xn": "3834;3851;3851;3834", 
                "yn": "1779;1779;1810;1810", 
                "confidence": 1.0
            }, 
            {
                "class": "Wall", 
                "xn": "973;997;997;973", 
                "yn": "392;392;450;450", 
                "confidence": 1.0
            }, 
            {
                "class": "Wall", 
                "xn": "1105;1171;1171;1105", 
                "yn": "2618;2618;2651;2651", 
                "confidence": 1.0
            }, 
            {
                "class": "Wall", 
                "xn": "244;304;304;244", 
                "yn": "537;537;563;563", 
                "confidence": 1.0
            }, 
            {
                "class": "Wall", 
                "xn": "1839;1897;1897;1839", 
                "yn": "1779;1779;1818;1818", 
                "confidence": 1.0
            }, 
            {
                "class": "Wall", 
                "xn": "502;507;507;502", 
                "yn": "2617;2617;2930;2930", 
                "confidence": 1.0
            }, 
            {
                "class": "Wall", 
                "xn": "893;1125;1125;893", 
                "yn": "1892;1892;1897;1897", 
                "confidence": 1.0
            }, 
            {
                "class": "Wall", 
                "xn": "1046;1125;1125;1046", 
                "yn": "1987;1987;1992;1992", 
                "confidence": 1.0
            }, 
            {
                "class": "Wall", 
                "xn": "5;165;165;5", 
                "yn": "976;976;981;981", 
                "confidence": 1.0
            }, 
            {
                "class": "Wall", 
                "xn": "501;1145;1145;501", 
                "yn": "2778;2778;2784;2784", 
                "confidence": 1.0
            }, 
            {
                "class": "Wall", 
                "xn": "1118;1125;1125;1118", 
                "yn": "1779;1779;2784;2784", 
                "confidence": 1.0
            }, 
            {
                "class": "Wall", 
                "xn": "248;304;304;248", 
                "yn": "524;524;536;536", 
                "confidence": 1.0
            }, 
            {
                "class": "Wall", 
                "xn": "969;1655;1655;969", 
                "yn": "445;445;450;450", 
                "confidence": 1.0
            }, 
            {
                "class": "Wall", 
                "xn": "969;1655;1655;969", 
                "yn": "422;422;427;427", 
                "confidence": 1.0
            }, 
            {
                "class": "Wall", 
                "xn": "614;619;619;614", 
                "yn": "2638;2638;2749;2749", 
                "confidence": 1.0
            }, 
            {
                "class": "Wall", 
                "xn": "969;1045;1045;969", 
                "yn": "438;438;450;450", 
                "confidence": 1.0
            }, 
            {
                "class": "Wall", 
                "xn": "857;1655;1655;857", 
                "yn": "9;9;15;15", 
                "confidence": 1.0
            }, 
            {
                "class": "Wall", 
                "xn": "508;648;648;508", 
                "yn": "2172;2172;2177;2177", 
                "confidence": 1.0
            }, 
            {
                "class": "Wall", 
                "xn": "858;1002;1002;858", 
                "yn": "2148;2148;2153;2153", 
                "confidence": 1.0
            }, 
            {
                "class": "Wall", 
                "xn": "246;304;304;246", 
                "yn": "976;976;981;981", 
                "confidence": 1.0
            }, 
            {
                "class": "Wall", 
                "xn": "305;312;312;305", 
                "yn": "854;854;977;977", 
                "confidence": 1.0
            }, 
            {
                "class": "Wall", 
                "xn": "1035;1089;1089;1035", 
                "yn": "1622;1622;1628;1628", 
                "confidence": 1.0
            }, 
            {
                "class": "Wall", 
                "xn": "973;1089;1089;973", 
                "yn": "1655;1655;1661;1661", 
                "confidence": 1.0
            }, 
            {
                "class": "Wall", 
                "xn": "546;614;614;546", 
                "yn": "1196;1196;1201;1201", 
                "confidence": 1.0
            }, 
            {
                "class": "Wall", 
                "xn": "742;792;792;742", 
                "yn": "1173;1173;1178;1178", 
                "confidence": 1.0
            }, 
            {
                "class": "Wall", 
                "xn": "719;793;793;719", 
                "yn": "1148;1148;1153;1153", 
                "confidence": 1.0
            }, 
            {
                "class": "Wall", 
                "xn": "2277;2569;2569;2277", 
                "yn": "532;532;539;539", 
                "confidence": 1.0
            }, 
            {
                "class": "Wall", 
                "xn": "2277;2423;2423;2277", 
                "yn": "1416;1416;1421;1421", 
                "confidence": 1.0
            }, 
            {
                "class": "Wall", 
                "xn": "3144;3914;3914;3144", 
                "yn": "445;445;450;450", 
                "confidence": 1.0
            }, 
            {
                "class": "Wall", 
                "xn": "3370;3914;3914;3370", 
                "yn": "1803;1803;1809;1809", 
                "confidence": 1.0
            }, 
            {
                "class": "Wall", 
                "xn": "3347;3404;3404;3347", 
                "yn": "2654;2654;2659;2659", 
                "confidence": 1.0
            }, 
            {
                "class": "Wall", 
                "xn": "3348;3404;3404;3348", 
                "yn": "2091;2091;2096;2096", 
                "confidence": 1.0
            }, 
            {
                "class": "Wall", 
                "xn": "3905;3910;3910;3905", 
                "yn": "419;419;1810;1810", 
                "confidence": 1.0
            }, 
            {
                "class": "Wall", 
                "xn": "3539;3701;3701;3539", 
                "yn": "1516;1516;1525;1525", 
                "confidence": 1.0
            }, 
            {
                "class": "Wall", 
                "xn": "3492;3639;3639;3492", 
                "yn": "1524;1524;1529;1529", 
                "confidence": 1.0
            }, 
            {
                "class": "Wall", 
                "xn": "3539;3623;3623;3539", 
                "yn": "1623;1623;1628;1628", 
                "confidence": 1.0
            }, 
            {
                "class": "Wall", 
                "xn": "3492;3647;3647;3492", 
                "yn": "1512;1512;1517;1517", 
                "confidence": 1.0
            }, 
            {
                "class": "Wall", 
                "xn": "2692;2793;2793;2692", 
                "yn": "2091;2091;2099;2099", 
                "confidence": 1.0
            }, 
            {
                "class": "Wall", 
                "xn": "2638;2793;2793;2638", 
                "yn": "1295;1295;1300;1300", 
                "confidence": 1.0
            }, 
            {
                "class": "Wall", 
                "xn": "2661;2793;2793;2661", 
                "yn": "2099;2099;2105;2105", 
                "confidence": 1.0
            }, 
            {
                "class": "Wall", 
                "xn": "2662;2793;2793;2662", 
                "yn": "2076;2076;2081;2081", 
                "confidence": 1.0
            }, 
            {
                "class": "Wall", 
                "xn": "2637;2793;2793;2637", 
                "yn": "1283;1283;1288;1288", 
                "confidence": 1.0
            }, 
            {
                "class": "Wall", 
                "xn": "2536;2620;2620;2536", 
                "yn": "1295;1295;1300;1300", 
                "confidence": 1.0
            }, 
            {
                "class": "Wall", 
                "xn": "2542;2620;2620;2542", 
                "yn": "1282;1282;1288;1288", 
                "confidence": 1.0
            }, 
            {
                "class": "Wall", 
                "xn": "3333;3474;3474;3333", 
                "yn": "1512;1512;1517;1517", 
                "confidence": 1.0
            }, 
            {
                "class": "Wall", 
                "xn": "3333;3474;3474;3333", 
                "yn": "1524;1524;1529;1529", 
                "confidence": 1.0
            }, 
            {
                "class": "Wall", 
                "xn": "3208;3426;3426;3208", 
                "yn": "1522;1522;1527;1527", 
                "confidence": 1.0
            }, 
            {
                "class": "Wall", 
                "xn": "485;958;958;485", 
                "yn": "2924;2924;2929;2929", 
                "confidence": 1.0
            }, 
            {
                "class": "Wall", 
                "xn": "594;665;665;594", 
                "yn": "685;685;690;690", 
                "confidence": 1.0
            }, 
            {
                "class": "Stair", 
                "xn": "982;983;1104;1105;1105;1106;1106;1491;1492;1492;1491;983;982", 
                "yn": "631;630;630;631;824;825;1017;1017;1018;1138;1139;1139;1138", 
                "confidence": 1.0
            }, 
            {
                "class": "Text", 
                "height": 29, 
                "width": 93, 
                "x": 3071, 
                "y": 66, 
                "text": "wir 3", 
                "confidence": "0.88"
            }, 
            {
                "class": "Text", 
                "height": 28, 
                "width": 177, 
                "x": 1259, 
                "y": 185, 
                "text": "alfresco", 
                "confidence": "0.91"
            }, 
            {
                "class": "Text", 
                "height": 29, 
                "width": 164, 
                "x": 3519, 
                "y": 235, 
                "text": "balcony", 
                "confidence": "0.92"
            }, 
            {
                "class": "Text", 
                "height": 29, 
                "width": 62, 
                "x": 3109, 
                "y": 287, 
                "text": "wic", 
                "confidence": "0.74"
            }, 
            {
                "class": "Text", 
                "height": 29, 
                "width": 92, 
                "x": 2453, 
                "y": 624, 
                "text": "ens", 
                "confidence": "0.92"
            }, 
            {
                "class": "Text", 
                "height": 27, 
                "width": 64, 
                "x": 168, 
                "y": 763, 
                "text": "wic", 
                "confidence": "0.96"
            }, 
            {
                "class": "Text", 
                "height": 28, 
                "width": 110, 
                "x": 1251, 
                "y": 800, 
                "text": "living", 
                "confidence": "0.91"
            }, 
            {
                "class": "Text", 
                "height": 27, 
                "width": 95, 
                "x": 2461, 
                "y": 998, 
                "text": "bed 2", 
                "confidence": "0.88"
            }, 
            {
                "class": "Text", 
                "height": 28, 
                "width": 64, 
                "x": 172, 
                "y": 1172, 
                "text": "cl", 
                "confidence": "0.71"
            }, 
            {
                "class": "Text", 
                "height": 28, 
                "width": 95, 
                "x": 3672, 
                "y": 1271, 
                "text": "bed", 
                "confidence": "0.91"
            }, 
            {
                "class": "Text", 
                "height": 28, 
                "width": 166, 
                "x": 147, 
                "y": 1346, 
                "text": "laundry", 
                "confidence": "0.85"
            }, 
            {
                "class": "Text", 
                "height": 67, 
                "width": 81, 
                "x": 2423, 
                "y": 1413, 
                "text": "ens", 
                "confidence": "0.74"
            }, 
            {
                "class": "Text", 
                "height": 28, 
                "width": 93, 
                "x": 2607, 
                "y": 1487, 
                "text": "wir 2", 
                "confidence": "0.73"
            }, 
            {
                "class": "Text", 
                "height": 29, 
                "width": 56, 
                "x": 2613, 
                "y": 1591, 
                "text": "wc", 
                "confidence": "0.93"
            }, 
            {
                "class": "Text", 
                "height": 28, 
                "width": 94, 
                "x": 3419, 
                "y": 1738, 
                "text": "wc", 
                "confidence": "0.74"
            }, 
            {
                "class": "Text", 
                "height": 28, 
                "width": 143, 
                "x": 248, 
                "y": 1821, 
                "text": "lounge", 
                "confidence": "0.88"
            }, 
            {
                "class": "Text", 
                "height": 29, 
                "width": 139, 
                "x": 2525, 
                "y": 1884, 
                "text": "ensuite", 
                "confidence": "0.92"
            }, 
            {
                "class": "Text", 
                "height": 34, 
                "width": 293, 
                "x": 1366, 
                "y": 2202, 
                "text": "doublegarage", 
                "confidence": "0.75"
            }, 
            {
                "class": "Text", 
                "height": 29, 
                "width": 67, 
                "x": 1014, 
                "y": 2314, 
                "text": "pdr", 
                "confidence": "0.79"
            }, 
            {
                "class": "Text", 
                "height": 29, 
                "width": 243, 
                "x": 2978, 
                "y": 2333, 
                "text": "mastersuite", 
                "confidence": "0.89"
            }, 
            {
                "class": "Text", 
                "height": 29, 
                "width": 115, 
                "x": 321, 
                "y": 2370, 
                "text": "study", 
                "confidence": "0.89"
            }, 
            {
                "class": "Text", 
                "height": 28, 
                "width": 64, 
                "x": 2476, 
                "y": 2368, 
                "text": "wir", 
                "confidence": "0.94"
            }, 
            {
                "class": "Text", 
                "height": 28, 
                "width": 108, 
                "x": 679, 
                "y": 2463, 
                "text": "entry", 
                "confidence": "0.84"
            }, 
            {
                "class": "Text", 
                "height": 28, 
                "width": 117, 
                "x": 664, 
                "y": 2837, 
                "text": "porch", 
                "confidence": "0.91"
            }
        ], 
        "class": "image", 
        "filename": "54.png"
    }
]