[
    {
        "annotations": [
            {
                "class": "Door", 
                "xn": "1101;1204;1204;1101", 
                "yn": "1851;1851;1866;1866", 
                "confidence": 1.0
            }, 
            {
                "class": "Door", 
                "xn": "1101;1204;1204;1101", 
                "yn": "1851;1851;1866;1866", 
                "confidence": 1.0
            }, 
            {
                "class": "Door", 
                "xn": "2295;2403;2403;2295", 
                "yn": "2372;2372;2387;2387", 
                "confidence": 1.0
            }, 
            {
                "class": "Door", 
                "xn": "2349;2458;2458;2349", 
                "yn": "1472;1472;1487;1487", 
                "confidence": 1.0
            }, 
            {
                "class": "Door", 
                "xn": "2349;2458;2458;2349", 
                "yn": "1472;1472;1487;1487", 
                "confidence": 1.0
            }, 
            {
                "class": "Door", 
                "xn": "2295;2403;2403;2295", 
                "yn": "2372;2372;2387;2387", 
                "confidence": 1.0
            }, 
            {
                "class": "Door", 
                "xn": "1367;1471;1471;1367", 
                "yn": "1355;1355;1371;1371", 
                "confidence": 1.0
            }, 
            {
                "class": "Door", 
                "xn": "1367;1471;1471;1367", 
                "yn": "1355;1355;1371;1371", 
                "confidence": 1.0
            }, 
            {
                "class": "Door", 
                "xn": "39;148;148;39", 
                "yn": "1884;1884;1908;1908", 
                "confidence": 1.0
            }, 
            {
                "class": "Door", 
                "xn": "39;148;148;39", 
                "yn": "1884;1884;1908;1908", 
                "confidence": 1.0
            }, 
            {
                "class": "Door", 
                "xn": "1203;1218;1218;1203", 
                "yn": "1710;1710;1826;1826", 
                "confidence": 1.0
            }, 
            {
                "class": "Door", 
                "xn": "1203;1218;1218;1203", 
                "yn": "1710;1710;1826;1826", 
                "confidence": 1.0
            }, 
            {
                "class": "Door", 
                "xn": "715;730;730;715", 
                "yn": "1927;1927;2037;2037", 
                "confidence": 1.0
            }, 
            {
                "class": "Door", 
                "xn": "715;730;730;715", 
                "yn": "1927;1927;2037;2037", 
                "confidence": 1.0
            }, 
            {
                "class": "Door", 
                "xn": "2757;2772;2772;2757", 
                "yn": "1493;1493;1603;1603", 
                "confidence": 1.0
            }, 
            {
                "class": "Door", 
                "xn": "2757;2772;2772;2757", 
                "yn": "1108;1108;1224;1224", 
                "confidence": 1.0
            }, 
            {
                "class": "Door", 
                "xn": "2757;2772;2772;2757", 
                "yn": "1108;1108;1224;1224", 
                "confidence": 1.0
            }, 
            {
                "class": "Door", 
                "xn": "3105;3119;3119;3105", 
                "yn": "984;984;1096;1096", 
                "confidence": 1.0
            }, 
            {
                "class": "Door", 
                "xn": "2634;2649;2649;2634", 
                "yn": "934;934;1046;1046", 
                "confidence": 1.0
            }, 
            {
                "class": "Door", 
                "xn": "3105;3119;3119;3105", 
                "yn": "984;984;1096;1096", 
                "confidence": 1.0
            }, 
            {
                "class": "Door", 
                "xn": "2757;2772;2772;2757", 
                "yn": "1108;1108;1224;1224", 
                "confidence": 1.0
            }, 
            {
                "class": "Wall", 
                "xn": "1558;1621;1621;1558", 
                "yn": "18;18;80;80", 
                "confidence": 1.0
            }, 
            {
                "class": "Wall", 
                "xn": "149;183;183;149", 
                "yn": "927;927;1244;1244", 
                "confidence": 1.0
            }, 
            {
                "class": "Wall", 
                "xn": "149;182;182;149", 
                "yn": "1580;1580;1911;1911", 
                "confidence": 1.0
            }, 
            {
                "class": "Wall", 
                "xn": "1587;1620;1620;1587", 
                "yn": "1255;1255;1726;1726", 
                "confidence": 1.0
            }, 
            {
                "class": "Wall", 
                "xn": "1584;1617;1617;1584", 
                "yn": "393;393;499;499", 
                "confidence": 1.0
            }, 
            {
                "class": "Wall", 
                "xn": "1587;1620;1620;1587", 
                "yn": "2128;2128;2884;2884", 
                "confidence": 1.0
            }, 
            {
                "class": "Wall", 
                "xn": "906;1059;1059;906", 
                "yn": "18;18;52;52", 
                "confidence": 1.0
            }, 
            {
                "class": "Wall", 
                "xn": "1586;1620;1620;1586", 
                "yn": "1904;1904;2026;2026", 
                "confidence": 1.0
            }, 
            {
                "class": "Wall", 
                "xn": "336;370;370;336", 
                "yn": "229;229;773;773", 
                "confidence": 1.0
            }, 
            {
                "class": "Wall", 
                "xn": "1586;1620;1620;1586", 
                "yn": "722;722;919;919", 
                "confidence": 1.0
            }, 
            {
                "class": "Wall", 
                "xn": "696;813;813;696", 
                "yn": "2716;2716;2750;2750", 
                "confidence": 1.0
            }, 
            {
                "class": "Wall", 
                "xn": "335;535;535;335", 
                "yn": "18;18;51;51", 
                "confidence": 1.0
            }, 
            {
                "class": "Wall", 
                "xn": "1138;1231;1231;1138", 
                "yn": "2850;2850;2884;2884", 
                "confidence": 1.0
            }, 
            {
                "class": "Wall", 
                "xn": "1025;1058;1058;1025", 
                "yn": "363;363;426;426", 
                "confidence": 1.0
            }, 
            {
                "class": "Wall", 
                "xn": "1531;1621;1621;1531", 
                "yn": "393;393;427;427", 
                "confidence": 1.0
            }, 
            {
                "class": "Wall", 
                "xn": "697;730;730;697", 
                "yn": "2657;2657;2750;2750", 
                "confidence": 1.0
            }, 
            {
                "class": "Wall", 
                "xn": "1498;1696;1696;1498", 
                "yn": "2850;2850;2884;2884", 
                "confidence": 1.0
            }, 
            {
                "class": "Wall", 
                "xn": "1139;1171;1171;1139", 
                "yn": "2717;2717;2884;2884", 
                "confidence": 1.0
            }, 
            {
                "class": "Wall", 
                "xn": "0;77;77;0", 
                "yn": "2656;2656;2689;2689", 
                "confidence": 1.0
            }, 
            {
                "class": "Wall", 
                "xn": "1024;1089;1089;1024", 
                "yn": "392;392;421;421", 
                "confidence": 1.0
            }, 
            {
                "class": "Wall", 
                "xn": "148;859;859;148", 
                "yn": "1885;1885;1912;1912", 
                "confidence": 1.0
            }, 
            {
                "class": "Wall", 
                "xn": "1043;1068;1068;1043", 
                "yn": "2668;2668;2810;2810", 
                "confidence": 1.0
            }, 
            {
                "class": "Wall", 
                "xn": "795;821;821;795", 
                "yn": "922;922;1262;1262", 
                "confidence": 1.0
            }, 
            {
                "class": "Wall", 
                "xn": "765;885;885;765", 
                "yn": "1647;1647;1672;1672", 
                "confidence": 1.0
            }, 
            {
                "class": "Wall", 
                "xn": "1502;1621;1621;1502", 
                "yn": "797;797;824;824", 
                "confidence": 1.0
            }, 
            {
                "class": "Wall", 
                "xn": "547;574;574;547", 
                "yn": "1647;1647;1911;1911", 
                "confidence": 1.0
            }, 
            {
                "class": "Wall", 
                "xn": "1195;1621;1621;1195", 
                "yn": "1697;1697;1711;1711", 
                "confidence": 1.0
            }, 
            {
                "class": "Wall", 
                "xn": "1245;1259;1259;1245", 
                "yn": "1926;1926;2072;2072", 
                "confidence": 1.0
            }, 
            {
                "class": "Wall", 
                "xn": "716;730;730;716", 
                "yn": "2037;2037;2750;2750", 
                "confidence": 1.0
            }, 
            {
                "class": "Wall", 
                "xn": "1065;1080;1080;1065", 
                "yn": "1356;1356;1711;1711", 
                "confidence": 1.0
            }, 
            {
                "class": "Wall", 
                "xn": "795;859;859;795", 
                "yn": "1217;1217;1234;1234", 
                "confidence": 1.0
            }, 
            {
                "class": "Wall", 
                "xn": "1204;1218;1218;1204", 
                "yn": "1826;1826;2072;2072", 
                "confidence": 1.0
            }, 
            {
                "class": "Wall", 
                "xn": "1329;1346;1346;1329", 
                "yn": "1638;1638;1711;1711", 
                "confidence": 1.0
            }, 
            {
                "class": "Wall", 
                "xn": "437;859;859;437", 
                "yn": "798;798;812;812", 
                "confidence": 1.0
            }, 
            {
                "class": "Wall", 
                "xn": "1042;1418;1418;1042", 
                "yn": "2058;2058;2072;2072", 
                "confidence": 1.0
            }, 
            {
                "class": "Wall", 
                "xn": "715;792;792;715", 
                "yn": "2120;2120;2136;2136", 
                "confidence": 1.0
            }, 
            {
                "class": "Wall", 
                "xn": "1203;1621;1621;1203", 
                "yn": "1926;1926;1940;1940", 
                "confidence": 1.0
            }, 
            {
                "class": "Wall", 
                "xn": "1065;1369;1369;1065", 
                "yn": "1443;1443;1457;1457", 
                "confidence": 1.0
            }, 
            {
                "class": "Wall", 
                "xn": "640;654;654;640", 
                "yn": "798;798;935;935", 
                "confidence": 1.0
            }, 
            {
                "class": "Wall", 
                "xn": "1043;1057;1057;1043", 
                "yn": "1852;1852;2072;2072", 
                "confidence": 1.0
            }, 
            {
                "class": "Wall", 
                "xn": "715;792;792;715", 
                "yn": "2064;2064;2080;2080", 
                "confidence": 1.0
            }, 
            {
                "class": "Wall", 
                "xn": "1471;1621;1621;1471", 
                "yn": "1355;1355;1371;1371", 
                "confidence": 1.0
            }, 
            {
                "class": "Wall", 
                "xn": "1272;1346;1346;1272", 
                "yn": "1637;1637;1653;1653", 
                "confidence": 1.0
            }, 
            {
                "class": "Wall", 
                "xn": "844;858;858;844", 
                "yn": "798;798;935;935", 
                "confidence": 1.0
            }, 
            {
                "class": "Wall", 
                "xn": "777;791;791;777", 
                "yn": "2064;2064;2135;2135", 
                "confidence": 1.0
            }, 
            {
                "class": "Wall", 
                "xn": "335;452;452;335", 
                "yn": "758;758;773;773", 
                "confidence": 1.0
            }, 
            {
                "class": "Wall", 
                "xn": "148;307;307;148", 
                "yn": "1646;1646;1662;1662", 
                "confidence": 1.0
            }, 
            {
                "class": "Wall", 
                "xn": "1218;1232;1232;1218", 
                "yn": "1356;1356;1457;1457", 
                "confidence": 1.0
            }, 
            {
                "class": "Wall", 
                "xn": "1065;1233;1233;1065", 
                "yn": "1356;1356;1370;1370", 
                "confidence": 1.0
            }, 
            {
                "class": "Wall", 
                "xn": "1352;1368;1368;1352", 
                "yn": "1356;1356;1457;1457", 
                "confidence": 1.0
            }, 
            {
                "class": "Wall", 
                "xn": "795;885;885;795", 
                "yn": "1247;1247;1262;1262", 
                "confidence": 1.0
            }, 
            {
                "class": "Wall", 
                "xn": "715;859;859;715", 
                "yn": "1913;1913;1928;1928", 
                "confidence": 1.0
            }, 
            {
                "class": "Wall", 
                "xn": "844;858;858;844", 
                "yn": "1647;1647;1691;1691", 
                "confidence": 1.0
            }, 
            {
                "class": "Wall", 
                "xn": "1042;1102;1102;1042", 
                "yn": "1852;1852;1866;1866", 
                "confidence": 1.0
            }, 
            {
                "class": "Wall", 
                "xn": "871;885;885;871", 
                "yn": "1248;1248;1661;1661", 
                "confidence": 1.0
            }, 
            {
                "class": "Wall", 
                "xn": "756;859;859;756", 
                "yn": "921;921;935;935", 
                "confidence": 1.0
            }, 
            {
                "class": "Wall", 
                "xn": "2872;3296;3296;2872", 
                "yn": "779;779;812;812", 
                "confidence": 1.0
            }, 
            {
                "class": "Wall", 
                "xn": "2123;2156;2156;2123", 
                "yn": "1804;1804;2030;2030", 
                "confidence": 1.0
            }, 
            {
                "class": "Wall", 
                "xn": "3486;3519;3519;3486", 
                "yn": "929;929;1305;1305", 
                "confidence": 1.0
            }, 
            {
                "class": "Wall", 
                "xn": "2123;2155;2155;2123", 
                "yn": "2254;2254;2658;2658", 
                "confidence": 1.0
            }, 
            {
                "class": "Wall", 
                "xn": "3485;3519;3519;3485", 
                "yn": "2128;2128;2803;2803", 
                "confidence": 1.0
            }, 
            {
                "class": "Wall", 
                "xn": "2123;2155;2155;2123", 
                "yn": "779;779;1356;1356", 
                "confidence": 1.0
            }, 
            {
                "class": "Wall", 
                "xn": "3485;3519;3519;3485", 
                "yn": "1378;1378;1529;1529", 
                "confidence": 1.0
            }, 
            {
                "class": "Wall", 
                "xn": "2122;2290;2290;2122", 
                "yn": "779;779;812;812", 
                "confidence": 1.0
            }, 
            {
                "class": "Wall", 
                "xn": "2512;2771;2771;2512", 
                "yn": "779;779;811;811", 
                "confidence": 1.0
            }, 
            {
                "class": "Wall", 
                "xn": "3485;3519;3519;3485", 
                "yn": "1828;1828;2026;2026", 
                "confidence": 1.0
            }, 
            {
                "class": "Wall", 
                "xn": "3397;3520;3520;3397", 
                "yn": "779;779;813;813", 
                "confidence": 1.0
            }, 
            {
                "class": "Wall", 
                "xn": "2123;2156;2156;2123", 
                "yn": "1459;1459;1581;1581", 
                "confidence": 1.0
            }, 
            {
                "class": "Wall", 
                "xn": "2919;2946;2946;2919", 
                "yn": "2717;2717;2803;2803", 
                "confidence": 1.0
            }, 
            {
                "class": "Wall", 
                "xn": "2929;3131;3131;2929", 
                "yn": "2777;2777;2803;2803", 
                "confidence": 1.0
            }, 
            {
                "class": "Wall", 
                "xn": "2601;2673;2673;2601", 
                "yn": "2716;2716;2743;2743", 
                "confidence": 1.0
            }, 
            {
                "class": "Wall", 
                "xn": "2532;2630;2630;2532", 
                "yn": "2686;2686;2714;2714", 
                "confidence": 1.0
            }, 
            {
                "class": "Wall", 
                "xn": "3397;3520;3520;3397", 
                "yn": "2776;2776;2803;2803", 
                "confidence": 1.0
            }, 
            {
                "class": "Wall", 
                "xn": "2931;2956;2956;2931", 
                "yn": "2337;2337;2615;2615", 
                "confidence": 1.0
            }, 
            {
                "class": "Wall", 
                "xn": "3411;3520;3520;3411", 
                "yn": "1403;1403;1430;1430", 
                "confidence": 1.0
            }, 
            {
                "class": "Wall", 
                "xn": "2405;2431;2431;2405", 
                "yn": "2681;2681;2713;2713", 
                "confidence": 1.0
            }, 
            {
                "class": "Wall", 
                "xn": "2758;2773;2773;2758", 
                "yn": "1603;1603;1911;1911", 
                "confidence": 1.0
            }, 
            {
                "class": "Wall", 
                "xn": "2615;2629;2629;2615", 
                "yn": "2119;2119;2743;2743", 
                "confidence": 1.0
            }, 
            {
                "class": "Wall", 
                "xn": "3213;3228;3228;3213", 
                "yn": "1321;1321;1429;1429", 
                "confidence": 1.0
            }, 
            {
                "class": "Wall", 
                "xn": "2122;2773;2773;2122", 
                "yn": "1897;1897;1911;1911", 
                "confidence": 1.0
            }, 
            {
                "class": "Wall", 
                "xn": "2465;2479;2479;2465", 
                "yn": "1224;1224;1487;1487", 
                "confidence": 1.0
            }, 
            {
                "class": "Wall", 
                "xn": "2634;2997;2997;2634", 
                "yn": "1046;1046;1060;1060", 
                "confidence": 1.0
            }, 
            {
                "class": "Wall", 
                "xn": "2918;2933;2933;2918", 
                "yn": "1599;1599;1911;1911", 
                "confidence": 1.0
            }, 
            {
                "class": "Wall", 
                "xn": "3025;3520;3520;3025", 
                "yn": "1926;1926;1940;1940", 
                "confidence": 1.0
            }, 
            {
                "class": "Wall", 
                "xn": "2615;2629;2629;2615", 
                "yn": "1751;1751;1911;1911", 
                "confidence": 1.0
            }, 
            {
                "class": "Wall", 
                "xn": "2122;2350;2350;2122", 
                "yn": "1473;1473;1487;1487", 
                "confidence": 1.0
            }, 
            {
                "class": "Wall", 
                "xn": "2919;2933;2933;2919", 
                "yn": "1046;1046;1437;1437", 
                "confidence": 1.0
            }, 
            {
                "class": "Wall", 
                "xn": "2651;2665;2665;2651", 
                "yn": "1224;1224;1487;1487", 
                "confidence": 1.0
            }, 
            {
                "class": "Wall", 
                "xn": "2910;3121;3121;2910", 
                "yn": "859;859;873;873", 
                "confidence": 1.0
            }, 
            {
                "class": "Wall", 
                "xn": "2458;2773;2773;2458", 
                "yn": "1473;1473;1487;1487", 
                "confidence": 1.0
            }, 
            {
                "class": "Wall", 
                "xn": "2982;2996;2996;2982", 
                "yn": "859;859;1110;1110", 
                "confidence": 1.0
            }, 
            {
                "class": "Wall", 
                "xn": "2410;2424;2424;2410", 
                "yn": "2373;2373;2584;2584", 
                "confidence": 1.0
            }, 
            {
                "class": "Wall", 
                "xn": "2918;3041;3041;2918", 
                "yn": "1897;1897;1911;1911", 
                "confidence": 1.0
            }, 
            {
                "class": "Wall", 
                "xn": "2614;2773;2773;2614", 
                "yn": "1622;1622;1636;1636", 
                "confidence": 1.0
            }, 
            {
                "class": "Wall", 
                "xn": "2911;2925;2925;2911", 
                "yn": "779;779;873;873", 
                "confidence": 1.0
            }, 
            {
                "class": "Wall", 
                "xn": "2758;2772;2772;2758", 
                "yn": "1342;1342;1494;1494", 
                "confidence": 1.0
            }, 
            {
                "class": "Wall", 
                "xn": "2614;2691;2691;2614", 
                "yn": "2119;2119;2134;2134", 
                "confidence": 1.0
            }, 
            {
                "class": "Wall", 
                "xn": "3034;3048;3048;3034", 
                "yn": "1348;1348;1429;1429", 
                "confidence": 1.0
            }, 
            {
                "class": "Wall", 
                "xn": "2614;2691;2691;2614", 
                "yn": "2186;2186;2202;2202", 
                "confidence": 1.0
            }, 
            {
                "class": "Wall", 
                "xn": "2650;2773;2773;2650", 
                "yn": "1224;1224;1239;1239", 
                "confidence": 1.0
            }, 
            {
                "class": "Wall", 
                "xn": "2918;3049;3049;2918", 
                "yn": "1348;1348;1363;1363", 
                "confidence": 1.0
            }, 
            {
                "class": "Wall", 
                "xn": "3429;3443;3443;3429", 
                "yn": "2657;2657;2803;2803", 
                "confidence": 1.0
            }, 
            {
                "class": "Wall", 
                "xn": "2409;2630;2630;2409", 
                "yn": "2563;2563;2578;2578", 
                "confidence": 1.0
            }, 
            {
                "class": "Wall", 
                "xn": "2676;2691;2691;2676", 
                "yn": "2108;2108;2202;2202", 
                "confidence": 1.0
            }, 
            {
                "class": "Wall", 
                "xn": "3213;3228;3228;3213", 
                "yn": "1096;1096;1211;1211", 
                "confidence": 1.0
            }, 
            {
                "class": "Wall", 
                "xn": "2122;2555;2555;2122", 
                "yn": "1224;1224;1238;1238", 
                "confidence": 1.0
            }, 
            {
                "class": "Wall", 
                "xn": "2758;2772;2772;2758", 
                "yn": "1046;1046;1109;1109", 
                "confidence": 1.0
            }, 
            {
                "class": "Wall", 
                "xn": "3428;3520;3520;3428", 
                "yn": "2656;2656;2672;2672", 
                "confidence": 1.0
            }, 
            {
                "class": "Wall", 
                "xn": "2122;2296;2296;2122", 
                "yn": "2373;2373;2387;2387", 
                "confidence": 1.0
            }, 
            {
                "class": "Wall", 
                "xn": "294;309;309;294", 
                "yn": "1135;1135;1176;1176", 
                "confidence": 1.0
            }, 
            {
                "class": "Wall", 
                "xn": "633;649;649;633", 
                "yn": "1135;1135;1176;1176", 
                "confidence": 1.0
            }, 
            {
                "class": "Wall", 
                "xn": "294;673;673;294", 
                "yn": "1160;1160;1174;1174", 
                "confidence": 1.0
            }, 
            {
                "class": "Wall", 
                "xn": "318;334;334;318", 
                "yn": "1135;1135;1176;1176", 
                "confidence": 1.0
            }, 
            {
                "class": "Wall", 
                "xn": "658;673;673;658", 
                "yn": "1135;1135;1176;1176", 
                "confidence": 1.0
            }, 
            {
                "class": "Wall", 
                "xn": "1253;1286;1286;1253", 
                "yn": "1075;1075;1118;1118", 
                "confidence": 1.0
            }, 
            {
                "class": "Wall", 
                "xn": "3492;3519;3519;3492", 
                "yn": "779;779;825;825", 
                "confidence": 1.0
            }, 
            {
                "class": "Wall", 
                "xn": "2635;2649;2649;2635", 
                "yn": "779;779;935;935", 
                "confidence": 1.0
            }, 
            {
                "class": "Wall", 
                "xn": "2403;2425;2425;2403", 
                "yn": "2373;2373;2387;2387", 
                "confidence": 1.0
            }, 
            {
                "class": "Wall", 
                "xn": "2895;2957;2957;2895", 
                "yn": "2717;2717;2744;2744", 
                "confidence": 1.0
            }, 
            {
                "class": "Wall", 
                "xn": "2918;3228;3228;2918", 
                "yn": "1096;1096;1116;1116", 
                "confidence": 1.0
            }, 
            {
                "class": "Wall", 
                "xn": "0;40;40;0", 
                "yn": "1882;1882;1908;1908", 
                "confidence": 1.0
            }, 
            {
                "class": "Wall", 
                "xn": "336;369;369;336", 
                "yn": "18;18;80;80", 
                "confidence": 1.0
            }, 
            {
                "class": "Wall", 
                "xn": "428;594;594;428", 
                "yn": "1647;1647;1669;1669", 
                "confidence": 1.0
            }, 
            {
                "class": "Wall", 
                "xn": "1;36;36;1", 
                "yn": "1878;1878;2689;2689", 
                "confidence": 1.0
            }, 
            {
                "class": "Wall", 
                "xn": "671;731;731;671", 
                "yn": "2656;2656;2687;2687", 
                "confidence": 1.0
            }, 
            {
                "class": "Wall", 
                "xn": "844;858;858;844", 
                "yn": "1878;1878;1922;1922", 
                "confidence": 1.0
            }, 
            {
                "class": "Wall", 
                "xn": "1027;1058;1058;1027", 
                "yn": "18;18;65;65", 
                "confidence": 1.0
            }, 
            {
                "class": "Wall", 
                "xn": "1273;1286;1286;1273", 
                "yn": "1446;1446;1711;1711", 
                "confidence": 1.0
            }, 
            {
                "class": "Wall", 
                "xn": "844;854;854;844", 
                "yn": "1218;1218;1262;1262", 
                "confidence": 1.0
            }, 
            {
                "class": "Wall", 
                "xn": "438;451;451;438", 
                "yn": "759;759;812;812", 
                "confidence": 1.0
            }, 
            {
                "class": "Wall", 
                "xn": "3106;3119;3119;3106", 
                "yn": "779;779;985;985", 
                "confidence": 1.0
            }, 
            {
                "class": "Wall", 
                "xn": "2947;2956;2956;2947", 
                "yn": "2181;2181;2803;2803", 
                "confidence": 1.0
            }, 
            {
                "class": "Wall", 
                "xn": "2520;2630;2630;2520", 
                "yn": "2373;2373;2386;2386", 
                "confidence": 1.0
            }, 
            {
                "class": "Wall", 
                "xn": "2918;3228;3228;2918", 
                "yn": "1416;1416;1429;1429", 
                "confidence": 1.0
            }, 
            {
                "class": "Wall", 
                "xn": "3028;3040;3040;3028", 
                "yn": "1897;1897;1940;1940", 
                "confidence": 1.0
            }, 
            {
                "class": "Stair", 
                "xn": "1258;1259;1360;1361;1361;1362;1362;1363;1363;1364;1364;1365;1365;1366;1366;1367;1367;1368;1368;1369;1369;1370;1370;1371;1371;1372;1372;1373;1373;1374;1374;1375;1375;1376;1376;1377;1377;1378;1378;1379;1379;1380;1380;1381;1381;1382;1382;1383;1383;1384;1384;1385;1385;1386;1386;1387;1387;1388;1388;1389;1389;1390;1390;1391;1391;1392;1392;1393;1393;1394;1394;1395;1395;1396;1396;1397;1397;1398;1398;1399;1399;1400;1400;1401;1401;1402;1402;1403;1403;1404;1404;1405;1405;1406;1406;1406;1407;1407;1408;1585;1586;1586;1585;1577;1576;1560;1559;1543;1542;1526;1525;1509;1508;1492;1491;1475;1474;1458;1457;1441;1440;1424;1423;1407;1406;1389;1388;1372;1371;1355;1354;1338;1337;1321;1320;1304;1303;1287;1286;1270;1269;1253;1252;1236;1235;1227;1226;1226;1227;1254;1255;1308;1309;1362;1363;1416;1417;1420;1406;1405;1391;1390;1375;1374;1360;1359;1344;1343;1329;1328;1313;1312;1298;1297;1283;1282;1267;1266;1259;1258", 
                "yn": "1940;1939;1939;1940;1941;1942;1943;1944;1945;1946;1947;1948;1949;1950;1951;1952;1953;1954;1955;1956;1957;1958;1959;1960;1961;1962;1963;1964;1966;1967;1968;1969;1970;1971;1972;1973;1974;1975;1976;1977;1978;1979;1980;1981;1982;1983;1984;1985;1986;1987;1989;1990;1991;1992;1993;1994;1995;1996;1997;1998;1999;2000;2001;2002;2003;2004;2005;2006;2007;2008;2009;2010;2011;2012;2014;2015;2016;2017;2018;2019;2020;2021;2022;2023;2024;2025;2026;2027;2028;2029;2030;2031;2032;2033;2034;1989;1988;1940;1939;1939;1940;2207;2208;2208;2209;2209;2210;2210;2211;2211;2212;2212;2213;2213;2214;2214;2215;2215;2216;2216;2217;2217;2218;2218;2219;2219;2220;2220;2221;2221;2222;2222;2223;2223;2224;2224;2225;2225;2226;2226;2227;2227;2228;2228;2229;2229;2228;2072;2071;2071;2070;2070;2069;2069;2068;2068;2067;2067;2067;2066;2066;2065;2065;2064;2064;2063;2063;2062;2062;2061;2061;2060;2060;2059;2059;2058;2058;2057;2057;2056", 
                "confidence": 1.0
            }, 
            {
                "class": "Text", 
                "height": 29, 
                "width": 193, 
                "x": 1246, 
                "y": 172, 
                "text": "alfresco", 
                "confidence": "0.86"
            }, 
            {
                "class": "Text", 
                "height": 29, 
                "width": 115, 
                "x": 587, 
                "y": 486, 
                "text": "living", 
                "confidence": "0.82"
            }, 
            {
                "class": "Text", 
                "height": 29, 
                "width": 121, 
                "x": 1254, 
                "y": 580, 
                "text": "meals", 
                "confidence": "0.8"
            }, 
            {
                "class": "Text", 
                "height": 30, 
                "width": 62, 
                "x": 683, 
                "y": 854, 
                "text": "wc", 
                "confidence": "0.9"
            }, 
            {
                "class": "Text", 
                "height": 29, 
                "width": 102, 
                "x": 2271, 
                "y": 982, 
                "text": "bed 3", 
                "confidence": "0.87"
            }, 
            {
                "class": "Text", 
                "height": 29, 
                "width": 100, 
                "x": 2781, 
                "y": 955, 
                "text": "ens 3", 
                "confidence": "0.72"
            }, 
            {
                "class": "Text", 
                "height": 29, 
                "width": 101, 
                "x": 3284, 
                "y": 1123, 
                "text": "ens 4", 
                "confidence": "0.87"
            }, 
            {
                "class": "Text", 
                "height": 27, 
                "width": 99, 
                "x": 3044, 
                "y": 1240, 
                "text": "wir 4", 
                "confidence": "0.71"
            }, 
            {
                "class": "Text", 
                "height": 30, 
                "width": 260, 
                "x": 355, 
                "y": 1339, 
                "text": "mastersuite", 
                "confidence": "0.87"
            }, 
            {
                "class": "Text", 
                "height": 29, 
                "width": 100, 
                "x": 2219, 
                "y": 1336, 
                "text": "dn 2", 
                "confidence": "0.82"
            }, 
            {
                "class": "Text", 
                "height": 28, 
                "width": 68, 
                "x": 2544, 
                "y": 1320, 
                "text": "wc", 
                "confidence": "0.73"
            }, 
            {
                "class": "Text", 
                "height": 27, 
                "width": 69, 
                "x": 1116, 
                "y": 1568, 
                "text": "pdr", 
                "confidence": "0.88"
            }, 
            {
                "class": "Text", 
                "height": 29, 
                "width": 103, 
                "x": 2330, 
                "y": 1676, 
                "text": "bed 2", 
                "confidence": "0.9"
            }, 
            {
                "class": "Text", 
                "height": 29, 
                "width": 69, 
                "x": 332, 
                "y": 1735, 
                "text": "wir", 
                "confidence": "0.86"
            }, 
            {
                "class": "Text", 
                "height": 42, 
                "width": 150, 
                "x": 607, 
                "y": 1773, 
                "text": "foyer", 
                "confidence": "0.67"
            }, 
            {
                "class": "Text", 
                "height": 29, 
                "width": 174, 
                "x": 1352, 
                "y": 1773, 
                "text": "laundry", 
                "confidence": "0.86"
            }, 
            {
                "class": "Text", 
                "height": 29, 
                "width": 320, 
                "x": 226, 
                "y": 2267, 
                "text": "doublegarage", 
                "confidence": "0.81"
            }, 
            {
                "class": "Text", 
                "height": 28, 
                "width": 118, 
                "x": 847, 
                "y": 2386, 
                "text": "entry", 
                "confidence": "0.85"
            }, 
            {
                "class": "Text", 
                "height": 29, 
                "width": 165, 
                "x": 3134, 
                "y": 2450, 
                "text": "activity", 
                "confidence": "0.84"
            }, 
            {
                "class": "Text", 
                "height": 29, 
                "width": 156, 
                "x": 1247, 
                "y": 2508, 
                "text": "lounge", 
                "confidence": "0.76"
            }, 
            {
                "class": "Text", 
                "height": 30, 
                "width": 100, 
                "x": 2269, 
                "y": 2557, 
                "text": "ens 5", 
                "confidence": "0.86"
            }, 
            {
                "class": "Text", 
                "height": 29, 
                "width": 126, 
                "x": 815, 
                "y": 2804, 
                "text": "porch", 
                "confidence": "0.8"
            }, 
            {
                "class": "Text", 
                "height": 73, 
                "width": 73, 
                "x": 1493, 
                "y": 2743, 
                "text": "cl", 
                "confidence": "0.77"
            }, 
            {
                "class": "Text", 
                "height": 29, 
                "width": 18, 
                "x": 2526, 
                "y": 2432, 
                "text": "cl", 
                "confidence": "0.81"
            }
        ], 
        "class": "image", 
        "filename": "61.png"
    }
]