[
    {
        "annotations": [
            {
                "class": "Room", 
                "type": "single", 
                "xn": "501;501;500;495;494;487;487;552;552;546;545", 
                "yn": "805;806;807;807;808;808;854;854;806;806;805", 
                "text": "unknown room", 
                "x": 519, 
                "y": 829
            }, 
            {
                "class": "Room", 
                "type": "open", 
                "xn": "581;582;744;745;745;746;751;752;752;753;786;787;787;786;779;778;778;779;785;786;786;785;573;572;572;573;580;581", 
                "yn": "866;865;865;866;950;951;951;950;866;865;865;866;934;935;935;936;947;948;948;949;1070;1071;1071;1070;936;935;935;934", 
                "text": "store", 
                "x": 682, 
                "y": 985
            }, 
            {
                "class": "Room", 
                "type": "open", 
                "xn": "414;415;474;475;475;476;477;478;478;479;569;570;570;569;558;557;557;556;435;434;434;433;433;432;432;431;431;430;430;429;429;428;428;427;427;426;426;425;425;424;424;423;423;422;422;421;421;420;420;419;419;418;418;417;417;416;416;415;415;414", 
                "yn": "795;794;794;795;864;865;865;866;934;935;935;936;1017;1018;1018;1019;1040;1041;1041;1040;919;918;913;912;907;906;901;900;894;893;888;887;882;881;875;874;869;868;863;862;857;856;850;849;844;843;838;837;831;830;825;824;819;818;812;811;806;805;800;799", 
                "text": "up", 
                "x": 463, 
                "y": 900
            }, 
            {
                "class": "Room", 
                "type": "open", 
                "xn": "278;279;320;321;321;322;331;332;332;333;412;413;413;414;414;415;415;416;416;417;417;418;418;419;419;420;420;421;421;422;422;423;423;424;424;425;425;426;426;427;427;428;428;429;429;430;430;431;431;432;432;431;279;278;278;279;330;331;331;330;322;321;321;320;279;278", 
                "yn": "791;790;790;791;800;801;801;800;795;794;794;795;799;800;805;806;811;812;818;819;824;825;830;831;837;838;843;844;849;850;855;856;862;863;868;869;874;875;881;882;887;888;893;894;900;901;906;907;912;913;1040;1041;1041;1040;865;864;864;863;847;846;846;847;851;852;852;851", 
                "text": "foyer", 
                "x": 386, 
                "y": 919
            }, 
            {
                "class": "Room", 
                "type": "open", 
                "xn": "938;939;1053;1054;1054;1053;883;882;882;883;937;938", 
                "yn": "648;647;647;648;773;774;774;773;657;656;656;655", 
                "text": "eat", 
                "x": 952, 
                "y": 686
            }, 
            {
                "class": "Room", 
                "type": "open", 
                "xn": "798;799;1053;1054;1054;1053;883;882;882;881;799;798", 
                "yn": "266;265;265;266;644;645;645;644;488;487;487;486", 
                "text": "toilet", 
                "x": 950, 
                "y": 565
            }, 
            {
                "class": "Door", 
                "xn": "746;751;751;746", 
                "yn": "862;862;945;945", 
                "confidence": 1.0
            }, 
            {
                "class": "Door", 
                "xn": "941;1049;1049;941", 
                "yn": "633;633;650;650", 
                "confidence": 0.866666666667
            }, 
            {
                "class": "Window", 
                "xn": "804;864;864;804", 
                "yn": "489;489;498;498", 
                "confidence": 1.0
            }, 
            {
                "class": "Window", 
                "xn": "787;801;801;787", 
                "yn": "945;945;1018;1018", 
                "confidence": 1.0
            }, 
            {
                "class": "Window", 
                "xn": "345;488;488;345", 
                "yn": "1043;1043;1055;1055", 
                "confidence": 1.0
            }, 
            {
                "class": "Window", 
                "xn": "92;104;104;92", 
                "yn": "691;691;749;749", 
                "confidence": 1.0
            }, 
            {
                "class": "Window", 
                "xn": "569;711;711;569", 
                "yn": "251;251;263;263", 
                "confidence": 1.0
            }, 
            {
                "class": "Window", 
                "xn": "221;315;315;221", 
                "yn": "348;348;360;360", 
                "confidence": 1.0
            }, 
            {
                "class": "Window", 
                "xn": "262;275;275;262", 
                "yn": "862;862;989;989", 
                "confidence": 1.0
            }, 
            {
                "class": "Window", 
                "xn": "342;465;465;342", 
                "yn": "777;777;788;788", 
                "confidence": 1.0
            }, 
            {
                "class": "Window", 
                "xn": "499;546;546;499", 
                "yn": "799;799;805;805", 
                "confidence": 1.0
            }, 
            {
                "class": "Window", 
                "xn": "891;960;960;891", 
                "yn": "251;251;263;263", 
                "confidence": 1.0
            }, 
            {
                "class": "Window", 
                "xn": "788;800;800;788", 
                "yn": "952;952;1018;1018", 
                "confidence": 1.0
            }, 
            {
                "class": "Window", 
                "xn": "342;465;465;342", 
                "yn": "777;777;792;792", 
                "confidence": 1.0
            }, 
            {
                "class": "Window", 
                "xn": "124;242;242;124", 
                "yn": "775;775;787;787", 
                "confidence": 1.0
            }, 
            {
                "class": "Window", 
                "xn": "872;880;880;872", 
                "yn": "662;662;719;719", 
                "confidence": 1.0
            }, 
            {
                "class": "Window", 
                "xn": "1055;1067;1067;1055", 
                "yn": "616;616;657;657", 
                "confidence": 1.0
            }, 
            {
                "class": "Wall", 
                "xn": "479;494;494;479", 
                "yn": "762;762;807;807", 
                "confidence": 1.0
            }, 
            {
                "class": "Wall", 
                "xn": "322;343;343;322", 
                "yn": "776;776;792;792", 
                "confidence": 1.0
            }, 
            {
                "class": "Wall", 
                "xn": "480;570;570;480", 
                "yn": "252;252;265;265", 
                "confidence": 1.0
            }, 
            {
                "class": "Wall", 
                "xn": "465;494;494;465", 
                "yn": "778;778;792;792", 
                "confidence": 1.0
            }, 
            {
                "class": "Wall", 
                "xn": "788;801;801;788", 
                "yn": "1018;1018;1084;1084", 
                "confidence": 1.0
            }, 
            {
                "class": "Wall", 
                "xn": "263;275;275;263", 
                "yn": "989;989;1055;1055", 
                "confidence": 1.0
            }, 
            {
                "class": "Wall", 
                "xn": "960;1068;1068;960", 
                "yn": "252;252;263;263", 
                "confidence": 1.0
            }, 
            {
                "class": "Wall", 
                "xn": "558;801;801;558", 
                "yn": "1073;1073;1084;1084", 
                "confidence": 1.0
            }, 
            {
                "class": "Wall", 
                "xn": "789;800;800;789", 
                "yn": "564;564;953;953", 
                "confidence": 1.0
            }, 
            {
                "class": "Wall", 
                "xn": "92;222;222;92", 
                "yn": "349;349;360;360", 
                "confidence": 1.0
            }, 
            {
                "class": "Wall", 
                "xn": "265;276;276;265", 
                "yn": "776;776;892;892", 
                "confidence": 1.0
            }, 
            {
                "class": "Wall", 
                "xn": "788;1068;1068;788", 
                "yn": "776;776;788;788", 
                "confidence": 1.0
            }, 
            {
                "class": "Wall", 
                "xn": "711;892;892;711", 
                "yn": "252;252;263;263", 
                "confidence": 1.0
            }, 
            {
                "class": "Wall", 
                "xn": "93;104;104;93", 
                "yn": "349;349;692;692", 
                "confidence": 1.0
            }, 
            {
                "class": "Wall", 
                "xn": "1056;1067;1067;1056", 
                "yn": "252;252;617;617", 
                "confidence": 1.0
            }, 
            {
                "class": "Wall", 
                "xn": "263;346;346;263", 
                "yn": "1043;1043;1055;1055", 
                "confidence": 1.0
            }, 
            {
                "class": "Wall", 
                "xn": "92;125;125;92", 
                "yn": "775;775;787;787", 
                "confidence": 1.0
            }, 
            {
                "class": "Wall", 
                "xn": "1056;1067;1067;1056", 
                "yn": "657;657;862;862", 
                "confidence": 1.0
            }, 
            {
                "class": "Wall", 
                "xn": "559;570;570;559", 
                "yn": "1020;1020;1199;1199", 
                "confidence": 1.0
            }, 
            {
                "class": "Wall", 
                "xn": "93;104;104;93", 
                "yn": "749;749;787;787", 
                "confidence": 1.0
            }, 
            {
                "class": "Wall", 
                "xn": "242;343;343;242", 
                "yn": "776;776;788;788", 
                "confidence": 1.0
            }, 
            {
                "class": "Wall", 
                "xn": "488;571;571;488", 
                "yn": "1044;1044;1055;1055", 
                "confidence": 1.0
            }, 
            {
                "class": "Wall", 
                "xn": "263;331;331;263", 
                "yn": "854;854;863;863", 
                "confidence": 1.0
            }, 
            {
                "class": "Wall", 
                "xn": "872;937;937;872", 
                "yn": "647;647;655;655", 
                "confidence": 1.0
            }, 
            {
                "class": "Wall", 
                "xn": "862;881;881;862", 
                "yn": "724;724;734;734", 
                "confidence": 1.0
            }, 
            {
                "class": "Wall", 
                "xn": "553;561;561;553", 
                "yn": "800;800;863;863", 
                "confidence": 1.0
            }, 
            {
                "class": "Wall", 
                "xn": "477;801;801;477", 
                "yn": "855;855;863;863", 
                "confidence": 1.0
            }, 
            {
                "class": "Wall", 
                "xn": "657;674;674;657", 
                "yn": "893;893;905;905", 
                "confidence": 1.0
            }, 
            {
                "class": "Wall", 
                "xn": "315;324;324;315", 
                "yn": "349;349;360;360", 
                "confidence": 1.0
            }, 
            {
                "class": "Wall", 
                "xn": "563;580;580;563", 
                "yn": "893;893;905;905", 
                "confidence": 1.0
            }, 
            {
                "class": "Wall", 
                "xn": "478;486;486;478", 
                "yn": "762;762;863;863", 
                "confidence": 1.0
            }, 
            {
                "class": "Wall", 
                "xn": "788;805;805;788", 
                "yn": "489;489;498;498", 
                "confidence": 1.0
            }, 
            {
                "class": "Wall", 
                "xn": "864;881;881;864", 
                "yn": "490;490;498;498", 
                "confidence": 1.0
            }, 
            {
                "class": "Wall", 
                "xn": "780;801;801;780", 
                "yn": "937;937;946;946", 
                "confidence": 1.0
            }, 
            {
                "class": "Wall", 
                "xn": "788;808;808;788", 
                "yn": "724;724;734;734", 
                "confidence": 1.0
            }, 
            {
                "class": "Wall", 
                "xn": "484;493;493;484", 
                "yn": "252;252;271;271", 
                "confidence": 1.0
            }, 
            {
                "class": "Wall", 
                "xn": "477;500;500;477", 
                "yn": "799;799;806;806", 
                "confidence": 1.0
            }, 
            {
                "class": "Wall", 
                "xn": "323;330;330;323", 
                "yn": "776;776;799;799", 
                "confidence": 1.0
            }, 
            {
                "class": "Wall", 
                "xn": "480;494;494;480", 
                "yn": "265;265;269;269", 
                "confidence": 1.0
            }, 
            {
                "class": "Wall", 
                "xn": "873;880;880;873", 
                "yn": "719;719;787;787", 
                "confidence": 1.0
            }, 
            {
                "class": "Wall", 
                "xn": "789;796;796;789", 
                "yn": "252;252;503;503", 
                "confidence": 1.0
            }, 
            {
                "class": "Wall", 
                "xn": "562;566;566;562", 
                "yn": "1200;1200;1588;1588", 
                "confidence": 1.0
            }, 
            {
                "class": "Wall", 
                "xn": "323;330;330;323", 
                "yn": "847;847;863;863", 
                "confidence": 1.0
            }, 
            {
                "class": "Wall", 
                "xn": "873;880;880;873", 
                "yn": "490;490;663;663", 
                "confidence": 1.0
            }, 
            {
                "class": "Wall", 
                "xn": "546;562;562;546", 
                "yn": "800;800;805;805", 
                "confidence": 1.0
            }, 
            {
                "class": "Wall", 
                "xn": "559;566;566;559", 
                "yn": "1589;1589;1640;1640", 
                "confidence": 1.0
            }, 
            {
                "class": "Wall", 
                "xn": "558;742;742;558", 
                "yn": "1633;1633;1640;1640", 
                "confidence": 1.0
            }, 
            {
                "class": "Wall", 
                "xn": "747;751;751;747", 
                "yn": "945;945;949;949", 
                "confidence": 1.0
            }, 
            {
                "class": "Stair", 
                "xn": "479;480;579;580;580;579;480;479", 
                "yn": "863;862;862;863;933;934;934;933", 
                "confidence": 1.0
            }, 
            {
                "class": "Text", 
                "height": 52, 
                "width": 93, 
                "x": 243, 
                "y": 531, 
                "text": "greatroom", 
                "confidence": "0.87"
            }, 
            {
                "class": "Text", 
                "height": 15, 
                "width": 28, 
                "x": 936, 
                "y": 558, 
                "text": "wc", 
                "confidence": "0.8"
            }, 
            {
                "class": "Text", 
                "height": 44, 
                "width": 64, 
                "x": 920, 
                "y": 664, 
                "text": "eat", 
                "confidence": "0.72"
            }, 
            {
                "class": "Text", 
                "height": 22, 
                "width": 128, 
                "x": 577, 
                "y": 732, 
                "text": "kitchen", 
                "confidence": "0.89"
            }, 
            {
                "class": "Text", 
                "height": 15, 
                "width": 45, 
                "x": 812, 
                "y": 752, 
                "text": "linen", 
                "confidence": "0.76"
            }, 
            {
                "class": "Text", 
                "height": 19, 
                "width": 88, 
                "x": 132, 
                "y": 834, 
                "text": "porch", 
                "confidence": "0.85"
            }, 
            {
                "class": "Text", 
                "height": 19, 
                "width": 22, 
                "x": 452, 
                "y": 891, 
                "text": "up", 
                "confidence": "0.9"
            }, 
            {
                "class": "Text", 
                "height": 19, 
                "width": 85, 
                "x": 344, 
                "y": 910, 
                "text": "foyer", 
                "confidence": "0.91"
            }, 
            {
                "class": "Text", 
                "height": 16, 
                "width": 44, 
                "x": 660, 
                "y": 977, 
                "text": "store", 
                "confidence": "0.7"
            }, 
            {
                "class": "Text", 
                "height": 22, 
                "width": 224, 
                "x": 702, 
                "y": 1337, 
                "text": "cargarage", 
                "confidence": "0.88"
            }, 
            {
                "class": "Unknown", 
                "xn": "478;559;559;478", 
                "yn": "808;808;849;849"
            }
        ], 
        "class": "image", 
        "filename": "85.png"
    }
]