[
    {
        "annotations": [
            {
                "class": "Room", 
                "type": "single", 
                "xn": "423;423;585;585", 
                "yn": "662;711;711;662", 
                "text": "stoop", 
                "x": 506, 
                "y": 690
            }, 
            {
                "class": "Room", 
                "type": "single", 
                "xn": "487;487;514;514", 
                "yn": "290;359;359;290", 
                "text": "unknown room", 
                "x": 500, 
                "y": 324
            }, 
            {
                "class": "Room", 
                "type": "single", 
                "xn": "486;486;487;487;488;488;487;487;514;514", 
                "yn": "148;233;234;265;266;270;271;284;284;148", 
                "text": "unknown room", 
                "x": 500, 
                "y": 215
            }, 
            {
                "class": "Room", 
                "type": "single", 
                "xn": "136;136;523;523", 
                "yn": "46;129;129;46", 
                "text": "unknown room", 
                "x": 329, 
                "y": 87
            }, 
            {
                "class": "Room", 
                "type": "single", 
                "xn": "986;986;1058;1058", 
                "yn": "392;650;650;392", 
                "text": "unknown room", 
                "x": 1022, 
                "y": 521
            }, 
            {
                "class": "Room", 
                "type": "single", 
                "xn": "986;986;1058;1058", 
                "yn": "336;344;344;336", 
                "text": "unknown room", 
                "x": 1022, 
                "y": 340
            }, 
            {
                "class": "Room", 
                "type": "single", 
                "xn": "986;986;1058;1058", 
                "yn": "322;330;330;322", 
                "text": "unknown room", 
                "x": 1022, 
                "y": 326
            }, 
            {
                "class": "Room", 
                "type": "single", 
                "xn": "686;686;685;674;674;704;704", 
                "yn": "235;238;239;239;265;265;235", 
                "text": "unknown room", 
                "x": 689, 
                "y": 250
            }, 
            {
                "class": "Room", 
                "type": "single", 
                "xn": "968;968;974;975;975;974;968;968;979;980;980;979;942;941;941;873;873;872;872;871;862;861;861;814;814;813;804;803;803;717;717;803;803;804;813;814;814;861;861;862;871;872;872;873;873;872;705;704;704;674;674;685;686;686;685;674;674;975;975;974;974;975;975;974;974;975;975;974;974;975;975;974;974;975;975;974;974;975;975;974;974;938;937;937;938;975;976;985;987;987;1058;1058;1021;1020;1020;1021;1058;1058", 
                "yn": "130;158;158;159;163;164;164;231;231;232;243;244;244;243;234;234;237;238;250;251;251;250;238;238;256;257;257;256;238;238;305;305;289;288;288;289;305;305;294;293;293;294;305;306;316;317;317;316;278;278;305;305;306;317;318;318;650;650;392;391;386;385;378;377;372;371;364;363;358;357;350;349;345;344;336;335;331;330;322;321;318;318;317;307;306;306;305;305;307;316;316;245;245;244;232;231;231;130", 
                "text": "bedroom", 
                "x": 833, 
                "y": 502
            }, 
            {
                "class": "Room", 
                "type": "open", 
                "xn": "675;676;953;954;954;955;962;963;963;962;962;961;961;960;953;952;952;951;874;872;872;870;703;702;702;701;688;687;687;686;676;675", 
                "yn": "55;54;54;55;73;74;74;75;86;87;101;102;103;104;104;105;228;229;229;227;226;224;224;225;229;230;230;229;225;224;224;223", 
                "text": "bedroom", 
                "x": 810, 
                "y": 139
            }, 
            {
                "class": "Window", 
                "xn": "478;487;487;478", 
                "yn": "269;269;360;360", 
                "confidence": 1.0
            }, 
            {
                "class": "Window", 
                "xn": "482;486;486;482", 
                "yn": "146;146;234;234", 
                "confidence": 1.0
            }, 
            {
                "class": "Wall", 
                "xn": "663;1070;1070;663", 
                "yn": "33;33;43;43", 
                "confidence": 1.0
            }, 
            {
                "class": "Wall", 
                "xn": "1059;1069;1069;1059", 
                "yn": "33;33;661;661", 
                "confidence": 1.0
            }, 
            {
                "class": "Wall", 
                "xn": "663;1070;1070;663", 
                "yn": "651;651;661;661", 
                "confidence": 1.0
            }, 
            {
                "class": "Wall", 
                "xn": "663;673;673;663", 
                "yn": "33;33;661;661", 
                "confidence": 1.0
            }, 
            {
                "class": "Wall", 
                "xn": "1021;1070;1070;1021", 
                "yn": "232;232;244;244", 
                "confidence": 1.0
            }, 
            {
                "class": "Wall", 
                "xn": "942;979;979;942", 
                "yn": "232;232;243;243", 
                "confidence": 1.0
            }, 
            {
                "class": "Wall", 
                "xn": "705;872;872;705", 
                "yn": "306;306;316;316", 
                "confidence": 1.0
            }, 
            {
                "class": "Wall", 
                "xn": "956;967;967;956", 
                "yn": "108;108;243;243", 
                "confidence": 1.0
            }, 
            {
                "class": "Wall", 
                "xn": "705;716;716;705", 
                "yn": "228;228;316;316", 
                "confidence": 1.0
            }, 
            {
                "class": "Wall", 
                "xn": "705;872;872;705", 
                "yn": "228;228;237;237", 
                "confidence": 1.0
            }, 
            {
                "class": "Wall", 
                "xn": "976;985;985;976", 
                "yn": "306;306;661;661", 
                "confidence": 1.0
            }, 
            {
                "class": "Wall", 
                "xn": "862;871;871;862", 
                "yn": "228;228;250;250", 
                "confidence": 1.0
            }, 
            {
                "class": "Wall", 
                "xn": "955;1070;1070;955", 
                "yn": "120;120;129;129", 
                "confidence": 1.0
            }, 
            {
                "class": "Wall", 
                "xn": "956;965;965;956", 
                "yn": "33;33;73;73", 
                "confidence": 1.0
            }, 
            {
                "class": "Wall", 
                "xn": "938;986;986;938", 
                "yn": "307;307;317;317", 
                "confidence": 1.0
            }, 
            {
                "class": "Wall", 
                "xn": "804;813;813;804", 
                "yn": "289;289;316;316", 
                "confidence": 1.0
            }, 
            {
                "class": "Wall", 
                "xn": "662;716;716;662", 
                "yn": "266;266;277;277", 
                "confidence": 1.0
            }, 
            {
                "class": "Wall", 
                "xn": "862;871;871;862", 
                "yn": "294;294;316;316", 
                "confidence": 1.0
            }, 
            {
                "class": "Wall", 
                "xn": "804;813;813;804", 
                "yn": "228;228;256;256", 
                "confidence": 1.0
            }, 
            {
                "class": "Wall", 
                "xn": "662;685;685;662", 
                "yn": "306;306;317;317", 
                "confidence": 1.0
            }, 
            {
                "class": "Wall", 
                "xn": "662;685;685;662", 
                "yn": "227;227;238;238", 
                "confidence": 1.0
            }, 
            {
                "class": "Wall", 
                "xn": "515;532;532;515", 
                "yn": "130;130;661;661", 
                "confidence": 1.0
            }, 
            {
                "class": "Wall", 
                "xn": "440;532;532;440", 
                "yn": "464;464;478;478", 
                "confidence": 1.0
            }, 
            {
                "class": "Wall", 
                "xn": "362;532;532;362", 
                "yn": "360;360;373;373", 
                "confidence": 1.0
            }, 
            {
                "class": "Wall", 
                "xn": "125;532;532;125", 
                "yn": "130;130;140;140", 
                "confidence": 1.0
            }, 
            {
                "class": "Wall", 
                "xn": "246;591;591;246", 
                "yn": "651;651;661;661", 
                "confidence": 1.0
            }, 
            {
                "class": "Wall", 
                "xn": "125;211;211;125", 
                "yn": "650;650;661;661", 
                "confidence": 1.0
            }, 
            {
                "class": "Wall", 
                "xn": "362;433;433;362", 
                "yn": "289;289;300;300", 
                "confidence": 1.0
            }, 
            {
                "class": "Wall", 
                "xn": "422;433;433;422", 
                "yn": "289;289;373;373", 
                "confidence": 1.0
            }, 
            {
                "class": "Wall", 
                "xn": "362;433;433;362", 
                "yn": "326;326;336;336", 
                "confidence": 1.0
            }, 
            {
                "class": "Wall", 
                "xn": "440;532;532;440", 
                "yn": "407;407;418;418", 
                "confidence": 1.0
            }, 
            {
                "class": "Wall", 
                "xn": "126;135;135;126", 
                "yn": "41;41;661;661", 
                "confidence": 1.0
            }, 
            {
                "class": "Wall", 
                "xn": "441;450;450;441", 
                "yn": "460;460;569;569", 
                "confidence": 1.0
            }, 
            {
                "class": "Wall", 
                "xn": "365;372;372;365", 
                "yn": "289;289;307;307", 
                "confidence": 1.0
            }, 
            {
                "class": "Wall", 
                "xn": "199;210;210;199", 
                "yn": "644;644;661;661", 
                "confidence": 1.0
            }, 
            {
                "class": "Wall", 
                "xn": "1055;1070;1070;1055", 
                "yn": "96;96;101;101", 
                "confidence": 1.0
            }, 
            {
                "class": "Wall", 
                "xn": "975;1070;1070;975", 
                "yn": "331;331;335;335", 
                "confidence": 1.0
            }, 
            {
                "class": "Wall", 
                "xn": "975;1070;1070;975", 
                "yn": "386;386;391;391", 
                "confidence": 1.0
            }, 
            {
                "class": "Wall", 
                "xn": "975;1070;1070;975", 
                "yn": "317;317;321;321", 
                "confidence": 1.0
            }, 
            {
                "class": "Wall", 
                "xn": "975;1070;1070;975", 
                "yn": "372;372;377;377", 
                "confidence": 1.0
            }, 
            {
                "class": "Wall", 
                "xn": "975;1070;1070;975", 
                "yn": "345;345;349;349", 
                "confidence": 1.0
            }, 
            {
                "class": "Wall", 
                "xn": "975;1070;1070;975", 
                "yn": "358;358;363;363", 
                "confidence": 1.0
            }, 
            {
                "class": "Wall", 
                "xn": "970;973;973;970", 
                "yn": "181;181;206;206", 
                "confidence": 1.0
            }, 
            {
                "class": "Wall", 
                "xn": "955;974;974;955", 
                "yn": "159;159;163;163", 
                "confidence": 1.0
            }, 
            {
                "class": "Wall", 
                "xn": "484;532;532;484", 
                "yn": "285;285;289;289", 
                "confidence": 1.0
            }, 
            {
                "class": "Wall", 
                "xn": "440;532;532;440", 
                "yn": "498;498;502;502", 
                "confidence": 1.0
            }, 
            {
                "class": "Wall", 
                "xn": "440;532;532;440", 
                "yn": "539;539;544;544", 
                "confidence": 1.0
            }, 
            {
                "class": "Wall", 
                "xn": "445;532;532;445", 
                "yn": "568;568;571;571", 
                "confidence": 1.0
            }, 
            {
                "class": "Wall", 
                "xn": "440;532;532;440", 
                "yn": "525;525;530;530", 
                "confidence": 1.0
            }, 
            {
                "class": "Wall", 
                "xn": "440;532;532;440", 
                "yn": "484;484;488;488", 
                "confidence": 1.0
            }, 
            {
                "class": "Wall", 
                "xn": "480;532;532;480", 
                "yn": "143;143;147;147", 
                "confidence": 1.0
            }, 
            {
                "class": "Wall", 
                "xn": "492;512;512;492", 
                "yn": "257;257;261;261", 
                "confidence": 1.0
            }, 
            {
                "class": "Wall", 
                "xn": "440;532;532;440", 
                "yn": "512;512;516;516", 
                "confidence": 1.0
            }, 
            {
                "class": "Wall", 
                "xn": "440;532;532;440", 
                "yn": "553;553;558;558", 
                "confidence": 1.0
            }, 
            {
                "class": "Wall", 
                "xn": "524;528;528;524", 
                "yn": "41;41;661;661", 
                "confidence": 1.0
            }, 
            {
                "class": "Wall", 
                "xn": "418;422;422;418", 
                "yn": "651;651;716;716", 
                "confidence": 1.0
            }, 
            {
                "class": "Wall", 
                "xn": "586;590;590;586", 
                "yn": "654;654;716;716", 
                "confidence": 1.0
            }, 
            {
                "class": "Wall", 
                "xn": "249;255;255;249", 
                "yn": "644;644;661;661", 
                "confidence": 1.0
            }, 
            {
                "class": "Wall", 
                "xn": "440;451;451;440", 
                "yn": "418;418;422;422", 
                "confidence": 1.0
            }, 
            {
                "class": "Wall", 
                "xn": "443;447;447;443", 
                "yn": "407;407;422;422", 
                "confidence": 1.0
            }, 
            {
                "class": "Wall", 
                "xn": "127;529;529;127", 
                "yn": "41;41;45;45", 
                "confidence": 1.0
            }, 
            {
                "class": "Wall", 
                "xn": "483;486;486;483", 
                "yn": "234;234;287;287", 
                "confidence": 1.0
            }, 
            {
                "class": "Wall", 
                "xn": "489;492;492;489", 
                "yn": "269;269;283;283", 
                "confidence": 1.0
            }, 
            {
                "class": "Wall", 
                "xn": "417;591;591;417", 
                "yn": "712;712;716;716", 
                "confidence": 1.0
            }, 
            {
                "class": "Wall", 
                "xn": "489;496;496;489", 
                "yn": "269;269;275;275", 
                "confidence": 1.0
            }, 
            {
                "class": "Wall", 
                "xn": "479;487;487;479", 
                "yn": "266;266;270;270", 
                "confidence": 1.0
            }, 
            {
                "class": "Wall", 
                "xn": "870;955;955;870", 
                "yn": "234;234;230;230", 
                "confidence": 1.0
            }, 
            {
                "class": "Wall", 
                "xn": "683;705;705;683", 
                "yn": "235;235;231;231", 
                "confidence": 1.0
            }, 
            {
                "class": "Stair", 
                "xn": "449;450;520;521;521;520;450;449", 
                "yn": "477;476;476;477;566;567;567;566", 
                "confidence": 1.0
            }, 
            {
                "class": "Text", 
                "height": 28, 
                "width": 71, 
                "x": 981, 
                "y": 74, 
                "text": "clos", 
                "confidence": "0.82"
            }, 
            {
                "class": "Text", 
                "height": 27, 
                "width": 150, 
                "x": 735, 
                "y": 126, 
                "text": "bedroom", 
                "confidence": "0.91"
            }, 
            {
                "class": "Text", 
                "height": 31, 
                "width": 101, 
                "x": 161, 
                "y": 260, 
                "text": "dining", 
                "confidence": "0.93"
            }, 
            {
                "class": "Text", 
                "height": 29, 
                "width": 76, 
                "x": 397, 
                "y": 427, 
                "text": "bath", 
                "confidence": "0.88"
            }, 
            {
                "class": "Text", 
                "height": 27, 
                "width": 206, 
                "x": 203, 
                "y": 508, 
                "text": "livingroom", 
                "confidence": "0.9"
            }, 
            {
                "class": "Text", 
                "height": 27, 
                "width": 151, 
                "x": 758, 
                "y": 489, 
                "text": "bedroom", 
                "confidence": "0.63"
            }, 
            {
                "class": "Text", 
                "height": 33, 
                "width": 95, 
                "x": 459, 
                "y": 674, 
                "text": "stoop", 
                "confidence": "0.85"
            }, 
            {
                "class": "Unknown", 
                "xn": "455;544;544;455", 
                "yn": "301;301;346;346"
            }, 
            {
                "class": "Unknown", 
                "xn": "455;544;544;455", 
                "yn": "192;192;237;237"
            }, 
            {
                "class": "Unknown", 
                "xn": "284;373;373;284", 
                "yn": "64;64;109;109"
            }, 
            {
                "class": "Unknown", 
                "xn": "977;1066;1066;977", 
                "yn": "498;498;543;543"
            }, 
            {
                "class": "Unknown", 
                "xn": "977;1066;1066;977", 
                "yn": "317;317;362;362"
            }, 
            {
                "class": "Unknown", 
                "xn": "977;1066;1066;977", 
                "yn": "303;303;348;348"
            }, 
            {
                "class": "Unknown", 
                "xn": "644;733;733;644", 
                "yn": "227;227;272;272"
            }
        ], 
        "class": "image", 
        "filename": "90.png"
    }
]