[
    {
        "annotations": [
            {
                "class": "Room", 
                "type": "single", 
                "xn": "1979;1979;1980;1980;1979;1953;1952;1856;1856;1855;1838;1838;2048;2049;2331;2331", 
                "yn": "2632;2641;2642;2667;2668;2668;2667;2667;2668;2669;2669;2978;2978;2977;2977;2632", 
                "text": "bedroom 2", 
                "x": 2109, 
                "y": 2783
            }, 
            {
                "class": "Room", 
                "type": "single", 
                "xn": "1979;1979;1980;1980;2329;2329", 
                "yn": "2556;2592;2593;2628;2628;2556", 
                "text": "closet", 
                "x": 2151, 
                "y": 2594
            }, 
            {
                "class": "Room", 
                "type": "single", 
                "xn": "1449;1449;1448;1448;1728;1729;1830;1830;1829;1829;1828;1828", 
                "yn": "2543;2550;2551;2977;2977;2978;2978;2669;2668;2643;2642;2543", 
                "text": "bedroom 1", 
                "x": 1623, 
                "y": 2777
            }, 
            {
                "class": "Room", 
                "type": "single", 
                "xn": "1448;1448;1449;1449;1828;1828", 
                "yn": "2468;2506;2507;2539;2539;2468", 
                "text": "closet", 
                "x": 1632, 
                "y": 2499
            }, 
            {
                "class": "Room", 
                "type": "single", 
                "xn": "1980;1980;1979;1978;1978;1979;1979;2331;2331;2330;2330;2331;2331", 
                "yn": "2313;2413;2414;2414;2512;2513;2547;2547;2513;2512;2441;2440;2313", 
                "text": "bathroom", 
                "x": 2162, 
                "y": 2434
            }, 
            {
                "class": "Room", 
                "type": "single", 
                "xn": "1537;1537;1538;1538;1828;1828", 
                "yn": "2131;2167;2168;2203;2203;2131", 
                "text": "closet", 
                "x": 1685, 
                "y": 2168
            }, 
            {
                "class": "Room", 
                "type": "single", 
                "xn": "1980;1980;1979;1979;2331;2331;2330;2330;2331;2331", 
                "yn": "1953;2206;2207;2305;2305;2206;2205;2063;2062;1953", 
                "text": "office", 
                "x": 2159, 
                "y": 2104
            }, 
            {
                "class": "Room", 
                "type": "single", 
                "xn": "1738;1737;1430;1430;1429;1429;1430;1431;1431;1430;1430;1447;1448;1448;1853;1854;1952;1953;2136;2136;2135;2135;2136;2136;1830;1829", 
                "yn": "694;695;695;937;938;1207;1207;1208;1426;1427;1520;1520;1521;1697;1697;1696;1696;1697;1697;1515;1514;788;787;695;695;694", 
                "text": "garage", 
                "x": 1670, 
                "y": 1129
            }, 
            {
                "class": "Room", 
                "type": "single", 
                "xn": "1449;1450;1827;1828;1828;1827;1450;1449", 
                "yn": "2215;2214;2214;2215;2457;2458;2458;2457", 
                "text": "cellar", 
                "x": 1628, 
                "y": 2269
            }, 
            {
                "class": "Room", 
                "type": "single", 
                "xn": "1667;1668;1763;1764;1764;1763;1668;1667", 
                "yn": "1742;1741;1741;1742;1951;1952;1952;1951", 
                "text": "toilet", 
                "x": 1706, 
                "y": 1874
            }, 
            {
                "class": "Door", 
                "xn": "1854;1953;1953;1854", 
                "yn": "1697;1697;1739;1739", 
                "confidence": 1.0
            }, 
            {
                "class": "Door", 
                "xn": "1736;1830;1830;1736", 
                "yn": "670;670;694;694", 
                "confidence": 1.0
            }, 
            {
                "class": "Door", 
                "xn": "815;908;908;815", 
                "yn": "2423;2423;2432;2432", 
                "confidence": 1.0
            }, 
            {
                "class": "Door", 
                "xn": "1854;1953;1953;1854", 
                "yn": "2642;2642;2667;2667", 
                "confidence": 1.0
            }, 
            {
                "class": "Door", 
                "xn": "2119;2161;2161;2119", 
                "yn": "1738;1738;1851;1851", 
                "confidence": 1.0
            }, 
            {
                "class": "Door", 
                "xn": "1404;1430;1430;1404", 
                "yn": "2105;2105;2206;2206", 
                "confidence": 1.0
            }, 
            {
                "class": "Door", 
                "xn": "1829;1854;1854;1829", 
                "yn": "2542;2542;2643;2643", 
                "confidence": 1.0
            }, 
            {
                "class": "Door", 
                "xn": "1404;1430;1430;1404", 
                "yn": "1425;1425;1521;1521", 
                "confidence": 1.0
            }, 
            {
                "class": "Door", 
                "xn": "1971;1979;1979;1971", 
                "yn": "2205;2205;2306;2306", 
                "confidence": 1.0
            }, 
            {
                "class": "Door", 
                "xn": "1971;1978;1978;1971", 
                "yn": "2412;2412;2513;2513", 
                "confidence": 1.0
            }, 
            {
                "class": "Door", 
                "xn": "1673;1758;1758;1673", 
                "yn": "1951;1951;1974;1974", 
                "confidence": 0.866666666667
            }, 
            {
                "class": "Window", 
                "xn": "2136;2161;2161;2136", 
                "yn": "788;788;1261;1261", 
                "confidence": 1.0
            }, 
            {
                "class": "Window", 
                "xn": "2331;2374;2374;2331", 
                "yn": "2441;2441;2513;2513", 
                "confidence": 1.0
            }, 
            {
                "class": "Window", 
                "xn": "1169;1310;1310;1169", 
                "yn": "2506;2506;2550;2550", 
                "confidence": 1.0
            }, 
            {
                "class": "Window", 
                "xn": "276;319;319;276", 
                "yn": "1744;1744;2029;2029", 
                "confidence": 1.0
            }, 
            {
                "class": "Window", 
                "xn": "2049;2190;2190;2049", 
                "yn": "2978;2978;3021;3021", 
                "confidence": 1.0
            }, 
            {
                "class": "Window", 
                "xn": "1589;1729;1729;1589", 
                "yn": "2978;2978;3021;3021", 
                "confidence": 1.0
            }, 
            {
                "class": "Window", 
                "xn": "1031;1076;1076;1031", 
                "yn": "2466;2466;2506;2506", 
                "confidence": 1.0
            }, 
            {
                "class": "Window", 
                "xn": "396;678;678;396", 
                "yn": "2175;2175;2219;2219", 
                "confidence": 1.0
            }, 
            {
                "class": "Window", 
                "xn": "1404;1429;1429;1404", 
                "yn": "936;936;1208;1208", 
                "confidence": 1.0
            }, 
            {
                "class": "Window", 
                "xn": "2331;2375;2375;2331", 
                "yn": "2063;2063;2206;2206", 
                "confidence": 1.0
            }, 
            {
                "class": "Window", 
                "xn": "2136;2161;2161;2136", 
                "yn": "1443;1443;1515;1515", 
                "confidence": 1.0
            }, 
            {
                "class": "Window", 
                "xn": "1022;1162;1162;1022", 
                "yn": "1555;1555;1598;1598", 
                "confidence": 1.0
            }, 
            {
                "class": "Wall", 
                "xn": "276;1023;1023;276", 
                "yn": "1556;1556;1600;1600", 
                "confidence": 1.0
            }, 
            {
                "class": "Wall", 
                "xn": "1729;2050;2050;1729", 
                "yn": "2979;2979;3021;3021", 
                "confidence": 1.0
            }, 
            {
                "class": "Wall", 
                "xn": "2332;2375;2375;2332", 
                "yn": "2206;2206;2442;2442", 
                "confidence": 1.0
            }, 
            {
                "class": "Wall", 
                "xn": "1405;1447;1447;1405", 
                "yn": "2206;2206;3021;3021", 
                "confidence": 1.0
            }, 
            {
                "class": "Wall", 
                "xn": "1310;1448;1448;1310", 
                "yn": "2507;2507;2550;2550", 
                "confidence": 1.0
            }, 
            {
                "class": "Wall", 
                "xn": "277;320;320;277", 
                "yn": "2029;2029;2241;2241", 
                "confidence": 1.0
            }, 
            {
                "class": "Wall", 
                "xn": "1405;1447;1447;1405", 
                "yn": "1521;1521;1952;1952", 
                "confidence": 1.0
            }, 
            {
                "class": "Wall", 
                "xn": "2332;2374;2374;2332", 
                "yn": "2513;2513;3021;3021", 
                "confidence": 1.0
            }, 
            {
                "class": "Wall", 
                "xn": "1162;1430;1430;1162", 
                "yn": "1556;1556;1598;1598", 
                "confidence": 1.0
            }, 
            {
                "class": "Wall", 
                "xn": "1032;1170;1170;1032", 
                "yn": "2506;2506;2550;2550", 
                "confidence": 1.0
            }, 
            {
                "class": "Wall", 
                "xn": "2119;2375;2375;2119", 
                "yn": "1909;1909;1952;1952", 
                "confidence": 1.0
            }, 
            {
                "class": "Wall", 
                "xn": "2332;2375;2375;2332", 
                "yn": "1887;1887;2064;2064", 
                "confidence": 1.0
            }, 
            {
                "class": "Wall", 
                "xn": "678;792;792;678", 
                "yn": "2176;2176;2219;2219", 
                "confidence": 1.0
            }, 
            {
                "class": "Wall", 
                "xn": "2190;2375;2375;2190", 
                "yn": "2978;2978;3021;3021", 
                "confidence": 1.0
            }, 
            {
                "class": "Wall", 
                "xn": "277;319;319;277", 
                "yn": "1556;1556;1745;1745", 
                "confidence": 1.0
            }, 
            {
                "class": "Wall", 
                "xn": "908;1076;1076;908", 
                "yn": "2424;2424;2467;2467", 
                "confidence": 1.0
            }, 
            {
                "class": "Wall", 
                "xn": "1404;1590;1590;1404", 
                "yn": "2978;2978;3021;3021", 
                "confidence": 1.0
            }, 
            {
                "class": "Wall", 
                "xn": "276;397;397;276", 
                "yn": "2175;2175;2219;2219", 
                "confidence": 1.0
            }, 
            {
                "class": "Wall", 
                "xn": "1404;1855;1855;1404", 
                "yn": "1698;1698;1739;1739", 
                "confidence": 1.0
            }, 
            {
                "class": "Wall", 
                "xn": "1953;2186;2186;1953", 
                "yn": "1698;1698;1739;1739", 
                "confidence": 1.0
            }, 
            {
                "class": "Wall", 
                "xn": "2120;2161;2161;2120", 
                "yn": "1851;1851;1952;1952", 
                "confidence": 1.0
            }, 
            {
                "class": "Wall", 
                "xn": "1033;1070;1070;1033", 
                "yn": "2424;2424;2608;2608", 
                "confidence": 1.0
            }, 
            {
                "class": "Wall", 
                "xn": "1405;1430;1430;1405", 
                "yn": "1208;1208;1426;1426", 
                "confidence": 1.0
            }, 
            {
                "class": "Wall", 
                "xn": "2137;2161;2161;2137", 
                "yn": "1515;1515;1745;1745", 
                "confidence": 1.0
            }, 
            {
                "class": "Wall", 
                "xn": "1405;1429;1429;1405", 
                "yn": "671;671;937;937", 
                "confidence": 1.0
            }, 
            {
                "class": "Wall", 
                "xn": "2136;2161;2161;2136", 
                "yn": "1261;1261;1444;1444", 
                "confidence": 1.0
            }, 
            {
                "class": "Wall", 
                "xn": "2137;2161;2161;2137", 
                "yn": "671;671;789;789", 
                "confidence": 1.0
            }, 
            {
                "class": "Wall", 
                "xn": "1953;1979;1979;1953", 
                "yn": "2642;2642;2667;2667", 
                "confidence": 1.0
            }, 
            {
                "class": "Wall", 
                "xn": "1404;1737;1737;1404", 
                "yn": "671;671;694;694", 
                "confidence": 1.0
            }, 
            {
                "class": "Wall", 
                "xn": "1830;2162;2162;1830", 
                "yn": "671;671;694;694", 
                "confidence": 1.0
            }, 
            {
                "class": "Wall", 
                "xn": "1830;1854;1854;1830", 
                "yn": "2129;2129;2543;2543", 
                "confidence": 1.0
            }, 
            {
                "class": "Wall", 
                "xn": "1830;1855;1855;1830", 
                "yn": "2643;2643;2668;2668", 
                "confidence": 1.0
            }, 
            {
                "class": "Wall", 
                "xn": "1009;1058;1058;1009", 
                "yn": "2586;2586;2608;2608", 
                "confidence": 1.0
            }, 
            {
                "class": "Wall", 
                "xn": "2349;2374;2374;2349", 
                "yn": "1698;1698;1728;1728", 
                "confidence": 1.0
            }, 
            {
                "class": "Wall", 
                "xn": "643;674;674;643", 
                "yn": "2584;2584;2608;2608", 
                "confidence": 1.0
            }, 
            {
                "class": "Wall", 
                "xn": "2343;2375;2375;2343", 
                "yn": "1701;1701;1723;1723", 
                "confidence": 1.0
            }, 
            {
                "class": "Wall", 
                "xn": "749;816;816;749", 
                "yn": "2442;2442;2466;2466", 
                "confidence": 1.0
            }, 
            {
                "class": "Wall", 
                "xn": "750;801;801;750", 
                "yn": "2176;2176;2466;2466", 
                "confidence": 1.0
            }, 
            {
                "class": "Wall", 
                "xn": "1831;1837;1837;1831", 
                "yn": "2643;2643;3021;3021", 
                "confidence": 1.0
            }, 
            {
                "class": "Wall", 
                "xn": "1971;2375;2375;1971", 
                "yn": "2306;2306;2312;2312", 
                "confidence": 1.0
            }, 
            {
                "class": "Wall", 
                "xn": "1404;1855;1855;1404", 
                "yn": "2460;2460;2466;2466", 
                "confidence": 1.0
            }, 
            {
                "class": "Wall", 
                "xn": "1971;2375;2375;1971", 
                "yn": "2548;2548;2554;2554", 
                "confidence": 1.0
            }, 
            {
                "class": "Wall", 
                "xn": "1971;2375;2375;1971", 
                "yn": "1945;1945;1952;1952", 
                "confidence": 1.0
            }, 
            {
                "class": "Wall", 
                "xn": "785;791;791;785", 
                "yn": "2099;2099;2466;2466", 
                "confidence": 1.0
            }, 
            {
                "class": "Wall", 
                "xn": "1766;1772;1772;1766", 
                "yn": "1698;1698;1952;1952", 
                "confidence": 1.0
            }, 
            {
                "class": "Wall", 
                "xn": "1659;1665;1665;1659", 
                "yn": "1698;1698;1952;1952", 
                "confidence": 1.0
            }, 
            {
                "class": "Wall", 
                "xn": "1972;1978;1978;1972", 
                "yn": "2513;2513;2667;2667", 
                "confidence": 1.0
            }, 
            {
                "class": "Wall", 
                "xn": "1528;1855;1855;1528", 
                "yn": "2206;2206;2212;2212", 
                "confidence": 1.0
            }, 
            {
                "class": "Wall", 
                "xn": "749;810;810;749", 
                "yn": "2435;2435;2441;2441", 
                "confidence": 1.0
            }, 
            {
                "class": "Wall", 
                "xn": "749;816;816;749", 
                "yn": "2423;2423;2432;2432", 
                "confidence": 1.0
            }, 
            {
                "class": "Wall", 
                "xn": "1972;1979;1979;1972", 
                "yn": "2306;2306;2413;2413", 
                "confidence": 1.0
            }, 
            {
                "class": "Wall", 
                "xn": "1972;1979;1979;1972", 
                "yn": "1946;1946;2206;2206", 
                "confidence": 1.0
            }, 
            {
                "class": "Wall", 
                "xn": "784;1430;1430;784", 
                "yn": "2099;2099;2106;2106", 
                "confidence": 1.0
            }, 
            {
                "class": "Wall", 
                "xn": "1529;1536;1536;1529", 
                "yn": "2129;2129;2212;2212", 
                "confidence": 1.0
            }, 
            {
                "class": "Wall", 
                "xn": "1535;1830;1830;1535", 
                "yn": "2131;2131;2127;2127", 
                "confidence": 1.0
            }, 
            {
                "class": "Wall", 
                "xn": "1446;1830;1830;1446", 
                "yn": "2543;2543;2539;2539", 
                "confidence": 1.0
            }, 
            {
                "class": "Wall", 
                "xn": "1978;2331;2331;1978", 
                "yn": "2632;2632;2628;2628", 
                "confidence": 1.0
            }, 
            {
                "class": "Stair", 
                "xn": "1446;1447;1657;1658;1658;1657;1657;1655;1654;1652;1651;1650;1649;1647;1646;1644;1643;1642;1641;1639;1638;1636;1635;1633;1632;1631;1630;1628;1627;1625;1624;1623;1622;1620;1619;1617;1616;1615;1614;1612;1611;1609;1608;1606;1605;1604;1603;1601;1600;1598;1597;1596;1595;1593;1592;1590;1589;1587;1586;1585;1584;1582;1581;1579;1578;1577;1576;1574;1573;1571;1570;1569;1568;1566;1565;1563;1562;1560;1559;1558;1557;1555;1554;1552;1551;1550;1549;1547;1546;1546;1545;1447;1446", 
                "yn": "1739;1738;1738;1739;1753;1754;1769;1771;1771;1773;1773;1774;1774;1776;1776;1778;1778;1779;1779;1781;1781;1783;1783;1785;1785;1786;1786;1788;1788;1790;1790;1791;1791;1793;1793;1795;1795;1796;1796;1798;1798;1800;1800;1802;1802;1803;1803;1805;1805;1807;1807;1808;1808;1810;1810;1812;1812;1814;1814;1815;1815;1817;1817;1819;1819;1820;1820;1822;1822;1824;1824;1825;1825;1827;1827;1829;1829;1831;1831;1832;1832;1834;1834;1836;1836;1837;1837;1839;1839;1950;1951;1951;1950", 
                "confidence": 1.0
            }, 
            {
                "class": "Text", 
                "height": 24, 
                "width": 224, 
                "x": 1524, 
                "y": 374, 
                "text": "abrivoiture", 
                "confidence": "0.88"
            }, 
            {
                "class": "Text", 
                "height": 25, 
                "width": 136, 
                "x": 1602, 
                "y": 1117, 
                "text": "garage", 
                "confidence": "0.86"
            }, 
            {
                "class": "Text", 
                "height": 25, 
                "width": 130, 
                "x": 463, 
                "y": 1679, 
                "text": "sejour", 
                "confidence": "0.87"
            }, 
            {
                "class": "Text", 
                "height": 25, 
                "width": 136, 
                "x": 2182, 
                "y": 1779, 
                "text": "porche", 
                "confidence": "0.91"
            }, 
            {
                "class": "Text", 
                "height": 24, 
                "width": 55, 
                "x": 1679, 
                "y": 1862, 
                "text": "wc", 
                "confidence": "0.81"
            }, 
            {
                "class": "Text", 
                "height": 24, 
                "width": 79, 
                "x": 1840, 
                "y": 1873, 
                "text": "hall", 
                "confidence": "0.74"
            }, 
            {
                "class": "Text", 
                "height": 26, 
                "width": 106, 
                "x": 1114, 
                "y": 1979, 
                "text": "repas", 
                "confidence": "0.82"
            }, 
            {
                "class": "Text", 
                "height": 24, 
                "width": 131, 
                "x": 2094, 
                "y": 2092, 
                "text": "bureau", 
                "confidence": "0.89"
            }, 
            {
                "class": "Text", 
                "height": 25, 
                "width": 150, 
                "x": 1610, 
                "y": 2156, 
                "text": "placard", 
                "confidence": "0.87"
            }, 
            {
                "class": "Text", 
                "height": 26, 
                "width": 128, 
                "x": 1095, 
                "y": 2221, 
                "text": "cuisine", 
                "confidence": "0.87"
            }, 
            {
                "class": "Text", 
                "height": 25, 
                "width": 133, 
                "x": 1562, 
                "y": 2257, 
                "text": "cellier", 
                "confidence": "0.91"
            }, 
            {
                "class": "Text", 
                "height": 63, 
                "width": 177, 
                "x": 469, 
                "y": 2332, 
                "text": "terrassecouverte", 
                "confidence": "0.85"
            }, 
            {
                "class": "Text", 
                "height": 25, 
                "width": 137, 
                "x": 2094, 
                "y": 2422, 
                "text": "douche", 
                "confidence": "0.87"
            }, 
            {
                "class": "Text", 
                "height": 25, 
                "width": 150, 
                "x": 1557, 
                "y": 2487, 
                "text": "placard", 
                "confidence": "0.9"
            }, 
            {
                "class": "Text", 
                "height": 25, 
                "width": 150, 
                "x": 2076, 
                "y": 2582, 
                "text": "placard", 
                "confidence": "0.94"
            }, 
            {
                "class": "Text", 
                "height": 24, 
                "width": 182, 
                "x": 1532, 
                "y": 2765, 
                "text": "chambre 1", 
                "confidence": "0.93"
            }, 
            {
                "class": "Text", 
                "height": 24, 
                "width": 186, 
                "x": 2016, 
                "y": 2771, 
                "text": "chambre 2", 
                "confidence": "0.92"
            }, 
            {
                "class": "Unknown", 
                "xn": "1456;1465;1518;1509", 
                "yn": "2214;2235;2213;2192"
            }
        ], 
        "class": "image", 
        "filename": "fp_16.png"
    }
]