[
    {
        "annotations": [
            {
                "class": "Room", 
                "type": "single", 
                "xn": "1671;1671;1672;1672;1851;1851", 
                "yn": "2509;2598;2599;2688;2688;2509", 
                "text": "closet", 
                "x": 1771, 
                "y": 2608
            }, 
            {
                "class": "Room", 
                "type": "single", 
                "xn": "1182;1182;1183;1183;1254;1254", 
                "yn": "1701;1792;1793;1885;1885;1701", 
                "text": "closet", 
                "x": 1222, 
                "y": 1790
            }, 
            {
                "class": "Room", 
                "type": "single", 
                "xn": "657;657;656;655;655;656;656;749;1066;1066;1067;1067", 
                "yn": "1304;1380;1381;1381;1521;1522;1599;1692;1692;1580;1579;1304", 
                "text": "bedroom 1", 
                "x": 865, 
                "y": 1424
            }, 
            {
                "class": "Room", 
                "type": "single", 
                "xn": "916;916;917;917;1065;1065", 
                "yn": "1228;1264;1265;1300;1300;1228", 
                "text": "closet", 
                "x": 974, 
                "y": 1264
            }, 
            {
                "class": "Room", 
                "type": "single", 
                "xn": "657;657;906;906", 
                "yn": "1222;1294;1294;1222", 
                "text": "closet", 
                "x": 779, 
                "y": 1264
            }, 
            {
                "class": "Room", 
                "type": "single", 
                "xn": "1294;1294;1295;1295;1620;1620", 
                "yn": "752;786;787;822;822;752", 
                "text": "closet", 
                "x": 1458, 
                "y": 786
            }, 
            {
                "class": "Room", 
                "type": "single", 
                "xn": "656;656;655;655;656;657;657;908;909;1019;1019;1020;1020", 
                "yn": "749;913;914;1054;1054;1055;1218;1218;1219;1219;1107;1106;749", 
                "text": "bedroom 2", 
                "x": 814, 
                "y": 922
            }, 
            {
                "class": "Room", 
                "type": "single", 
                "xn": "1183;1182;1178;1177;1173;1172;1168;1167;1163;1162;1157;1156;1152;1151;1147;1146;1142;1141;1137;1136;1132;1131;1127;1126;1122;1121;1117;1116;1111;1110;1106;1105;1101;1100;1096;1095;1028;1028;1137;1138;1286;1286;1185;1184;1184;1185;1286;1286;1191;1190;1190", 
                "yn": "731;732;732;733;733;734;734;735;735;736;736;737;737;738;738;739;739;740;740;741;741;742;742;743;743;744;744;745;745;746;746;747;747;748;748;749;749;1100;1100;1101;1101;1009;1009;1008;1002;1001;1001;752;752;751;731", 
                "text": "bathroom", 
                "x": 1087, 
                "y": 887
            }, 
            {
                "class": "Room", 
                "type": "single", 
                "xn": "1076;1077;1078;1079;1080;1081;1082;1084;1085;1086;1087;1089;1090;1091;1092;1093;1094;1096;1097;1098;1099;1101;1102;1103;1104;1105;1106;1108;1109;1110;1111;1113;1114;1115;1116;1117;1118;1120;1121;1122;1123;1125;1126;1127;1128;1129;1130;1132;1133;1134;1135;1137;1138;1139;1140;1141;1142;1144;1145;1146;1147;1149;1150;1151;1152;1153;1154;1156;1157;1158;1159;1161;1162;1163;1164;1165;1166;1168;1169;1170;1171;1173;1174;1175;1176;1177;1178;1180;1181;1182;1183;1185;1186;1187;1188;1189;1190;1192;1193;1194;1195;1197;1198;1199;1200;1201;1202;1204;1205;1206;1207;1209;1210;1211;1212;1213;1214;1216;1217;1218;1219;1221;1222;1223;1224;1225;1226;1228;1229;1230;1231;1233;1234;1235;1236;1237;1238;1240;1241;1242;1243;1245;1246;1247;1248;1249;1250;1252;1253;1254;1255;1257;1258;1259;1260;1261;1262;1264;1265;1266;1267;1269;1270;1271;1272;1273;1274;1276;1277;1278;1279;1279;1280;1280;1281;1281;1282;1282;1283;1283;1284;1284;1285;1285;1286;1286;1287;1287;1288;1288;1289;1289;1290;1290;1291;1291;1292;1292;1293;1293;1294;1294;1295;1295;1296;1296;1297;1297;1298;1298;1299;1299;1300;1300;1301;1301;1302;1302;1303;1303;1304;1304;1305;1305;1306;1306;1307;1307;1308;1308;1309;1309;1310;1310;1311;1311;1312;1312;1313;1313;1314;1314;1315;1315;1316;1316;1317;1317;1318;1318;1319;1319;1320;1320;1321;1321;1322;1322;1323;1323;1324;1324;1325;1325;1326;1326;1327;1327;1328;1328;1329;1329;1330;1330;1331;1331;1332;1332;1333;1333;1334;1334;1335;1335;1336;1336;1337;1337;1338;1338;1339;1339;1340;1340;1341;1341;1342;1342;1343;1343;1344;1344;1345;1345;1346;1346;1347;1347;1348;1348;1349;1349;1350;1350;1351;1351;1352;1352;1353;1353;1354;1354;1355;1355;1354;1190;1189;1189;1188;1179;1178;1178;1177;1077;1076", 
                "yn": "1347;1346;1347;1347;1348;1348;1349;1349;1350;1350;1351;1351;1352;1352;1353;1353;1354;1354;1355;1355;1356;1356;1357;1357;1358;1358;1359;1359;1360;1360;1361;1361;1362;1362;1363;1363;1364;1364;1365;1365;1366;1366;1367;1367;1368;1368;1369;1369;1370;1370;1371;1371;1372;1372;1373;1373;1374;1374;1375;1375;1376;1376;1377;1377;1378;1378;1379;1379;1380;1380;1381;1381;1382;1382;1383;1383;1384;1384;1385;1385;1386;1386;1387;1387;1388;1388;1389;1389;1390;1390;1391;1391;1392;1392;1393;1393;1394;1394;1395;1395;1396;1396;1397;1397;1398;1398;1399;1399;1400;1400;1401;1401;1402;1402;1403;1403;1404;1404;1405;1405;1406;1406;1407;1407;1408;1408;1409;1409;1410;1410;1411;1411;1412;1412;1413;1413;1414;1414;1415;1415;1416;1416;1417;1417;1418;1418;1419;1419;1420;1420;1421;1421;1422;1422;1423;1423;1424;1424;1425;1425;1426;1426;1427;1427;1428;1428;1429;1429;1430;1430;1431;1433;1434;1436;1437;1440;1441;1443;1444;1446;1447;1450;1451;1453;1454;1457;1458;1460;1461;1463;1464;1467;1468;1470;1471;1474;1475;1477;1478;1480;1481;1484;1485;1487;1488;1491;1492;1494;1495;1497;1498;1501;1502;1504;1505;1508;1509;1511;1512;1514;1515;1518;1519;1521;1522;1525;1526;1528;1529;1531;1532;1535;1536;1538;1539;1542;1543;1545;1546;1548;1549;1552;1553;1555;1556;1559;1560;1562;1563;1565;1566;1569;1570;1572;1573;1576;1577;1579;1580;1582;1583;1586;1587;1589;1590;1593;1594;1596;1597;1599;1600;1603;1604;1606;1607;1610;1611;1613;1614;1617;1618;1620;1621;1623;1624;1627;1628;1630;1631;1634;1635;1637;1638;1640;1641;1644;1645;1647;1648;1651;1652;1654;1655;1657;1658;1661;1662;1664;1665;1668;1669;1671;1672;1674;1675;1678;1679;1681;1682;1685;1686;1688;1689;1690;1691;1691;1690;1581;1580;1580;1581;1700;1701;1701;1700", 
                "text": "toilet", 
                "x": 1225, 
                "y": 1507
            }, 
            {
                "class": "Room", 
                "type": "single", 
                "xn": "1286;1287;1514;1515;1515;1516;1573;1574;1574;1575;1582;1583;1583;1585;1585;1586;1586;1587;1587;1588;1588;1589;1589;1590;1590;1591;1591;1592;1592;1593;1593;1594;1594;1595;1595;1596;1596;1597;1597;1599;1599;1600;1600;1601;1601;1602;1602;1603;1603;1604;1604;1605;1605;1606;1606;1607;1607;1608;1608;1609;1609;1610;1610;1611;1611;1612;1612;1613;1613;1614;1614;1615;1615;1616;1616;1618;1618;1619;1619;1620;1620;1619;1357;1356;1356;1355;1355;1354;1354;1353;1353;1352;1352;1351;1351;1350;1350;1349;1349;1348;1348;1347;1347;1346;1346;1345;1345;1344;1344;1343;1343;1342;1342;1341;1341;1340;1340;1339;1339;1338;1338;1337;1337;1336;1336;1335;1335;1334;1334;1333;1333;1332;1332;1331;1331;1330;1330;1329;1329;1328;1328;1327;1327;1326;1326;1325;1325;1324;1324;1323;1323;1322;1322;1321;1321;1320;1320;1319;1319;1318;1318;1317;1317;1316;1316;1315;1315;1314;1314;1313;1313;1312;1312;1311;1311;1310;1310;1309;1309;1308;1308;1307;1307;1306;1306;1305;1305;1304;1304;1303;1303;1302;1302;1301;1301;1300;1300;1299;1299;1298;1298;1297;1297;1296;1296;1295;1295;1294;1294;1293;1293;1292;1292;1291;1291;1290;1290;1289;1289;1288;1288;1287;1287;1286", 
                "yn": "1229;1228;1228;1229;1580;1581;1581;1580;1564;1563;1563;1564;1569;1571;1572;1573;1574;1575;1576;1577;1578;1579;1580;1581;1582;1583;1584;1585;1586;1587;1588;1589;1590;1591;1592;1593;1594;1595;1596;1598;1599;1600;1601;1602;1603;1604;1605;1606;1607;1608;1609;1610;1611;1612;1613;1614;1615;1616;1617;1618;1619;1620;1621;1622;1623;1624;1625;1626;1627;1628;1629;1630;1631;1632;1633;1635;1636;1637;1638;1639;1690;1691;1691;1690;1686;1685;1679;1678;1673;1672;1666;1665;1660;1659;1653;1652;1647;1646;1640;1639;1634;1633;1627;1626;1621;1620;1614;1613;1607;1606;1601;1600;1594;1593;1588;1587;1581;1580;1575;1574;1568;1567;1562;1561;1555;1554;1548;1547;1542;1541;1535;1534;1529;1528;1522;1521;1516;1515;1509;1508;1503;1502;1496;1495;1490;1489;1483;1482;1476;1475;1470;1469;1463;1462;1457;1456;1450;1449;1444;1443;1437;1436;1431;1430;1424;1423;1417;1416;1411;1410;1404;1403;1398;1397;1391;1390;1385;1384;1378;1377;1372;1371;1365;1364;1359;1358;1352;1351;1345;1344;1339;1338;1332;1331;1326;1325;1319;1318;1313;1312;1306;1305;1300;1299;1293;1292;1287;1286;1280;1279;1273;1272;1267;1266;1260;1259;1254;1253;1247;1246;1241;1240;1234;1233", 
                "text": "storage", 
                "x": 1411, 
                "y": 1430
            }, 
            {
                "class": "Room", 
                "type": "single", 
                "xn": "1295;1296;1619;1620;1620;1619;1298;1297;1297;1296;1296;1295", 
                "yn": "828;827;827;828;1217;1218;1218;1217;1183;1182;1146;1145", 
                "text": "bedroom 3", 
                "x": 1458, 
                "y": 951
            }, 
            {
                "class": "Door", 
                "xn": "1026;1138;1138;1026", 
                "yn": "1101;1101;1108;1108", 
                "confidence": 1.0
            }, 
            {
                "class": "Door", 
                "xn": "1263;1374;1374;1263", 
                "yn": "1692;1692;1699;1699", 
                "confidence": 1.0
            }, 
            {
                "class": "Door", 
                "xn": "1180;1187;1187;1180", 
                "yn": "1589;1589;1693;1693", 
                "confidence": 1.0
            }, 
            {
                "class": "Door", 
                "xn": "1180;1187;1187;1180", 
                "yn": "1589;1589;1693;1693", 
                "confidence": 1.0
            }, 
            {
                "class": "Door", 
                "xn": "819;862;862;819", 
                "yn": "1745;1745;1852;1852", 
                "confidence": 1.0
            }, 
            {
                "class": "Door", 
                "xn": "1020;1027;1027;1020", 
                "yn": "1107;1107;1220;1220", 
                "confidence": 1.0
            }, 
            {
                "class": "Door", 
                "xn": "1067;1074;1074;1067", 
                "yn": "1580;1580;1693;1693", 
                "confidence": 1.0
            }, 
            {
                "class": "Door", 
                "xn": "330;354;354;330", 
                "yn": "2402;2402;2130;2130", 
                "confidence": 0.4
            }, 
            {
                "class": "Door", 
                "xn": "1565;1658;1658;1565", 
                "yn": "2113;2112;2070;2089", 
                "confidence": 0.6
            }, 
            {
                "class": "Door", 
                "xn": "1093;1185;1185;1093", 
                "yn": "748;730;707;707", 
                "confidence": 0.6
            }, 
            {
                "class": "Window", 
                "xn": "495;537;537;495", 
                "yn": "1935;1935;2407;2407", 
                "confidence": 1.0
            }, 
            {
                "class": "Window", 
                "xn": "1622;1665;1665;1622", 
                "yn": "889;889;1031;1031", 
                "confidence": 1.0
            }, 
            {
                "class": "Window", 
                "xn": "1621;1665;1665;1621", 
                "yn": "1550;1550;1656;1656", 
                "confidence": 1.0
            }, 
            {
                "class": "Window", 
                "xn": "613;655;655;613", 
                "yn": "1379;1379;1522;1522", 
                "confidence": 1.0
            }, 
            {
                "class": "Window", 
                "xn": "1741;1783;1783;1741", 
                "yn": "1798;1798;1976;1976", 
                "confidence": 1.0
            }, 
            {
                "class": "Window", 
                "xn": "1160;1442;1442;1160", 
                "yn": "2578;2578;2620;2620", 
                "confidence": 1.0
            }, 
            {
                "class": "Window", 
                "xn": "613;655;655;613", 
                "yn": "912;912;1055;1055", 
                "confidence": 1.0
            }, 
            {
                "class": "Wall", 
                "xn": "1622;1665;1665;1622", 
                "yn": "1031;1031;1551;1551", 
                "confidence": 1.0
            }, 
            {
                "class": "Wall", 
                "xn": "1505;1547;1547;1505", 
                "yn": "2071;2071;2620;2620", 
                "confidence": 1.0
            }, 
            {
                "class": "Wall", 
                "xn": "654;863;863;654", 
                "yn": "1910;1910;1953;1953", 
                "confidence": 1.0
            }, 
            {
                "class": "Wall", 
                "xn": "1622;1784;1784;1622", 
                "yn": "1656;1656;1700;1700", 
                "confidence": 1.0
            }, 
            {
                "class": "Wall", 
                "xn": "1191;1666;1666;1191", 
                "yn": "709;709;751;751", 
                "confidence": 1.0
            }, 
            {
                "class": "Wall", 
                "xn": "1623;1665;1665;1623", 
                "yn": "707;707;890;890", 
                "confidence": 1.0
            }, 
            {
                "class": "Wall", 
                "xn": "820;862;862;820", 
                "yn": "1852;1852;1953;1953", 
                "confidence": 1.0
            }, 
            {
                "class": "Wall", 
                "xn": "722;863;863;722", 
                "yn": "1703;1703;1746;1746", 
                "confidence": 1.0
            }, 
            {
                "class": "Wall", 
                "xn": "1742;1783;1783;1742", 
                "yn": "1976;1976;2112;2112", 
                "confidence": 1.0
            }, 
            {
                "class": "Wall", 
                "xn": "614;655;655;614", 
                "yn": "1522;1522;1636;1636", 
                "confidence": 1.0
            }, 
            {
                "class": "Wall", 
                "xn": "614;656;656;614", 
                "yn": "1055;1055;1380;1380", 
                "confidence": 1.0
            }, 
            {
                "class": "Wall", 
                "xn": "614;655;655;614", 
                "yn": "707;707;913;913", 
                "confidence": 1.0
            }, 
            {
                "class": "Wall", 
                "xn": "496;537;537;496", 
                "yn": "2407;2407;2502;2502", 
                "confidence": 1.0
            }, 
            {
                "class": "Wall", 
                "xn": "1742;1783;1783;1742", 
                "yn": "1657;1657;1799;1799", 
                "confidence": 1.0
            }, 
            {
                "class": "Wall", 
                "xn": "613;1093;1093;613", 
                "yn": "707;707;748;748", 
                "confidence": 1.0
            }, 
            {
                "class": "Wall", 
                "xn": "988;1093;1093;988", 
                "yn": "2461;2461;2503;2503", 
                "confidence": 1.0
            }, 
            {
                "class": "Wall", 
                "xn": "495;706;706;495", 
                "yn": "2461;2461;2502;2502", 
                "confidence": 1.0
            }, 
            {
                "class": "Wall", 
                "xn": "329;1161;1161;329", 
                "yn": "2579;2579;2620;2620", 
                "confidence": 1.0
            }, 
            {
                "class": "Wall", 
                "xn": "1658;1784;1784;1658", 
                "yn": "2070;2070;2112;2112", 
                "confidence": 1.0
            }, 
            {
                "class": "Wall", 
                "xn": "1442;1548;1548;1442", 
                "yn": "2578;2578;2620;2620", 
                "confidence": 1.0
            }, 
            {
                "class": "Wall", 
                "xn": "1051;1092;1092;1051", 
                "yn": "2461;2461;2620;2620", 
                "confidence": 1.0
            }, 
            {
                "class": "Wall", 
                "xn": "733;762;642;613", 
                "yn": "1735;1706;1586;1615", 
                "confidence": 1.0
            }, 
            {
                "class": "Wall", 
                "xn": "329;863;863;329", 
                "yn": "1911;1911;1936;1936", 
                "confidence": 1.0
            }, 
            {
                "class": "Wall", 
                "xn": "330;354;354;330", 
                "yn": "2402;2402;2620;2620", 
                "confidence": 1.0
            }, 
            {
                "class": "Wall", 
                "xn": "330;354;354;330", 
                "yn": "1911;1911;2130;2130", 
                "confidence": 1.0
            }, 
            {
                "class": "Wall", 
                "xn": "683;708;680;655", 
                "yn": "1962;1941;1910;1931", 
                "confidence": 1.0
            }, 
            {
                "class": "Wall", 
                "xn": "1185;1666;1666;1185", 
                "yn": "707;707;730;730", 
                "confidence": 1.0
            }, 
            {
                "class": "Wall", 
                "xn": "1504;1565;1565;1504", 
                "yn": "2089;2089;2113;2113", 
                "confidence": 1.0
            }, 
            {
                "class": "Wall", 
                "xn": "1641;1665;1665;1641", 
                "yn": "1646;1646;1699;1699", 
                "confidence": 1.0
            }, 
            {
                "class": "Wall", 
                "xn": "1504;1559;1559;1504", 
                "yn": "2071;2071;2093;2093", 
                "confidence": 1.0
            }, 
            {
                "class": "Wall", 
                "xn": "1286;1666;1666;1286", 
                "yn": "1220;1220;1226;1226", 
                "confidence": 1.0
            }, 
            {
                "class": "Wall", 
                "xn": "1287;1293;1293;1287", 
                "yn": "707;707;1108;1108", 
                "confidence": 1.0
            }, 
            {
                "class": "Wall", 
                "xn": "695;1075;1075;695", 
                "yn": "1693;1693;1702;1702", 
                "confidence": 1.0
            }, 
            {
                "class": "Wall", 
                "xn": "613;916;916;613", 
                "yn": "1297;1297;1303;1303", 
                "confidence": 1.0
            }, 
            {
                "class": "Wall", 
                "xn": "1374;1784;1784;1374", 
                "yn": "1692;1692;1699;1699", 
                "confidence": 1.0
            }, 
            {
                "class": "Wall", 
                "xn": "1021;1027;1027;1021", 
                "yn": "707;707;1108;1108", 
                "confidence": 1.0
            }, 
            {
                "class": "Wall", 
                "xn": "1185;1294;1294;1185", 
                "yn": "1002;1002;1008;1008", 
                "confidence": 1.0
            }, 
            {
                "class": "Wall", 
                "xn": "1138;1294;1294;1138", 
                "yn": "1102;1102;1108;1108", 
                "confidence": 1.0
            }, 
            {
                "class": "Wall", 
                "xn": "908;915;915;908", 
                "yn": "1220;1220;1303;1303", 
                "confidence": 1.0
            }, 
            {
                "class": "Wall", 
                "xn": "908;1075;1075;908", 
                "yn": "1220;1220;1226;1226", 
                "confidence": 1.0
            }, 
            {
                "class": "Wall", 
                "xn": "1068;1074;1074;1068", 
                "yn": "1220;1220;1581;1581", 
                "confidence": 1.0
            }, 
            {
                "class": "Wall", 
                "xn": "1257;1264;1264;1257", 
                "yn": "1693;1693;1894;1894", 
                "confidence": 1.0
            }, 
            {
                "class": "Wall", 
                "xn": "1180;1264;1264;1180", 
                "yn": "1693;1693;1699;1699", 
                "confidence": 1.0
            }, 
            {
                "class": "Wall", 
                "xn": "1180;1264;1264;1180", 
                "yn": "1888;1888;1894;1894", 
                "confidence": 1.0
            }, 
            {
                "class": "Wall", 
                "xn": "1180;1294;1294;1180", 
                "yn": "1575;1575;1581;1581", 
                "confidence": 1.0
            }, 
            {
                "class": "Wall", 
                "xn": "1287;1293;1293;1287", 
                "yn": "1380;1380;1581;1581", 
                "confidence": 1.0
            }, 
            {
                "class": "Wall", 
                "xn": "1180;1294;1294;1180", 
                "yn": "1380;1380;1386;1386", 
                "confidence": 1.0
            }, 
            {
                "class": "Wall", 
                "xn": "1181;1186;1186;1181", 
                "yn": "1380;1380;1471;1471", 
                "confidence": 1.0
            }, 
            {
                "class": "Wall", 
                "xn": "1293;1622;1622;1293", 
                "yn": "826;826;822;822", 
                "confidence": 1.0
            }, 
            {
                "class": "Wall", 
                "xn": "654;908;908;654", 
                "yn": "1222;1222;1218;1218", 
                "confidence": 1.0
            }, 
            {
                "class": "Wall", 
                "xn": "915;1067;1067;915", 
                "yn": "1304;1304;1300;1300", 
                "confidence": 1.0
            }, 
            {
                "class": "Wall", 
                "xn": "1181;1256;1256;1181", 
                "yn": "1889;1889;1885;1885", 
                "confidence": 1.0
            }, 
            {
                "class": "Wall", 
                "xn": "1179;1182;1181;1178", 
                "yn": "1887;1886;1698;1699", 
                "confidence": 1.0
            }, 
            {
                "class": "Stair", 
                "xn": "1516;1517;1621;1622;1622;1621;1619;1619;1618;1618;1617;1617;1615;1615;1614;1614;1612;1612;1611;1611;1610;1610;1608;1608;1607;1607;1605;1605;1604;1604;1603;1603;1601;1601;1600;1600;1598;1598;1597;1597;1596;1596;1594;1594;1593;1593;1591;1591;1590;1590;1589;1589;1587;1587;1586;1586;1584;1584;1583;1583;1582;1582;1581;1582;1582;1584;1584;1587;1587;1589;1589;1573;1573;1572;1572;1571;1571;1570;1517;1516", 
                "yn": "1226;1225;1225;1226;1641;1642;1640;1639;1638;1637;1636;1635;1633;1632;1631;1630;1628;1627;1626;1625;1624;1623;1621;1620;1619;1618;1616;1615;1614;1613;1612;1611;1609;1608;1607;1606;1604;1603;1602;1601;1600;1599;1597;1596;1595;1594;1592;1591;1590;1589;1588;1587;1585;1584;1583;1582;1580;1579;1578;1577;1576;1575;1574;1573;1572;1570;1569;1566;1565;1563;1562;1562;1565;1566;1574;1575;1579;1580;1580;1579", 
                "confidence": 1.0
            }, 
            {
                "class": "Text", 
                "height": 25, 
                "width": 149, 
                "x": 1384, 
                "y": 774, 
                "text": "placard", 
                "confidence": "0.88"
            }, 
            {
                "class": "Text", 
                "height": 25, 
                "width": 93, 
                "x": 1041, 
                "y": 875, 
                "text": "bains", 
                "confidence": "0.88"
            }, 
            {
                "class": "Text", 
                "height": 24, 
                "width": 186, 
                "x": 721, 
                "y": 910, 
                "text": "chambre 2", 
                "confidence": "0.91"
            }, 
            {
                "class": "Text", 
                "height": 25, 
                "width": 186, 
                "x": 1365, 
                "y": 939, 
                "text": "chambre 3", 
                "confidence": "0.89"
            }, 
            {
                "class": "Text", 
                "height": 25, 
                "width": 94, 
                "x": 1159, 
                "y": 1152, 
                "text": "degt", 
                "confidence": "0.92"
            }, 
            {
                "class": "Text", 
                "height": 25, 
                "width": 149, 
                "x": 705, 
                "y": 1252, 
                "text": "placard", 
                "confidence": "0.88"
            }, 
            {
                "class": "Text", 
                "height": 23, 
                "width": 43, 
                "x": 953, 
                "y": 1253, 
                "text": "pl", 
                "confidence": "0.98"
            }, 
            {
                "class": "Text", 
                "height": 24, 
                "width": 181, 
                "x": 775, 
                "y": 1412, 
                "text": "chambre 1", 
                "confidence": "0.85"
            }, 
            {
                "class": "Text", 
                "height": 25, 
                "width": 185, 
                "x": 1319, 
                "y": 1418, 
                "text": "buanderie", 
                "confidence": "0.94"
            }, 
            {
                "class": "Text", 
                "height": 25, 
                "width": 52, 
                "x": 1199, 
                "y": 1495, 
                "text": "wc", 
                "confidence": "0.83"
            }, 
            {
                "class": "Text", 
                "height": 19, 
                "width": 30, 
                "x": 107, 
                "y": 1661, 
                "text": "ch", 
                "confidence": "0.68"
            }, 
            {
                "class": "Text", 
                "height": 24, 
                "width": 78, 
                "x": 988, 
                "y": 1743, 
                "text": "hall", 
                "confidence": "0.94"
            }, 
            {
                "class": "Text", 
                "height": 25, 
                "width": 134, 
                "x": 646, 
                "y": 1790, 
                "text": "porche", 
                "confidence": "0.94"
            }, 
            {
                "class": "Text", 
                "height": 24, 
                "width": 43, 
                "x": 1201, 
                "y": 1778, 
                "text": "pl", 
                "confidence": "0.82"
            }, 
            {
                "class": "Text", 
                "height": 25, 
                "width": 128, 
                "x": 1401, 
                "y": 1819, 
                "text": "cuisine", 
                "confidence": "0.82"
            }, 
            {
                "class": "Text", 
                "height": 25, 
                "width": 129, 
                "x": 698, 
                "y": 2203, 
                "text": "sejour", 
                "confidence": "0.9"
            }, 
            {
                "class": "Text", 
                "height": 62, 
                "width": 175, 
                "x": 1585, 
                "y": 2289, 
                "text": "terrassecouverte", 
                "confidence": "0.89"
            }, 
            {
                "class": "Text", 
                "height": 25, 
                "width": 106, 
                "x": 1295, 
                "y": 2327, 
                "text": "repas", 
                "confidence": "0.85"
            }, 
            {
                "class": "Text", 
                "height": 25, 
                "width": 25, 
                "x": 1759, 
                "y": 2596, 
                "text": "pl", 
                "confidence": "0.85"
            }, 
            {
                "class": "Text", 
                "height": 60, 
                "width": 99, 
                "x": 2008, 
                "y": 2834, 
                "text": "ch", 
                "confidence": "0.84"
            }, 
            {
                "class": "Unknown", 
                "xn": "1082;1166;1166;1082", 
                "yn": "1699;1699;1724;1724"
            }, 
            {
                "class": "Unknown", 
                "xn": "1078;1353;1372;1097", 
                "yn": "1347;1687;1670;1330"
            }, 
            {
                "class": "Unknown", 
                "xn": "1263;1331;1356;1288", 
                "yn": "1236;1679;1676;1233"
            }
        ], 
        "class": "image", 
        "filename": "fp_20.png"
    }
]