[
    {
        "annotations": [
            {
                "class": "Room", 
                "type": "single", 
                "xn": "1665;1665;1666;1666;1738;1738", 
                "yn": "1034;1080;1081;1143;1143;1034", 
                "text": "closet", 
                "x": 1705, 
                "y": 1073
            }, 
            {
                "class": "Room", 
                "type": "single", 
                "xn": "2616;2616;2617;2617;2943;2943", 
                "yn": "887;997;998;1321;1321;887", 
                "text": "unknown room", 
                "x": 2779, 
                "y": 1103
            }, 
            {
                "class": "Room", 
                "type": "single", 
                "xn": "1406;1405;1305;1305;1306;1306;1475;1475;1476;1476", 
                "yn": "709;710;710;820;821;1145;1145;1033;1032;709", 
                "text": "cellar", 
                "x": 1395, 
                "y": 884
            }, 
            {
                "class": "Room", 
                "type": "single", 
                "xn": "1671;1671;1670;1670;1671;1672;1672;1769;1769", 
                "yn": "605;802;803;808;808;809;879;879;605", 
                "text": "toilet", 
                "x": 1725, 
                "y": 766
            }, 
            {
                "class": "Room", 
                "type": "single", 
                "xn": "2492;2492;2601;2602;2943;2943;2944;2944", 
                "yn": "474;878;878;879;879;613;612;474", 
                "text": "bedroom", 
                "x": 2710, 
                "y": 659
            }, 
            {
                "class": "Room", 
                "type": "single", 
                "xn": "2025;2025;2134;2135;2248;2248", 
                "yn": "474;878;878;879;879;474", 
                "text": "office", 
                "x": 2132, 
                "y": 690
            }, 
            {
                "class": "Room", 
                "type": "single", 
                "xn": "1671;1671;1777;1778;1778;1886;1887;2017;2017", 
                "yn": "474;595;595;596;878;878;879;879;474", 
                "text": "dressing room", 
                "x": 1886, 
                "y": 678
            }, 
            {
                "class": "Room", 
                "type": "single", 
                "xn": "2339;2338;2256;2256;2365;2366;2484;2484;2407;2406", 
                "yn": "473;474;474;878;878;879;879;474;474;473", 
                "text": "bathroom", 
                "x": 2328, 
                "y": 648
            }, 
            {
                "class": "Room", 
                "type": "single", 
                "xn": "697;698;1277;1278;1278;1277;698;697", 
                "yn": "1026;1025;1025;1026;1338;1339;1339;1338", 
                "text": "storage", 
                "x": 982, 
                "y": 1233
            }, 
            {
                "class": "Room", 
                "type": "single", 
                "xn": "697;698;1277;1278;1278;1277;698;697", 
                "yn": "459;458;458;459;1022;1023;1023;1022", 
                "text": "garage", 
                "x": 977, 
                "y": 819
            }, 
            {
                "class": "Door", 
                "xn": "1776;1887;1887;1776", 
                "yn": "879;879;886;886", 
                "confidence": 1.0
            }, 
            {
                "class": "Door", 
                "xn": "2024;2135;2135;2024", 
                "yn": "879;879;886;886", 
                "confidence": 1.0
            }, 
            {
                "class": "Door", 
                "xn": "2255;2366;2366;2255", 
                "yn": "879;879;886;886", 
                "confidence": 1.0
            }, 
            {
                "class": "Door", 
                "xn": "2491;2602;2602;2491", 
                "yn": "879;879;886;886", 
                "confidence": 1.0
            }, 
            {
                "class": "Door", 
                "xn": "1279;1305;1305;1279", 
                "yn": "708;708;821;821", 
                "confidence": 1.0
            }, 
            {
                "class": "Door", 
                "xn": "2608;2616;2616;2608", 
                "yn": "885;885;998;998", 
                "confidence": 1.0
            }, 
            {
                "class": "Door", 
                "xn": "1476;1494;1494;1476", 
                "yn": "1033;1033;1146;1146", 
                "confidence": 1.0
            }, 
            {
                "class": "Window", 
                "xn": "2277;2944;2944;2277", 
                "yn": "1322;1322;1376;1376", 
                "confidence": 1.0
            }, 
            {
                "class": "Window", 
                "xn": "1498;1741;1741;1498", 
                "yn": "997;997;1034;1034", 
                "confidence": 1.0
            }, 
            {
                "class": "Window", 
                "xn": "2944;2987;2987;2944", 
                "yn": "613;613;756;756", 
                "confidence": 1.0
            }, 
            {
                "class": "Window", 
                "xn": "743;1214;1214;743", 
                "yn": "430;430;456;456", 
                "confidence": 1.0
            }, 
            {
                "class": "Window", 
                "xn": "1404;1477;1477;1404", 
                "yn": "667;667;709;709", 
                "confidence": 1.0
            }, 
            {
                "class": "Window", 
                "xn": "2236;2278;2278;2236", 
                "yn": "1375;1375;1471;1471", 
                "confidence": 1.0
            }, 
            {
                "class": "Window", 
                "xn": "2337;2407;2407;2337", 
                "yn": "430;430;473;473", 
                "confidence": 1.0
            }, 
            {
                "class": "Window", 
                "xn": "694;2141;2141;694", 
                "yn": "1557;1557;1601;1601", 
                "confidence": 1.0
            }, 
            {
                "class": "Window", 
                "xn": "1628;1669;1670;1629", 
                "yn": "996;996;609;609", 
                "confidence": 0.5
            }, 
            {
                "class": "Wall", 
                "xn": "2407;2988;2988;2407", 
                "yn": "431;431;473;473", 
                "confidence": 1.0
            }, 
            {
                "class": "Wall", 
                "xn": "1628;2338;2338;1628", 
                "yn": "431;431;473;473", 
                "confidence": 1.0
            }, 
            {
                "class": "Wall", 
                "xn": "2944;2987;2987;2944", 
                "yn": "756;756;1376;1376", 
                "confidence": 1.0
            }, 
            {
                "class": "Wall", 
                "xn": "2141;2279;2279;2141", 
                "yn": "1558;1558;1601;1601", 
                "confidence": 1.0
            }, 
            {
                "class": "Wall", 
                "xn": "2945;2987;2987;2945", 
                "yn": "431;431;614;614", 
                "confidence": 1.0
            }, 
            {
                "class": "Wall", 
                "xn": "653;1305;1305;653", 
                "yn": "1341;1341;1382;1382", 
                "confidence": 1.0
            }, 
            {
                "class": "Wall", 
                "xn": "654;695;695;654", 
                "yn": "431;431;1908;1908", 
                "confidence": 1.0
            }, 
            {
                "class": "Wall", 
                "xn": "1629;1670;1670;1629", 
                "yn": "431;431;609;609", 
                "confidence": 1.0
            }, 
            {
                "class": "Wall", 
                "xn": "2237;2278;2278;2237", 
                "yn": "1471;1471;1601;1601", 
                "confidence": 1.0
            }, 
            {
                "class": "Wall", 
                "xn": "1279;1405;1405;1279", 
                "yn": "667;667;709;709", 
                "confidence": 1.0
            }, 
            {
                "class": "Wall", 
                "xn": "2237;2278;2278;2237", 
                "yn": "1323;1323;1376;1376", 
                "confidence": 1.0
            }, 
            {
                "class": "Wall", 
                "xn": "1280;1305;1305;1280", 
                "yn": "821;821;1382;1382", 
                "confidence": 1.0
            }, 
            {
                "class": "Wall", 
                "xn": "1280;1304;1304;1280", 
                "yn": "431;431;709;709", 
                "confidence": 1.0
            }, 
            {
                "class": "Wall", 
                "xn": "653;744;744;653", 
                "yn": "431;431;456;456", 
                "confidence": 1.0
            }, 
            {
                "class": "Wall", 
                "xn": "1214;1305;1305;1214", 
                "yn": "431;431;456;456", 
                "confidence": 1.0
            }, 
            {
                "class": "Wall", 
                "xn": "1477;1499;1499;1477", 
                "yn": "668;668;1034;1034", 
                "confidence": 1.0
            }, 
            {
                "class": "Wall", 
                "xn": "2485;2491;2491;2485", 
                "yn": "431;431;886;886", 
                "confidence": 1.0
            }, 
            {
                "class": "Wall", 
                "xn": "2249;2255;2255;2249", 
                "yn": "431;431;886;886", 
                "confidence": 1.0
            }, 
            {
                "class": "Wall", 
                "xn": "2018;2024;2024;2018", 
                "yn": "431;431;886;886", 
                "confidence": 1.0
            }, 
            {
                "class": "Wall", 
                "xn": "2602;2988;2988;2602", 
                "yn": "880;880;886;886", 
                "confidence": 1.0
            }, 
            {
                "class": "Wall", 
                "xn": "1628;1777;1777;1628", 
                "yn": "596;596;604;604", 
                "confidence": 1.0
            }, 
            {
                "class": "Wall", 
                "xn": "2141;2279;2279;2141", 
                "yn": "1323;1323;1330;1330", 
                "confidence": 1.0
            }, 
            {
                "class": "Wall", 
                "xn": "1279;1358;1358;1279", 
                "yn": "1198;1198;1206;1206", 
                "confidence": 1.0
            }, 
            {
                "class": "Wall", 
                "xn": "1279;1494;1494;1279", 
                "yn": "1146;1146;1152;1152", 
                "confidence": 1.0
            }, 
            {
                "class": "Wall", 
                "xn": "2366;2492;2492;2366", 
                "yn": "880;880;886;886", 
                "confidence": 1.0
            }, 
            {
                "class": "Wall", 
                "xn": "2135;2256;2256;2135", 
                "yn": "880;880;886;886", 
                "confidence": 1.0
            }, 
            {
                "class": "Wall", 
                "xn": "1887;2025;2025;1887", 
                "yn": "880;880;886;886", 
                "confidence": 1.0
            }, 
            {
                "class": "Wall", 
                "xn": "1770;1777;1777;1770", 
                "yn": "597;597;886;886", 
                "confidence": 1.0
            }, 
            {
                "class": "Wall", 
                "xn": "2142;2148;2148;2142", 
                "yn": "998;998;1329;1329", 
                "confidence": 1.0
            }, 
            {
                "class": "Wall", 
                "xn": "1351;1358;1358;1351", 
                "yn": "1146;1146;1205;1205", 
                "confidence": 1.0
            }, 
            {
                "class": "Wall", 
                "xn": "1663;1777;1777;1663", 
                "yn": "880;880;886;886", 
                "confidence": 1.0
            }, 
            {
                "class": "Wall", 
                "xn": "1663;2492;2492;1663", 
                "yn": "998;998;1004;1004", 
                "confidence": 1.0
            }, 
            {
                "class": "Wall", 
                "xn": "1664;1671;1671;1664", 
                "yn": "809;809;886;886", 
                "confidence": 1.0
            }, 
            {
                "class": "Wall", 
                "xn": "1741;1747;1747;1741", 
                "yn": "998;998;1152;1152", 
                "confidence": 1.0
            }, 
            {
                "class": "Wall", 
                "xn": "1663;1748;1748;1663", 
                "yn": "1146;1146;1152;1152", 
                "confidence": 1.0
            }, 
            {
                "class": "Wall", 
                "xn": "2609;2616;2616;2609", 
                "yn": "998;998;1323;1323", 
                "confidence": 1.0
            }, 
            {
                "class": "Wall", 
                "xn": "1662;1665;1664;1661", 
                "yn": "1145;1144;1015;1016", 
                "confidence": 1.0
            }, 
            {
                "class": "Text", 
                "height": 25, 
                "width": 135, 
                "x": 1380, 
                "y": 515, 
                "text": "porche", 
                "confidence": "0.92"
            }, 
            {
                "class": "Text", 
                "height": 25, 
                "width": 93, 
                "x": 2282, 
                "y": 636, 
                "text": "bains", 
                "confidence": "0.7"
            }, 
            {
                "class": "Text", 
                "height": 63, 
                "width": 153, 
                "x": 2634, 
                "y": 628, 
                "text": "chambreparents", 
                "confidence": "0.87"
            }, 
            {
                "class": "Text", 
                "height": 25, 
                "width": 147, 
                "x": 1813, 
                "y": 666, 
                "text": "lingerie", 
                "confidence": "0.88"
            }, 
            {
                "class": "Text", 
                "height": 24, 
                "width": 130, 
                "x": 2067, 
                "y": 678, 
                "text": "bureau", 
                "confidence": "0.78"
            }, 
            {
                "class": "Text", 
                "height": 25, 
                "width": 52, 
                "x": 1699, 
                "y": 754, 
                "text": "wc", 
                "confidence": "0.78"
            }, 
            {
                "class": "Text", 
                "height": 25, 
                "width": 134, 
                "x": 910, 
                "y": 807, 
                "text": "garage", 
                "confidence": "0.86"
            }, 
            {
                "class": "Text", 
                "height": 25, 
                "width": 132, 
                "x": 1329, 
                "y": 872, 
                "text": "cellier", 
                "confidence": "0.89"
            }, 
            {
                "class": "Text", 
                "height": 23, 
                "width": 77, 
                "x": 1518, 
                "y": 855, 
                "text": "hall", 
                "confidence": "0.76"
            }, 
            {
                "class": "Text", 
                "height": 25, 
                "width": 227, 
                "x": 1872, 
                "y": 937, 
                "text": "degagement", 
                "confidence": "0.9"
            }, 
            {
                "class": "Text", 
                "height": 23, 
                "width": 44, 
                "x": 1683, 
                "y": 1062, 
                "text": "pl", 
                "confidence": "0.93"
            }, 
            {
                "class": "Text", 
                "height": 25, 
                "width": 204, 
                "x": 880, 
                "y": 1221, 
                "text": "rangement", 
                "confidence": "0.86"
            }, 
            {
                "class": "Text", 
                "height": 25, 
                "width": 127, 
                "x": 1872, 
                "y": 1268, 
                "text": "cuisine", 
                "confidence": "0.86"
            }, 
            {
                "class": "Text", 
                "height": 25, 
                "width": 106, 
                "x": 1429, 
                "y": 1504, 
                "text": "repas", 
                "confidence": "0.86"
            }, 
            {
                "class": "Text", 
                "height": 25, 
                "width": 129, 
                "x": 856, 
                "y": 1569, 
                "text": "sejour", 
                "confidence": "0.9"
            }, 
            {
                "class": "Unknown", 
                "xn": "2723;2834;2834;2723", 
                "yn": "1075;1075;1130;1130"
            }, 
            {
                "class": "Unknown", 
                "xn": "709;1266;1266;709", 
                "yn": "1024;1024;1047;1047"
            }
        ], 
        "class": "image", 
        "filename": "fp_47.png"
    }
]