[
    {
        "annotations": [
            {
                "class": "Room", 
                "type": "single", 
                "xn": "1126;1126;1127;1127;1685;1685", 
                "yn": "2571;2793;2794;3015;3015;2571", 
                "text": "closet", 
                "x": 1406, 
                "y": 2770
            }, 
            {
                "class": "Room", 
                "type": "single", 
                "xn": "1197;1197;1655;1655;1654;1654;1655;1655;1295;1294", 
                "yn": "1790;2119;2119;2026;2025;1883;1882;1791;1791;1790", 
                "text": "bedroom 2", 
                "x": 1427, 
                "y": 1917
            }, 
            {
                "class": "Room", 
                "type": "single", 
                "xn": "1198;1197;1197;1294;1294", 
                "yn": "1678;1679;1782;1782;1678", 
                "text": "unknown room", 
                "x": 1245, 
                "y": 1730
            }, 
            {
                "class": "Room", 
                "type": "single", 
                "xn": "1302;1302;1303;1303;1655;1655;1654;1654", 
                "yn": "1572;1670;1671;1783;1783;1695;1694;1572", 
                "text": "bathroom", 
                "x": 1492, 
                "y": 1628
            }, 
            {
                "class": "Room", 
                "type": "single", 
                "xn": "984;984;985;985;1187;1187", 
                "yn": "1426;1461;1462;1497;1497;1426", 
                "text": "closet", 
                "x": 1074, 
                "y": 1457
            }, 
            {
                "class": "Room", 
                "type": "single", 
                "xn": "1303;1303;1302;1302;1715;1716;1974;1974", 
                "yn": "1236;1465;1466;1564;1564;1563;1563;1236", 
                "text": "bedroom 1", 
                "x": 1656, 
                "y": 1316
            }, 
            {
                "class": "Room", 
                "type": "single", 
                "xn": "1198;1198;1197;984;984;1195;1196;1294;1294", 
                "yn": "1235;1248;1249;1249;1416;1416;1415;1415;1235", 
                "text": "storage", 
                "x": 1132, 
                "y": 1298
            }, 
            {
                "class": "Room", 
                "type": "single", 
                "xn": "1558;1557;860;860;859;859;860;860;1294;1295;1974;1974;1626;1625", 
                "yn": "851;852;852;892;893;1175;1176;1209;1209;1210;1210;852;852;851", 
                "text": "garage", 
                "x": 1408, 
                "y": 979
            }, 
            {
                "class": "Room", 
                "type": "single", 
                "xn": "878;879;974;975;975;974;879;878", 
                "yn": "1251;1250;1250;1251;1499;1500;1500;1499", 
                "text": "toilet", 
                "x": 923, 
                "y": 1339
            }, 
            {
                "class": "Door", 
                "xn": "1195;1295;1295;1195", 
                "yn": "1783;1783;1790;1790", 
                "confidence": 1.0
            }, 
            {
                "class": "Door", 
                "xn": "1196;1295;1295;1196", 
                "yn": "1210;1210;1235;1235", 
                "confidence": 1.0
            }, 
            {
                "class": "Door", 
                "xn": "1196;1295;1295;1196", 
                "yn": "1416;1416;1424;1424", 
                "confidence": 1.0
            }, 
            {
                "class": "Door", 
                "xn": "1090;1189;1189;1090", 
                "yn": "2119;2119;2126;2126", 
                "confidence": 1.0
            }, 
            {
                "class": "Door", 
                "xn": "1196;1295;1295;1196", 
                "yn": "1670;1670;1678;1678", 
                "confidence": 1.0
            }, 
            {
                "class": "Door", 
                "xn": "1294;1302;1302;1294", 
                "yn": "1570;1570;1671;1671", 
                "confidence": 1.0
            }, 
            {
                "class": "Door", 
                "xn": "1424;1440;1440;1424", 
                "yn": "2173;2173;2274;2274", 
                "confidence": 1.0
            }, 
            {
                "class": "Door", 
                "xn": "1726;1735;1735;1726", 
                "yn": "2763;2763;2796;2796", 
                "confidence": 1.0
            }, 
            {
                "class": "Door", 
                "xn": "1294;1302;1302;1294", 
                "yn": "1464;1464;1565;1565", 
                "confidence": 1.0
            }, 
            {
                "class": "Door", 
                "xn": "865;876;876;865", 
                "yn": "1517;1517;1624;1624", 
                "confidence": 1.0
            }, 
            {
                "class": "Door", 
                "xn": "890;969;969;890", 
                "yn": "1500;1500;1521;1521", 
                "confidence": 0.866666666667
            }, 
            {
                "class": "Window", 
                "xn": "396;440;440;396", 
                "yn": "1800;1800;1943;1943", 
                "confidence": 1.0
            }, 
            {
                "class": "Window", 
                "xn": "834;877;877;834", 
                "yn": "1247;1247;1323;1323", 
                "confidence": 1.0
            }, 
            {
                "class": "Window", 
                "xn": "632;772;772;632", 
                "yn": "2456;2456;2498;2498", 
                "confidence": 1.0
            }, 
            {
                "class": "Window", 
                "xn": "1655;1699;1699;1655", 
                "yn": "1607;1607;1695;1695", 
                "confidence": 1.0
            }, 
            {
                "class": "Window", 
                "xn": "1208;1348;1348;1208", 
                "yn": "2456;2456;2498;2498", 
                "confidence": 1.0
            }, 
            {
                "class": "Window", 
                "xn": "396;440;440;396", 
                "yn": "2190;2190;2333;2333", 
                "confidence": 1.0
            }, 
            {
                "class": "Window", 
                "xn": "834;859;859;834", 
                "yn": "891;891;1176;1176", 
                "confidence": 1.0
            }, 
            {
                "class": "Window", 
                "xn": "1716;1809;1809;1716", 
                "yn": "1564;1564;1607;1607", 
                "confidence": 1.0
            }, 
            {
                "class": "Window", 
                "xn": "1556;1626;1626;1556", 
                "yn": "826;826;851;851", 
                "confidence": 1.0
            }, 
            {
                "class": "Window", 
                "xn": "834;859;859;834", 
                "yn": "1252;1252;1323;1323", 
                "confidence": 1.0
            }, 
            {
                "class": "Window", 
                "xn": "1655;1699;1699;1655", 
                "yn": "1883;1883;2026;2026", 
                "confidence": 1.0
            }, 
            {
                "class": "Wall", 
                "xn": "397;440;440;397", 
                "yn": "1636;1636;1801;1801", 
                "confidence": 1.0
            }, 
            {
                "class": "Wall", 
                "xn": "1656;1699;1699;1656", 
                "yn": "1695;1695;1884;1884", 
                "confidence": 1.0
            }, 
            {
                "class": "Wall", 
                "xn": "1975;2017;2017;1975", 
                "yn": "827;827;1607;1607", 
                "confidence": 1.0
            }, 
            {
                "class": "Wall", 
                "xn": "835;877;877;835", 
                "yn": "1323;1323;1518;1518", 
                "confidence": 1.0
            }, 
            {
                "class": "Wall", 
                "xn": "1656;1699;1699;1656", 
                "yn": "2026;2026;2162;2162", 
                "confidence": 1.0
            }, 
            {
                "class": "Wall", 
                "xn": "1420;1463;1463;1420", 
                "yn": "2274;2274;2498;2498", 
                "confidence": 1.0
            }, 
            {
                "class": "Wall", 
                "xn": "397;440;440;397", 
                "yn": "1943;1943;2191;2191", 
                "confidence": 1.0
            }, 
            {
                "class": "Wall", 
                "xn": "397;878;878;397", 
                "yn": "1627;1627;1669;1669", 
                "confidence": 1.0
            }, 
            {
                "class": "Wall", 
                "xn": "1419;1699;1699;1419", 
                "yn": "2120;2120;2162;2162", 
                "confidence": 1.0
            }, 
            {
                "class": "Wall", 
                "xn": "1809;2018;2018;1809", 
                "yn": "1564;1564;1607;1607", 
                "confidence": 1.0
            }, 
            {
                "class": "Wall", 
                "xn": "397;440;440;397", 
                "yn": "2333;2333;2498;2498", 
                "confidence": 1.0
            }, 
            {
                "class": "Wall", 
                "xn": "1655;1717;1717;1655", 
                "yn": "1565;1565;1608;1608", 
                "confidence": 1.0
            }, 
            {
                "class": "Wall", 
                "xn": "772;1209;1209;772", 
                "yn": "2457;2457;2498;2498", 
                "confidence": 1.0
            }, 
            {
                "class": "Wall", 
                "xn": "1348;1463;1463;1348", 
                "yn": "2456;2456;2498;2498", 
                "confidence": 1.0
            }, 
            {
                "class": "Wall", 
                "xn": "397;633;633;397", 
                "yn": "2457;2457;2498;2498", 
                "confidence": 1.0
            }, 
            {
                "class": "Wall", 
                "xn": "834;1197;1197;834", 
                "yn": "1210;1210;1248;1248", 
                "confidence": 1.0
            }, 
            {
                "class": "Wall", 
                "xn": "834;1557;1557;834", 
                "yn": "827;827;851;851", 
                "confidence": 1.0
            }, 
            {
                "class": "Wall", 
                "xn": "1295;2018;2018;1295", 
                "yn": "1211;1211;1235;1235", 
                "confidence": 1.0
            }, 
            {
                "class": "Wall", 
                "xn": "1626;2018;2018;1626", 
                "yn": "827;827;851;851", 
                "confidence": 1.0
            }, 
            {
                "class": "Wall", 
                "xn": "835;859;859;835", 
                "yn": "827;827;892;892", 
                "confidence": 1.0
            }, 
            {
                "class": "Wall", 
                "xn": "835;859;859;835", 
                "yn": "1176;1176;1253;1253", 
                "confidence": 1.0
            }, 
            {
                "class": "Wall", 
                "xn": "851;878;851;824", 
                "yn": "1678;1648;1623;1653", 
                "confidence": 1.0
            }, 
            {
                "class": "Wall", 
                "xn": "851;878;864;837", 
                "yn": "1666;1636;1623;1653", 
                "confidence": 1.0
            }, 
            {
                "class": "Wall", 
                "xn": "1442;1462;1462;1442", 
                "yn": "2120;2120;2179;2179", 
                "confidence": 1.0
            }, 
            {
                "class": "Wall", 
                "xn": "1674;1698;1698;1674", 
                "yn": "1565;1565;1624;1624", 
                "confidence": 1.0
            }, 
            {
                "class": "Wall", 
                "xn": "397;984;984;397", 
                "yn": "1671;1671;1677;1677", 
                "confidence": 1.0
            }, 
            {
                "class": "Wall", 
                "xn": "1295;1699;1699;1295", 
                "yn": "1784;1784;1790;1790", 
                "confidence": 1.0
            }, 
            {
                "class": "Wall", 
                "xn": "1189;1699;1699;1189", 
                "yn": "2120;2120;2127;2127", 
                "confidence": 1.0
            }, 
            {
                "class": "Wall", 
                "xn": "853;861;861;853", 
                "yn": "1624;1624;1677;1677", 
                "confidence": 1.0
            }, 
            {
                "class": "Wall", 
                "xn": "837;847;847;837", 
                "yn": "1624;1624;1677;1677", 
                "confidence": 1.0
            }, 
            {
                "class": "Wall", 
                "xn": "866;876;876;866", 
                "yn": "1624;1624;1677;1677", 
                "confidence": 1.0
            }, 
            {
                "class": "Wall", 
                "xn": "1425;1440;1440;1425", 
                "yn": "2120;2120;2174;2174", 
                "confidence": 1.0
            }, 
            {
                "class": "Wall", 
                "xn": "1668;1676;1676;1668", 
                "yn": "1565;1565;1618;1618", 
                "confidence": 1.0
            }, 
            {
                "class": "Wall", 
                "xn": "1658;1666;1666;1658", 
                "yn": "1565;1565;1624;1624", 
                "confidence": 1.0
            }, 
            {
                "class": "Wall", 
                "xn": "906;912;912;906", 
                "yn": "2120;2120;2498;2498", 
                "confidence": 1.0
            }, 
            {
                "class": "Wall", 
                "xn": "977;983;983;977", 
                "yn": "1211;1211;1500;1500", 
                "confidence": 1.0
            }, 
            {
                "class": "Wall", 
                "xn": "1295;1302;1302;1295", 
                "yn": "1211;1211;1465;1465", 
                "confidence": 1.0
            }, 
            {
                "class": "Wall", 
                "xn": "1295;1717;1717;1295", 
                "yn": "1565;1565;1571;1571", 
                "confidence": 1.0
            }, 
            {
                "class": "Wall", 
                "xn": "1295;1302;1302;1295", 
                "yn": "1671;1671;1790;1790", 
                "confidence": 1.0
            }, 
            {
                "class": "Wall", 
                "xn": "1190;1196;1196;1190", 
                "yn": "1671;1671;2126;2126", 
                "confidence": 1.0
            }, 
            {
                "class": "Wall", 
                "xn": "905;1091;1091;905", 
                "yn": "2120;2120;2126;2126", 
                "confidence": 1.0
            }, 
            {
                "class": "Wall", 
                "xn": "976;1197;1197;976", 
                "yn": "1417;1417;1424;1424", 
                "confidence": 1.0
            }, 
            {
                "class": "Wall", 
                "xn": "1190;1197;1197;1190", 
                "yn": "1417;1417;1500;1500", 
                "confidence": 1.0
            }, 
            {
                "class": "Wall", 
                "xn": "983;1189;1189;983", 
                "yn": "1501;1501;1497;1497", 
                "confidence": 1.0
            }, 
            {
                "class": "Text", 
                "height": 25, 
                "width": 136, 
                "x": 1340, 
                "y": 967, 
                "text": "garage", 
                "confidence": "0.92"
            }, 
            {
                "class": "Text", 
                "height": 25, 
                "width": 185, 
                "x": 1040, 
                "y": 1286, 
                "text": "buanderie", 
                "confidence": "0.93"
            }, 
            {
                "class": "Text", 
                "height": 26, 
                "width": 182, 
                "x": 1565, 
                "y": 1303, 
                "text": "chambre 1", 
                "confidence": "0.78"
            }, 
            {
                "class": "Text", 
                "height": 25, 
                "width": 55, 
                "x": 896, 
                "y": 1327, 
                "text": "wc", 
                "confidence": "0.91"
            }, 
            {
                "class": "Text", 
                "height": 25, 
                "width": 150, 
                "x": 999, 
                "y": 1445, 
                "text": "placard", 
                "confidence": "0.92"
            }, 
            {
                "class": "Text", 
                "height": 24, 
                "width": 78, 
                "x": 1011, 
                "y": 1540, 
                "text": "hall", 
                "confidence": "0.97"
            }, 
            {
                "class": "Text", 
                "height": 25, 
                "width": 137, 
                "x": 1424, 
                "y": 1616, 
                "text": "douche", 
                "confidence": "0.85"
            }, 
            {
                "class": "Text", 
                "height": 25, 
                "width": 107, 
                "x": 927, 
                "y": 1888, 
                "text": "repas", 
                "confidence": "0.74"
            }, 
            {
                "class": "Text", 
                "height": 25, 
                "width": 186, 
                "x": 1334, 
                "y": 1905, 
                "text": "chambre 2", 
                "confidence": "0.89"
            }, 
            {
                "class": "Text", 
                "height": 25, 
                "width": 130, 
                "x": 542, 
                "y": 2236, 
                "text": "sejour", 
                "confidence": "0.86"
            }, 
            {
                "class": "Text", 
                "height": 25, 
                "width": 128, 
                "x": 1109, 
                "y": 2242, 
                "text": "cuisine", 
                "confidence": "0.91"
            }, 
            {
                "class": "Text", 
                "height": 64, 
                "width": 176, 
                "x": 1554, 
                "y": 2280, 
                "text": "terrassecouverte", 
                "confidence": "0.85"
            }, 
            {
                "class": "Text", 
                "height": 25, 
                "width": 25, 
                "x": 1674, 
                "y": 2474, 
                "text": "ch", 
                "confidence": "0.81"
            }, 
            {
                "class": "Text", 
                "height": 58, 
                "width": 66, 
                "x": 1373, 
                "y": 2741, 
                "text": "pl", 
                "confidence": "0.85"
            }, 
            {
                "class": "Text", 
                "height": 60, 
                "width": 99, 
                "x": 1969, 
                "y": 2740, 
                "text": "ch", 
                "confidence": "0.87"
            }, 
            {
                "class": "Unknown", 
                "xn": "1191;1298;1298;1191", 
                "yn": "1703;1703;1756;1756"
            }
        ], 
        "class": "image", 
        "filename": "fp_43.png"
    }
]