[
    {
        "annotations": [
            {
                "class": "Room", 
                "type": "single", 
                "xn": "1589;1589;1590;1590;1910;1897;1897;1839", 
                "yn": "2727;2763;2764;2799;2799;2786;2785;2727", 
                "text": "closet", 
                "x": 1750, 
                "y": 2765
            }, 
            {
                "class": "Room", 
                "type": "single", 
                "xn": "1465;1465;1464;1464;1465;1465;1581;1581;1580;1580;1581;1581", 
                "yn": "2543;2613;2614;2712;2713;2801;2801;2713;2712;2612;2611;2543", 
                "text": "bathroom", 
                "x": 1535, 
                "y": 2646
            }, 
            {
                "class": "Room", 
                "type": "single", 
                "xn": "1466;1465;1465;1466;1466;1579;1579", 
                "yn": "2471;2472;2503;2504;2539;2539;2471", 
                "text": "closet", 
                "x": 1525, 
                "y": 2499
            }, 
            {
                "class": "Room", 
                "type": "single", 
                "xn": "1301;1300;963;963;1168;1169;1308;1309;1457;1457;1456;1456;1398;1397", 
                "yn": "2471;2472;2472;2801;2801;2800;2800;2801;2801;2713;2712;2472;2472;2471", 
                "text": "bedroom 2", 
                "x": 1299, 
                "y": 2587
            }, 
            {
                "class": "Room", 
                "type": "single", 
                "xn": "1590;1590;1589;1589;1590;1590;1589;1588;1588;1589;1589;1841;1858;1858;1917;1917;1917;1916;1916;1917;1917", 
                "yn": "2307;2365;2366;2464;2465;2613;2614;2614;2712;2713;2723;2723;2740;2741;2800;2801;2595;2594;2452;2451;2307", 
                "text": "bedroom 3", 
                "x": 1789, 
                "y": 2488
            }, 
            {
                "class": "Room", 
                "type": "single", 
                "xn": "1589;1589;1588;1588;1589;1590;1590;1917;1917;1916;1916;1917;1917", 
                "yn": "2006;2081;2082;2181;2181;2182;2299;2299;2187;2186;2092;2091;2006", 
                "text": "office", 
                "x": 1757, 
                "y": 2163
            }, 
            {
                "class": "Room", 
                "type": "single", 
                "xn": "964;964;963;963;962;962;963;963;1300;1301;1301;1300;1300;1397;1398;1473;1473", 
                "yn": "1950;1982;1983;2052;2053;2192;2193;2275;2275;2276;2282;2283;2357;2357;2358;2358;1950", 
                "text": "bedroom 1", 
                "x": 1203, 
                "y": 2121
            }, 
            {
                "class": "Room", 
                "type": "single", 
                "xn": "1685;1684;1684;1683;1683;1682;1682;1681;1681;1680;1680;1679;1679;1678;1678;1677;1677;1676;1676;1675;1675;1674;1674;1673;1673;1672;1672;1671;1671;1670;1670;1669;1669;1668;1668;1666;1665;1664;1663;1662;1661;1660;1659;1658;1657;1656;1655;1654;1653;1652;1651;1650;1649;1648;1647;1646;1645;1644;1643;1642;1641;1640;1639;1638;1637;1636;1635;1634;1633;1632;1631;1630;1629;1628;1627;1626;1625;1624;1623;1622;1621;1620;1619;1618;1617;1616;1615;1614;1613;1612;1611;1610;1609;1608;1607;1606;1605;1604;1603;1602;1601;1600;1600;1599;1599;1598;1598;1597;1597;1596;1596;1595;1595;1589;1589;1692;1693;1917;1917;1916;1916;1917;1917;1693;1692", 
                "yn": "1119;1120;1122;1123;1125;1126;1128;1129;1131;1132;1134;1135;1137;1138;1140;1141;1143;1144;1147;1148;1150;1151;1153;1154;1156;1157;1159;1160;1162;1163;1165;1166;1168;1169;1170;1172;1172;1173;1173;1174;1174;1175;1175;1176;1176;1177;1177;1178;1178;1179;1179;1180;1180;1181;1181;1182;1182;1183;1183;1184;1184;1185;1185;1186;1186;1187;1187;1188;1188;1189;1189;1190;1190;1191;1191;1192;1192;1193;1193;1194;1194;1195;1195;1196;1196;1197;1197;1198;1198;1199;1199;1200;1200;1201;1201;1202;1202;1203;1203;1204;1204;1203;1196;1195;1180;1179;1164;1163;1148;1147;1132;1131;1120;1120;1300;1300;1301;1301;1278;1277;1207;1206;1120;1120;1119", 
                "text": "cellar", 
                "x": 1763, 
                "y": 1230
            }, 
            {
                "class": "Room", 
                "type": "single", 
                "xn": "1289;1288;945;945;944;944;945;945;1692;1693;1693;1694;1694;1695;1695;1696;1696;1697;1697;1698;1698;1699;1699;1699;1700;1700;1701;1701;1356;1355", 
                "yn": "440;441;441;741;742;952;953;1018;1018;1019;1023;1024;1033;1034;1042;1043;1051;1052;1061;1062;1070;1071;1076;1054;1053;463;462;441;441;440", 
                "text": "garage", 
                "x": 1221, 
                "y": 863
            }, 
            {
                "class": "Room", 
                "type": "single", 
                "xn": "1484;1485;1578;1579;1579;1578;965;964;964;965;1290;1291;1291;1292;1483;1484", 
                "yn": "1999;1998;1998;1999;2462;2463;2463;2462;2285;2284;2284;2285;2365;2366;2366;2365", 
                "text": "bathroom", 
                "x": 1124, 
                "y": 2410
            }, 
            {
                "class": "Room", 
                "type": "single", 
                "xn": "1484;1485;1796;1797;1797;1796;1485;1484", 
                "yn": "1907;1906;1906;1907;1995;1996;1996;1995", 
                "text": "toilet", 
                "x": 1650, 
                "y": 1938
            }, 
            {
                "class": "Door", 
                "xn": "1464;1582;1582;1464", 
                "yn": "2464;2464;2471;2471", 
                "confidence": 1.0
            }, 
            {
                "class": "Door", 
                "xn": "1594;1693;1693;1594", 
                "yn": "1076;1076;1119;1119", 
                "confidence": 1.0
            }, 
            {
                "class": "Door", 
                "xn": "1587;1693;1693;1587", 
                "yn": "1301;1301;1308;1308", 
                "confidence": 1.0
            }, 
            {
                "class": "Door", 
                "xn": "1481;1581;1581;1481", 
                "yn": "1891;1891;1904;1904", 
                "confidence": 1.0
            }, 
            {
                "class": "Door", 
                "xn": "1298;1398;1398;1298", 
                "yn": "2358;2358;2365;2365", 
                "confidence": 1.0
            }, 
            {
                "class": "Door", 
                "xn": "1299;1398;1398;1299", 
                "yn": "2464;2464;2471;2471", 
                "confidence": 1.0
            }, 
            {
                "class": "Door", 
                "xn": "1581;1588;1588;1581", 
                "yn": "2080;2080;2182;2182", 
                "confidence": 1.0
            }, 
            {
                "class": "Door", 
                "xn": "1457;1464;1464;1457", 
                "yn": "2612;2612;2713;2713", 
                "confidence": 1.0
            }, 
            {
                "class": "Door", 
                "xn": "1581;1588;1588;1581", 
                "yn": "2612;2612;2713;2713", 
                "confidence": 1.0
            }, 
            {
                "class": "Door", 
                "xn": "395;402;402;395", 
                "yn": "1477;1477;1577;1577", 
                "confidence": 1.0
            }, 
            {
                "class": "Door", 
                "xn": "395;402;402;395", 
                "yn": "1507;1507;1577;1577", 
                "confidence": 1.0
            }, 
            {
                "class": "Door", 
                "xn": "1799;1840;1840;1799", 
                "yn": "1779;1779;1886;1886", 
                "confidence": 1.0
            }, 
            {
                "class": "Door", 
                "xn": "1581;1589;1589;1581", 
                "yn": "2364;2364;2465;2465", 
                "confidence": 1.0
            }, 
            {
                "class": "Door", 
                "xn": "1496;1573;1573;1496", 
                "yn": "1976;1976;1997;1997", 
                "confidence": 0.866666666667
            }, 
            {
                "class": "Window", 
                "xn": "1917;1960;1960;1917", 
                "yn": "1207;1207;1278;1278", 
                "confidence": 1.0
            }, 
            {
                "class": "Window", 
                "xn": "919;962;962;919", 
                "yn": "2388;2388;2459;2459", 
                "confidence": 1.0
            }, 
            {
                "class": "Window", 
                "xn": "1701;1724;1724;1701", 
                "yn": "463;463;1077;1077", 
                "confidence": 1.0
            }, 
            {
                "class": "Window", 
                "xn": "1917;1960;1960;1917", 
                "yn": "2452;2452;2595;2595", 
                "confidence": 1.0
            }, 
            {
                "class": "Window", 
                "xn": "1798;1843;1843;1798", 
                "yn": "1903;1903;1960;1960", 
                "confidence": 1.0
            }, 
            {
                "class": "Window", 
                "xn": "1287;1356;1356;1287", 
                "yn": "415;415;440;440", 
                "confidence": 1.0
            }, 
            {
                "class": "Window", 
                "xn": "919;944;944;919", 
                "yn": "740;740;953;953", 
                "confidence": 1.0
            }, 
            {
                "class": "Window", 
                "xn": "1917;1960;1960;1917", 
                "yn": "1431;1431;1573;1573", 
                "confidence": 1.0
            }, 
            {
                "class": "Window", 
                "xn": "1169;1309;1309;1169", 
                "yn": "2801;2801;2843;2843", 
                "confidence": 1.0
            }, 
            {
                "class": "Window", 
                "xn": "919;962;962;919", 
                "yn": "2051;2051;2193;2193", 
                "confidence": 1.0
            }, 
            {
                "class": "Window", 
                "xn": "641;685;685;641", 
                "yn": "1118;1118;1343;1343", 
                "confidence": 1.0
            }, 
            {
                "class": "Window", 
                "xn": "1917;1960;1960;1917", 
                "yn": "2092;2092;2187;2187", 
                "confidence": 1.0
            }, 
            {
                "class": "Window", 
                "xn": "907;907;685;642", 
                "yn": "1982;1939;1715;1715", 
                "confidence": 0.5
            }, 
            {
                "class": "Wall", 
                "xn": "642;1595;1595;642", 
                "yn": "1077;1077;1119;1119", 
                "confidence": 1.0
            }, 
            {
                "class": "Wall", 
                "xn": "1918;1960;1960;1918", 
                "yn": "1573;1573;1763;1763", 
                "confidence": 1.0
            }, 
            {
                "class": "Wall", 
                "xn": "1918;1960;1960;1918", 
                "yn": "2595;2595;2843;2843", 
                "confidence": 1.0
            }, 
            {
                "class": "Wall", 
                "xn": "920;962;962;920", 
                "yn": "2459;2459;2843;2843", 
                "confidence": 1.0
            }, 
            {
                "class": "Wall", 
                "xn": "1918;1960;1960;1918", 
                "yn": "2187;2187;2453;2453", 
                "confidence": 1.0
            }, 
            {
                "class": "Wall", 
                "xn": "1693;1961;1961;1693", 
                "yn": "1077;1077;1119;1119", 
                "confidence": 1.0
            }, 
            {
                "class": "Wall", 
                "xn": "920;962;962;920", 
                "yn": "2193;2193;2389;2389", 
                "confidence": 1.0
            }, 
            {
                "class": "Wall", 
                "xn": "1918;1960;1960;1918", 
                "yn": "1963;1963;2093;2093", 
                "confidence": 1.0
            }, 
            {
                "class": "Wall", 
                "xn": "1799;1961;1961;1799", 
                "yn": "1720;1720;1764;1764", 
                "confidence": 1.0
            }, 
            {
                "class": "Wall", 
                "xn": "1918;1960;1960;1918", 
                "yn": "1077;1077;1208;1208", 
                "confidence": 1.0
            }, 
            {
                "class": "Wall", 
                "xn": "1918;1960;1960;1918", 
                "yn": "1278;1278;1432;1432", 
                "confidence": 1.0
            }, 
            {
                "class": "Wall", 
                "xn": "919;962;962;919", 
                "yn": "1939;1939;2052;2052", 
                "confidence": 1.0
            }, 
            {
                "class": "Wall", 
                "xn": "1799;1961;1961;1799", 
                "yn": "1960;1960;2003;2003", 
                "confidence": 1.0
            }, 
            {
                "class": "Wall", 
                "xn": "1309;1961;1961;1309", 
                "yn": "2802;2802;2843;2843", 
                "confidence": 1.0
            }, 
            {
                "class": "Wall", 
                "xn": "642;685;685;642", 
                "yn": "1343;1343;1715;1715", 
                "confidence": 1.0
            }, 
            {
                "class": "Wall", 
                "xn": "919;1170;1170;919", 
                "yn": "2802;2802;2843;2843", 
                "confidence": 1.0
            }, 
            {
                "class": "Wall", 
                "xn": "1356;1725;1725;1356", 
                "yn": "416;416;440;440", 
                "confidence": 1.0
            }, 
            {
                "class": "Wall", 
                "xn": "920;944;944;920", 
                "yn": "953;953;1119;1119", 
                "confidence": 1.0
            }, 
            {
                "class": "Wall", 
                "xn": "919;1288;1288;919", 
                "yn": "416;416;440;440", 
                "confidence": 1.0
            }, 
            {
                "class": "Wall", 
                "xn": "920;944;944;920", 
                "yn": "416;416;741;741", 
                "confidence": 1.0
            }, 
            {
                "class": "Wall", 
                "xn": "1702;1724;1724;1702", 
                "yn": "416;416;464;464", 
                "confidence": 1.0
            }, 
            {
                "class": "Wall", 
                "xn": "1700;1722;1722;1700", 
                "yn": "1054;1054;1119;1119", 
                "confidence": 1.0
            }, 
            {
                "class": "Wall", 
                "xn": "1581;1843;1843;1581", 
                "yn": "1886;1886;1904;1904", 
                "confidence": 1.0
            }, 
            {
                "class": "Wall", 
                "xn": "643;684;684;643", 
                "yn": "1077;1077;1131;1131", 
                "confidence": 1.0
            }, 
            {
                "class": "Wall", 
                "xn": "1800;1840;1840;1800", 
                "yn": "1951;1951;2005;2005", 
                "confidence": 1.0
            }, 
            {
                "class": "Wall", 
                "xn": "907;963;963;907", 
                "yn": "1950;1950;1982;1982", 
                "confidence": 1.0
            }, 
            {
                "class": "Wall", 
                "xn": "1800;1840;1840;1800", 
                "yn": "1721;1721;1780;1780", 
                "confidence": 1.0
            }, 
            {
                "class": "Wall", 
                "xn": "1582;1588;1588;1582", 
                "yn": "1077;1077;1308;1308", 
                "confidence": 1.0
            }, 
            {
                "class": "Wall", 
                "xn": "1474;1961;1961;1474", 
                "yn": "1721;1721;1728;1728", 
                "confidence": 1.0
            }, 
            {
                "class": "Wall", 
                "xn": "919;1300;1300;919", 
                "yn": "2465;2465;2471;2471", 
                "confidence": 1.0
            }, 
            {
                "class": "Wall", 
                "xn": "1581;1961;1961;1581", 
                "yn": "2300;2300;2306;2306", 
                "confidence": 1.0
            }, 
            {
                "class": "Wall", 
                "xn": "919;1300;1300;919", 
                "yn": "2276;2276;2282;2282", 
                "confidence": 1.0
            }, 
            {
                "class": "Wall", 
                "xn": "1581;1961;1961;1581", 
                "yn": "1997;1997;2005;2005", 
                "confidence": 1.0
            }, 
            {
                "class": "Wall", 
                "xn": "1693;1961;1961;1693", 
                "yn": "1302;1302;1308;1308", 
                "confidence": 1.0
            }, 
            {
                "class": "Wall", 
                "xn": "907;1483;1483;907", 
                "yn": "1939;1939;1949;1949", 
                "confidence": 1.0
            }, 
            {
                "class": "Wall", 
                "xn": "1582;1588;1588;1582", 
                "yn": "2713;2713;2843;2843", 
                "confidence": 1.0
            }, 
            {
                "class": "Wall", 
                "xn": "1458;1464;1464;1458", 
                "yn": "2713;2713;2843;2843", 
                "confidence": 1.0
            }, 
            {
                "class": "Wall", 
                "xn": "1582;1589;1589;1582", 
                "yn": "2182;2182;2365;2365", 
                "confidence": 1.0
            }, 
            {
                "class": "Wall", 
                "xn": "1292;1299;1299;1292", 
                "yn": "2276;2276;2365;2365", 
                "confidence": 1.0
            }, 
            {
                "class": "Wall", 
                "xn": "1582;1588;1588;1582", 
                "yn": "1998;1998;2081;2081", 
                "confidence": 1.0
            }, 
            {
                "class": "Wall", 
                "xn": "1474;1482;1482;1474", 
                "yn": "1892;1892;2365;2365", 
                "confidence": 1.0
            }, 
            {
                "class": "Wall", 
                "xn": "1398;1483;1483;1398", 
                "yn": "2359;2359;2365;2365", 
                "confidence": 1.0
            }, 
            {
                "class": "Wall", 
                "xn": "1398;1465;1465;1398", 
                "yn": "2465;2465;2471;2471", 
                "confidence": 1.0
            }, 
            {
                "class": "Wall", 
                "xn": "1582;1589;1589;1582", 
                "yn": "2465;2465;2613;2613", 
                "confidence": 1.0
            }, 
            {
                "class": "Wall", 
                "xn": "1457;1464;1464;1457", 
                "yn": "2465;2465;2613;2613", 
                "confidence": 1.0
            }, 
            {
                "class": "Wall", 
                "xn": "1457;1589;1589;1457", 
                "yn": "2542;2542;2548;2548", 
                "confidence": 1.0
            }, 
            {
                "class": "Wall", 
                "xn": "1464;1581;1581;1464", 
                "yn": "2543;2543;2539;2539", 
                "confidence": 1.0
            }, 
            {
                "class": "Wall", 
                "xn": "1587;1840;1840;1587", 
                "yn": "2727;2727;2723;2723", 
                "confidence": 1.0
            }, 
            {
                "class": "Wall", 
                "xn": "1913;1916;1841;1838", 
                "yn": "2802;2799;2723;2726", 
                "confidence": 1.0
            }, 
            {
                "class": "Stair", 
                "xn": "943;944;1692;1693;1693;1694;1694;1695;1695;1696;1696;1697;1697;1698;1698;1699;1699;1698;1698;1697;1697;1696;1696;1695;1695;1694;1694;1693;1693;1692;1692;1691;1691;1690;1690;1689;1689;1688;1688;1687;1687;1686;1686;1685;1685;1684;1684;1683;1683;1682;1682;1681;1681;1680;1680;1679;1679;1678;1678;1677;1677;1676;1676;1675;1675;1674;1674;1673;1673;1672;1672;1671;1671;1670;1670;1669;1669;1668;1668;1666;1665;1664;1663;1662;1661;1660;1659;1658;1657;1656;1655;1654;1653;1652;1651;1650;1649;1648;1647;1646;1645;1644;1643;1642;1641;1640;1639;1638;1637;1636;1635;1634;1633;1632;1631;1630;1629;1628;1627;1626;1625;1624;1623;1622;1621;1620;1619;1618;1617;1616;1615;1614;1613;1612;1611;1610;1609;1608;1607;1606;1605;1604;1603;1602;1601;1600;1600;1599;1599;1598;1598;1597;1597;1596;1596;1595;1595;1594;1594;1593;1593;1592;1592;944;943", 
                "yn": "1019;1018;1018;1019;1023;1024;1033;1034;1042;1043;1051;1052;1061;1062;1070;1071;1076;1077;1079;1080;1082;1083;1085;1086;1088;1089;1091;1092;1094;1095;1097;1098;1101;1102;1104;1105;1107;1108;1110;1111;1113;1114;1116;1117;1119;1120;1122;1123;1125;1126;1128;1129;1131;1132;1134;1135;1137;1138;1140;1141;1143;1144;1147;1148;1150;1151;1153;1154;1156;1157;1159;1160;1162;1163;1165;1166;1168;1169;1170;1172;1172;1173;1173;1174;1174;1175;1175;1176;1176;1177;1177;1178;1178;1179;1179;1180;1180;1181;1181;1182;1182;1183;1183;1184;1184;1185;1185;1186;1186;1187;1187;1188;1188;1189;1189;1190;1190;1191;1191;1192;1192;1193;1193;1194;1194;1195;1195;1196;1196;1197;1197;1198;1198;1199;1199;1200;1200;1201;1201;1202;1202;1203;1203;1204;1204;1203;1196;1195;1180;1179;1164;1163;1148;1147;1132;1131;1116;1115;1100;1099;1084;1083;1076;1076;1075", 
                "confidence": 1.0
            }, 
            {
                "class": "Text", 
                "height": 25, 
                "width": 137, 
                "x": 1153, 
                "y": 851, 
                "text": "garage", 
                "confidence": "0.93"
            }, 
            {
                "class": "Text", 
                "height": 26, 
                "width": 133, 
                "x": 1697, 
                "y": 1217, 
                "text": "cellier", 
                "confidence": "0.85"
            }, 
            {
                "class": "Text", 
                "height": 24, 
                "width": 108, 
                "x": 1159, 
                "y": 1306, 
                "text": "repas", 
                "confidence": "0.9"
            }, 
            {
                "class": "Text", 
                "height": 25, 
                "width": 129, 
                "x": 1632, 
                "y": 1495, 
                "text": "cuisine", 
                "confidence": "0.88"
            }, 
            {
                "class": "Text", 
                "height": 24, 
                "width": 130, 
                "x": 941, 
                "y": 1690, 
                "text": "sejour", 
                "confidence": "0.89"
            }, 
            {
                "class": "Text", 
                "height": 24, 
                "width": 80, 
                "x": 1531, 
                "y": 1784, 
                "text": "hall", 
                "confidence": "0.95"
            }, 
            {
                "class": "Text", 
                "height": 25, 
                "width": 101, 
                "x": 1874, 
                "y": 1855, 
                "text": "porche", 
                "confidence": "0.89"
            }, 
            {
                "class": "Text", 
                "height": 24, 
                "width": 53, 
                "x": 1624, 
                "y": 1926, 
                "text": "wc", 
                "confidence": "0.88"
            }, 
            {
                "class": "Text", 
                "height": 24, 
                "width": 184, 
                "x": 1111, 
                "y": 2109, 
                "text": "chambre 1", 
                "confidence": "0.85"
            }, 
            {
                "class": "Text", 
                "height": 26, 
                "width": 132, 
                "x": 1691, 
                "y": 2150, 
                "text": "bureau", 
                "confidence": "0.85"
            }, 
            {
                "class": "Text", 
                "height": 25, 
                "width": 94, 
                "x": 1077, 
                "y": 2398, 
                "text": "bains", 
                "confidence": "0.9"
            }, 
            {
                "class": "Text", 
                "height": 24, 
                "width": 106, 
                "x": 1472, 
                "y": 2487, 
                "text": "placard", 
                "confidence": "0.68"
            }, 
            {
                "class": "Text", 
                "height": 26, 
                "width": 187, 
                "x": 1696, 
                "y": 2475, 
                "text": "chambre 3", 
                "confidence": "0.91"
            }, 
            {
                "class": "Text", 
                "height": 25, 
                "width": 187, 
                "x": 1206, 
                "y": 2575, 
                "text": "chambre 2", 
                "confidence": "0.92"
            }, 
            {
                "class": "Text", 
                "height": 25, 
                "width": 138, 
                "x": 1466, 
                "y": 2634, 
                "text": "douche", 
                "confidence": "0.85"
            }, 
            {
                "class": "Text", 
                "height": 25, 
                "width": 106, 
                "x": 1697, 
                "y": 2753, 
                "text": "placard", 
                "confidence": "0.89"
            }
        ], 
        "class": "image", 
        "filename": "fp_6.png"
    }
]