[
    {
        "annotations": [
            {
                "class": "Room", 
                "type": "single", 
                "xn": "977;977;976;976;977;978;978;1022;1023;1074;1074;1073;1073", 
                "yn": "1661;1712;1713;1782;1782;1783;1834;1834;1835;1835;1759;1758;1661", 
                "text": "toilet", 
                "x": 1022, 
                "y": 1687
            }, 
            {
                "class": "Room", 
                "type": "single", 
                "xn": "960;961;1285;1286;1286;1287;1310;1311;1311;1310;1209;1208;1208;1207;1181;1180;1180;1179;961;960", 
                "yn": "1227;1226;1226;1227;1307;1308;1308;1309;1462;1463;1463;1462;1328;1327;1327;1328;1461;1462;1462;1461", 
                "text": "cellar", 
                "x": 1079, 
                "y": 1337
            }, 
            {
                "class": "Room", 
                "type": "single", 
                "xn": "1457;1458;1787;1789;1822;1823;1823;1822;1806;1805;1805;1804;1457;1456;1456;1457", 
                "yn": "734;733;733;735;735;736;1060;1061;1061;1062;1355;1356;1356;1355;981;980", 
                "text": "garage", 
                "x": 1642, 
                "y": 963
            }, 
            {
                "class": "Room", 
                "type": "single", 
                "xn": "960;961;1455;1456;1456;1455;1455;1454;1411;1410;1410;1409;1409;1408;1408;1407;1407;1406;1406;1405;1405;1404;1404;1403;1403;1402;1402;1401;1401;1400;1400;1399;1399;1398;1398;1397;1396;1395;1394;1392;1391;1390;1389;1387;1386;1385;1384;1383;1382;1380;1379;1378;1377;1375;1374;1373;1372;1371;1370;1368;1367;1367;1365;1364;1363;1361;1360;1359;1358;1357;1356;1355;1354;1352;1351;1350;1349;1348;1347;1346;1345;1344;1343;1341;1340;1339;1338;1338;1337;1337;1336;1336;1335;1335;1334;1334;1333;1333;1332;1332;1331;1331;1330;1330;1329;1329;1328;1328;1327;1327;1326;1326;1325;1325;1324;1324;1323;1323;1322;1322;1321;1321;1320;1320;1319;1319;1318;1318;1317;1317;1315;961;960", 
                "yn": "734;733;733;734;980;981;1225;1226;1226;1225;1224;1223;1218;1217;1211;1210;1204;1203;1197;1196;1190;1189;1184;1183;1177;1176;1170;1169;1163;1162;1156;1155;1149;1148;1142;1141;1142;1142;1143;1143;1144;1144;1145;1145;1146;1146;1147;1147;1148;1148;1149;1149;1150;1150;1151;1151;1152;1152;1153;1153;1154;1155;1157;1157;1158;1158;1159;1159;1160;1160;1161;1161;1162;1162;1163;1163;1164;1164;1165;1165;1166;1166;1167;1167;1168;1168;1169;1173;1174;1175;1176;1178;1179;1180;1181;1182;1183;1185;1186;1187;1188;1189;1190;1192;1193;1194;1195;1196;1197;1199;1200;1201;1202;1203;1204;1206;1207;1208;1209;1210;1211;1213;1214;1215;1216;1217;1218;1220;1221;1222;1224;1224;1223", 
                "text": "other room", 
                "x": 1096, 
                "y": 887
            }, 
            {
                "class": "Door", 
                "xn": "1312;1412;1412;1312", 
                "yn": "1227;1227;1270;1270", 
                "confidence": 1.0
            }, 
            {
                "class": "Door", 
                "xn": "1596;1689;1689;1596", 
                "yn": "2296;2296;2338;2338", 
                "confidence": 1.0
            }, 
            {
                "class": "Door", 
                "xn": "1029;1083;1083;1029", 
                "yn": "1499;1499;1607;1607", 
                "confidence": 1.0
            }, 
            {
                "class": "Door", 
                "xn": "1807;1850;1850;1807", 
                "yn": "1705;1705;1801;1801", 
                "confidence": 1.0
            }, 
            {
                "class": "Door", 
                "xn": "1074;1082;1082;1074", 
                "yn": "1659;1659;1759;1759", 
                "confidence": 1.0
            }, 
            {
                "class": "Door", 
                "xn": "1214;1305;1305;1214", 
                "yn": "1464;1464;1483;1483", 
                "confidence": 1.0
            }, 
            {
                "class": "Window", 
                "xn": "1436;1789;1789;1436", 
                "yn": "707;707;732;732", 
                "confidence": 1.0
            }, 
            {
                "class": "Window", 
                "xn": "1807;1850;1850;1807", 
                "yn": "1505;1505;1600;1600", 
                "confidence": 1.0
            }, 
            {
                "class": "Window", 
                "xn": "1825;1850;1850;1825", 
                "yn": "991;991;1063;1063", 
                "confidence": 1.0
            }, 
            {
                "class": "Window", 
                "xn": "933;976;976;933", 
                "yn": "1711;1711;1783;1783", 
                "confidence": 1.0
            }, 
            {
                "class": "Window", 
                "xn": "976;1023;1023;976", 
                "yn": "1835;1835;1895;1895", 
                "confidence": 1.0
            }, 
            {
                "class": "Window", 
                "xn": "933;958;958;933", 
                "yn": "967;967;1039;1039", 
                "confidence": 1.0
            }, 
            {
                "class": "Window", 
                "xn": "1194;1264;1264;1194", 
                "yn": "707;707;732;732", 
                "confidence": 1.0
            }, 
            {
                "class": "Window", 
                "xn": "1807;1850;1850;1807", 
                "yn": "2048;2048;2190;2190", 
                "confidence": 1.0
            }, 
            {
                "class": "Window", 
                "xn": "933;976;976;933", 
                "yn": "2001;2001;2096;2096", 
                "confidence": 1.0
            }, 
            {
                "class": "Window", 
                "xn": "1252;1274;1419;1397", 
                "yn": "2473;2474;2339;2338", 
                "confidence": 0.6
            }, 
            {
                "class": "Wall", 
                "xn": "1808;1850;1850;1808", 
                "yn": "1600;1600;1706;1706", 
                "confidence": 1.0
            }, 
            {
                "class": "Wall", 
                "xn": "934;976;976;934", 
                "yn": "2096;2096;2515;2515", 
                "confidence": 1.0
            }, 
            {
                "class": "Wall", 
                "xn": "934;977;977;934", 
                "yn": "1783;1783;2002;2002", 
                "confidence": 1.0
            }, 
            {
                "class": "Wall", 
                "xn": "1807;1850;1850;1807", 
                "yn": "2190;2190;2338;2338", 
                "confidence": 1.0
            }, 
            {
                "class": "Wall", 
                "xn": "1808;1850;1850;1808", 
                "yn": "1801;1801;2049;2049", 
                "confidence": 1.0
            }, 
            {
                "class": "Wall", 
                "xn": "1807;1850;1850;1807", 
                "yn": "1063;1063;1506;1506", 
                "confidence": 1.0
            }, 
            {
                "class": "Wall", 
                "xn": "934;976;976;934", 
                "yn": "1618;1618;1712;1712", 
                "confidence": 1.0
            }, 
            {
                "class": "Wall", 
                "xn": "1412;1454;1454;1412", 
                "yn": "1228;1228;1659;1659", 
                "confidence": 1.0
            }, 
            {
                "class": "Wall", 
                "xn": "933;1274;1274;933", 
                "yn": "2474;2474;2515;2515", 
                "confidence": 1.0
            }, 
            {
                "class": "Wall", 
                "xn": "1397;1597;1597;1397", 
                "yn": "2297;2297;2338;2338", 
                "confidence": 1.0
            }, 
            {
                "class": "Wall", 
                "xn": "1689;1851;1851;1689", 
                "yn": "2296;2296;2338;2338", 
                "confidence": 1.0
            }, 
            {
                "class": "Wall", 
                "xn": "933;1183;1183;933", 
                "yn": "1464;1464;1500;1500", 
                "confidence": 1.0
            }, 
            {
                "class": "Wall", 
                "xn": "934;958;958;934", 
                "yn": "1039;1039;1488;1488", 
                "confidence": 1.0
            }, 
            {
                "class": "Wall", 
                "xn": "1411;1851;1851;1411", 
                "yn": "1358;1358;1382;1382", 
                "confidence": 1.0
            }, 
            {
                "class": "Wall", 
                "xn": "1789;1851;1851;1789", 
                "yn": "708;708;733;733", 
                "confidence": 1.0
            }, 
            {
                "class": "Wall", 
                "xn": "1264;1437;1437;1264", 
                "yn": "708;708;732;732", 
                "confidence": 1.0
            }, 
            {
                "class": "Wall", 
                "xn": "1826;1850;1850;1826", 
                "yn": "708;708;992;992", 
                "confidence": 1.0
            }, 
            {
                "class": "Wall", 
                "xn": "1288;1313;1313;1288", 
                "yn": "1228;1228;1306;1306", 
                "confidence": 1.0
            }, 
            {
                "class": "Wall", 
                "xn": "934;958;958;934", 
                "yn": "708;708;968;968", 
                "confidence": 1.0
            }, 
            {
                "class": "Wall", 
                "xn": "933;1195;1195;933", 
                "yn": "708;708;732;732", 
                "confidence": 1.0
            }, 
            {
                "class": "Wall", 
                "xn": "1182;1207;1207;1182", 
                "yn": "1328;1328;1464;1464", 
                "confidence": 1.0
            }, 
            {
                "class": "Wall", 
                "xn": "1269;1244;1220;1245", 
                "yn": "2493;2465;2485;2513", 
                "confidence": 1.0
            }, 
            {
                "class": "Wall", 
                "xn": "1449;1425;1401;1425", 
                "yn": "2321;2297;2320;2344", 
                "confidence": 1.0
            }, 
            {
                "class": "Wall", 
                "xn": "933;1083;1083;933", 
                "yn": "1607;1607;1660;1660", 
                "confidence": 1.0
            }, 
            {
                "class": "Wall", 
                "xn": "933;1248;1248;933", 
                "yn": "1836;1836;1842;1842", 
                "confidence": 1.0
            }, 
            {
                "class": "Wall", 
                "xn": "933;1030;1030;933", 
                "yn": "1886;1886;1893;1893", 
                "confidence": 1.0
            }, 
            {
                "class": "Wall", 
                "xn": "1023;1030;1030;1023", 
                "yn": "1836;1836;1895;1895", 
                "confidence": 1.0
            }, 
            {
                "class": "Wall", 
                "xn": "1075;1082;1082;1075", 
                "yn": "1759;1759;1842;1842", 
                "confidence": 1.0
            }, 
            {
                "class": "Wall", 
                "xn": "1241;1248;1248;1241", 
                "yn": "1759;1759;1842;1842", 
                "confidence": 1.0
            }, 
            {
                "class": "Stair", 
                "xn": "1395;1396;1397;1397;1398;1398;1399;1399;1400;1400;1401;1401;1402;1402;1403;1403;1404;1404;1405;1405;1406;1406;1407;1407;1408;1408;1409;1409;1410;1410;1411;1411;1410;1410;1409;1409;1408;1408;1407;1407;1406;1406;1405;1405;1404;1404;1403;1402;1401;1400;1399;1398;1397;1396;1395;1394;1393;1392;1391;1390;1389;1388;1387;1385;1384;1383;1382;1381;1380;1379;1378;1377;1376;1375;1374;1373;1372;1370;1369;1368;1367;1366;1365;1364;1363;1362;1361;1360;1359;1358;1357;1356;1355;1353;1352;1351;1350;1349;1348;1347;1346;1345;1344;1343;1342;1341;1340;1339;1338;1338;1337;1337;1336;1336;1335;1335;1334;1334;1333;1333;1332;1332;1331;1331;1330;1330;1329;1329;1328;1328;1327;1327;1326;1326;1325;1325;1324;1324;1323;1323;1322;1322;1321;1321;1320;1320;1319;1319;1318;1318;1317;1317;1316;1316;1315;1315;1314;1314;1313;1313;1312;1312;1311;1311;1312;1312;1313;1313;1314;1314;1315;1315;1316;1316;1317;1317;1318;1318;1319;1319;1320;1320;1321;1321;1322;1322;1323;1323;1324;1324;1325;1325;1326;1326;1327;1327;1328;1328;1329;1329;1330;1330;1331;1331;1332;1332;1333;1333;1334;1334;1335;1335;1336;1336;1337;1337;1338;1338;1339;1339;1341;1342;1343;1344;1345;1346;1347;1348;1349;1350;1351;1352;1353;1354;1355;1356;1357;1358;1359;1360;1361;1362;1363;1364;1365;1366;1367;1368;1370;1371;1372;1373;1374;1375;1376;1377;1378;1379;1380;1381;1382;1383;1384;1385;1386;1387;1388;1389;1390;1391;1392;1393;1394", 
                "yn": "1142;1141;1142;1145;1146;1151;1152;1158;1159;1165;1166;1171;1172;1178;1179;1184;1185;1191;1192;1197;1198;1204;1205;1211;1212;1217;1218;1224;1225;1230;1231;1256;1257;1302;1303;1348;1349;1393;1394;1439;1440;1485;1486;1531;1532;1554;1555;1555;1554;1554;1553;1553;1552;1552;1551;1551;1550;1550;1549;1549;1548;1548;1547;1547;1546;1546;1545;1545;1544;1544;1543;1543;1542;1542;1541;1541;1540;1540;1539;1539;1538;1538;1537;1537;1536;1536;1535;1535;1534;1534;1533;1533;1532;1532;1531;1531;1530;1530;1529;1529;1528;1528;1527;1527;1526;1526;1525;1525;1524;1523;1522;1521;1520;1519;1518;1516;1515;1514;1513;1511;1510;1509;1508;1507;1506;1504;1503;1502;1501;1499;1498;1497;1496;1495;1494;1492;1491;1490;1489;1488;1487;1485;1484;1483;1482;1480;1479;1478;1477;1476;1475;1473;1472;1471;1470;1468;1467;1466;1465;1464;1463;1349;1348;1233;1232;1231;1230;1229;1228;1227;1226;1224;1223;1222;1221;1220;1219;1218;1217;1215;1214;1213;1212;1211;1210;1209;1208;1206;1205;1204;1203;1202;1201;1200;1199;1197;1196;1195;1194;1193;1192;1191;1190;1188;1187;1186;1185;1184;1183;1182;1181;1179;1178;1177;1176;1175;1174;1173;1172;1171;1169;1169;1168;1168;1167;1167;1166;1166;1165;1165;1164;1164;1163;1163;1162;1162;1161;1161;1160;1160;1159;1159;1158;1158;1157;1157;1156;1156;1154;1154;1153;1153;1152;1152;1151;1151;1150;1150;1149;1149;1148;1148;1147;1147;1146;1146;1145;1145;1144;1144;1143;1143;1142", 
                "confidence": 1.0
            }, 
            {
                "class": "Text", 
                "height": 30, 
                "width": 168, 
                "x": 1012, 
                "y": 872, 
                "text": "atelier", 
                "confidence": "0.91"
            }, 
            {
                "class": "Text", 
                "height": 31, 
                "width": 170, 
                "x": 1557, 
                "y": 948, 
                "text": "garage", 
                "confidence": "0.91"
            }, 
            {
                "class": "Text", 
                "height": 30, 
                "width": 166, 
                "x": 996, 
                "y": 1322, 
                "text": "cellier", 
                "confidence": "0.9"
            }, 
            {
                "class": "Text", 
                "height": 29, 
                "width": 97, 
                "x": 1254, 
                "y": 1604, 
                "text": "hall", 
                "confidence": "0.79"
            }, 
            {
                "class": "Text", 
                "height": 70, 
                "width": 161, 
                "x": 1557, 
                "y": 1582, 
                "text": "cuisine", 
                "confidence": "0.88"
            }, 
            {
                "class": "Text", 
                "height": 31, 
                "width": 66, 
                "x": 989, 
                "y": 1672, 
                "text": "wc", 
                "confidence": "0.8"
            }, 
            {
                "class": "Text", 
                "height": 30, 
                "width": 133, 
                "x": 1641, 
                "y": 2094, 
                "text": "repas", 
                "confidence": "0.81"
            }, 
            {
                "class": "Text", 
                "height": 30, 
                "width": 162, 
                "x": 1227, 
                "y": 2192, 
                "text": "sejour", 
                "confidence": "0.92"
            }, 
            {
                "class": "Unknown", 
                "xn": "972;1285;1285;972", 
                "yn": "1205;1205;1224;1224"
            }, 
            {
                "class": "Unknown", 
                "xn": "1457;1476;1477;1458", 
                "yn": "1225;1226;745;744"
            }
        ], 
        "class": "image", 
        "filename": "fp_84.png"
    }
]