contour_details : [2055 1735],[2055 1793],[2056 1794],[2056 1879],[2057 1880],[2057 1964],[2058 1965],[2058 2050],[2059 2051],[2059 2136],[2060 2137],[2060 2164],[2679 2164],[2679 1735] : sejour : [2349,1913]
contour_details : [1560 1350],[1560 1624],[1903 1624],[1904 1625],[1904 1659],[2039 1659],[2039 1350] : cuisine : [1700,1487]
contour_details : [1890 1180],[1890 1329],[2044 1329],[2045 1330],[2045 1654],[2054 1654],[2055 1655],[2055 1714],[2684 1714],[2684 1660],[2685 1659],[2839 1659],[2839 1629],[2840 1628],[2840 1533],[2841 1532],[2841 1437],[2842 1436],[2842 1341],[2843 1340],[2843 1245],[2844 1244],[2844 1180] : repas : [2394,1305]
contour_details : [1509 1105],[1505 1109],[1504 1109],[1499 1114],[1498 1114],[1493 1119],[1492 1119],[1487 1124],[1486 1124],[1481 1129],[1480 1129],[1475 1134],[1474 1134],[1469 1139],[1468 1139],[1463 1144],[1462 1144],[1457 1149],[1456 1149],[1451 1154],[1450 1154],[1450 1155],[1555 1260],[1555 1270],[1556 1271],[1556 1285],[1557 1286],[1557 1300],[1558 1301],[1558 1315],[1559 1316],[1559 1330],[1560 1331],[1560 1334],[1879 1334],[1879 1180],[1635 1180],[1634 1179],[1634 1105] : hall : [1650,1259]
contour_details : [1890 975],[1890 1164],[1989 1164],[1989 1073],[1990 1072],[2194 1072],[2194 975] : degt : [2017,1009]
