contour_details : [440 1680],[440 2454],[904 2454],[904 2134],[895 2125],[894 2125],[848 2079],[847 2079],[802 2034],[801 2034],[755 1988],[754 1988],[709 1943],[708 1943],[662 1897],[661 1897],[616 1852],[615 1852],[569 1806],[568 1806],[523 1761],[522 1761],[476 1715],[475 1715] : sejour : [599,2252]
contour_details : [460 1675],[904 2119],[1184 2119],[1184 1680],[1141 1680],[1140 1679],[996 1679],[995 1678],[851 1678],[850 1677],[706 1677],[705 1676],[561 1676],[560 1675] : repas : [988,1905]
contour_details : [1200 1425],[1200 1504],[1199 1505],[875 1505],[875 1669],[1289 1669],[1289 1425] : hall : [1066,1557]
contour_details : [875 1250],[875 1484],[974 1484],[974 1250] : wc : [926,1344]
